0.205,0.2195,0.234,0.2285,0.223,0.2335,0.244,0.2995,0.355,0.349,0.343,0.3515,0.36,0.408,0.456,0.4565,0.457,0.48,0.503,0.4965,0.49,0.5135,0.537,0.5595,0.582,0.601,0.62,0.638,0.656,0.7965,0.937,0.9755,1.014,1.036,1.058,1.067,1.076,1.1315,1.187,1.206,1.225,1.2575,1.29,1.288,1.286,1.335,1.384,1.3695,1.355,1.3695,1.384,1.4365,1.489,1.485,1.481,1.4975,1.514,1.4775,1.441,1.43,1.419,1.469,1.519,1.514,1.509,1.455,1.401,1.4685,1.536,1.514,1.492,1.4855,1.479,1.378,1.277,1.2795,1.282,1.301,1.32,1.1865,1.053,0.9165,0.78,0.7915,0.803,0.7405,0.678,0.652,0.626,0.6,0.574,0.5715,0.569,0.523,0.477,0.4785,0.48,0.449,0.418,0.41,0.402,0.3845,0.367,0.3345,0.302,0.293,0.284,0.2715,0.259,0.235,0.211
0.206,0.215,0.224,0.23275,0.2415,0.24275,0.244,0.277,0.31,0.319,0.328,0.344,0.36,0.39075,0.4215,0.43175,0.442,0.46325,0.4845,0.5,0.5155,0.55025,0.585,0.606,0.627,0.651,0.675,0.69225,0.7095,0.862,1.0145,1.048,1.0815,1.0733,1.065,1.1175,1.17,1.2183,1.2665,1.2855,1.3045,1.3342,1.364,1.3763,1.3885,1.412,1.4355,1.4532,1.471,1.4892,1.5075,1.5233,1.539,1.5465,1.554,1.5638,1.5735,1.5873,1.601,1.588,1.575,1.5698,1.5645,1.57,1.5755,1.577,1.5785,1.5738,1.569,1.549,1.529,1.516,1.503,1.463,1.423,1.3823,1.3415,1.329,1.3165,1.2615,1.2065,1.0633,0.92,0.88425,0.8485,0.8205,0.7925,0.75925,0.726,0.69375,0.6615,0.62825,0.595,0.5685,0.542,0.52675,0.5115,0.481,0.4505,0.44125,0.432,0.3995,0.367,0.35175,0.3365,0.315,0.2935,0.2855,0.2775,0.2525,0.2275
0.207,0.2105,0.214,0.237,0.26,0.252,0.244,0.2545,0.265,0.289,0.313,0.3365,0.36,0.3735,0.387,0.407,0.427,0.4465,0.466,0.5035,0.541,0.587,0.633,0.6525,0.672,0.701,0.73,0.7465,0.763,0.9275,1.092,1.1205,1.149,1.1105,1.072,1.168,1.264,1.305,1.346,1.365,1.384,1.411,1.438,1.4645,1.491,1.489,1.487,1.537,1.587,1.609,1.631,1.61,1.589,1.608,1.627,1.63,1.633,1.697,1.761,1.746,1.731,1.6705,1.61,1.626,1.642,1.699,1.756,1.679,1.602,1.584,1.566,1.5465,1.527,1.548,1.569,1.485,1.401,1.357,1.313,1.3365,1.36,1.21,1.06,0.977,0.894,0.9005,0.907,0.8665,0.826,0.7875,0.749,0.685,0.621,0.614,0.607,0.575,0.543,0.513,0.483,0.4725,0.462,0.4145,0.367,0.369,0.371,0.337,0.303,0.2995,0.296,0.27,0.244
0.221,0.225,0.229,0.2445,0.26,0.26425,0.2685,0.284,0.2995,0.329,0.3585,0.35925,0.36,0.3795,0.399,0.43175,0.4645,0.48625,0.508,0.563,0.618,0.63875,0.6595,0.68125,0.703,0.733,0.763,0.782,0.801,0.97575,1.1505,1.1705,1.1905,1.2273,1.264,1.3058,1.3475,1.385,1.4225,1.4378,1.453,1.4828,1.5125,1.539,1.5655,1.5943,1.623,1.6455,1.668,1.692,1.716,1.7443,1.7725,1.7968,1.821,1.8347,1.8485,1.8545,1.8605,1.875,1.8895,1.8873,1.885,1.891,1.897,1.8963,1.8955,1.8787,1.862,1.846,1.83,1.8057,1.7815,1.7377,1.694,1.67,1.646,1.5993,1.5525,1.4937,1.435,1.2825,1.13,1.096,1.062,1.0103,0.9585,0.9145,0.8705,0.8285,0.7865,0.75,0.7135,0.67375,0.634,0.59975,0.5655,0.534,0.5025,0.48225,0.462,0.432,0.402,0.3865,0.371,0.3535,0.336,0.316,0.296,0.279,0.262
0.235,0.2395,0.244,0.252,0.26,0.2765,0.293,0.3135,0.334,0.369,0.404,0.382,0.36,0.3855,0.411,0.4565,0.502,0.526,0.55,0.6225,0.695,0.6905,0.686,0.71,0.734,0.765,0.796,0.8175,0.839,1.024,1.209,1.2205,1.232,1.344,1.456,1.4435,1.431,1.465,1.499,1.5105,1.522,1.5545,1.587,1.6135,1.64,1.6995,1.759,1.754,1.749,1.775,1.801,1.8785,1.956,1.9855,2.015,2.0395,2.064,2.012,1.96,2.004,2.048,2.104,2.16,2.156,2.152,2.0935,2.035,2.0785,2.122,2.108,2.094,2.065,2.036,1.9275,1.819,1.855,1.891,1.8415,1.792,1.651,1.51,1.355,1.2,1.215,1.23,1.12,1.01,0.9625,0.915,0.8695,0.824,0.815,0.806,0.7335,0.661,0.6245,0.588,0.555,0.522,0.492,0.462,0.4495,0.437,0.404,0.371,0.37,0.369,0.3325,0.296,0.288,0.28
0.235,0.24925,0.2635,0.271,0.2785,0.29675,0.315,0.34,0.365,0.3845,0.404,0.40675,0.4095,0.41025,0.411,0.48675,0.5625,0.60375,0.645,0.68475,0.7245,0.7595,0.7945,0.8275,0.8605,0.89675,0.933,0.96625,0.9995,1.1908,1.382,1.417,1.452,1.5005,1.549,1.607,1.665,1.7013,1.7375,1.7685,1.7995,1.836,1.8725,1.9065,1.9405,1.9688,1.997,2.0333,2.0695,2.1025,2.1355,2.1593,2.183,2.2103,2.2375,2.2597,2.282,2.3152,2.3485,2.3647,2.381,2.3793,2.3775,2.3765,2.3755,2.402,2.4285,2.3428,2.257,2.2677,2.2785,2.2455,2.2125,2.1957,2.179,2.1048,2.0305,1.9762,1.922,1.8633,1.8045,1.6273,1.45,1.3775,1.305,1.2525,1.2,1.1387,1.0775,1.0173,0.957,0.901,0.845,0.8,0.755,0.7105,0.666,0.62625,0.5865,0.551,0.5155,0.4915,0.4675,0.43575,0.404,0.3865,0.369,0.336,0.303,0.30075,0.2985
0.235,0.259,0.283,0.29,0.297,0.317,0.337,0.3665,0.396,0.4,0.404,0.4315,0.459,0.435,0.411,0.517,0.623,0.6815,0.74,0.747,0.754,0.8285,0.903,0.945,0.987,1.0285,1.07,1.115,1.16,1.3575,1.555,1.6135,1.672,1.657,1.642,1.7705,1.899,1.9375,1.976,2.0265,2.077,2.1175,2.158,2.1995,2.241,2.238,2.235,2.3125,2.39,2.43,2.47,2.44,2.41,2.435,2.46,2.48,2.5,2.6185,2.737,2.7255,2.714,2.6545,2.595,2.597,2.599,2.7105,2.822,2.607,2.392,2.4275,2.463,2.426,2.389,2.464,2.539,2.3545,2.17,2.111,2.052,2.0755,2.099,1.8995,1.7,1.54,1.38,1.385,1.39,1.315,1.24,1.165,1.09,0.987,0.884,0.8665,0.849,0.7965,0.744,0.6975,0.651,0.61,0.569,0.5335,0.498,0.4675,0.437,0.403,0.369,0.3395,0.31,0.3135,0.317
0.25,0.2775,0.305,0.31175,0.3185,0.34225,0.366,0.3995,0.433,0.436,0.439,0.449,0.459,0.5045,0.55,0.63,0.71,0.7415,0.773,0.8225,0.872,0.90975,0.9475,0.993,1.0385,1.0842,1.13,1.175,1.22,1.4225,1.625,1.7013,1.7775,1.8548,1.932,1.9715,2.011,2.0488,2.0865,2.1393,2.192,2.2355,2.279,2.3215,2.364,2.4082,2.4525,2.4888,2.525,2.5675,2.61,2.66,2.71,2.755,2.8,2.84,2.88,2.8992,2.9185,2.9577,2.997,3.0438,3.0905,3.0948,3.099,3.092,3.085,3.0583,3.0315,3.0048,2.978,2.9585,2.939,2.8425,2.746,2.7097,2.6735,2.5947,2.516,2.3857,2.2555,2.0402,1.825,1.75,1.675,1.575,1.475,1.3925,1.31,1.23,1.15,1.086,1.022,0.95525,0.8885,0.832,0.7755,0.72625,0.677,0.6335,0.59,0.5525,0.515,0.49,0.465,0.4325,0.4,0.37475,0.3495,0.33525,0.321
0.265,0.296,0.327,0.3335,0.34,0.3675,0.395,0.4325,0.47,0.472,0.474,0.4665,0.459,0.574,0.689,0.743,0.797,0.8015,0.806,0.898,0.99,0.991,0.992,1.041,1.09,1.14,1.19,1.235,1.28,1.4875,1.695,1.789,1.883,2.0525,2.222,2.1725,2.123,2.16,2.197,2.252,2.307,2.3535,2.4,2.4435,2.487,2.5785,2.67,2.665,2.66,2.705,2.75,2.88,3.01,3.075,3.14,3.2,3.26,3.18,3.1,3.19,3.28,3.433,3.586,3.5925,3.599,3.4735,3.348,3.5095,3.671,3.582,3.493,3.491,3.489,3.221,2.953,3.065,3.177,3.0785,2.98,2.696,2.412,2.181,1.95,1.96,1.97,1.765,1.56,1.47,1.38,1.295,1.21,1.185,1.16,1.044,0.928,0.8675,0.807,0.755,0.703,0.657,0.611,0.5715,0.532,0.5125,0.493,0.462,0.431,0.41,0.389,0.357,0.325
0.282,0.3045,0.327,0.3475,0.368,0.3995,0.431,0.4505,0.47,0.4965,0.523,0.54625,0.5695,0.646,0.7225,0.776,0.8295,0.88375,0.938,0.989,1.04,1.108,1.176,1.238,1.3,1.3675,1.435,1.5,1.565,1.807,2.049,2.1495,2.25,2.3055,2.361,2.4488,2.5365,2.606,2.6755,2.7415,2.8075,2.8613,2.915,2.9693,3.0235,3.0693,3.115,3.1675,3.22,3.275,3.33,3.3725,3.415,3.4725,3.53,3.59,3.65,3.725,3.8,3.855,3.91,3.929,3.948,3.9675,3.987,4.0657,4.1445,4.07,3.9955,3.8943,3.793,3.7885,3.784,3.7668,3.7495,3.5957,3.442,3.316,3.19,3.0815,2.973,2.689,2.405,2.26,2.115,2.005,1.895,1.7725,1.65,1.54,1.43,1.3275,1.225,1.147,1.069,0.99375,0.9185,0.855,0.7915,0.73675,0.682,0.6355,0.589,0.549,0.509,0.48275,0.4565,0.43575,0.415,0.37,0.325
0.299,0.313,0.327,0.3615,0.396,0.4315,0.467,0.4685,0.47,0.521,0.572,0.626,0.68,0.718,0.756,0.809,0.862,0.966,1.07,1.08,1.09,1.225,1.36,1.435,1.51,1.595,1.68,1.765,1.85,2.1265,2.403,2.51,2.617,2.5585,2.5,2.725,2.95,3.052,3.154,3.231,3.308,3.369,3.43,3.495,3.56,3.56,3.56,3.67,3.78,3.845,3.91,3.865,3.82,3.87,3.92,3.98,4.04,4.27,4.5,4.52,4.54,4.425,4.31,4.3425,4.375,4.658,4.941,4.6305,4.32,4.2065,4.093,4.086,4.079,4.3125,4.546,4.1265,3.707,3.5535,3.4,3.467,3.534,3.197,2.86,2.56,2.26,2.245,2.23,2.075,1.92,1.785,1.65,1.47,1.29,1.25,1.21,1.12,1.03,0.955,0.88,0.8165,0.753,0.6995,0.646,0.5855,0.525,0.5035,0.482,0.4615,0.441,0.383,0.325
0.3205,0.335,0.3495,0.38925,0.429,0.448,0.467,0.4685,0.47,0.55975,0.6495,0.7045,0.7595,0.81075,0.862,0.9265,0.991,1.0555,1.12,1.2,1.28,1.355,1.43,1.515,1.6,1.69,1.78,1.8725,1.965,2.2658,2.5665,2.6772,2.788,2.9223,3.0565,3.1192,3.182,3.2712,3.3605,3.4413,3.522,3.5885,3.655,3.72,3.785,3.855,3.925,3.975,4.025,4.0975,4.17,4.275,4.38,4.4625,4.545,4.6675,4.79,4.8375,4.885,5,5.115,5.295,5.475,5.5538,5.6325,5.5715,5.5105,5.6273,5.744,5.677,5.61,5.5678,5.5255,5.2657,5.006,4.9745,4.943,4.709,4.475,4.179,3.883,3.504,3.125,2.965,2.805,2.5975,2.39,2.2175,2.045,1.895,1.745,1.625,1.505,1.385,1.265,1.17,1.075,0.99525,0.9155,0.84825,0.781,0.72475,0.6685,0.62275,0.577,0.53675,0.4965,0.481,0.4655,0.41425,0.363
0.342,0.357,0.372,0.417,0.462,0.4645,0.467,0.4685,0.47,0.5985,0.727,0.783,0.839,0.9035,0.968,1.044,1.12,1.145,1.17,1.32,1.47,1.485,1.5,1.595,1.69,1.785,1.88,1.98,2.08,2.405,2.73,2.8445,2.959,3.286,3.613,3.5135,3.414,3.4905,3.567,3.6515,3.736,3.808,3.88,3.945,4.01,4.15,4.29,4.28,4.27,4.35,4.43,4.685,4.94,5.055,5.17,5.355,5.54,5.405,5.27,5.48,5.69,6.165,6.64,6.765,6.89,6.485,6.08,6.624,7.168,7.1475,7.127,7.0495,6.972,6.219,5.466,5.8225,6.179,5.8645,5.55,4.891,4.232,3.811,3.39,3.37,3.35,2.95,2.55,2.36,2.17,2.005,1.84,1.78,1.72,1.52,1.32,1.22,1.12,1.0355,0.951,0.88,0.809,0.75,0.691,0.66,0.629,0.57,0.511,0.5005,0.49,0.4455,0.401
0.367,0.38175,0.3965,0.42925,0.462,0.4645,0.467,0.51475,0.5625,0.65775,0.753,0.812,0.871,0.94,1.009,1.0895,1.17,1.2675,1.365,1.4575,1.55,1.68,1.81,1.94,2.07,2.2125,2.355,2.505,2.655,3.0378,3.4205,3.582,3.7435,3.8275,3.9115,4.1243,4.337,4.4485,4.56,4.659,4.758,4.8465,4.935,5.0175,5.1,5.1725,5.245,5.32,5.395,5.4875,5.58,5.66,5.74,5.8625,5.985,6.165,6.345,6.66,6.975,7.2025,7.43,7.485,7.54,7.68,7.82,8.1225,8.425,8.25,8.075,8.0607,8.0465,7.9635,7.8805,7.8937,7.907,7.4155,6.924,6.573,6.222,5.982,5.742,5.166,4.59,4.1375,3.685,3.4375,3.19,2.9075,2.625,2.4125,2.2,2.0075,1.815,1.6725,1.53,1.405,1.28,1.1753,1.0705,0.98675,0.903,0.83375,0.7645,0.70675,0.649,0.60325,0.5575,0.52375,0.49,0.4595,0.429
0.392,0.4065,0.421,0.4415,0.462,0.4645,0.467,0.561,0.655,0.717,0.779,0.841,0.903,0.9765,1.05,1.135,1.22,1.39,1.56,1.595,1.63,1.875,2.12,2.285,2.45,2.64,2.83,3.03,3.23,3.6705,4.111,4.3195,4.528,4.369,4.21,4.735,5.26,5.4065,5.553,5.6665,5.78,5.885,5.99,6.09,6.19,6.195,6.2,6.36,6.52,6.625,6.73,6.635,6.54,6.67,6.8,6.975,7.15,7.915,8.68,8.925,9.17,8.805,8.44,8.595,8.75,9.76,10.77,9.876,8.982,8.974,8.966,8.8775,8.789,9.5685,10.348,9.0085,7.669,7.2815,6.894,7.073,7.252,6.521,5.79,4.905,4.02,3.925,3.83,3.455,3.08,2.82,2.56,2.235,1.91,1.825,1.74,1.59,1.44,1.315,1.19,1.0935,0.997,0.9175,0.838,0.7535,0.669,0.6365,0.604,0.547,0.49,0.4735,0.457
0.392,0.42225,0.4525,0.45725,0.462,0.5085,0.555,0.64575,0.7365,0.804,0.8715,0.9465,1.0215,1.1107,1.2,1.3075,1.415,1.5275,1.64,1.7975,1.955,2.1025,2.25,2.435,2.62,2.8325,3.045,3.27,3.495,3.9753,4.4555,4.6993,4.943,5.3365,5.73,5.5325,5.335,5.4608,5.5865,5.7058,5.825,5.9375,6.05,6.16,6.27,6.3925,6.515,6.7875,7.06,7.1675,7.275,7.51,7.745,8.0175,8.29,8.655,9.02,9.3025,9.585,10.03,10.475,11.043,11.61,11.967,12.325,12.428,12.53,12.698,12.866,12.862,12.858,12.723,12.589,12.258,11.927,11.541,11.155,10.487,9.819,8.9802,8.1415,7.3208,6.5,6.02,5.54,4.8675,4.195,3.765,3.335,3.03,2.725,2.4875,2.25,2.0375,1.825,1.6625,1.5,1.37,1.24,1.1367,1.0335,0.94925,0.865,0.79825,0.7315,0.67625,0.621,0.5755,0.53,0.503,0.476
0.392,0.438,0.484,0.473,0.462,0.5525,0.643,0.7305,0.818,0.891,0.964,1.052,1.14,1.245,1.35,1.48,1.61,1.665,1.72,2,2.28,2.33,2.38,2.585,2.79,3.025,3.26,3.51,3.76,4.28,4.8,5.079,5.358,6.304,7.25,6.33,5.41,5.515,5.62,5.745,5.87,5.99,6.11,6.23,6.35,6.59,6.83,7.215,7.6,7.71,7.82,8.385,8.95,9.365,9.78,10.335,10.89,10.69,10.49,11.135,11.78,13.28,14.78,15.34,15.9,15.095,14.29,15.52,16.75,16.75,16.75,16.569,16.388,14.947,13.505,14.073,14.641,13.693,12.744,10.887,9.031,8.1205,7.21,7.135,7.06,5.81,4.56,4.075,3.59,3.24,2.89,2.74,2.59,2.25,1.91,1.735,1.56,1.425,1.29,1.18,1.07,0.981,0.892,0.843,0.794,0.716,0.638,0.604,0.57,0.5325,0.495
0.416,0.47125,0.5265,0.534,0.5415,0.62775,0.714,0.7795,0.845,0.921,0.997,1.091,1.185,1.2975,1.41,1.5475,1.685,1.86,2.035,2.2225,2.41,2.7,2.99,3.3225,3.655,3.7125,3.77,4.53,5.29,5.9787,6.6675,7.1107,7.554,7.7908,8.0275,8.3577,8.688,8.9865,9.285,9.5925,9.9,10.003,10.105,10.085,10.065,10.053,10.04,10.29,10.54,10.657,10.775,10.935,11.095,11.035,10.975,11.79,12.605,13.41,14.215,14.663,15.11,15.345,15.58,16.087,16.595,16.378,16.16,16.932,17.705,17.725,17.745,17.532,17.319,16.299,15.279,15.144,15.009,14.092,13.175,12.714,12.253,11.204,10.155,9.0075,7.86,7.0425,6.225,5.435,4.645,4.085,3.525,3.1325,2.74,2.4725,2.205,1.99,1.775,1.61,1.445,1.315,1.185,1.083,0.981,0.89875,0.8165,0.75325,0.69,0.63675,0.5835,0.54825,0.513
0.44,0.5045,0.569,0.595,0.621,0.703,0.785,0.8285,0.872,0.951,1.03,1.13,1.23,1.35,1.47,1.615,1.76,2.055,2.35,2.445,2.54,3.07,3.6,4.06,4.52,4.4,4.28,5.55,6.82,7.6775,8.535,9.1425,9.75,9.2775,8.805,10.386,11.966,12.458,12.95,13.44,13.93,14.015,14.1,13.94,13.78,13.515,13.25,13.365,13.48,13.605,13.73,13.485,13.24,12.705,12.17,13.245,14.32,16.13,17.94,18.19,18.44,17.41,16.38,16.835,17.29,17.66,18.03,18.345,18.66,18.7,18.74,18.495,18.25,17.651,17.053,16.215,15.378,14.492,13.606,14.54,15.474,14.287,13.1,10.88,8.66,8.275,7.89,6.795,5.7,4.93,4.16,3.525,2.89,2.695,2.5,2.245,1.99,1.795,1.6,1.45,1.3,1.185,1.07,0.9545,0.839,0.7905,0.742,0.6695,0.597,0.564,0.531
0.466,0.5245,0.583,0.63175,0.6805,0.74425,0.808,0.8845,0.961,1.0555,1.15,1.2675,1.385,1.5325,1.68,1.8625,2.045,2.2625,2.48,2.8175,3.155,3.5175,3.88,4.2,4.52,5.0025,5.485,6.485,7.485,8.4318,9.3785,10.069,10.76,11.704,12.647,13,13.353,13.871,14.39,14.813,15.235,15.308,15.38,15.265,15.15,15.06,14.97,14.895,14.82,14.955,15.09,15.438,15.785,15.833,15.88,16.81,17.74,18.135,18.53,19.225,19.92,19.73,19.54,20.3,21.06,21.78,22.5,22.953,23.405,23.468,23.53,23.195,22.86,22.02,21.179,20.135,19.09,17.931,16.772,16.517,16.262,14.856,13.45,12.565,11.68,10.168,8.655,7.455,6.255,5.37,4.485,3.9525,3.42,3.02,2.62,2.345,2.07,1.865,1.66,1.5025,1.345,1.2225,1.1,1.0053,0.9105,0.8355,0.7605,0.70025,0.64,0.591,0.542
0.492,0.5445,0.597,0.6685,0.74,0.7855,0.831,0.9405,1.05,1.16,1.27,1.405,1.54,1.715,1.89,2.11,2.33,2.47,2.61,3.19,3.77,3.965,4.16,4.34,4.52,5.605,6.69,7.42,8.15,9.186,10.222,10.996,11.77,14.13,16.489,15.615,14.74,15.285,15.83,16.185,16.54,16.6,16.66,16.59,16.52,16.605,16.69,16.425,16.16,16.305,16.45,17.39,18.33,18.96,19.59,20.375,21.16,20.14,19.12,20.26,21.4,22.05,22.7,23.765,24.83,25.9,26.97,27.56,28.15,28.235,28.32,27.895,27.47,26.388,25.306,24.054,22.802,21.37,19.938,18.495,17.051,15.426,13.8,14.25,14.7,12.06,9.42,8.115,6.81,5.81,4.81,4.38,3.95,3.345,2.74,2.445,2.15,1.935,1.72,1.555,1.39,1.26,1.13,1.056,0.982,0.8805,0.779,0.731,0.683,0.618,0.553
0.528,0.58475,0.6415,0.70025,0.759,0.8315,0.904,0.9945,1.085,1.1975,1.31,1.455,1.6,1.785,1.97,2.2075,2.445,2.8025,3.16,3.6,4.04,4.7425,5.445,6.0675,6.69,7.8675,9.045,10.135,11.225,12.46,13.695,14.791,15.887,18.073,20.26,20.815,21.37,22.238,23.105,23.665,24.225,24.35,24.475,24.293,24.11,23.817,23.525,23.35,23.175,22.692,22.21,22.538,22.865,23.355,23.845,23.813,23.78,23.478,23.175,23.712,24.25,25.55,26.85,28.055,29.26,30.417,31.575,32.45,33.325,33.575,33.825,33.34,32.855,31.574,30.293,28.783,27.273,25.581,23.889,22.137,20.385,18.418,16.45,15.7,14.95,13.53,12.11,10.458,8.805,7.47,6.135,5.1675,4.2,3.6625,3.125,2.7725,2.42,2.1625,1.905,1.7125,1.52,1.375,1.23,1.118,1.006,0.92075,0.8355,0.7665,0.6975,0.6425,0.5875
0.564,0.625,0.686,0.732,0.778,0.8775,0.977,1.0485,1.12,1.235,1.35,1.505,1.66,1.855,2.05,2.305,2.56,3.135,3.71,4.01,4.31,5.52,6.73,7.795,8.86,10.13,11.4,12.85,14.3,15.735,17.169,18.587,20.005,22.017,24.03,26.015,28,29.19,30.38,31.145,31.91,32.1,32.29,31.995,31.7,31.03,30.36,30.275,30.19,29.08,27.97,27.685,27.4,27.75,28.1,27.25,26.4,26.815,27.23,27.165,27.1,29.05,31,32.345,33.69,34.935,36.18,37.34,38.5,38.915,39.33,38.785,38.24,36.76,35.28,33.513,31.745,29.792,27.839,25.779,23.719,21.41,19.1,17.15,15.2,15,14.8,12.8,10.8,9.13,7.46,5.955,4.45,3.98,3.51,3.1,2.69,2.39,2.09,1.87,1.65,1.49,1.33,1.18,1.03,0.961,0.892,0.802,0.712,0.667,0.622
0.594,0.64725,0.7005,0.76825,0.836,0.91975,1.0035,1.1118,1.22,1.355,1.49,1.6725,1.855,2.0925,2.33,2.665,3,3.47,3.94,4.6975,5.455,6.3325,7.21,8.37,9.53,10.94,12.35,14.65,16.95,19.029,21.108,22.783,24.457,26.378,28.3,30.097,31.895,33.185,34.475,35.35,36.225,36.457,36.69,36.435,36.18,35.695,35.21,34.778,34.345,33.69,33.035,33.368,33.7,32.875,32.05,30.725,29.4,29.907,30.415,31.225,32.035,33.267,34.5,36.215,37.93,39.595,41.26,42.58,43.9,44.377,44.855,44.285,43.715,42.138,40.56,38.512,36.463,34.21,31.956,29.594,27.232,24.591,21.95,19.75,17.55,16.275,15,13.275,11.55,9.755,7.96,6.6725,5.385,4.5425,3.7,3.245,2.79,2.475,2.16,1.93,1.7,1.53,1.36,1.2325,1.105,1.0078,0.9105,0.83325,0.756,0.69475,0.6335
0.624,0.6695,0.715,0.8045,0.894,0.962,1.03,1.175,1.32,1.475,1.63,1.84,2.05,2.33,2.61,3.025,3.44,3.805,4.17,5.385,6.6,7.145,7.69,8.945,10.2,11.75,13.3,16.45,19.6,22.324,25.048,26.979,28.909,30.74,32.57,34.18,35.79,37.18,38.57,39.555,40.54,40.815,41.09,40.875,40.66,40.36,40.06,39.28,38.5,38.3,38.1,39.05,40,38,36,34.2,32.4,33,33.6,35.285,36.97,37.485,38,40.085,42.17,44.255,46.34,47.82,49.3,49.84,50.38,49.785,49.19,47.515,45.84,43.511,41.181,38.627,36.073,33.409,30.745,27.773,24.8,22.35,19.9,17.55,15.2,13.75,12.3,10.38,8.46,7.39,6.32,5.105,3.89,3.39,2.89,2.56,2.23,1.99,1.75,1.57,1.39,1.285,1.18,1.0545,0.929,0.8645,0.8,0.7225,0.645
0.636,0.69825,0.7605,0.837,0.9135,1.0093,1.105,1.23,1.355,1.5175,1.68,1.8975,2.115,2.4125,2.71,3.1625,3.615,4.35,5.085,6.045,7.005,8.3,9.595,11.198,12.8,15,17.2,19.95,22.7,25.455,28.211,30.418,32.626,34.633,36.64,38.358,40.075,41.693,43.31,44.375,45.44,45.773,46.105,45.922,45.74,45.267,44.795,44.323,43.85,43.725,43.6,43.425,43.25,42.225,41.2,40.225,39.25,39.2,39.15,40,40.85,42.185,43.52,45.375,47.23,49.403,51.575,53.107,54.64,55.215,55.79,55.288,54.785,53.185,51.585,49.02,46.456,43.516,40.576,37.53,34.485,31.143,27.8,25.025,22.25,19.65,17.05,15.55,14.05,12.04,10.03,8.355,6.68,5.5775,4.475,3.845,3.215,2.825,2.435,2.165,1.895,1.695,1.495,1.35,1.205,1.0947,0.9845,0.8995,0.8145,0.74675,0.679
0.648,0.727,0.806,0.8695,0.933,1.0565,1.18,1.285,1.39,1.56,1.73,1.955,2.18,2.495,2.81,3.3,3.79,4.895,6,6.705,7.41,9.455,11.5,13.45,15.4,18.25,21.1,23.45,25.8,28.587,31.373,33.858,36.343,38.526,40.71,42.535,44.36,46.205,48.05,49.195,50.34,50.73,51.12,50.97,50.82,50.175,49.53,49.365,49.2,49.15,49.1,47.8,46.5,46.45,46.4,46.25,46.1,45.4,44.7,44.715,44.73,46.885,49.04,50.665,52.29,54.55,56.81,58.395,59.98,60.59,61.2,60.79,60.38,58.855,57.33,54.53,51.73,48.404,45.078,41.651,38.225,34.513,30.8,27.7,24.6,21.75,18.9,17.35,15.8,13.7,11.6,9.32,7.04,6.05,5.06,4.3,3.54,3.09,2.64,2.34,2.04,1.82,1.6,1.415,1.23,1.135,1.04,0.9345,0.829,0.771,0.713
0.6825,0.7515,0.8205,0.906,0.9915,1.1008,1.21,1.3525,1.495,1.685,1.875,2.1375,2.4,2.78,3.16,3.765,4.37,5.3375,6.305,7.58,8.855,10.528,12.2,14.825,17.45,20.4,23.35,26.025,28.7,31.855,35.01,37.801,40.591,43.011,45.43,47.44,49.45,51.37,53.29,54.523,55.755,56.13,56.505,56.302,56.1,55.65,55.2,54.7,54.2,53.75,53.3,52.4,51.5,51.35,51.2,51.175,51.15,50.625,50.1,50.333,50.565,52.233,53.9,55.898,57.895,60.215,62.535,64.155,65.775,66.463,67.15,66.733,66.315,64.688,63.06,60.105,57.15,53.448,49.746,45.917,42.088,37.994,33.9,30.45,27,23.875,20.75,18.475,16.2,14.15,12.1,10.123,8.145,6.705,5.265,4.45,3.635,3.1725,2.71,2.3975,2.085,1.8575,1.63,1.465,1.3,1.18,1.06,0.96475,0.8695,0.7965,0.7235
0.717,0.776,0.835,0.9425,1.05,1.145,1.24,1.42,1.6,1.81,2.02,2.32,2.62,3.065,3.51,4.23,4.95,5.78,6.61,8.455,10.3,11.6,12.9,16.2,19.5,22.55,25.6,28.6,31.6,35.124,38.647,41.743,44.84,47.495,50.15,52.345,54.54,56.535,58.53,59.85,61.17,61.53,61.89,61.635,61.38,61.125,60.87,60.035,59.2,58.35,57.5,57,56.5,56.25,56,56.1,56.2,55.85,55.5,55.95,56.4,57.58,58.76,61.13,63.5,65.88,68.26,69.915,71.57,72.335,73.1,72.675,72.25,70.52,68.79,65.68,62.57,58.492,54.413,50.182,45.951,41.475,37,33.2,29.4,26,22.6,19.6,16.6,14.6,12.6,10.925,9.25,7.36,5.47,4.6,3.73,3.255,2.78,2.455,2.13,1.895,1.66,1.515,1.37,1.225,1.08,0.995,0.91,0.822,0.734
0.728,0.80225,0.8765,0.97325,1.07,1.19,1.31,1.4725,1.635,1.8525,2.07,2.38,2.69,3.16,3.63,4.4025,5.175,6.39,7.605,9.2025,10.8,12.9,15,18.35,21.7,24.85,28,31.325,34.65,38.529,42.407,45.781,49.155,52.135,55.115,57.517,59.92,61.963,64.005,65.407,66.81,67.382,67.955,67.685,67.415,66.797,66.18,65.715,65.25,64.1,62.95,62.45,61.95,61.575,61.2,61.275,61.35,61.35,61.35,61.15,60.95,62.89,64.83,67.058,69.285,71.48,73.675,75.45,77.225,78.195,79.165,78.608,78.05,76.095,74.14,70.968,67.795,63.431,59.067,54.403,49.74,44.92,40.1,36,31.9,28.225,24.55,21.325,18.1,16.1,14.1,11.843,9.585,7.8475,6.11,5.09,4.07,3.525,2.98,2.62,2.26,2.0075,1.755,1.575,1.395,1.26,1.125,1.0233,0.9215,0.8415,0.7615
0.739,0.8285,0.918,1.004,1.09,1.235,1.38,1.525,1.67,1.895,2.12,2.44,2.76,3.255,3.75,4.575,5.4,7,8.6,9.95,11.3,14.2,17.1,20.5,23.9,27.15,30.4,34.05,37.7,41.934,46.168,49.819,53.47,56.775,60.08,62.69,65.3,67.39,69.48,70.965,72.45,73.235,74.02,73.735,73.45,72.47,71.49,71.395,71.3,69.85,68.4,67.9,67.4,66.9,66.4,66.45,66.5,66.85,67.2,66.35,65.5,68.2,70.9,72.985,75.07,77.08,79.09,80.985,82.88,84.055,85.23,84.54,83.85,81.67,79.49,76.255,73.02,68.37,63.72,58.624,53.528,48.364,43.2,38.8,34.4,30.45,26.5,23.05,19.6,17.6,15.6,12.76,9.92,8.335,6.75,5.58,4.41,3.795,3.18,2.785,2.39,2.12,1.85,1.635,1.42,1.295,1.17,1.0515,0.933,0.861,0.789
0.767,0.849,0.931,1.033,1.135,1.27,1.405,1.5825,1.76,2.0075,2.255,2.6075,2.96,3.5225,4.085,5.0425,6,7.46,8.92,10.885,12.85,15.95,19.05,22.4,25.75,29.325,32.9,36.825,40.75,45.248,49.746,53.803,57.86,61.403,64.945,67.835,70.725,72.845,74.965,76.36,77.755,78.605,79.455,79.257,79.06,78.252,77.445,76.697,75.95,74.825,73.7,73.15,72.6,72.175,71.75,71.775,71.8,72.3,72.8,72.7,72.6,74.1,75.6,77.715,79.83,82.155,84.48,86.385,88.29,89.51,90.73,90.005,89.28,86.875,84.47,81.152,77.835,72.96,68.085,62.688,57.29,51.82,46.35,41.65,36.95,32.675,28.4,24.775,21.15,18.45,15.75,13.305,10.86,8.8875,6.915,5.71,4.505,3.87,3.235,2.8325,2.43,2.1525,1.875,1.675,1.475,1.33,1.185,1.0742,0.9635,0.88,0.7965
0.795,0.8695,0.944,1.062,1.18,1.305,1.43,1.64,1.85,2.12,2.39,2.775,3.16,3.79,4.42,5.51,6.6,7.92,9.24,11.82,14.4,17.7,21,24.3,27.6,31.5,35.4,39.6,43.8,48.562,53.324,57.787,62.25,66.03,69.81,72.98,76.15,78.3,80.45,81.755,83.06,83.975,84.89,84.78,84.67,84.035,83.4,82,80.6,79.8,79,78.4,77.8,77.45,77.1,77.1,77.1,77.75,78.4,79.05,79.7,80,80.3,82.445,84.59,87.23,89.87,91.785,93.7,94.965,96.23,95.47,94.71,92.08,89.45,86.05,82.65,77.55,72.45,66.751,61.052,55.276,49.5,44.5,39.5,34.9,30.3,26.5,22.7,19.3,15.9,13.85,11.8,9.44,7.08,5.84,4.6,3.945,3.29,2.88,2.47,2.185,1.9,1.715,1.53,1.365,1.2,1.097,0.994,0.899,0.804
0.803,0.8875,0.972,1.0835,1.195,1.34,1.485,1.6825,1.88,2.155,2.43,2.825,3.22,3.8725,4.525,5.6575,6.79,8.48,10.17,12.51,14.85,18.6,22.35,25.925,29.5,33.625,37.75,42.125,46.5,51.641,56.781,61.496,66.21,70.205,74.2,77.56,80.92,83.305,85.69,87.067,88.445,89.305,90.165,90.07,89.975,89.113,88.25,86.925,85.6,84.725,83.85,83.25,82.65,82.375,82.1,82.125,82.15,82.75,83.35,83.9,84.45,84.825,85.2,87.147,89.095,91.395,93.695,95.498,97.3,98.47,99.64,99.323,99.005,96.292,93.58,90.05,86.52,81.355,76.19,70.336,64.483,58.441,52.4,47.1,41.8,36.975,32.15,28.15,24.15,20.525,16.9,14.475,12.05,9.78,7.51,6.175,4.84,4.1375,3.435,2.9975,2.56,2.2625,1.965,1.755,1.545,1.39,1.235,1.1185,1.002,0.91275,0.8235
0.811,0.9055,1,1.105,1.21,1.375,1.54,1.725,1.91,2.19,2.47,2.875,3.28,3.955,4.63,5.805,6.98,9.04,11.1,13.2,15.3,19.5,23.7,27.55,31.4,35.75,40.1,44.65,49.2,54.719,60.239,65.204,70.17,74.38,78.59,82.14,85.69,88.31,90.93,92.38,93.83,94.635,95.44,95.36,95.28,94.19,93.1,91.85,90.6,89.65,88.7,88.1,87.5,87.3,87.1,87.15,87.2,87.75,88.3,88.75,89.2,89.65,90.1,91.85,93.6,95.56,97.52,99.21,100.9,101.97,103.05,103.18,103.3,100.51,97.71,94.05,90.39,85.16,79.93,73.921,67.913,61.606,55.3,49.7,44.1,39.05,34,29.8,25.6,21.75,17.9,15.1,12.3,10.12,7.94,6.51,5.08,4.33,3.58,3.115,2.65,2.34,2.03,1.795,1.56,1.415,1.27,1.14,1.01,0.9265,0.843
0.829,0.9195,1.01,1.125,1.24,1.3975,1.555,1.7625,1.97,2.265,2.56,2.9925,3.425,4.145,4.865,6.1625,7.46,9.405,11.35,14.125,16.9,21,25.1,29.15,33.2,37.6,42,46.85,51.7,57.552,63.404,68.622,73.84,78.17,82.5,86.065,89.63,92.19,94.75,96.23,97.71,98.37,99.03,98.815,98.6,97.8,97,95.725,94.45,93.525,92.6,92.025,91.45,91.3,91.15,91.175,91.2,91.575,91.95,92.25,92.55,93.075,93.6,95,96.4,98.285,100.17,101.98,103.8,104.75,105.71,105.8,105.9,103.34,100.79,96.835,92.885,87.638,82.39,76.231,70.072,63.611,57.15,51.5,45.85,40.725,35.6,31.175,26.75,22.725,18.7,15.8,12.9,10.468,8.035,6.5825,5.13,4.37,3.61,3.14,2.67,2.3575,2.045,1.82,1.595,1.435,1.275,1.1525,1.03,0.93875,0.8475
0.847,0.9335,1.02,1.145,1.27,1.42,1.57,1.8,2.03,2.34,2.65,3.11,3.57,4.335,5.1,6.52,7.94,9.77,11.6,15.05,18.5,22.5,26.5,30.75,35,39.45,43.9,49.05,54.2,60.385,66.57,72.04,77.51,81.96,86.41,89.99,93.57,96.07,98.57,100.08,101.59,102.1,102.62,102.27,101.92,101.41,100.9,99.6,98.3,97.4,96.5,95.95,95.4,95.3,95.2,95.2,95.2,95.4,95.6,95.75,95.9,96.5,97.1,98.15,99.2,101.01,102.82,104.76,106.69,107.53,108.36,108.43,108.49,106.18,103.86,99.62,95.38,90.115,84.85,78.54,72.23,65.615,59,53.3,47.6,42.4,37.2,32.55,27.9,23.7,19.5,16.5,13.5,10.815,8.13,6.655,5.18,4.41,3.64,3.165,2.69,2.375,2.06,1.845,1.63,1.455,1.28,1.165,1.05,0.951,0.852
0.852,0.9435,1.035,1.1575,1.28,1.44,1.6,1.8225,2.045,2.3575,2.67,3.1375,3.605,4.3825,5.16,6.615,8.07,10.185,12.3,15.675,19.05,23.325,27.6,32,36.4,40.95,45.5,50.9,56.3,62.686,69.072,74.691,80.31,84.818,89.325,92.825,96.325,98.962,101.6,103.09,104.58,104.71,104.84,104.46,104.07,103.41,102.75,101.57,100.4,99.65,98.9,98.475,98.05,97.925,97.8,97.775,97.75,97.85,97.95,98.025,98.1,98.775,99.45,100.48,101.5,103.02,104.54,106.4,108.26,108.83,109.4,109.21,109.02,106.71,104.41,100.38,96.345,91.135,85.925,79.611,73.298,66.599,59.9,54.175,48.45,43.3,38.15,33.375,28.6,24.25,19.9,16.725,13.55,10.94,8.33,6.8025,5.275,4.4825,3.69,3.2075,2.725,2.405,2.085,1.86,1.635,1.465,1.295,1.175,1.055,0.958,0.861
0.857,0.9535,1.05,1.17,1.29,1.46,1.63,1.845,2.06,2.375,2.69,3.165,3.64,4.43,5.22,6.71,8.2,10.6,13,16.3,19.6,24.15,28.7,33.25,37.8,42.45,47.1,52.75,58.4,64.987,71.574,77.342,83.11,87.675,92.24,95.66,99.08,101.85,104.63,106.1,107.57,107.32,107.06,106.64,106.22,105.41,104.6,103.55,102.5,101.9,101.3,101,100.7,100.55,100.4,100.35,100.3,100.3,100.3,100.3,100.3,101.05,101.8,102.8,103.8,105.03,106.25,108.04,109.82,110.13,110.44,109.99,109.54,107.25,104.96,101.13,97.31,92.155,87,80.683,74.365,67.583,60.8,55.05,49.3,44.2,39.1,34.2,29.3,24.8,20.3,16.95,13.6,11.065,8.53,6.95,5.37,4.555,3.74,3.25,2.76,2.435,2.11,1.875,1.64,1.475,1.31,1.185,1.06,0.965,0.87
0.8635,0.95925,1.055,1.1775,1.3,1.47,1.64,1.8625,2.085,2.405,2.725,3.2075,3.69,4.4925,5.295,6.83,8.365,10.758,13.15,16.55,19.95,24.55,29.15,33.85,38.55,43.325,48.1,53.825,59.55,66.212,72.873,78.816,84.76,89.375,93.99,97.51,101.03,103.83,106.63,107.85,109.07,108.81,108.55,107.72,106.89,105.94,105,104.03,103.05,102.43,101.8,101.63,101.45,101.28,101.1,101.08,101.05,101.15,101.25,101.28,101.3,102,102.7,103.65,104.6,105.75,106.91,108.41,109.93,110.21,110.5,109.79,109.08,106.53,103.97,100.25,96.525,91.615,86.705,80.487,74.269,67.509,60.75,54.975,49.2,44.2,39.2,34.325,29.45,24.875,20.3,16.875,13.45,10.99,8.53,6.95,5.37,4.555,3.74,3.25,2.76,2.435,2.11,1.8775,1.645,1.4775,1.31,1.185,1.06,0.965,0.87
0.87,0.965,1.06,1.185,1.31,1.48,1.65,1.88,2.11,2.435,2.76,3.25,3.74,4.555,5.37,6.95,8.53,10.915,13.3,16.8,20.3,24.95,29.6,34.45,39.3,44.2,49.1,54.9,60.7,67.436,74.172,80.291,86.41,91.075,95.74,99.36,102.98,105.8,108.62,109.59,110.56,110.3,110.03,108.8,107.56,106.48,105.4,104.5,103.6,102.95,102.3,102.25,102.2,102,101.8,101.8,101.8,102,102.2,102.25,102.3,102.95,103.6,104.5,105.4,106.48,107.56,108.8,110.03,110.3,110.56,109.59,108.62,105.8,102.98,99.36,95.74,91.075,86.41,80.291,74.172,67.436,60.7,54.9,49.1,44.2,39.3,34.45,29.6,24.95,20.3,16.8,13.3,10.915,8.53,6.95,5.37,4.555,3.74,3.25,2.76,2.435,2.11,1.88,1.65,1.48,1.31,1.185,1.06,0.965,0.87
0.87,0.965,1.06,1.185,1.31,1.4775,1.645,1.8775,2.11,2.435,2.76,3.25,3.74,4.555,5.37,6.95,8.53,10.99,13.45,16.875,20.3,24.875,29.45,34.325,39.2,44.2,49.2,54.975,60.75,67.509,74.269,80.487,86.705,91.615,96.525,100.25,103.97,106.53,109.08,109.79,110.5,110.21,109.93,108.41,106.91,105.75,104.6,103.65,102.7,102,101.3,101.28,101.25,101.15,101.05,101.08,101.1,101.27,101.45,101.63,101.8,102.43,103.05,104.03,105,105.94,106.89,107.72,108.55,108.8,109.07,107.85,106.63,103.83,101.03,97.51,93.99,89.375,84.76,78.817,72.873,66.212,59.55,53.825,48.1,43.325,38.55,33.85,29.15,24.55,19.95,16.55,13.15,10.758,8.365,6.83,5.295,4.4925,3.69,3.2075,2.725,2.405,2.085,1.8625,1.64,1.47,1.3,1.1775,1.055,0.95925,0.8635
0.87,0.965,1.06,1.185,1.31,1.475,1.64,1.875,2.11,2.435,2.76,3.25,3.74,4.555,5.37,6.95,8.53,11.065,13.6,16.95,20.3,24.8,29.3,34.2,39.1,44.2,49.3,55.05,60.8,67.583,74.365,80.683,87,92.155,97.31,101.13,104.96,107.25,109.54,109.99,110.44,110.13,109.82,108.04,106.25,105.03,103.8,102.8,101.8,101.05,100.3,100.3,100.3,100.3,100.3,100.35,100.4,100.55,100.7,101,101.3,101.9,102.5,103.55,104.6,105.41,106.22,106.64,107.06,107.32,107.57,106.1,104.63,101.85,99.08,95.66,92.24,87.675,83.11,77.342,71.574,64.987,58.4,52.75,47.1,42.45,37.8,33.25,28.7,24.15,19.6,16.3,13,10.6,8.2,6.71,5.22,4.43,3.64,3.165,2.69,2.375,2.06,1.845,1.63,1.46,1.29,1.17,1.05,0.9535,0.857
0.861,0.958,1.055,1.175,1.295,1.465,1.635,1.86,2.085,2.405,2.725,3.2075,3.69,4.4825,5.275,6.8025,8.33,10.94,13.55,16.725,19.9,24.25,28.6,33.375,38.15,43.3,48.45,54.175,59.9,66.599,73.298,79.611,85.925,91.135,96.345,100.38,104.41,106.71,109.02,109.21,109.4,108.83,108.26,106.4,104.54,103.02,101.5,100.47,99.45,98.775,98.1,98.025,97.95,97.85,97.75,97.775,97.8,97.925,98.05,98.475,98.9,99.65,100.4,101.57,102.75,103.41,104.07,104.46,104.84,104.71,104.58,103.09,101.6,98.962,96.325,92.825,89.325,84.818,80.31,74.691,69.072,62.686,56.3,50.9,45.5,40.95,36.4,32,27.6,23.325,19.05,15.675,12.3,10.185,8.07,6.615,5.16,4.3825,3.605,3.1375,2.67,2.3575,2.045,1.8225,1.6,1.44,1.28,1.1575,1.035,0.9435,0.852
0.852,0.951,1.05,1.165,1.28,1.455,1.63,1.845,2.06,2.375,2.69,3.165,3.64,4.41,5.18,6.655,8.13,10.815,13.5,16.5,19.5,23.7,27.9,32.55,37.2,42.4,47.6,53.3,59,65.615,72.23,78.54,84.85,90.115,95.38,99.62,103.86,106.18,108.49,108.43,108.36,107.53,106.69,104.76,102.82,101.01,99.2,98.15,97.1,96.5,95.9,95.75,95.6,95.4,95.2,95.2,95.2,95.3,95.4,95.95,96.5,97.4,98.3,99.6,100.9,101.41,101.92,102.27,102.62,102.1,101.59,100.08,98.57,96.07,93.57,89.99,86.41,81.96,77.51,72.04,66.57,60.385,54.2,49.05,43.9,39.45,35,30.75,26.5,22.5,18.5,15.05,11.6,9.77,7.94,6.52,5.1,4.335,3.57,3.11,2.65,2.34,2.03,1.8,1.57,1.42,1.27,1.145,1.02,0.9335,0.847
0.8475,0.93875,1.03,1.1525,1.275,1.435,1.595,1.82,2.045,2.3575,2.67,3.14,3.61,4.37,5.13,6.5825,8.035,10.468,12.9,15.8,18.7,22.725,26.75,31.175,35.6,40.725,45.85,51.5,57.15,63.611,70.072,76.231,82.39,87.638,92.885,96.835,100.79,103.34,105.9,105.8,105.71,104.75,103.8,101.98,100.17,98.285,96.4,95,93.6,93.075,92.55,92.25,91.95,91.575,91.2,91.175,91.15,91.3,91.45,92.025,92.6,93.525,94.45,95.725,97,97.8,98.6,98.815,99.03,98.37,97.71,96.23,94.75,92.19,89.63,86.065,82.5,78.17,73.84,68.622,63.404,57.552,51.7,46.85,42,37.6,33.2,29.15,25.1,21,16.9,14.125,11.35,9.405,7.46,6.1625,4.865,4.145,3.425,2.9925,2.56,2.265,1.97,1.7625,1.555,1.3975,1.24,1.125,1.01,0.9195,0.829
0.843,0.9265,1.01,1.14,1.27,1.415,1.56,1.795,2.03,2.34,2.65,3.115,3.58,4.33,5.08,6.51,7.94,10.12,12.3,15.1,17.9,21.75,25.6,29.8,34,39.05,44.1,49.7,55.3,61.606,67.913,73.921,79.93,85.16,90.39,94.05,97.71,100.51,103.3,103.18,103.05,101.97,100.9,99.21,97.52,95.56,93.6,91.85,90.1,89.65,89.2,88.75,88.3,87.75,87.2,87.15,87.1,87.3,87.5,88.1,88.7,89.65,90.6,91.85,93.1,94.19,95.28,95.36,95.44,94.635,93.83,92.38,90.93,88.31,85.69,82.14,78.59,74.38,70.17,65.204,60.239,54.719,49.2,44.65,40.1,35.75,31.4,27.55,23.7,19.5,15.3,13.2,11.1,9.04,6.98,5.805,4.63,3.955,3.28,2.875,2.47,2.19,1.91,1.725,1.54,1.375,1.21,1.105,1,0.9055,0.811
0.8235,0.91275,1.002,1.1185,1.235,1.39,1.545,1.755,1.965,2.2625,2.56,2.9975,3.435,4.1375,4.84,6.175,7.51,9.78,12.05,14.475,16.9,20.525,24.15,28.15,32.15,36.975,41.8,47.1,52.4,58.441,64.483,70.336,76.19,81.355,86.52,90.05,93.58,96.292,99.005,99.323,99.64,98.47,97.3,95.498,93.695,91.395,89.095,87.147,85.2,84.825,84.45,83.9,83.35,82.75,82.15,82.125,82.1,82.375,82.65,83.25,83.85,84.725,85.6,86.925,88.25,89.112,89.975,90.07,90.165,89.305,88.445,87.068,85.69,83.305,80.92,77.56,74.2,70.205,66.21,61.496,56.781,51.641,46.5,42.125,37.75,33.625,29.5,25.925,22.35,18.6,14.85,12.51,10.17,8.48,6.79,5.6575,4.525,3.8725,3.22,2.825,2.43,2.155,1.88,1.6825,1.485,1.34,1.195,1.0835,0.972,0.8875,0.803
0.804,0.899,0.994,1.097,1.2,1.365,1.53,1.715,1.9,2.185,2.47,2.88,3.29,3.945,4.6,5.84,7.08,9.44,11.8,13.85,15.9,19.3,22.7,26.5,30.3,34.9,39.5,44.5,49.5,55.276,61.052,66.751,72.45,77.55,82.65,86.05,89.45,92.08,94.71,95.47,96.23,94.965,93.7,91.785,89.87,87.23,84.59,82.445,80.3,80,79.7,79.05,78.4,77.75,77.1,77.1,77.1,77.45,77.8,78.4,79,79.8,80.6,82,83.4,84.035,84.67,84.78,84.89,83.975,83.06,81.755,80.45,78.3,76.15,72.98,69.81,66.03,62.25,57.787,53.324,48.562,43.8,39.6,35.4,31.5,27.6,24.3,21,17.7,14.4,11.82,9.24,7.92,6.6,5.51,4.42,3.79,3.16,2.775,2.39,2.12,1.85,1.64,1.43,1.305,1.18,1.062,0.944,0.8695,0.795
0.7965,0.88,0.9635,1.0742,1.185,1.33,1.475,1.675,1.875,2.1525,2.43,2.8325,3.235,3.87,4.505,5.71,6.915,8.8875,10.86,13.305,15.75,18.45,21.15,24.775,28.4,32.675,36.95,41.65,46.35,51.82,57.29,62.688,68.085,72.96,77.835,81.153,84.47,86.875,89.28,90.005,90.73,89.51,88.29,86.385,84.48,82.155,79.83,77.715,75.6,74.1,72.6,72.7,72.8,72.3,71.8,71.775,71.75,72.175,72.6,73.15,73.7,74.825,75.95,76.698,77.445,78.252,79.06,79.257,79.455,78.605,77.755,76.36,74.965,72.845,70.725,67.835,64.945,61.403,57.86,53.803,49.746,45.248,40.75,36.825,32.9,29.325,25.75,22.4,19.05,15.95,12.85,10.885,8.92,7.46,6,5.0425,4.085,3.5225,2.96,2.6075,2.255,2.0075,1.76,1.5825,1.405,1.27,1.135,1.033,0.931,0.849,0.767
0.789,0.861,0.933,1.0515,1.17,1.295,1.42,1.635,1.85,2.12,2.39,2.785,3.18,3.795,4.41,5.58,6.75,8.335,9.92,12.76,15.6,17.6,19.6,23.05,26.5,30.45,34.4,38.8,43.2,48.364,53.528,58.624,63.72,68.37,73.02,76.255,79.49,81.67,83.85,84.54,85.23,84.055,82.88,80.985,79.09,77.08,75.07,72.985,70.9,68.2,65.5,66.35,67.2,66.85,66.5,66.45,66.4,66.9,67.4,67.9,68.4,69.85,71.3,71.395,71.49,72.47,73.45,73.735,74.02,73.235,72.45,70.965,69.48,67.39,65.3,62.69,60.08,56.775,53.47,49.819,46.168,41.934,37.7,34.05,30.4,27.15,23.9,20.5,17.1,14.2,11.3,9.95,8.6,7,5.4,4.575,3.75,3.255,2.76,2.44,2.12,1.895,1.67,1.525,1.38,1.235,1.09,1.004,0.918,0.8285,0.739
0.7615,0.8415,0.9215,1.0233,1.125,1.26,1.395,1.575,1.755,2.0075,2.26,2.62,2.98,3.525,4.07,5.09,6.11,7.8475,9.585,11.842,14.1,16.1,18.1,21.325,24.55,28.225,31.9,36,40.1,44.92,49.74,54.403,59.067,63.431,67.795,70.968,74.14,76.095,78.05,78.608,79.165,78.195,77.225,75.45,73.675,71.48,69.285,67.058,64.83,62.89,60.95,61.15,61.35,61.35,61.35,61.275,61.2,61.575,61.95,62.45,62.95,64.1,65.25,65.715,66.18,66.797,67.415,67.685,67.955,67.383,66.81,65.407,64.005,61.962,59.92,57.517,55.115,52.135,49.155,45.781,42.407,38.529,34.65,31.325,28,24.85,21.7,18.35,15,12.9,10.8,9.2025,7.605,6.39,5.175,4.4025,3.63,3.16,2.69,2.38,2.07,1.8525,1.635,1.4725,1.31,1.19,1.07,0.97325,0.8765,0.80225,0.728
0.734,0.822,0.91,0.995,1.08,1.225,1.37,1.515,1.66,1.895,2.13,2.455,2.78,3.255,3.73,4.6,5.47,7.36,9.25,10.925,12.6,14.6,16.6,19.6,22.6,26,29.4,33.2,37,41.475,45.951,50.182,54.413,58.492,62.57,65.68,68.79,70.52,72.25,72.675,73.1,72.335,71.57,69.915,68.26,65.88,63.5,61.13,58.76,57.58,56.4,55.95,55.5,55.85,56.2,56.1,56,56.25,56.5,57,57.5,58.35,59.2,60.035,60.87,61.125,61.38,61.635,61.89,61.53,61.17,59.85,58.53,56.535,54.54,52.345,50.15,47.495,44.84,41.743,38.647,35.124,31.6,28.6,25.6,22.55,19.5,16.2,12.9,11.6,10.3,8.455,6.61,5.78,4.95,4.23,3.51,3.065,2.62,2.32,2.02,1.81,1.6,1.42,1.24,1.145,1.05,0.9425,0.835,0.776,0.717
0.7235,0.7965,0.8695,0.96475,1.06,1.18,1.3,1.465,1.63,1.8575,2.085,2.3975,2.71,3.1725,3.635,4.45,5.265,6.705,8.145,10.123,12.1,14.15,16.2,18.475,20.75,23.875,27,30.45,33.9,37.994,42.088,45.917,49.746,53.448,57.15,60.105,63.06,64.688,66.315,66.733,67.15,66.463,65.775,64.155,62.535,60.215,57.895,55.897,53.9,52.232,50.565,50.332,50.1,50.625,51.15,51.175,51.2,51.35,51.5,52.4,53.3,53.75,54.2,54.7,55.2,55.65,56.1,56.303,56.505,56.13,55.755,54.523,53.29,51.37,49.45,47.44,45.43,43.011,40.591,37.801,35.01,31.855,28.7,26.025,23.35,20.4,17.45,14.825,12.2,10.528,8.855,7.58,6.305,5.3375,4.37,3.765,3.16,2.78,2.4,2.1375,1.875,1.685,1.495,1.3525,1.21,1.1007,0.9915,0.906,0.8205,0.7515,0.6825
0.713,0.771,0.829,0.9345,1.04,1.135,1.23,1.415,1.6,1.82,2.04,2.34,2.64,3.09,3.54,4.3,5.06,6.05,7.04,9.32,11.6,13.7,15.8,17.35,18.9,21.75,24.6,27.7,30.8,34.513,38.225,41.651,45.078,48.404,51.73,54.53,57.33,58.855,60.38,60.79,61.2,60.59,59.98,58.395,56.81,54.55,52.29,50.665,49.04,46.885,44.73,44.715,44.7,45.4,46.1,46.25,46.4,46.45,46.5,47.8,49.1,49.15,49.2,49.365,49.53,50.175,50.82,50.97,51.12,50.73,50.34,49.195,48.05,46.205,44.36,42.535,40.71,38.526,36.343,33.858,31.373,28.587,25.8,23.45,21.1,18.25,15.4,13.45,11.5,9.455,7.41,6.705,6,4.895,3.79,3.3,2.81,2.495,2.18,1.955,1.73,1.56,1.39,1.285,1.18,1.0565,0.933,0.8695,0.806,0.727,0.648
0.679,0.74675,0.8145,0.8995,0.9845,1.0947,1.205,1.35,1.495,1.695,1.895,2.165,2.435,2.825,3.215,3.845,4.475,5.5775,6.68,8.355,10.03,12.04,14.05,15.55,17.05,19.65,22.25,25.025,27.8,31.143,34.485,37.53,40.576,43.516,46.456,49.02,51.585,53.185,54.785,55.288,55.79,55.215,54.64,53.107,51.575,49.403,47.23,45.375,43.52,42.185,40.85,40,39.15,39.2,39.25,40.225,41.2,42.225,43.25,43.425,43.6,43.725,43.85,44.323,44.795,45.267,45.74,45.922,46.105,45.773,45.44,44.375,43.31,41.692,40.075,38.357,36.64,34.633,32.626,30.418,28.211,25.455,22.7,19.95,17.2,15,12.8,11.197,9.595,8.3,7.005,6.045,5.085,4.35,3.615,3.1625,2.71,2.4125,2.115,1.8975,1.68,1.5175,1.355,1.23,1.105,1.0093,0.9135,0.837,0.7605,0.69825,0.636
0.645,0.7225,0.8,0.8645,0.929,1.0545,1.18,1.285,1.39,1.57,1.75,1.99,2.23,2.56,2.89,3.39,3.89,5.105,6.32,7.39,8.46,10.38,12.3,13.75,15.2,17.55,19.9,22.35,24.8,27.773,30.745,33.409,36.073,38.627,41.181,43.511,45.84,47.515,49.19,49.785,50.38,49.84,49.3,47.82,46.34,44.255,42.17,40.085,38,37.485,36.97,35.285,33.6,33,32.4,34.2,36,38,40,39.05,38.1,38.3,38.5,39.28,40.06,40.36,40.66,40.875,41.09,40.815,40.54,39.555,38.57,37.18,35.79,34.18,32.57,30.74,28.909,26.979,25.048,22.324,19.6,16.45,13.3,11.75,10.2,8.945,7.69,7.145,6.6,5.385,4.17,3.805,3.44,3.025,2.61,2.33,2.05,1.84,1.63,1.475,1.32,1.175,1.03,0.962,0.894,0.8045,0.715,0.6695,0.624
0.6335,0.69475,0.756,0.83325,0.9105,1.0077,1.105,1.2325,1.36,1.53,1.7,1.93,2.16,2.475,2.79,3.245,3.7,4.5425,5.385,6.6725,7.96,9.755,11.55,13.275,15,16.275,17.55,19.75,21.95,24.591,27.232,29.594,31.956,34.209,36.463,38.512,40.56,42.138,43.715,44.285,44.855,44.377,43.9,42.58,41.26,39.595,37.93,36.215,34.5,33.267,32.035,31.225,30.415,29.907,29.4,30.725,32.05,32.875,33.7,33.368,33.035,33.69,34.345,34.778,35.21,35.695,36.18,36.435,36.69,36.457,36.225,35.35,34.475,33.185,31.895,30.098,28.3,26.378,24.457,22.783,21.108,19.029,16.95,14.65,12.35,10.94,9.53,8.37,7.21,6.3325,5.455,4.6975,3.94,3.47,3,2.665,2.33,2.0925,1.855,1.6725,1.49,1.355,1.22,1.1118,1.0035,0.91975,0.836,0.76825,0.7005,0.64725,0.594
0.622,0.667,0.712,0.802,0.892,0.961,1.03,1.18,1.33,1.49,1.65,1.87,2.09,2.39,2.69,3.1,3.51,3.98,4.45,5.955,7.46,9.13,10.8,12.8,14.8,15,15.2,17.15,19.1,21.41,23.719,25.779,27.839,29.792,31.745,33.513,35.28,36.76,38.24,38.785,39.33,38.915,38.5,37.34,36.18,34.935,33.69,32.345,31,29.05,27.1,27.165,27.23,26.815,26.4,27.25,28.1,27.75,27.4,27.685,27.97,29.08,30.19,30.275,30.36,31.03,31.7,31.995,32.29,32.1,31.91,31.145,30.38,29.19,28,26.015,24.03,22.017,20.005,18.587,17.169,15.735,14.3,12.85,11.4,10.13,8.86,7.795,6.73,5.52,4.31,4.01,3.71,3.135,2.56,2.305,2.05,1.855,1.66,1.505,1.35,1.235,1.12,1.0485,0.977,0.8775,0.778,0.732,0.686,0.625,0.564
0.5875,0.6425,0.6975,0.7665,0.8355,0.92075,1.006,1.118,1.23,1.375,1.52,1.7125,1.905,2.1625,2.42,2.7725,3.125,3.6625,4.2,5.1675,6.135,7.47,8.805,10.458,12.11,13.53,14.95,15.7,16.45,18.418,20.385,22.137,23.889,25.581,27.273,28.783,30.293,31.574,32.855,33.34,33.825,33.575,33.325,32.45,31.575,30.418,29.26,28.055,26.85,25.55,24.25,23.713,23.175,23.477,23.78,23.813,23.845,23.355,22.865,22.537,22.21,22.692,23.175,23.35,23.525,23.817,24.11,24.292,24.475,24.35,24.225,23.665,23.105,22.238,21.37,20.815,20.26,18.073,15.887,14.792,13.695,12.46,11.225,10.135,9.045,7.8675,6.69,6.0675,5.445,4.7425,4.04,3.6,3.16,2.8025,2.445,2.2075,1.97,1.785,1.6,1.455,1.31,1.1975,1.085,0.9945,0.904,0.8315,0.759,0.70025,0.6415,0.58475,0.528
0.553,0.618,0.683,0.731,0.779,0.8805,0.982,1.056,1.13,1.26,1.39,1.555,1.72,1.935,2.15,2.445,2.74,3.345,3.95,4.38,4.81,5.81,6.81,8.115,9.42,12.06,14.7,14.25,13.8,15.426,17.051,18.495,19.938,21.37,22.802,24.054,25.306,26.388,27.47,27.895,28.32,28.235,28.15,27.56,26.97,25.9,24.83,23.765,22.7,22.05,21.4,20.26,19.12,20.14,21.16,20.375,19.59,18.96,18.33,17.39,16.45,16.305,16.16,16.425,16.69,16.605,16.52,16.59,16.66,16.6,16.54,16.185,15.83,15.285,14.74,15.615,16.489,14.13,11.77,10.996,10.222,9.186,8.15,7.42,6.69,5.605,4.52,4.34,4.16,3.965,3.77,3.19,2.61,2.47,2.33,2.11,1.89,1.715,1.54,1.405,1.27,1.16,1.05,0.9405,0.831,0.7855,0.74,0.6685,0.597,0.5445,0.492
0.542,0.591,0.64,0.70025,0.7605,0.8355,0.9105,1.0053,1.1,1.2225,1.345,1.5025,1.66,1.865,2.07,2.345,2.62,3.02,3.42,3.9525,4.485,5.37,6.255,7.455,8.655,10.168,11.68,12.565,13.45,14.856,16.262,16.517,16.772,17.931,19.09,20.135,21.179,22.02,22.86,23.195,23.53,23.468,23.405,22.953,22.5,21.78,21.06,20.3,19.54,19.73,19.92,19.225,18.53,18.135,17.74,16.81,15.88,15.833,15.785,15.438,15.09,14.955,14.82,14.895,14.97,15.06,15.15,15.265,15.38,15.308,15.235,14.813,14.39,13.871,13.353,13,12.647,11.704,10.76,10.069,9.3785,8.4318,7.485,6.485,5.485,5.0025,4.52,4.2,3.88,3.5175,3.155,2.8175,2.48,2.2625,2.045,1.8625,1.68,1.5325,1.385,1.2675,1.15,1.0555,0.961,0.8845,0.808,0.74425,0.6805,0.63175,0.583,0.5245,0.466
0.531,0.564,0.597,0.6695,0.742,0.7905,0.839,0.9545,1.07,1.185,1.3,1.45,1.6,1.795,1.99,2.245,2.5,2.695,2.89,3.525,4.16,4.93,5.7,6.795,7.89,8.275,8.66,10.88,13.1,14.287,15.474,14.54,13.606,14.492,15.378,16.215,17.053,17.651,18.25,18.495,18.74,18.7,18.66,18.345,18.03,17.66,17.29,16.835,16.38,17.41,18.44,18.19,17.94,16.13,14.32,13.245,12.17,12.705,13.24,13.485,13.73,13.605,13.48,13.365,13.25,13.515,13.78,13.94,14.1,14.015,13.93,13.44,12.95,12.458,11.966,10.386,8.805,9.2775,9.75,9.1425,8.535,7.6775,6.82,5.55,4.28,4.4,4.52,4.06,3.6,3.07,2.54,2.445,2.35,2.055,1.76,1.615,1.47,1.35,1.23,1.13,1.03,0.951,0.872,0.8285,0.785,0.703,0.621,0.595,0.569,0.5045,0.44
0.513,0.54825,0.5835,0.63675,0.69,0.75325,0.8165,0.89875,0.981,1.083,1.185,1.315,1.445,1.61,1.775,1.99,2.205,2.4725,2.74,3.1325,3.525,4.085,4.645,5.435,6.225,7.0425,7.86,9.0075,10.155,11.204,12.253,12.714,13.175,14.092,15.009,15.144,15.279,16.299,17.319,17.532,17.745,17.725,17.705,16.933,16.16,16.377,16.595,16.087,15.58,15.345,15.11,14.663,14.215,13.41,12.605,11.79,10.975,11.035,11.095,10.935,10.775,10.658,10.54,10.29,10.04,10.053,10.065,10.085,10.105,10.003,9.9,9.5925,9.285,8.9865,8.688,8.3577,8.0275,7.7908,7.554,7.1108,6.6675,5.9787,5.29,4.53,3.77,3.7125,3.655,3.3225,2.99,2.7,2.41,2.2225,2.035,1.86,1.685,1.5475,1.41,1.2975,1.185,1.091,0.997,0.921,0.845,0.7795,0.714,0.62775,0.5415,0.534,0.5265,0.47125,0.416
0.495,0.5325,0.57,0.604,0.638,0.716,0.794,0.843,0.892,0.981,1.07,1.18,1.29,1.425,1.56,1.735,1.91,2.25,2.59,2.74,2.89,3.24,3.59,4.075,4.56,5.81,7.06,7.135,7.21,8.1205,9.031,10.887,12.744,13.693,14.641,14.073,13.505,14.947,16.388,16.569,16.75,16.75,16.75,15.52,14.29,15.095,15.9,15.34,14.78,13.28,11.78,11.135,10.49,10.69,10.89,10.335,9.78,9.365,8.95,8.385,7.82,7.71,7.6,7.215,6.83,6.59,6.35,6.23,6.11,5.99,5.87,5.745,5.62,5.515,5.41,6.33,7.25,6.304,5.358,5.079,4.8,4.28,3.76,3.51,3.26,3.025,2.79,2.585,2.38,2.33,2.28,2,1.72,1.665,1.61,1.48,1.35,1.245,1.14,1.052,0.964,0.891,0.818,0.7305,0.643,0.5525,0.462,0.473,0.484,0.438,0.392
0.476,0.503,0.53,0.5755,0.621,0.67625,0.7315,0.79825,0.865,0.94925,1.0335,1.1368,1.24,1.37,1.5,1.6625,1.825,2.0375,2.25,2.4875,2.725,3.03,3.335,3.765,4.195,4.8675,5.54,6.02,6.5,7.3207,8.1415,8.9802,9.819,10.487,11.155,11.541,11.927,12.258,12.589,12.723,12.858,12.862,12.866,12.698,12.53,12.428,12.325,11.967,11.61,11.043,10.475,10.03,9.585,9.3025,9.02,8.655,8.29,8.0175,7.745,7.51,7.275,7.1675,7.06,6.7875,6.515,6.3925,6.27,6.16,6.05,5.9375,5.825,5.7058,5.5865,5.4608,5.335,5.5325,5.73,5.3365,4.943,4.6993,4.4555,3.9753,3.495,3.27,3.045,2.8325,2.62,2.435,2.25,2.1025,1.955,1.7975,1.64,1.5275,1.415,1.3075,1.2,1.1107,1.0215,0.9465,0.8715,0.804,0.7365,0.64575,0.555,0.5085,0.462,0.45725,0.4525,0.42225,0.392
0.457,0.4735,0.49,0.547,0.604,0.6365,0.669,0.7535,0.838,0.9175,0.997,1.0935,1.19,1.315,1.44,1.59,1.74,1.825,1.91,2.235,2.56,2.82,3.08,3.455,3.83,3.925,4.02,4.905,5.79,6.521,7.252,7.073,6.894,7.2815,7.669,9.0085,10.348,9.5685,8.789,8.8775,8.966,8.974,8.982,9.876,10.77,9.76,8.75,8.595,8.44,8.805,9.17,8.925,8.68,7.915,7.15,6.975,6.8,6.67,6.54,6.635,6.73,6.625,6.52,6.36,6.2,6.195,6.19,6.09,5.99,5.885,5.78,5.6665,5.553,5.4065,5.26,4.735,4.21,4.369,4.528,4.3195,4.111,3.6705,3.23,3.03,2.83,2.64,2.45,2.285,2.12,1.875,1.63,1.595,1.56,1.39,1.22,1.135,1.05,0.9765,0.903,0.841,0.779,0.717,0.655,0.561,0.467,0.4645,0.462,0.4415,0.421,0.4065,0.392
0.429,0.4595,0.49,0.52375,0.5575,0.60325,0.649,0.70675,0.7645,0.83375,0.903,0.98675,1.0705,1.1753,1.28,1.405,1.53,1.6725,1.815,2.0075,2.2,2.4125,2.625,2.9075,3.19,3.4375,3.685,4.1375,4.59,5.166,5.742,5.982,6.222,6.573,6.924,7.4155,7.907,7.8938,7.8805,7.9635,8.0465,8.0607,8.075,8.25,8.425,8.1225,7.82,7.68,7.54,7.485,7.43,7.2025,6.975,6.66,6.345,6.165,5.985,5.8625,5.74,5.66,5.58,5.4875,5.395,5.32,5.245,5.1725,5.1,5.0175,4.935,4.8465,4.758,4.659,4.56,4.4485,4.337,4.1243,3.9115,3.8275,3.7435,3.582,3.4205,3.0378,2.655,2.505,2.355,2.2125,2.07,1.94,1.81,1.68,1.55,1.4575,1.365,1.2675,1.17,1.0895,1.009,0.94,0.871,0.812,0.753,0.65775,0.5625,0.51475,0.467,0.4645,0.462,0.42925,0.3965,0.38175,0.367
0.401,0.4455,0.49,0.5005,0.511,0.57,0.629,0.66,0.691,0.75,0.809,0.88,0.951,1.0355,1.12,1.22,1.32,1.52,1.72,1.78,1.84,2.005,2.17,2.36,2.55,2.95,3.35,3.37,3.39,3.811,4.232,4.891,5.55,5.8645,6.179,5.8225,5.466,6.219,6.972,7.0495,7.127,7.1475,7.168,6.624,6.08,6.485,6.89,6.765,6.64,6.165,5.69,5.48,5.27,5.405,5.54,5.355,5.17,5.055,4.94,4.685,4.43,4.35,4.27,4.28,4.29,4.15,4.01,3.945,3.88,3.808,3.736,3.6515,3.567,3.4905,3.414,3.5135,3.613,3.286,2.959,2.8445,2.73,2.405,2.08,1.98,1.88,1.785,1.69,1.595,1.5,1.485,1.47,1.32,1.17,1.145,1.12,1.044,0.968,0.9035,0.839,0.783,0.727,0.5985,0.47,0.4685,0.467,0.4645,0.462,0.417,0.372,0.357,0.342
0.363,0.41425,0.4655,0.481,0.4965,0.53675,0.577,0.62275,0.6685,0.72475,0.781,0.84825,0.9155,0.99525,1.075,1.17,1.265,1.385,1.505,1.625,1.745,1.895,2.045,2.2175,2.39,2.5975,2.805,2.965,3.125,3.504,3.883,4.179,4.475,4.709,4.943,4.9745,5.006,5.2657,5.5255,5.5678,5.61,5.677,5.744,5.6272,5.5105,5.5715,5.6325,5.5538,5.475,5.295,5.115,5,4.885,4.8375,4.79,4.6675,4.545,4.4625,4.38,4.275,4.17,4.0975,4.025,3.975,3.925,3.855,3.785,3.72,3.655,3.5885,3.522,3.4413,3.3605,3.2712,3.182,3.1193,3.0565,2.9223,2.788,2.6773,2.5665,2.2658,1.965,1.8725,1.78,1.69,1.6,1.515,1.43,1.355,1.28,1.2,1.12,1.0555,0.991,0.9265,0.862,0.81075,0.7595,0.7045,0.6495,0.55975,0.47,0.4685,0.467,0.448,0.429,0.38925,0.3495,0.335,0.3205
0.325,0.383,0.441,0.4615,0.482,0.5035,0.525,0.5855,0.646,0.6995,0.753,0.8165,0.88,0.955,1.03,1.12,1.21,1.25,1.29,1.47,1.65,1.785,1.92,2.075,2.23,2.245,2.26,2.56,2.86,3.197,3.534,3.467,3.4,3.5535,3.707,4.1265,4.546,4.3125,4.079,4.086,4.093,4.2065,4.32,4.6305,4.941,4.658,4.375,4.3425,4.31,4.425,4.54,4.52,4.5,4.27,4.04,3.98,3.92,3.87,3.82,3.865,3.91,3.845,3.78,3.67,3.56,3.56,3.56,3.495,3.43,3.369,3.308,3.231,3.154,3.052,2.95,2.725,2.5,2.5585,2.617,2.51,2.403,2.1265,1.85,1.765,1.68,1.595,1.51,1.435,1.36,1.225,1.09,1.08,1.07,0.966,0.862,0.809,0.756,0.718,0.68,0.626,0.572,0.521,0.47,0.4685,0.467,0.4315,0.396,0.3615,0.327,0.313,0.299
0.325,0.37,0.415,0.43575,0.4565,0.48275,0.509,0.549,0.589,0.6355,0.682,0.73675,0.7915,0.855,0.9185,0.99375,1.069,1.147,1.225,1.3275,1.43,1.54,1.65,1.7725,1.895,2.005,2.115,2.26,2.405,2.689,2.973,3.0815,3.19,3.316,3.442,3.5957,3.7495,3.7668,3.784,3.7885,3.793,3.8943,3.9955,4.07,4.1445,4.0657,3.987,3.9675,3.948,3.929,3.91,3.855,3.8,3.725,3.65,3.59,3.53,3.4725,3.415,3.3725,3.33,3.275,3.22,3.1675,3.115,3.0692,3.0235,2.9693,2.915,2.8613,2.8075,2.7415,2.6755,2.606,2.5365,2.4488,2.361,2.3055,2.25,2.1495,2.049,1.807,1.565,1.5,1.435,1.3675,1.3,1.238,1.176,1.108,1.04,0.989,0.938,0.88375,0.8295,0.776,0.7225,0.646,0.5695,0.54625,0.523,0.4965,0.47,0.4505,0.431,0.3995,0.368,0.3475,0.327,0.3045,0.282
0.325,0.357,0.389,0.41,0.431,0.462,0.493,0.5125,0.532,0.5715,0.611,0.657,0.703,0.755,0.807,0.8675,0.928,1.044,1.16,1.185,1.21,1.295,1.38,1.47,1.56,1.765,1.97,1.96,1.95,2.181,2.412,2.696,2.98,3.0785,3.177,3.065,2.953,3.221,3.489,3.491,3.493,3.582,3.671,3.5095,3.348,3.4735,3.599,3.5925,3.586,3.433,3.28,3.19,3.1,3.18,3.26,3.2,3.14,3.075,3.01,2.88,2.75,2.705,2.66,2.665,2.67,2.5785,2.487,2.4435,2.4,2.3535,2.307,2.252,2.197,2.16,2.123,2.1725,2.222,2.0525,1.883,1.789,1.695,1.4875,1.28,1.235,1.19,1.14,1.09,1.041,0.992,0.991,0.99,0.898,0.806,0.8015,0.797,0.743,0.689,0.574,0.459,0.4665,0.474,0.472,0.47,0.4325,0.395,0.3675,0.34,0.3335,0.327,0.296,0.265
0.321,0.33525,0.3495,0.37475,0.4,0.4325,0.465,0.49,0.515,0.5525,0.59,0.6335,0.677,0.72625,0.7755,0.832,0.8885,0.95525,1.022,1.086,1.15,1.23,1.31,1.3925,1.475,1.575,1.675,1.75,1.825,2.0403,2.2555,2.3857,2.516,2.5947,2.6735,2.7098,2.746,2.8425,2.939,2.9585,2.978,3.0047,3.0315,3.0583,3.085,3.092,3.099,3.0948,3.0905,3.0438,2.997,2.9577,2.9185,2.8992,2.88,2.84,2.8,2.755,2.71,2.66,2.61,2.5675,2.525,2.4888,2.4525,2.4082,2.364,2.3215,2.279,2.2355,2.192,2.1393,2.0865,2.0488,2.011,1.9715,1.932,1.8548,1.7775,1.7012,1.625,1.4225,1.22,1.175,1.13,1.0843,1.0385,0.993,0.9475,0.90975,0.872,0.8225,0.773,0.7415,0.71,0.63,0.55,0.5045,0.459,0.449,0.439,0.436,0.433,0.3995,0.366,0.34225,0.3185,0.31175,0.305,0.2775,0.25
0.317,0.3135,0.31,0.3395,0.369,0.403,0.437,0.4675,0.498,0.5335,0.569,0.61,0.651,0.6975,0.744,0.7965,0.849,0.8665,0.884,0.987,1.09,1.165,1.24,1.315,1.39,1.385,1.38,1.54,1.7,1.8995,2.099,2.0755,2.052,2.111,2.17,2.3545,2.539,2.464,2.389,2.426,2.463,2.4275,2.392,2.607,2.822,2.7105,2.599,2.597,2.595,2.6545,2.714,2.7255,2.737,2.6185,2.5,2.48,2.46,2.435,2.41,2.44,2.47,2.43,2.39,2.3125,2.235,2.238,2.241,2.1995,2.158,2.1175,2.077,2.0265,1.976,1.9375,1.899,1.7705,1.642,1.657,1.672,1.6135,1.555,1.3575,1.16,1.115,1.07,1.0285,0.987,0.945,0.903,0.8285,0.754,0.747,0.74,0.6815,0.623,0.517,0.411,0.435,0.459,0.4315,0.404,0.4,0.396,0.3665,0.337,0.317,0.297,0.29,0.283,0.259,0.235
0.2985,0.30075,0.303,0.336,0.369,0.3865,0.404,0.43575,0.4675,0.4915,0.5155,0.551,0.5865,0.62625,0.666,0.7105,0.755,0.8,0.845,0.901,0.957,1.0173,1.0775,1.1387,1.2,1.2525,1.305,1.3775,1.45,1.6273,1.8045,1.8632,1.922,1.9762,2.0305,2.1048,2.179,2.1957,2.2125,2.2455,2.2785,2.2677,2.257,2.3428,2.4285,2.402,2.3755,2.3765,2.3775,2.3792,2.381,2.3647,2.3485,2.3152,2.282,2.2597,2.2375,2.2102,2.183,2.1593,2.1355,2.1025,2.0695,2.0333,1.997,1.9688,1.9405,1.9065,1.8725,1.836,1.7995,1.7685,1.7375,1.7013,1.665,1.607,1.549,1.5005,1.452,1.417,1.382,1.1908,0.9995,0.96625,0.933,0.89675,0.8605,0.8275,0.7945,0.7595,0.7245,0.68475,0.645,0.60375,0.5625,0.48675,0.411,0.41025,0.4095,0.40675,0.404,0.3845,0.365,0.34,0.315,0.29675,0.2785,0.271,0.2635,0.24925,0.235
0.28,0.288,0.296,0.3325,0.369,0.37,0.371,0.404,0.437,0.4495,0.462,0.492,0.522,0.555,0.588,0.6245,0.661,0.7335,0.806,0.815,0.824,0.8695,0.915,0.9625,1.01,1.12,1.23,1.215,1.2,1.355,1.51,1.651,1.792,1.8415,1.891,1.855,1.819,1.9275,2.036,2.065,2.094,2.108,2.122,2.0785,2.035,2.0935,2.152,2.156,2.16,2.104,2.048,2.004,1.96,2.012,2.064,2.0395,2.015,1.9855,1.956,1.8785,1.801,1.775,1.749,1.754,1.759,1.6995,1.64,1.6135,1.587,1.5545,1.522,1.5105,1.499,1.465,1.431,1.4435,1.456,1.344,1.232,1.2205,1.209,1.024,0.839,0.8175,0.796,0.765,0.734,0.71,0.686,0.6905,0.695,0.6225,0.55,0.526,0.502,0.4565,0.411,0.3855,0.36,0.382,0.404,0.369,0.334,0.3135,0.293,0.2765,0.26,0.252,0.244,0.2395,0.235
0.262,0.279,0.296,0.316,0.336,0.3535,0.371,0.3865,0.402,0.432,0.462,0.48225,0.5025,0.534,0.5655,0.59975,0.634,0.67375,0.7135,0.75,0.7865,0.8285,0.8705,0.9145,0.9585,1.0103,1.062,1.096,1.13,1.2825,1.435,1.4937,1.5525,1.5993,1.646,1.67,1.694,1.7377,1.7815,1.8058,1.83,1.846,1.862,1.8788,1.8955,1.8963,1.897,1.891,1.885,1.8873,1.8895,1.875,1.8605,1.8545,1.8485,1.8347,1.821,1.7967,1.7725,1.7443,1.716,1.692,1.668,1.6455,1.623,1.5943,1.5655,1.539,1.5125,1.4828,1.453,1.4377,1.4225,1.385,1.3475,1.3058,1.264,1.2273,1.1905,1.1705,1.1505,0.97575,0.801,0.782,0.763,0.733,0.703,0.68125,0.6595,0.63875,0.618,0.563,0.508,0.48625,0.4645,0.43175,0.399,0.3795,0.36,0.35925,0.3585,0.329,0.2995,0.284,0.2685,0.26425,0.26,0.2445,0.229,0.225,0.221
0.244,0.27,0.296,0.2995,0.303,0.337,0.371,0.369,0.367,0.4145,0.462,0.4725,0.483,0.513,0.543,0.575,0.607,0.614,0.621,0.685,0.749,0.7875,0.826,0.8665,0.907,0.9005,0.894,0.977,1.06,1.21,1.36,1.3365,1.313,1.357,1.401,1.485,1.569,1.548,1.527,1.5465,1.566,1.584,1.602,1.679,1.756,1.699,1.642,1.626,1.61,1.6705,1.731,1.746,1.761,1.697,1.633,1.63,1.627,1.608,1.589,1.61,1.631,1.609,1.587,1.537,1.487,1.489,1.491,1.4645,1.438,1.411,1.384,1.365,1.346,1.305,1.264,1.168,1.072,1.1105,1.149,1.1205,1.092,0.9275,0.763,0.7465,0.73,0.701,0.672,0.6525,0.633,0.587,0.541,0.5035,0.466,0.4465,0.427,0.407,0.387,0.3735,0.36,0.3365,0.313,0.289,0.265,0.2545,0.244,0.252,0.26,0.237,0.214,0.2105,0.207
0.2275,0.2525,0.2775,0.2855,0.2935,0.315,0.3365,0.35175,0.367,0.3995,0.432,0.44125,0.4505,0.481,0.5115,0.52675,0.542,0.5685,0.595,0.62825,0.6615,0.69375,0.726,0.75925,0.7925,0.8205,0.8485,0.88425,0.92,1.0633,1.2065,1.2615,1.3165,1.329,1.3415,1.3823,1.423,1.463,1.503,1.516,1.529,1.549,1.569,1.5738,1.5785,1.577,1.5755,1.57,1.5645,1.5698,1.575,1.588,1.601,1.5873,1.5735,1.5638,1.554,1.5465,1.539,1.5233,1.5075,1.4893,1.471,1.4533,1.4355,1.412,1.3885,1.3763,1.364,1.3342,1.3045,1.2855,1.2665,1.2183,1.17,1.1175,1.065,1.0733,1.0815,1.048,1.0145,0.862,0.7095,0.69225,0.675,0.651,0.627,0.606,0.585,0.55025,0.5155,0.5,0.4845,0.46325,0.442,0.43175,0.4215,0.39075,0.36,0.344,0.328,0.319,0.31,0.277,0.244,0.24275,0.2415,0.23275,0.224,0.215,0.206
0.211,0.235,0.259,0.2715,0.284,0.293,0.302,0.3345,0.367,0.3845,0.402,0.41,0.418,0.449,0.48,0.4785,0.477,0.523,0.569,0.5715,0.574,0.6,0.626,0.652,0.678,0.7405,0.803,0.7915,0.78,0.9165,1.053,1.1865,1.32,1.301,1.282,1.2795,1.277,1.378,1.479,1.4855,1.492,1.514,1.536,1.4685,1.401,1.455,1.509,1.514,1.519,1.469,1.419,1.43,1.441,1.4775,1.514,1.4975,1.481,1.485,1.489,1.4365,1.384,1.3695,1.355,1.3695,1.384,1.335,1.286,1.288,1.29,1.2575,1.225,1.206,1.187,1.1315,1.076,1.067,1.058,1.036,1.014,0.9755,0.937,0.7965,0.656,0.638,0.62,0.601,0.582,0.5595,0.537,0.5135,0.49,0.4965,0.503,0.48,0.457,0.4565,0.456,0.408,0.36,0.3515,0.343,0.349,0.355,0.2995,0.244,0.2335,0.223,0.2285,0.234,0.2195,0.205
