0.716,0.71915,0.7223,0.7367,0.7511,0.7695,0.7879,0.81235,0.8368,0.85915,0.8815,0.9078,0.9341,0.96855,1.003,1.0355,1.068,1.1015,1.135,1.173,1.211,1.2495,1.288,1.321,1.354,1.3865,1.419,1.453,1.487,1.9448,2.4025,2.4566,2.5108,2.5599,2.609,2.654,2.699,2.747,2.795,2.812,2.829,2.863,2.897,2.9325,2.968,2.986,3.004,3.032,3.06,3.0865,3.113,3.135,3.157,3.117,3.077,3.128,3.179,3.1835,3.188,3.134,3.08,3.126,3.172,3.1615,3.151,3.14,3.129,3.0435,2.958,2.9295,2.901,2.9304,2.9599,2.8493,2.7387,2.7621,2.7854,2.7344,2.6833,2.5734,2.4635,2.1143,1.765,1.728,1.691,1.653,1.615,1.577,1.539,1.5,1.461,1.4205,1.38,1.352,1.324,1.291,1.258,1.2185,1.179,1.1405,1.102,1.062,1.022,0.98135,0.9407,0.90695,0.8732,0.85005,0.8269,0.8015,0.7761
0.7327,0.74043,0.74815,0.76497,0.7818,0.80268,0.82355,0.8487,0.87385,0.90158,0.9293,0.95968,0.99005,1.0255,1.061,1.0965,1.132,1.1692,1.2065,1.2463,1.286,1.324,1.362,1.3967,1.4315,1.4625,1.4935,1.4973,1.501,1.9964,2.4918,2.5488,2.6059,2.6499,2.694,2.7088,2.7235,2.7908,2.858,2.8788,2.8995,2.9312,2.963,2.999,3.035,3.0343,3.0335,3.0618,3.09,3.12,3.15,3.1965,3.243,3.2278,3.2125,3.2155,3.2185,3.2437,3.269,3.267,3.265,3.252,3.239,3.2295,3.22,3.2077,3.1955,3.1778,3.16,3.1317,3.1033,3.0626,3.0218,2.9803,2.9389,2.8901,2.8414,2.7885,2.7357,2.6845,2.6333,2.2279,1.8225,1.784,1.7455,1.7045,1.6635,1.624,1.5845,1.5422,1.5,1.4585,1.417,1.3845,1.352,1.3178,1.2835,1.244,1.2045,1.1652,1.126,1.0858,1.0455,1.0033,0.961,0.92615,0.8913,0.86455,0.8378,0.81235,0.7869
0.7494,0.7617,0.774,0.79325,0.8125,0.83585,0.8592,0.88505,0.9109,0.944,0.9771,1.0115,1.046,1.0825,1.119,1.1575,1.196,1.237,1.278,1.3195,1.361,1.3985,1.436,1.4725,1.509,1.5385,1.568,1.5415,1.515,2.0481,2.5812,2.641,2.7009,2.7399,2.779,2.7635,2.748,2.8345,2.921,2.9455,2.97,2.9995,3.029,3.0655,3.102,3.0825,3.063,3.0915,3.12,3.1535,3.187,3.258,3.329,3.3385,3.348,3.303,3.258,3.304,3.35,3.4,3.45,3.378,3.306,3.2975,3.289,3.2755,3.262,3.312,3.362,3.3338,3.3056,3.1947,3.0838,3.1114,3.139,3.0182,2.8974,2.8428,2.7881,2.7956,2.803,2.3415,1.88,1.84,1.8,1.756,1.712,1.671,1.63,1.5845,1.539,1.4965,1.454,1.417,1.38,1.3445,1.309,1.2695,1.23,1.19,1.15,1.1095,1.069,1.0252,0.9813,0.94535,0.9094,0.87905,0.8487,0.8232,0.7977
0.7601,0.77345,0.7868,0.80657,0.82635,0.84972,0.8731,0.90125,0.9294,0.96472,1,1.036,1.072,1.1105,1.149,1.1895,1.23,1.2733,1.3165,1.3593,1.402,1.4418,1.4815,1.5197,1.558,1.5885,1.619,1.65,1.681,2.1799,2.6788,2.7409,2.803,2.845,2.887,2.9325,2.978,3.003,3.028,3.065,3.102,3.1403,3.1785,3.2207,3.263,3.3083,3.3535,3.3887,3.424,3.4608,3.4975,3.5185,3.5395,3.544,3.5485,3.5608,3.573,3.5782,3.5835,3.5717,3.56,3.5665,3.573,3.5693,3.5655,3.5545,3.5435,3.5125,3.4815,3.4529,3.4243,3.3983,3.3722,3.3111,3.2501,3.2079,3.1657,3.1052,3.0446,2.969,2.8935,2.495,2.0965,2.0495,2.0025,1.9503,1.898,1.8445,1.791,1.736,1.681,1.6295,1.578,1.531,1.484,1.4383,1.3925,1.3497,1.307,1.266,1.225,1.1818,1.1385,1.0923,1.0461,1.0064,0.9667,0.93032,0.89395,0.8621,0.83025
0.7708,0.7852,0.7996,0.8199,0.8402,0.8636,0.887,0.91745,0.9479,0.98545,1.023,1.0605,1.098,1.1385,1.179,1.2215,1.264,1.3095,1.355,1.399,1.443,1.485,1.527,1.567,1.607,1.6385,1.67,1.7585,1.847,2.3117,2.7763,2.8407,2.905,2.95,2.995,3.1015,3.208,3.1715,3.135,3.1845,3.234,3.281,3.328,3.376,3.424,3.534,3.644,3.686,3.728,3.768,3.808,3.779,3.75,3.7495,3.749,3.8185,3.888,3.8525,3.817,3.7435,3.67,3.755,3.84,3.841,3.842,3.8335,3.825,3.713,3.601,3.572,3.543,3.6018,3.6606,3.5109,3.3611,3.3976,3.434,3.3676,3.3011,3.1425,2.9839,2.6485,2.313,2.259,2.205,2.1445,2.084,2.018,1.952,1.8875,1.823,1.7625,1.702,1.645,1.588,1.532,1.476,1.43,1.384,1.342,1.3,1.254,1.208,1.1595,1.111,1.0675,1.024,0.9816,0.9392,0.901,0.8628
0.80315,0.82072,0.8383,0.86182,0.88535,0.91435,0.94335,0.98015,1.017,1.06,1.103,1.1467,1.1905,1.2368,1.283,1.3323,1.3815,1.434,1.4865,1.538,1.5895,1.637,1.6845,1.7298,1.775,1.812,1.849,1.8785,1.908,2.4458,2.9836,3.0471,3.1105,3.161,3.2115,3.2503,3.289,3.3308,3.3725,3.4255,3.4785,3.5275,3.5765,3.626,3.6755,3.7175,3.7595,3.8053,3.851,3.891,3.931,3.9588,3.9865,3.9965,4.0065,4.009,4.0115,4.0235,4.0355,4.053,4.0705,4.0635,4.0565,4.0533,4.05,4.0408,4.0315,4.0278,4.024,3.99,3.956,3.8984,3.8408,3.7927,3.7446,3.669,3.5934,3.522,3.4507,3.3811,3.3115,2.8578,2.404,2.3478,2.2915,2.2265,2.1615,2.091,2.0205,1.9518,1.883,1.8182,1.7535,1.693,1.6325,1.5725,1.5125,1.463,1.4135,1.3683,1.323,1.2757,1.2285,1.179,1.1295,1.0852,1.041,0.99805,0.9551,0.9161,0.8771
0.8355,0.85625,0.877,0.90375,0.9305,0.9651,0.9997,1.0429,1.086,1.1345,1.183,1.233,1.283,1.335,1.387,1.443,1.499,1.5585,1.618,1.677,1.736,1.789,1.842,1.8925,1.943,1.9855,2.028,1.9985,1.969,2.58,3.191,3.2535,3.316,3.372,3.428,3.399,3.37,3.49,3.61,3.6665,3.723,3.774,3.825,3.876,3.927,3.901,3.875,3.9245,3.974,4.014,4.054,4.1385,4.223,4.2435,4.264,4.1995,4.135,4.1945,4.254,4.3625,4.471,4.372,4.273,4.2655,4.258,4.248,4.238,4.3425,4.447,4.408,4.369,4.195,4.021,4.0745,4.128,3.9404,3.7527,3.6765,3.6003,3.6197,3.6391,3.0671,2.495,2.4365,2.378,2.3085,2.239,2.164,2.089,2.016,1.943,1.874,1.805,1.741,1.677,1.613,1.549,1.496,1.443,1.3945,1.346,1.2975,1.249,1.1985,1.148,1.103,1.058,1.0145,0.971,0.9312,0.8914
0.8476,0.86898,0.89035,0.91875,0.94715,0.98425,1.0214,1.0659,1.1105,1.1612,1.212,1.2633,1.3145,1.3698,1.425,1.483,1.541,1.6023,1.6635,1.7253,1.787,1.8433,1.8995,1.9518,2.004,2.0475,2.091,2.1332,2.1755,2.7375,3.2995,3.3632,3.427,3.4888,3.5505,3.6138,3.677,3.7283,3.7795,3.844,3.9085,3.968,4.0275,4.089,4.1505,4.213,4.2755,4.3342,4.393,4.441,4.489,4.51,4.531,4.5383,4.5455,4.5845,4.6235,4.6397,4.656,4.6535,4.651,4.6833,4.7155,4.7207,4.726,4.7292,4.7325,4.692,4.6515,4.6117,4.572,4.5593,4.5465,4.4322,4.318,4.2719,4.2258,4.1372,4.0484,3.9201,3.7918,3.3269,2.862,2.7797,2.6975,2.6063,2.515,2.4198,2.3245,2.2345,2.1445,2.062,1.9795,1.9038,1.828,1.7553,1.6825,1.615,1.5475,1.4882,1.429,1.3725,1.316,1.259,1.202,1.1527,1.1035,1.0585,1.0135,0.97208,0.93065
0.8597,0.8817,0.9037,0.93375,0.9638,1.0034,1.043,1.089,1.135,1.188,1.241,1.2935,1.346,1.4045,1.463,1.523,1.583,1.646,1.709,1.7735,1.838,1.8975,1.957,2.011,2.065,2.1095,2.154,2.268,2.382,2.895,3.408,3.473,3.538,3.6055,3.673,3.8285,3.984,3.9665,3.949,4.0215,4.094,4.162,4.23,4.302,4.374,4.525,4.676,4.744,4.812,4.868,4.924,4.8815,4.839,4.833,4.827,4.9695,5.112,5.085,5.058,4.9445,4.831,4.9945,5.158,5.176,5.194,5.2105,5.227,5.0415,4.856,4.8155,4.775,4.9235,5.072,4.79,4.508,4.6035,4.699,4.5978,4.4966,4.2205,3.9444,3.5867,3.229,3.123,3.017,2.904,2.791,2.6755,2.56,2.453,2.346,2.25,2.154,2.0665,1.979,1.8975,1.816,1.734,1.652,1.582,1.512,1.4475,1.383,1.3195,1.256,1.2025,1.149,1.1025,1.056,1.013,0.9699
0.89365,0.923,0.95235,0.98788,1.0234,1.069,1.1145,1.1663,1.218,1.2775,1.337,1.3978,1.4585,1.5242,1.59,1.6575,1.725,1.8018,1.8785,1.9568,2.035,2.107,2.179,2.2405,2.302,2.356,2.41,2.4352,2.4605,3.0838,3.707,3.781,3.855,3.934,4.013,4.0583,4.1035,4.2082,4.313,4.3905,4.468,4.5403,4.6125,4.6883,4.764,4.8042,4.8445,4.9215,4.9985,5.0663,5.134,5.1757,5.2175,5.2728,5.328,5.342,5.356,5.3912,5.4265,5.4802,5.534,5.5153,5.4965,5.52,5.5435,5.5637,5.584,5.6603,5.7365,5.7253,5.714,5.5853,5.4565,5.4195,5.3825,5.1965,5.0105,4.8989,4.7873,4.7042,4.621,4.0403,3.4595,3.3373,3.215,3.0812,2.9475,2.8173,2.687,2.5685,2.45,2.3405,2.231,2.1355,2.04,1.9537,1.8675,1.7813,1.695,1.6202,1.5455,1.4788,1.412,1.346,1.28,1.2238,1.1675,1.118,1.0685,1.0249,0.9813
0.9276,0.9643,1.001,1.042,1.083,1.1345,1.186,1.2435,1.301,1.367,1.433,1.502,1.571,1.644,1.717,1.792,1.867,1.9575,2.048,2.14,2.232,2.3165,2.401,2.47,2.539,2.6025,2.666,2.6025,2.539,3.2725,4.006,4.089,4.172,4.2625,4.353,4.288,4.223,4.45,4.677,4.7595,4.842,4.9185,4.995,5.0745,5.154,5.0835,5.013,5.099,5.185,5.2645,5.344,5.47,5.596,5.7125,5.829,5.7145,5.6,5.6975,5.795,6.016,6.237,6.036,5.835,5.864,5.893,5.917,5.941,6.279,6.617,6.635,6.653,6.247,5.841,6.049,6.257,5.7895,5.322,5.2,5.078,5.1878,5.2976,4.4938,3.69,3.5515,3.413,3.2585,3.104,2.959,2.814,2.684,2.554,2.431,2.308,2.2045,2.101,2.01,1.919,1.8285,1.738,1.6585,1.579,1.51,1.441,1.3725,1.304,1.245,1.186,1.1335,1.081,1.0369,0.9927
0.94165,0.97957,1.0175,1.0607,1.104,1.1575,1.211,1.2705,1.33,1.3987,1.4675,1.539,1.6105,1.6855,1.7605,1.8422,1.924,2.021,2.118,2.22,2.322,2.4155,2.509,2.5827,2.6565,2.7248,2.793,2.8823,2.9715,3.5778,4.184,4.277,4.37,4.4778,4.5855,4.7183,4.851,4.9075,4.964,5.058,5.152,5.2475,5.343,5.445,5.547,5.6665,5.786,5.8758,5.9655,6.059,6.1525,6.1822,6.212,6.2677,6.3235,6.3788,6.434,6.4638,6.4935,6.5088,6.524,6.6295,6.735,6.7865,6.838,6.8852,6.9325,6.9543,6.976,7.0008,7.0255,7.0202,7.015,6.8178,6.6205,6.464,6.3075,6.157,6.0065,5.8276,5.6487,5.0509,4.453,4.2218,3.9905,3.8095,3.6285,3.4503,3.272,3.1123,2.9525,2.7795,2.6065,2.4575,2.3085,2.1942,2.08,1.9787,1.8775,1.7857,1.694,1.613,1.532,1.4588,1.3855,1.318,1.2505,1.1912,1.132,1.0824,1.0329
0.9557,0.99485,1.034,1.0795,1.125,1.1805,1.236,1.2975,1.359,1.4305,1.502,1.576,1.65,1.727,1.804,1.8925,1.981,2.0845,2.188,2.3,2.412,2.5145,2.617,2.6955,2.774,2.847,2.92,3.162,3.404,3.883,4.362,4.465,4.568,4.693,4.818,5.1485,5.479,5.365,5.251,5.3565,5.462,5.5765,5.691,5.8155,5.94,6.2495,6.559,6.6525,6.746,6.8535,6.961,6.8945,6.828,6.823,6.818,7.043,7.268,7.23,7.192,7.0015,6.811,7.223,7.635,7.709,7.783,7.8535,7.924,7.6295,7.335,7.3665,7.398,7.7935,8.189,7.5865,6.984,7.1385,7.293,7.114,6.935,6.4674,5.9998,5.6079,5.216,4.892,4.568,4.3605,4.153,3.9415,3.73,3.5405,3.351,3.128,2.905,2.7105,2.516,2.3785,2.241,2.129,2.017,1.913,1.809,1.716,1.623,1.545,1.467,1.391,1.315,1.249,1.183,1.128,1.073
1.0014,1.0477,1.094,1.1452,1.1965,1.2585,1.3205,1.3893,1.458,1.5347,1.6115,1.6983,1.785,1.883,1.981,2.095,2.209,2.336,2.463,2.5962,2.7295,2.8632,2.997,3.1125,3.228,3.329,3.43,3.506,3.582,4.2787,4.9755,5.0925,5.2095,5.339,5.4685,5.6015,5.7345,5.8702,6.006,6.1315,6.257,6.3862,6.5155,6.6223,6.729,6.791,6.853,6.9505,7.048,7.168,7.288,7.4008,7.5135,7.5827,7.652,7.6545,7.657,7.725,7.793,7.898,8.003,8.0985,8.194,8.2635,8.333,8.418,8.503,8.5898,8.6765,8.6758,8.675,8.6663,8.6575,8.4192,8.181,7.9648,7.7485,7.548,7.3475,7.1784,7.0094,6.2305,5.4515,5.1345,4.8175,4.587,4.3565,4.1532,3.95,3.7428,3.5355,3.299,3.0625,2.8433,2.624,2.4642,2.3045,2.186,2.0675,1.9597,1.852,1.7557,1.6595,1.5767,1.494,1.4165,1.339,1.2708,1.2025,1.1458,1.089
1.047,1.1005,1.154,1.211,1.268,1.3365,1.405,1.481,1.557,1.639,1.721,1.8205,1.92,2.039,2.158,2.2975,2.437,2.5875,2.738,2.8925,3.047,3.212,3.377,3.5295,3.682,3.811,3.94,3.85,3.76,4.6745,5.589,5.72,5.851,5.985,6.119,6.0545,5.99,6.3755,6.761,6.9065,7.052,7.196,7.34,7.429,7.518,7.3325,7.147,7.2485,7.35,7.4825,7.615,7.907,8.199,8.3425,8.486,8.266,8.046,8.22,8.394,8.7945,9.195,8.974,8.753,8.818,8.883,8.9825,9.082,9.55,10.018,9.985,9.952,9.539,9.126,9.252,9.378,8.791,8.204,7.982,7.76,7.8895,8.019,6.853,5.687,5.377,5.067,4.8135,4.56,4.365,4.17,3.945,3.72,3.47,3.22,2.976,2.732,2.55,2.368,2.243,2.118,2.0065,1.895,1.7955,1.696,1.6085,1.521,1.442,1.363,1.2925,1.222,1.1635,1.105
1.064,1.1192,1.1745,1.233,1.2915,1.3625,1.4335,1.5122,1.591,1.6755,1.76,1.866,1.972,2.0995,2.227,2.3723,2.5175,2.6732,2.829,2.9882,3.1475,3.321,3.4945,3.6628,3.831,3.9765,4.122,4.2595,4.397,5.127,5.857,6.0023,6.1475,6.3,6.4525,6.6483,6.844,7.0033,7.1625,7.3447,7.527,7.6937,7.8605,7.962,8.0635,8.157,8.2505,8.3532,8.456,8.6337,8.8115,8.93,9.0485,9.178,9.3075,9.3833,9.459,9.4922,9.5255,9.5968,9.668,9.8427,10.018,10.099,10.18,10.353,10.527,10.545,10.563,10.51,10.457,10.425,10.394,10.118,9.8415,9.6858,9.53,9.267,9.004,8.663,8.322,7.449,6.576,6.2575,5.939,5.6455,5.352,5.071,4.79,4.494,4.198,3.9322,3.6665,3.388,3.1095,2.8663,2.623,2.4535,2.284,2.1553,2.0265,1.917,1.8075,1.709,1.6105,1.524,1.4375,1.3615,1.2855,1.222,1.1585
1.081,1.138,1.195,1.255,1.315,1.3885,1.462,1.5435,1.625,1.712,1.799,1.9115,2.024,2.16,2.296,2.447,2.598,2.759,2.92,3.084,3.248,3.43,3.612,3.796,3.98,4.142,4.304,4.669,5.034,5.5795,6.125,6.2845,6.444,6.615,6.786,7.242,7.698,7.631,7.564,7.783,8.002,8.1915,8.381,8.495,8.609,8.9815,9.354,9.458,9.562,9.785,10.008,9.953,9.898,10.014,10.129,10.5,10.872,10.765,10.657,10.399,10.141,10.712,11.282,11.379,11.476,11.724,11.971,11.54,11.108,11.035,10.961,11.311,11.661,10.983,10.305,10.581,10.856,10.552,10.248,9.4365,8.625,8.045,7.465,7.138,6.811,6.4775,6.144,5.777,5.41,5.043,4.676,4.3945,4.113,3.8,3.487,3.1825,2.878,2.664,2.45,2.304,2.158,2.0385,1.919,1.8095,1.7,1.606,1.512,1.4305,1.349,1.2805,1.212
1.13,1.1932,1.2565,1.324,1.3915,1.4715,1.5515,1.64,1.7285,1.8375,1.9465,2.0855,2.2245,2.3792,2.534,2.7068,2.8795,3.059,3.2385,3.4282,3.618,3.8473,4.0765,4.3038,4.531,4.759,4.987,5.141,5.295,6.115,6.935,7.1182,7.3015,7.2938,7.286,7.6685,8.051,8.3413,8.6315,8.8842,9.137,9.3413,9.5455,9.6443,9.743,9.7908,9.8385,9.927,10.016,10.286,10.556,10.724,10.893,11.076,11.259,11.349,11.439,11.482,11.523,11.697,11.871,11.975,12.079,12.162,12.245,12.467,12.689,12.877,13.064,12.958,12.852,12.574,12.297,12.163,12.029,11.753,11.476,11.136,10.796,10.296,9.796,8.8283,7.8605,7.5055,7.1505,6.7743,6.398,6.0055,5.613,5.2118,4.8105,4.5338,4.257,3.9338,3.6105,3.2955,2.9805,2.7503,2.52,2.3613,2.2025,2.0797,1.957,1.8442,1.7315,1.6338,1.536,1.453,1.37,1.3003,1.2305
1.179,1.2485,1.318,1.393,1.468,1.5545,1.641,1.7365,1.832,1.963,2.094,2.2595,2.425,2.5985,2.772,2.9665,3.161,3.359,3.557,3.7725,3.988,4.2645,4.541,4.8115,5.082,5.376,5.67,5.613,5.556,6.6505,7.745,7.952,8.159,7.9725,7.786,8.095,8.404,9.0515,9.699,9.9855,10.272,10.491,10.71,10.794,10.877,10.6,10.323,10.396,10.469,10.787,11.104,11.496,11.887,12.137,12.388,12.198,12.007,12.198,12.39,12.996,13.601,13.239,12.877,12.945,13.013,13.21,13.407,14.214,15.021,14.881,14.742,13.837,12.932,13.343,13.753,12.925,12.096,11.72,11.343,11.155,10.967,9.6115,8.256,7.873,7.49,7.071,6.652,6.234,5.816,5.3805,4.945,4.673,4.401,4.0675,3.734,3.4085,3.083,2.8365,2.59,2.4185,2.247,2.121,1.995,1.879,1.763,1.6615,1.56,1.4755,1.391,1.32,1.249
1.196,1.2675,1.339,1.416,1.493,1.5815,1.67,1.7708,1.8715,2.0092,2.147,2.3203,2.4935,2.6745,2.8555,3.059,3.2625,3.4685,3.6745,3.907,4.1395,4.428,4.7165,5.0035,5.2905,5.6072,5.924,6.2168,6.5095,7.3105,8.1115,8.3957,8.68,8.7345,8.789,9.2948,9.8005,10.016,10.232,10.557,10.883,11.118,11.354,11.484,11.615,11.816,12.018,12.161,12.305,12.53,12.755,12.907,13.06,13.283,13.506,13.839,14.172,14.09,14.007,14.135,14.262,14.44,14.617,14.745,14.873,15.107,15.342,15.561,15.78,15.644,15.509,15.25,14.991,14.728,14.465,14.236,14.006,13.543,13.079,12.294,11.508,10.653,9.798,9.2355,8.673,8.1227,7.5725,7.0663,6.56,6.0337,5.5075,5.1828,4.858,4.4812,4.1045,3.7422,3.38,3.0955,2.811,2.602,2.393,2.2503,2.1075,1.9813,1.855,1.745,1.635,1.543,1.451,1.3752,1.2995
1.213,1.2865,1.36,1.439,1.518,1.6085,1.699,1.805,1.911,2.0555,2.2,2.381,2.562,2.7505,2.939,3.1515,3.364,3.578,3.792,4.0415,4.291,4.5915,4.892,5.1955,5.499,5.8385,6.178,6.8205,7.463,7.9705,8.478,8.8395,9.201,9.4965,9.792,10.495,11.197,10.981,10.764,11.128,11.493,11.745,11.997,12.175,12.352,13.032,13.713,13.927,14.14,14.273,14.405,14.319,14.233,14.428,14.623,15.481,16.338,15.981,15.624,15.274,14.924,15.64,16.357,16.544,16.732,17.004,17.276,16.907,16.538,16.407,16.276,16.663,17.05,16.113,15.176,15.547,15.917,15.366,14.815,13.432,12.049,11.695,11.34,10.598,9.856,9.1745,8.493,7.8985,7.304,6.687,6.07,5.6925,5.315,4.895,4.475,4.076,3.677,3.3545,3.032,2.7855,2.539,2.3795,2.22,2.0835,1.947,1.8285,1.71,1.6105,1.511,1.4305,1.35
1.267,1.3453,1.4235,1.508,1.5925,1.6913,1.79,1.9118,2.0335,2.2068,2.38,2.5955,2.811,3.0187,3.2265,3.474,3.7215,3.9587,4.196,4.519,4.842,5.1885,5.535,5.6975,5.86,6.4845,7.109,7.4567,7.8045,8.7645,9.7245,10.116,10.507,10.85,11.192,11.445,11.698,12.057,12.416,12.811,13.207,13.367,13.526,13.774,14.022,14.199,14.376,14.581,14.787,14.869,14.951,15.296,15.641,15.751,15.862,16.485,17.109,16.956,16.804,16.96,17.117,17.229,17.34,17.538,17.735,17.964,18.194,18.584,18.974,18.836,18.699,18.365,18.031,17.8,17.57,17.115,16.66,16.1,15.54,14.761,13.982,12.956,11.93,11.114,10.298,9.5652,8.8325,8.211,7.5895,6.9478,6.306,5.9052,5.5045,5.06,4.6155,4.1922,3.769,3.4375,3.106,2.8485,2.591,2.424,2.257,2.117,1.977,1.8567,1.7365,1.6325,1.5285,1.4472,1.366
1.321,1.404,1.487,1.577,1.667,1.774,1.881,2.0185,2.156,2.358,2.56,2.81,3.06,3.287,3.514,3.7965,4.079,4.3395,4.6,4.9965,5.393,5.7855,6.178,6.1995,6.221,7.1305,8.04,8.093,8.146,9.5585,10.971,11.392,11.813,12.203,12.592,12.395,12.198,13.133,14.067,14.494,14.921,14.988,15.055,15.374,15.692,15.366,15.039,15.236,15.433,15.465,15.498,16.273,17.048,17.074,17.1,17.49,17.88,17.932,17.983,18.647,19.31,18.817,18.324,18.531,18.737,18.925,19.112,20.261,21.409,21.265,21.122,20.066,19.011,19.488,19.964,18.684,17.404,16.834,16.264,16.09,15.915,14.217,12.52,11.63,10.74,9.956,9.172,8.5235,7.875,7.2085,6.542,6.118,5.694,5.225,4.756,4.3085,3.861,3.5205,3.18,2.9115,2.643,2.4685,2.294,2.1505,2.007,1.885,1.763,1.6545,1.546,1.464,1.382
1.338,1.423,1.508,1.6003,1.6925,1.8025,1.9125,2.0555,2.1985,2.4143,2.63,2.8893,3.1485,3.3842,3.62,3.9162,4.2125,4.4872,4.762,5.1897,5.6175,5.8978,6.178,6.5575,6.937,7.6753,8.4135,9.0183,9.623,10.554,11.484,11.913,12.343,12.756,13.169,13.621,14.073,14.441,14.81,15.266,15.723,15.832,15.94,16.329,16.718,17.084,17.449,17.624,17.799,17.753,17.708,18.138,18.569,18.858,19.147,19.772,20.398,20.181,19.965,20.029,20.093,20.298,20.503,20.775,21.047,21.272,21.496,21.574,21.653,21.505,21.356,21.258,21.16,20.928,20.696,20.163,19.631,19.016,18.401,17.49,16.578,15.354,14.13,13.058,11.985,11.115,10.246,9.534,8.822,8.094,7.366,6.834,6.302,5.708,5.114,4.6225,4.131,3.7687,3.4065,3.1025,2.7985,2.6008,2.403,2.2493,2.0955,1.9668,1.838,1.7223,1.6065,1.518,1.4295
1.355,1.442,1.529,1.6235,1.718,1.831,1.944,2.0925,2.241,2.4705,2.7,2.9685,3.237,3.4815,3.726,4.036,4.346,4.635,4.924,5.383,5.842,6.01,6.178,6.9155,7.653,8.22,8.787,9.9435,11.1,11.549,11.997,12.435,12.873,13.309,13.745,14.846,15.947,15.75,15.552,16.038,16.525,16.675,16.825,17.285,17.745,18.802,19.859,20.011,20.164,20.041,19.918,20.003,20.089,20.642,21.194,22.055,22.915,22.431,21.946,21.412,20.877,21.779,22.682,23.02,23.358,23.618,23.879,22.888,21.897,21.744,21.59,22.45,23.309,22.368,21.428,21.643,21.858,21.198,20.538,18.89,17.242,16.491,15.74,14.485,13.23,12.275,11.32,10.544,9.769,8.9795,8.19,7.55,6.91,6.191,5.472,4.9365,4.401,4.017,3.633,3.2935,2.954,2.733,2.512,2.348,2.184,2.0485,1.913,1.79,1.667,1.572,1.477
1.402,1.4945,1.587,1.6885,1.79,1.911,2.032,2.1935,2.355,2.6105,2.866,3.1733,3.4805,3.772,4.0635,4.4422,4.821,5.1692,5.5175,6.0352,6.553,6.9362,7.3195,8.0273,8.735,9.4343,10.134,10.857,11.58,12.603,13.627,14.12,14.614,15.121,15.627,16.11,16.593,17.215,17.838,18.428,19.017,19.071,19.125,19.64,20.154,20.428,20.702,20.855,21.009,20.901,20.794,21.552,22.31,22.648,22.987,23.356,23.724,23.595,23.467,23.444,23.422,23.708,23.995,24.024,24.053,24.225,24.398,24.089,23.782,23.657,23.532,23.716,23.9,23.189,22.479,22.311,22.143,21.46,20.776,20.051,19.326,17.863,16.4,15.045,13.69,12.695,11.7,10.887,10.075,9.2482,8.422,7.7502,7.0785,6.3433,5.608,5.0638,4.5195,4.1175,3.7155,3.359,3.0025,2.7745,2.5465,2.3795,2.2125,2.0743,1.936,1.81,1.684,1.5878,1.4915
1.449,1.547,1.645,1.7535,1.862,1.991,2.12,2.2945,2.469,2.7505,3.032,3.378,3.724,4.0625,4.401,4.8485,5.296,5.7035,6.111,6.6875,7.264,7.8625,8.461,9.139,9.817,10.649,11.48,11.77,12.06,13.658,15.256,15.806,16.355,16.932,17.509,17.374,17.238,18.681,20.124,20.817,21.51,21.468,21.425,21.994,22.563,22.054,21.545,21.699,21.853,21.762,21.671,23.101,24.53,24.655,24.78,24.657,24.533,24.76,24.987,25.477,25.966,25.636,25.307,25.027,24.747,24.831,24.916,25.291,25.666,25.571,25.475,24.983,24.49,24.01,23.529,22.979,22.429,21.722,21.015,21.212,21.41,19.235,17.06,15.605,14.15,13.115,12.08,11.23,10.38,9.517,8.654,7.9505,7.247,6.4955,5.744,5.191,4.638,4.218,3.798,3.4245,3.051,2.816,2.581,2.411,2.241,2.1,1.959,1.83,1.701,1.6035,1.506
1.4635,1.5628,1.662,1.7733,1.8845,2.016,2.1475,2.3258,2.504,2.7912,3.0785,3.4308,3.783,4.148,4.513,4.9812,5.4495,5.8747,6.3,6.893,7.486,8.1115,8.737,9.4527,10.169,11.039,11.91,12.732,13.555,14.704,15.852,16.423,16.994,17.598,18.201,18.839,19.476,20.18,20.884,21.598,22.311,22.309,22.308,22.905,23.503,23.839,24.175,24.425,24.676,24.506,24.336,25.148,25.96,26.235,26.51,26.743,26.977,26.883,26.79,26.772,26.754,26.605,26.457,26.435,26.413,26.509,26.605,27.052,27.499,27.51,27.522,27.031,26.541,25.918,25.295,24.669,24.043,23.244,22.445,21.998,21.551,20.138,18.725,17.212,15.7,14.465,13.23,12.238,11.245,10.261,9.276,8.4635,7.651,6.9225,6.194,5.6195,5.045,4.5415,4.038,3.6165,3.195,2.9373,2.6795,2.4977,2.316,2.1683,2.0205,1.8847,1.749,1.6477,1.5465
1.478,1.5785,1.679,1.793,1.907,2.041,2.175,2.357,2.539,2.832,3.125,3.4835,3.842,4.2335,4.625,5.114,5.603,6.046,6.489,7.0985,7.708,8.3605,9.013,9.7665,10.52,11.43,12.34,13.695,15.05,15.749,16.448,17.04,17.632,18.263,18.894,20.304,21.713,21.679,21.644,22.378,23.112,23.151,23.19,23.817,24.443,25.624,26.805,27.151,27.498,27.249,27,27.195,27.39,27.815,28.24,28.83,29.42,29.006,28.592,28.066,27.541,27.574,27.607,27.843,28.078,28.186,28.295,28.813,29.331,29.45,29.568,29.079,28.591,27.826,27.061,26.359,25.657,24.767,23.876,22.784,21.692,21.041,20.39,18.82,17.25,15.815,14.38,13.245,12.11,11.004,9.898,8.9765,8.055,7.3495,6.644,6.048,5.452,4.865,4.278,3.8085,3.339,3.0585,2.778,2.5845,2.391,2.2365,2.082,1.9395,1.797,1.692,1.587
1.52,1.6248,1.7295,1.8485,1.9675,2.1077,2.248,2.4417,2.6355,2.947,3.2585,3.6413,4.024,4.4615,4.899,5.4365,5.974,6.4992,7.0245,7.7337,8.443,9.2048,9.9665,10.798,11.63,12.605,13.58,14.565,15.55,16.919,18.288,18.926,19.564,20.253,20.943,21.669,22.395,23.591,24.787,25.604,26.421,26.22,26.02,26.489,26.959,27.281,27.603,27.929,28.256,28.081,27.905,28.672,29.44,29.453,29.465,29.822,30.18,29.986,29.791,29.365,28.94,29.11,29.281,29.485,29.69,29.776,29.861,30.399,30.937,31.068,31.199,30.549,29.9,29.05,28.2,27.458,26.716,25.817,24.917,23.821,22.724,21.605,20.485,19.067,17.65,16.153,14.655,13.468,12.28,11.172,10.064,9.125,8.186,7.4875,6.789,6.1703,5.5515,4.9417,4.332,3.8545,3.377,3.0903,2.8035,2.6078,2.412,2.2545,2.097,1.9552,1.8135,1.7058,1.598
1.562,1.671,1.78,1.904,2.028,2.1745,2.321,2.5265,2.732,3.062,3.392,3.799,4.206,4.6895,5.173,5.759,6.345,6.9525,7.56,8.369,9.178,10.049,10.92,11.83,12.74,13.78,14.82,15.435,16.05,18.089,20.128,20.812,21.496,22.244,22.992,23.035,23.077,25.504,27.93,28.83,29.73,29.29,28.849,29.161,29.474,28.937,28.401,28.707,29.014,28.912,28.81,30.15,31.49,31.09,30.69,30.815,30.94,30.965,30.99,30.664,30.338,30.647,30.955,31.128,31.301,31.365,31.428,31.985,32.542,32.686,32.831,32.02,31.208,30.274,29.34,28.558,27.775,26.867,25.958,24.858,23.757,22.168,20.58,19.315,18.05,16.49,14.93,13.69,12.45,11.34,10.23,9.2735,8.317,7.6255,6.934,6.2925,5.651,5.0185,4.386,3.9005,3.415,3.122,2.829,2.631,2.433,2.2725,2.112,1.971,1.83,1.7195,1.609
1.5745,1.6855,1.7965,1.9212,2.046,2.1948,2.3435,2.552,2.7605,3.0978,3.435,3.8533,4.2715,4.7625,5.2535,5.837,6.4205,7.0473,7.674,8.5065,9.339,10.245,11.15,12.088,13.025,14.09,15.155,16.258,17.36,18.983,20.605,21.382,22.158,23.328,24.498,25.15,25.803,27.63,29.456,30.456,31.456,31.351,31.248,31.382,31.516,31.395,31.273,31.565,31.857,31.651,31.445,32.013,32.58,32.605,32.63,32.995,33.36,32.78,32.2,31.797,31.393,31.654,31.915,32.098,32.281,32.389,32.498,33.081,33.665,33.782,33.898,32.981,32.065,31.13,30.195,29.395,28.594,27.639,26.685,25.535,24.386,22.756,21.125,19.95,18.775,17.157,15.54,14.245,12.95,11.825,10.7,9.691,8.682,7.9665,7.251,6.5557,5.8605,5.2,4.5395,4.029,3.5185,3.206,2.8935,2.6865,2.4795,2.3152,2.151,2.0067,1.8625,1.7493,1.636
1.587,1.7,1.813,1.9385,2.064,2.215,2.366,2.5775,2.789,3.1335,3.478,3.9075,4.337,4.8355,5.334,5.915,6.496,7.142,7.788,8.644,9.5,10.44,11.38,12.345,13.31,14.4,15.49,17.08,18.67,19.876,21.082,21.951,22.82,24.412,26.003,27.265,28.528,29.755,30.983,32.082,33.181,33.413,33.646,33.602,33.559,33.852,34.145,34.422,34.7,34.39,34.08,33.875,33.67,34.12,34.57,35.175,35.78,34.595,33.41,32.929,32.448,32.662,32.875,33.068,33.261,33.414,33.567,34.177,34.787,34.877,34.966,33.944,32.921,31.986,31.051,30.232,29.413,28.412,27.411,26.214,25.016,23.343,21.67,20.585,19.5,17.825,16.15,14.8,13.45,12.31,11.17,10.108,9.047,8.3075,7.568,6.819,6.07,5.3815,4.693,4.1575,3.622,3.29,2.958,2.742,2.526,2.358,2.19,2.0425,1.895,1.779,1.663
1.616,1.7325,1.849,1.979,2.109,2.268,2.427,2.6455,2.864,3.2287,3.5935,4.061,4.5285,5.0475,5.5665,6.1808,6.795,7.4783,8.1615,9.0407,9.92,10.923,11.925,12.988,14.05,15.305,16.56,17.8,19.04,20.643,22.247,23.324,24.401,25.718,27.035,28.226,29.417,30.692,31.967,33.072,34.179,34.367,34.555,34.439,34.323,34.692,35.062,35.319,35.575,35.472,35.37,35.395,35.42,35.697,35.975,36.132,36.29,35.695,35.1,34.48,33.859,33.986,34.112,34.364,34.617,34.769,34.92,35.463,36.006,36.015,36.024,34.958,33.892,32.943,31.993,31.125,30.257,29.208,28.159,26.923,25.687,23.931,22.175,20.915,19.655,17.967,16.28,14.935,13.59,12.435,11.28,10.206,9.132,8.3808,7.6295,6.863,6.0965,5.4117,4.727,4.191,3.655,3.3155,2.976,2.7553,2.5345,2.3655,2.1965,2.0493,1.902,1.7855,1.669
1.645,1.765,1.885,2.0195,2.154,2.321,2.488,2.7135,2.939,3.324,3.709,4.2145,4.72,5.2595,5.799,6.4465,7.094,7.8145,8.535,9.4375,10.34,11.405,12.47,13.63,14.79,16.21,17.63,18.52,19.41,21.41,23.411,24.696,25.981,27.023,28.066,29.186,30.307,31.629,32.95,34.063,35.176,35.32,35.465,35.276,35.087,35.533,35.979,36.215,36.45,36.555,36.66,36.915,37.17,37.275,37.38,37.09,36.8,36.795,36.79,36.03,35.27,35.31,35.349,35.661,35.973,36.123,36.273,36.749,37.225,37.154,37.082,35.972,34.863,33.9,32.936,32.019,31.101,30.003,28.906,27.632,26.358,24.519,22.68,21.245,19.81,18.11,16.41,15.07,13.73,12.56,11.39,10.304,9.217,8.454,7.691,6.907,6.123,5.442,4.761,4.2245,3.688,3.341,2.994,2.7685,2.543,2.373,2.203,2.056,1.909,1.792,1.675
1.6525,1.7738,1.895,2.0313,2.1675,2.3362,2.505,2.7335,2.962,3.354,3.746,4.2665,4.787,5.3375,5.888,6.5483,7.2085,7.95,8.6915,9.5983,10.505,11.59,12.675,13.863,15.05,16.498,17.945,19.31,20.675,22.65,24.624,25.796,26.967,28.045,29.123,30.254,31.385,32.717,34.049,35.105,36.162,36.306,36.45,36.26,36.07,36.369,36.668,36.852,37.035,37.212,37.39,37.885,38.38,38.495,38.61,38.415,38.22,37.915,37.61,36.883,36.155,36.236,36.316,36.647,36.977,37.163,37.35,37.812,38.275,38.188,38.1,37.03,35.961,34.919,33.876,32.93,31.985,30.828,29.672,28.358,27.043,25.126,23.21,21.787,20.365,18.6,16.835,15.465,14.095,12.878,11.66,10.554,9.4475,8.63,7.8125,6.9833,6.154,5.4987,4.8435,4.3145,3.7855,3.4083,3.031,2.7988,2.5665,2.3937,2.221,2.0735,1.926,1.8075,1.689
1.66,1.7825,1.905,2.043,2.181,2.3515,2.522,2.7535,2.985,3.384,3.783,4.3185,4.854,5.4155,5.977,6.65,7.323,8.0855,8.848,9.759,10.67,11.775,12.88,14.095,15.31,16.785,18.26,20.1,21.94,23.889,25.837,26.895,27.953,29.066,30.179,31.321,32.463,33.805,35.147,36.148,37.148,37.291,37.434,37.244,37.054,37.206,37.357,37.489,37.62,37.87,38.12,38.855,39.59,39.715,39.84,39.74,39.64,39.035,38.43,37.735,37.04,37.162,37.284,37.633,37.982,38.204,38.426,38.876,39.325,39.221,39.118,38.088,37.059,35.938,34.816,33.842,32.868,31.654,30.439,29.083,27.727,25.733,23.74,22.33,20.92,19.09,17.26,15.86,14.46,13.195,11.93,10.804,9.678,8.806,7.934,7.0595,6.185,5.5555,4.926,4.4045,3.883,3.4755,3.068,2.829,2.59,2.4145,2.239,2.091,1.943,1.823,1.703
1.6755,1.7988,1.922,2.0643,2.2065,2.3795,2.5525,2.788,3.0235,3.4303,3.837,4.3987,4.9605,5.574,6.1875,6.9055,7.6235,8.411,9.1985,10.167,11.135,12.288,13.44,14.778,16.115,17.743,19.37,21.215,23.06,24.868,26.677,27.747,28.818,29.971,31.124,32.269,33.413,34.793,36.173,37.183,38.193,38.39,38.588,38.322,38.057,38.059,38.061,38.116,38.17,38.407,38.645,39.435,40.225,40.428,40.63,40.407,40.185,39.797,39.41,38.735,38.06,38.201,38.342,38.601,38.86,39.054,39.248,39.669,40.09,39.954,39.818,38.797,37.776,36.609,35.443,34.339,33.235,31.964,30.694,29.428,28.162,26.221,24.28,22.627,20.975,19.213,17.45,16.01,14.57,13.3,12.03,10.877,9.7245,8.8325,7.9405,7.07,6.1995,5.5785,4.9575,4.428,3.8985,3.4843,3.07,2.8315,2.593,2.4175,2.242,2.094,1.946,1.825,1.704
1.691,1.815,1.939,2.0855,2.232,2.4075,2.583,2.8225,3.062,3.4765,3.891,4.479,5.067,5.7325,6.398,7.161,7.924,8.7365,9.549,10.575,11.6,12.8,14,15.46,16.92,18.7,20.48,22.33,24.18,25.848,27.516,28.599,29.683,30.876,32.069,33.216,34.363,35.781,37.199,38.218,39.237,39.49,39.743,39.401,39.059,38.912,38.766,38.743,38.72,38.945,39.17,40.015,40.86,41.14,41.42,41.075,40.73,40.56,40.39,39.735,39.08,39.24,39.4,39.569,39.738,39.903,40.069,40.462,40.856,40.687,40.518,39.506,38.494,37.282,36.069,34.835,33.602,32.275,30.948,29.772,28.596,26.708,24.82,22.925,21.03,19.335,17.64,16.16,14.68,13.405,12.13,10.951,9.771,8.859,7.947,7.0805,6.214,5.6015,4.989,4.4515,3.914,3.493,3.072,2.834,2.596,2.4205,2.245,2.097,1.949,1.827,1.705
1.695,1.8192,1.9435,2.0905,2.2375,2.4135,2.5895,2.8282,3.067,3.4852,3.9035,4.4965,5.0895,5.7523,6.415,7.1895,7.964,8.7982,9.6325,10.686,11.74,12.948,14.155,15.645,17.135,18.97,20.805,22.805,24.805,26.522,28.24,29.322,30.405,31.675,32.946,34.175,35.404,36.808,38.212,39.214,40.216,40.46,40.704,40.346,39.989,39.799,39.609,39.487,39.365,39.415,39.465,40.207,40.95,41.383,41.815,41.643,41.47,41.093,40.715,40.067,39.42,39.563,39.705,39.9,40.095,40.294,40.493,40.877,41.261,41.058,40.856,39.858,38.86,37.559,36.258,34.985,33.712,32.375,31.038,29.908,28.779,26.952,25.125,23.102,21.08,19.288,17.495,15.995,14.495,13.25,12.005,10.874,9.7435,8.8595,7.9755,7.1493,6.323,5.6868,5.0505,4.4828,3.915,3.4935,3.072,2.834,2.596,2.42,2.244,2.0962,1.9485,1.8253,1.702
1.699,1.8235,1.948,2.0955,2.243,2.4195,2.596,2.834,3.072,3.494,3.916,4.514,5.112,5.772,6.432,7.218,8.004,8.86,9.716,10.798,11.88,13.095,14.31,15.83,17.35,19.24,21.13,23.28,25.43,27.197,28.963,30.045,31.127,32.474,33.822,35.134,36.446,37.836,39.226,40.21,41.195,41.43,41.665,41.291,40.918,40.685,40.452,40.231,40.01,39.885,39.76,40.4,41.04,41.625,42.21,42.21,42.21,41.625,41.04,40.4,39.76,39.885,40.01,40.231,40.452,40.685,40.918,41.291,41.665,41.43,41.195,40.21,39.226,37.836,36.446,35.134,33.822,32.474,31.127,30.045,28.963,27.197,25.43,23.28,21.13,19.24,17.35,15.83,14.31,13.095,11.88,10.798,9.716,8.86,8.004,7.218,6.432,5.772,5.112,4.514,3.916,3.494,3.072,2.834,2.596,2.4195,2.243,2.0955,1.948,1.8235,1.699
1.702,1.8253,1.9485,2.0962,2.244,2.42,2.596,2.834,3.072,3.4935,3.915,4.4828,5.0505,5.6868,6.323,7.1492,7.9755,8.8595,9.7435,10.874,12.005,13.25,14.495,15.995,17.495,19.288,21.08,23.102,25.125,26.952,28.779,29.908,31.038,32.375,33.712,34.985,36.258,37.559,38.86,39.858,40.856,41.059,41.261,40.877,40.493,40.294,40.095,39.9,39.705,39.563,39.42,40.067,40.715,41.093,41.47,41.642,41.815,41.383,40.95,40.207,39.465,39.415,39.365,39.487,39.609,39.799,39.989,40.346,40.704,40.46,40.216,39.214,38.212,36.808,35.404,34.175,32.946,31.675,30.405,29.322,28.24,26.522,24.805,22.805,20.805,18.97,17.135,15.645,14.155,12.948,11.74,10.686,9.6325,8.7982,7.964,7.1895,6.415,5.7523,5.0895,4.4965,3.9035,3.4852,3.067,2.8283,2.5895,2.4135,2.2375,2.0905,1.9435,1.8193,1.695
1.705,1.827,1.949,2.097,2.245,2.4205,2.596,2.834,3.072,3.493,3.914,4.4515,4.989,5.6015,6.214,7.0805,7.947,8.859,9.771,10.951,12.13,13.405,14.68,16.16,17.64,19.335,21.03,22.925,24.82,26.708,28.596,29.772,30.948,32.275,33.602,34.835,36.069,37.282,38.494,39.506,40.518,40.687,40.856,40.462,40.069,39.903,39.738,39.569,39.4,39.24,39.08,39.735,40.39,40.56,40.73,41.075,41.42,41.14,40.86,40.015,39.17,38.945,38.72,38.743,38.766,38.912,39.059,39.401,39.743,39.49,39.237,38.218,37.199,35.781,34.363,33.216,32.069,30.876,29.683,28.599,27.516,25.848,24.18,22.33,20.48,18.7,16.92,15.46,14,12.8,11.6,10.575,9.549,8.7365,7.924,7.161,6.398,5.7325,5.067,4.479,3.891,3.4765,3.062,2.8225,2.583,2.4075,2.232,2.0855,1.939,1.815,1.691
1.704,1.825,1.946,2.094,2.242,2.4175,2.593,2.8315,3.07,3.4843,3.8985,4.428,4.9575,5.5785,6.1995,7.07,7.9405,8.8325,9.7245,10.877,12.03,13.3,14.57,16.01,17.45,19.213,20.975,22.628,24.28,26.221,28.162,29.428,30.694,31.964,33.235,34.339,35.443,36.609,37.776,38.797,39.818,39.954,40.09,39.669,39.248,39.054,38.86,38.601,38.342,38.201,38.06,38.735,39.41,39.797,40.185,40.407,40.63,40.428,40.225,39.435,38.645,38.407,38.17,38.116,38.061,38.059,38.057,38.322,38.588,38.391,38.193,37.183,36.173,34.793,33.413,32.269,31.124,29.971,28.818,27.747,26.677,24.868,23.06,21.215,19.37,17.743,16.115,14.778,13.44,12.288,11.135,10.167,9.1985,8.411,7.6235,6.9055,6.1875,5.574,4.9605,4.3988,3.837,3.4302,3.0235,2.788,2.5525,2.3795,2.2065,2.0642,1.922,1.7988,1.6755
1.703,1.823,1.943,2.091,2.239,2.4145,2.59,2.829,3.068,3.4755,3.883,4.4045,4.926,5.5555,6.185,7.0595,7.934,8.806,9.678,10.804,11.93,13.195,14.46,15.86,17.26,19.09,20.92,22.33,23.74,25.733,27.727,29.083,30.439,31.654,32.868,33.842,34.816,35.938,37.059,38.088,39.118,39.221,39.325,38.876,38.426,38.204,37.982,37.633,37.284,37.162,37.04,37.735,38.43,39.035,39.64,39.74,39.84,39.715,39.59,38.855,38.12,37.87,37.62,37.489,37.357,37.206,37.054,37.244,37.434,37.291,37.148,36.148,35.147,33.805,32.463,31.321,30.179,29.066,27.953,26.895,25.837,23.889,21.94,20.1,18.26,16.785,15.31,14.095,12.88,11.775,10.67,9.759,8.848,8.0855,7.323,6.65,5.977,5.4155,4.854,4.3185,3.783,3.384,2.985,2.7535,2.522,2.3515,2.181,2.043,1.905,1.7825,1.66
1.689,1.8075,1.926,2.0735,2.221,2.3937,2.5665,2.7988,3.031,3.4083,3.7855,4.3145,4.8435,5.4988,6.154,6.9833,7.8125,8.63,9.4475,10.554,11.66,12.878,14.095,15.465,16.835,18.6,20.365,21.788,23.21,25.126,27.043,28.358,29.672,30.828,31.985,32.93,33.876,34.919,35.961,37.03,38.1,38.188,38.275,37.812,37.35,37.163,36.977,36.647,36.316,36.236,36.155,36.883,37.61,37.915,38.22,38.415,38.61,38.495,38.38,37.885,37.39,37.213,37.035,36.852,36.668,36.369,36.07,36.26,36.45,36.306,36.162,35.105,34.049,32.717,31.385,30.254,29.123,28.045,26.967,25.796,24.624,22.65,20.675,19.31,17.945,16.498,15.05,13.863,12.675,11.59,10.505,9.5983,8.6915,7.95,7.2085,6.5483,5.888,5.3375,4.787,4.2665,3.746,3.354,2.962,2.7335,2.505,2.3362,2.1675,2.0313,1.895,1.7738,1.6525
1.675,1.792,1.909,2.056,2.203,2.373,2.543,2.7685,2.994,3.341,3.688,4.2245,4.761,5.442,6.123,6.907,7.691,8.454,9.217,10.304,11.39,12.56,13.73,15.07,16.41,18.11,19.81,21.245,22.68,24.519,26.358,27.632,28.906,30.003,31.101,32.019,32.936,33.9,34.863,35.972,37.082,37.154,37.225,36.749,36.273,36.123,35.973,35.661,35.349,35.31,35.27,36.03,36.79,36.795,36.8,37.09,37.38,37.275,37.17,36.915,36.66,36.555,36.45,36.215,35.979,35.533,35.087,35.276,35.465,35.32,35.176,34.063,32.95,31.629,30.307,29.186,28.066,27.023,25.981,24.696,23.411,21.41,19.41,18.52,17.63,16.21,14.79,13.63,12.47,11.405,10.34,9.4375,8.535,7.8145,7.094,6.4465,5.799,5.2595,4.72,4.2145,3.709,3.324,2.939,2.7135,2.488,2.321,2.154,2.0195,1.885,1.765,1.645
1.669,1.7855,1.902,2.0492,2.1965,2.3655,2.5345,2.7553,2.976,3.3155,3.655,4.191,4.727,5.4117,6.0965,6.863,7.6295,8.3807,9.132,10.206,11.28,12.435,13.59,14.935,16.28,17.968,19.655,20.915,22.175,23.931,25.687,26.923,28.159,29.208,30.257,31.125,31.993,32.943,33.892,34.958,36.024,36.015,36.006,35.463,34.92,34.769,34.617,34.365,34.112,33.986,33.859,34.48,35.1,35.695,36.29,36.132,35.975,35.697,35.42,35.395,35.37,35.472,35.575,35.319,35.062,34.692,34.323,34.439,34.555,34.367,34.179,33.072,31.967,30.692,29.417,28.226,27.035,25.718,24.401,23.324,22.247,20.643,19.04,17.8,16.56,15.305,14.05,12.988,11.925,10.923,9.92,9.0407,8.1615,7.4783,6.795,6.1808,5.5665,5.0475,4.5285,4.061,3.5935,3.2287,2.864,2.6455,2.427,2.268,2.109,1.979,1.849,1.7325,1.616
1.663,1.779,1.895,2.0425,2.19,2.358,2.526,2.742,2.958,3.29,3.622,4.1575,4.693,5.3815,6.07,6.819,7.568,8.3075,9.047,10.108,11.17,12.31,13.45,14.8,16.15,17.825,19.5,20.585,21.67,23.343,25.016,26.214,27.411,28.412,29.413,30.232,31.051,31.986,32.921,33.944,34.966,34.877,34.787,34.177,33.567,33.414,33.261,33.068,32.875,32.662,32.448,32.929,33.41,34.595,35.78,35.175,34.57,34.12,33.67,33.875,34.08,34.39,34.7,34.422,34.145,33.852,33.559,33.602,33.646,33.413,33.181,32.082,30.983,29.755,28.528,27.265,26.003,24.412,22.82,21.951,21.082,19.876,18.67,17.08,15.49,14.4,13.31,12.345,11.38,10.44,9.5,8.644,7.788,7.142,6.496,5.915,5.334,4.8355,4.337,3.9075,3.478,3.1335,2.789,2.5775,2.366,2.215,2.064,1.9385,1.813,1.7,1.587
1.636,1.7493,1.8625,2.0068,2.151,2.3152,2.4795,2.6865,2.8935,3.206,3.5185,4.029,4.5395,5.2,5.8605,6.5558,7.251,7.9665,8.682,9.691,10.7,11.825,12.95,14.245,15.54,17.157,18.775,19.95,21.125,22.756,24.386,25.535,26.685,27.639,28.594,29.395,30.195,31.13,32.065,32.981,33.898,33.782,33.665,33.081,32.498,32.389,32.281,32.098,31.915,31.654,31.393,31.797,32.2,32.78,33.36,32.995,32.63,32.605,32.58,32.013,31.445,31.651,31.857,31.565,31.273,31.395,31.516,31.382,31.248,31.352,31.456,30.456,29.456,27.63,25.803,25.15,24.498,23.328,22.158,21.381,20.605,18.983,17.36,16.258,15.155,14.09,13.025,12.088,11.15,10.245,9.339,8.5065,7.674,7.0473,6.4205,5.837,5.2535,4.7625,4.2715,3.8533,3.435,3.0978,2.7605,2.552,2.3435,2.1948,2.046,1.9212,1.7965,1.6855,1.5745
1.609,1.7195,1.83,1.971,2.112,2.2725,2.433,2.631,2.829,3.122,3.415,3.9005,4.386,5.0185,5.651,6.2925,6.934,7.6255,8.317,9.2735,10.23,11.34,12.45,13.69,14.93,16.49,18.05,19.315,20.58,22.168,23.757,24.858,25.958,26.867,27.775,28.558,29.34,30.274,31.208,32.02,32.831,32.686,32.542,31.985,31.428,31.365,31.301,31.128,30.955,30.647,30.338,30.664,30.99,30.965,30.94,30.815,30.69,31.09,31.49,30.15,28.81,28.912,29.014,28.707,28.401,28.937,29.474,29.161,28.849,29.29,29.73,28.83,27.93,25.504,23.077,23.035,22.992,22.244,21.496,20.812,20.128,18.089,16.05,15.435,14.82,13.78,12.74,11.83,10.92,10.049,9.178,8.369,7.56,6.9525,6.345,5.759,5.173,4.6895,4.206,3.799,3.392,3.062,2.732,2.5265,2.321,2.1745,2.028,1.904,1.78,1.671,1.562
1.598,1.7057,1.8135,1.9552,2.097,2.2545,2.412,2.6078,2.8035,3.0903,3.377,3.8545,4.332,4.9417,5.5515,6.1702,6.789,7.4875,8.186,9.125,10.064,11.172,12.28,13.467,14.655,16.153,17.65,19.067,20.485,21.605,22.724,23.821,24.917,25.817,26.716,27.458,28.2,29.05,29.9,30.549,31.199,31.068,30.937,30.399,29.861,29.776,29.69,29.485,29.281,29.11,28.94,29.365,29.791,29.985,30.18,29.822,29.465,29.453,29.44,28.672,27.905,28.081,28.256,27.929,27.603,27.281,26.959,26.489,26.02,26.22,26.421,25.604,24.787,23.591,22.395,21.669,20.943,20.253,19.564,18.926,18.288,16.919,15.55,14.565,13.58,12.605,11.63,10.798,9.9665,9.2047,8.443,7.7337,7.0245,6.4993,5.974,5.4365,4.899,4.4615,4.024,3.6413,3.2585,2.947,2.6355,2.4417,2.248,2.1078,1.9675,1.8485,1.7295,1.6247,1.52
1.587,1.692,1.797,1.9395,2.082,2.2365,2.391,2.5845,2.778,3.0585,3.339,3.8085,4.278,4.865,5.452,6.048,6.644,7.3495,8.055,8.9765,9.898,11.004,12.11,13.245,14.38,15.815,17.25,18.82,20.39,21.041,21.692,22.784,23.876,24.767,25.657,26.359,27.061,27.826,28.591,29.079,29.568,29.45,29.331,28.813,28.295,28.186,28.078,27.843,27.607,27.574,27.541,28.066,28.592,29.006,29.42,28.83,28.24,27.815,27.39,27.195,27,27.249,27.498,27.151,26.805,25.624,24.443,23.817,23.19,23.151,23.112,22.378,21.644,21.679,21.713,20.304,18.894,18.263,17.632,17.04,16.448,15.749,15.05,13.695,12.34,11.43,10.52,9.7665,9.013,8.3605,7.708,7.0985,6.489,6.046,5.603,5.114,4.625,4.2335,3.842,3.4835,3.125,2.832,2.539,2.357,2.175,2.041,1.907,1.793,1.679,1.5785,1.478
1.5465,1.6477,1.749,1.8847,2.0205,2.1683,2.316,2.4977,2.6795,2.9373,3.195,3.6165,4.038,4.5415,5.045,5.6195,6.194,6.9225,7.651,8.4635,9.276,10.261,11.245,12.238,13.23,14.465,15.7,17.212,18.725,20.138,21.551,21.998,22.445,23.244,24.043,24.669,25.295,25.918,26.541,27.031,27.522,27.51,27.499,27.052,26.605,26.509,26.413,26.435,26.457,26.605,26.754,26.771,26.79,26.883,26.977,26.743,26.51,26.235,25.96,25.148,24.336,24.506,24.676,24.425,24.175,23.839,23.503,22.905,22.308,22.309,22.311,21.597,20.884,20.18,19.476,18.839,18.201,17.598,16.994,16.423,15.852,14.704,13.555,12.733,11.91,11.039,10.169,9.4528,8.737,8.1115,7.486,6.893,6.3,5.8747,5.4495,4.9813,4.513,4.148,3.783,3.4308,3.0785,2.7912,2.504,2.3258,2.1475,2.016,1.8845,1.7733,1.662,1.5627,1.4635
1.506,1.6035,1.701,1.83,1.959,2.1,2.241,2.411,2.581,2.816,3.051,3.4245,3.798,4.218,4.638,5.191,5.744,6.4955,7.247,7.9505,8.654,9.517,10.38,11.23,12.08,13.115,14.15,15.605,17.06,19.235,21.41,21.212,21.015,21.722,22.429,22.979,23.529,24.01,24.49,24.983,25.475,25.571,25.666,25.291,24.916,24.831,24.747,25.027,25.307,25.636,25.966,25.477,24.987,24.76,24.533,24.657,24.78,24.655,24.53,23.101,21.671,21.762,21.853,21.699,21.545,22.054,22.563,21.994,21.425,21.468,21.51,20.817,20.124,18.681,17.238,17.374,17.509,16.932,16.355,15.806,15.256,13.658,12.06,11.77,11.48,10.649,9.817,9.139,8.461,7.8625,7.264,6.6875,6.111,5.7035,5.296,4.8485,4.401,4.0625,3.724,3.378,3.032,2.7505,2.469,2.2945,2.12,1.991,1.862,1.7535,1.645,1.547,1.449
1.4915,1.5878,1.684,1.81,1.936,2.0743,2.2125,2.3795,2.5465,2.7745,3.0025,3.359,3.7155,4.1175,4.5195,5.0637,5.608,6.3433,7.0785,7.7502,8.422,9.2482,10.075,10.887,11.7,12.695,13.69,15.045,16.4,17.863,19.326,20.051,20.776,21.46,22.143,22.311,22.479,23.189,23.9,23.716,23.532,23.657,23.782,24.09,24.398,24.225,24.053,24.024,23.995,23.708,23.422,23.444,23.467,23.595,23.724,23.356,22.987,22.648,22.31,21.552,20.794,20.901,21.009,20.855,20.702,20.428,20.154,19.639,19.125,19.071,19.017,18.428,17.838,17.215,16.593,16.11,15.627,15.121,14.614,14.12,13.627,12.603,11.58,10.857,10.134,9.4343,8.735,8.0272,7.3195,6.9363,6.553,6.0352,5.5175,5.1692,4.821,4.4422,4.0635,3.772,3.4805,3.1733,2.866,2.6105,2.355,2.1935,2.032,1.911,1.79,1.6885,1.587,1.4945,1.402
1.477,1.572,1.667,1.79,1.913,2.0485,2.184,2.348,2.512,2.733,2.954,3.2935,3.633,4.017,4.401,4.9365,5.472,6.191,6.91,7.55,8.19,8.9795,9.769,10.544,11.32,12.275,13.23,14.485,15.74,16.491,17.242,18.89,20.538,21.198,21.858,21.643,21.428,22.368,23.309,22.45,21.59,21.744,21.897,22.888,23.879,23.618,23.358,23.02,22.682,21.779,20.877,21.412,21.946,22.431,22.915,22.055,21.194,20.642,20.089,20.003,19.918,20.041,20.164,20.011,19.859,18.802,17.745,17.285,16.825,16.675,16.525,16.038,15.552,15.75,15.947,14.846,13.745,13.309,12.873,12.435,11.997,11.549,11.1,9.9435,8.787,8.22,7.653,6.9155,6.178,6.01,5.842,5.383,4.924,4.635,4.346,4.036,3.726,3.4815,3.237,2.9685,2.7,2.4705,2.241,2.0925,1.944,1.831,1.718,1.6235,1.529,1.442,1.355
1.4295,1.518,1.6065,1.7223,1.838,1.9668,2.0955,2.2493,2.403,2.6007,2.7985,3.1025,3.4065,3.7687,4.131,4.6225,5.114,5.708,6.302,6.834,7.366,8.094,8.822,9.534,10.246,11.116,11.985,13.058,14.13,15.354,16.578,17.49,18.401,19.016,19.631,20.163,20.696,20.928,21.16,21.258,21.356,21.505,21.653,21.574,21.496,21.271,21.047,20.775,20.503,20.298,20.093,20.029,19.965,20.181,20.398,19.772,19.147,18.858,18.569,18.138,17.708,17.753,17.799,17.624,17.449,17.084,16.718,16.329,15.94,15.832,15.723,15.266,14.81,14.441,14.073,13.621,13.169,12.756,12.343,11.913,11.484,10.554,9.623,9.0183,8.4135,7.6753,6.937,6.5575,6.178,5.8978,5.6175,5.1898,4.762,4.4872,4.2125,3.9162,3.62,3.3843,3.1485,2.8893,2.63,2.4143,2.1985,2.0555,1.9125,1.8025,1.6925,1.6003,1.508,1.423,1.338
1.382,1.464,1.546,1.6545,1.763,1.885,2.007,2.1505,2.294,2.4685,2.643,2.9115,3.18,3.5205,3.861,4.3085,4.756,5.225,5.694,6.118,6.542,7.2085,7.875,8.5235,9.172,9.956,10.74,11.63,12.52,14.217,15.915,16.09,16.264,16.834,17.404,18.684,19.964,19.488,19.011,20.066,21.122,21.265,21.409,20.261,19.112,18.925,18.737,18.531,18.324,18.817,19.31,18.647,17.983,17.932,17.88,17.49,17.1,17.074,17.048,16.273,15.498,15.465,15.433,15.236,15.039,15.366,15.692,15.374,15.055,14.988,14.921,14.494,14.067,13.133,12.198,12.395,12.592,12.203,11.813,11.392,10.971,9.5585,8.146,8.093,8.04,7.1305,6.221,6.1995,6.178,5.7855,5.393,4.9965,4.6,4.3395,4.079,3.7965,3.514,3.287,3.06,2.81,2.56,2.358,2.156,2.0185,1.881,1.774,1.667,1.577,1.487,1.404,1.321
1.366,1.4473,1.5285,1.6325,1.7365,1.8568,1.977,2.117,2.257,2.424,2.591,2.8485,3.106,3.4375,3.769,4.1922,4.6155,5.06,5.5045,5.9053,6.306,6.9478,7.5895,8.211,8.8325,9.5653,10.298,11.114,11.93,12.956,13.982,14.761,15.54,16.1,16.66,17.115,17.57,17.8,18.031,18.365,18.699,18.836,18.974,18.584,18.194,17.964,17.735,17.538,17.34,17.229,17.117,16.96,16.804,16.956,17.109,16.485,15.862,15.751,15.641,15.296,14.951,14.869,14.787,14.581,14.376,14.199,14.022,13.774,13.526,13.366,13.207,12.811,12.416,12.057,11.698,11.445,11.192,10.85,10.507,10.116,9.7245,8.7645,7.8045,7.4568,7.109,6.4845,5.86,5.6975,5.535,5.1885,4.842,4.519,4.196,3.9587,3.7215,3.474,3.2265,3.0187,2.811,2.5955,2.38,2.2068,2.0335,1.9118,1.79,1.6912,1.5925,1.508,1.4235,1.3453,1.267
1.35,1.4305,1.511,1.6105,1.71,1.8285,1.947,2.0835,2.22,2.3795,2.539,2.7855,3.032,3.3545,3.677,4.076,4.475,4.895,5.315,5.6925,6.07,6.687,7.304,7.8985,8.493,9.1745,9.856,10.598,11.34,11.695,12.049,13.432,14.815,15.366,15.917,15.547,15.176,16.113,17.05,16.663,16.276,16.407,16.538,16.907,17.276,17.004,16.732,16.544,16.357,15.64,14.924,15.274,15.624,15.981,16.338,15.481,14.623,14.428,14.233,14.319,14.405,14.273,14.14,13.927,13.713,13.032,12.352,12.175,11.997,11.745,11.493,11.128,10.764,10.981,11.197,10.495,9.792,9.4965,9.201,8.8395,8.478,7.9705,7.463,6.8205,6.178,5.8385,5.499,5.1955,4.892,4.5915,4.291,4.0415,3.792,3.578,3.364,3.1515,2.939,2.7505,2.562,2.381,2.2,2.0555,1.911,1.805,1.699,1.6085,1.518,1.439,1.36,1.2865,1.213
1.2995,1.3752,1.451,1.543,1.635,1.745,1.855,1.9813,2.1075,2.2503,2.393,2.602,2.811,3.0955,3.38,3.7422,4.1045,4.4812,4.858,5.1828,5.5075,6.0338,6.56,7.0663,7.5725,8.1227,8.673,9.2355,9.798,10.653,11.508,12.293,13.079,13.543,14.006,14.236,14.465,14.728,14.991,15.25,15.509,15.644,15.78,15.561,15.342,15.107,14.873,14.745,14.617,14.44,14.262,14.135,14.007,14.09,14.172,13.839,13.506,13.283,13.06,12.907,12.755,12.53,12.305,12.161,12.018,11.816,11.615,11.484,11.354,11.118,10.883,10.557,10.232,10.016,9.8005,9.2948,8.789,8.7345,8.68,8.3957,8.1115,7.3105,6.5095,6.2167,5.924,5.6073,5.2905,5.0035,4.7165,4.428,4.1395,3.907,3.6745,3.4685,3.2625,3.059,2.8555,2.6745,2.4935,2.3203,2.147,2.0093,1.8715,1.7708,1.67,1.5815,1.493,1.416,1.339,1.2675,1.196
1.249,1.32,1.391,1.4755,1.56,1.6615,1.763,1.879,1.995,2.121,2.247,2.4185,2.59,2.8365,3.083,3.4085,3.734,4.0675,4.401,4.673,4.945,5.3805,5.816,6.234,6.652,7.071,7.49,7.873,8.256,9.6115,10.967,11.155,11.343,11.72,12.096,12.925,13.753,13.343,12.932,13.837,14.742,14.881,15.021,14.214,13.407,13.21,13.013,12.945,12.877,13.239,13.601,12.996,12.39,12.198,12.007,12.198,12.388,12.137,11.887,11.496,11.104,10.787,10.469,10.396,10.323,10.6,10.877,10.794,10.71,10.491,10.272,9.9855,9.699,9.0515,8.404,8.095,7.786,7.9725,8.159,7.952,7.745,6.6505,5.556,5.613,5.67,5.376,5.082,4.8115,4.541,4.2645,3.988,3.7725,3.557,3.359,3.161,2.9665,2.772,2.5985,2.425,2.2595,2.094,1.963,1.832,1.7365,1.641,1.5545,1.468,1.393,1.318,1.2485,1.179
1.2305,1.3003,1.37,1.453,1.536,1.6338,1.7315,1.8443,1.957,2.0797,2.2025,2.3613,2.52,2.7503,2.9805,3.2955,3.6105,3.9337,4.257,4.5337,4.8105,5.2118,5.613,6.0055,6.398,6.7743,7.1505,7.5055,7.8605,8.8283,9.796,10.296,10.796,11.136,11.476,11.753,12.029,12.163,12.297,12.574,12.852,12.958,13.064,12.877,12.689,12.467,12.245,12.162,12.079,11.975,11.871,11.697,11.523,11.482,11.439,11.349,11.259,11.075,10.893,10.724,10.556,10.286,10.016,9.927,9.8385,9.7908,9.743,9.6443,9.5455,9.3413,9.137,8.8842,8.6315,8.3413,8.051,7.6685,7.286,7.2938,7.3015,7.1182,6.935,6.115,5.295,5.141,4.987,4.759,4.531,4.3038,4.0765,3.8472,3.618,3.4282,3.2385,3.059,2.8795,2.7067,2.534,2.3792,2.2245,2.0855,1.9465,1.8375,1.7285,1.64,1.5515,1.4715,1.3915,1.324,1.2565,1.1932,1.13
1.212,1.2805,1.349,1.4305,1.512,1.606,1.7,1.8095,1.919,2.0385,2.158,2.304,2.45,2.664,2.878,3.1825,3.487,3.8,4.113,4.3945,4.676,5.043,5.41,5.777,6.144,6.4775,6.811,7.138,7.465,8.045,8.625,9.4365,10.248,10.552,10.856,10.581,10.305,10.983,11.661,11.311,10.961,11.035,11.108,11.54,11.971,11.724,11.476,11.379,11.282,10.712,10.141,10.399,10.657,10.765,10.872,10.5,10.129,10.014,9.898,9.953,10.008,9.785,9.562,9.458,9.354,8.9815,8.609,8.495,8.381,8.1915,8.002,7.783,7.564,7.631,7.698,7.242,6.786,6.615,6.444,6.2845,6.125,5.5795,5.034,4.669,4.304,4.142,3.98,3.796,3.612,3.43,3.248,3.084,2.92,2.759,2.598,2.447,2.296,2.16,2.024,1.9115,1.799,1.712,1.625,1.5435,1.462,1.3885,1.315,1.255,1.195,1.138,1.081
1.1585,1.222,1.2855,1.3615,1.4375,1.524,1.6105,1.709,1.8075,1.917,2.0265,2.1553,2.284,2.4535,2.623,2.8663,3.1095,3.388,3.6665,3.9323,4.198,4.494,4.79,5.071,5.352,5.6455,5.939,6.2575,6.576,7.449,8.322,8.663,9.004,9.267,9.53,9.6858,9.8415,10.118,10.394,10.425,10.457,10.51,10.563,10.545,10.527,10.353,10.18,10.099,10.018,9.8428,9.668,9.5968,9.5255,9.4923,9.459,9.3833,9.3075,9.178,9.0485,8.93,8.8115,8.6338,8.456,8.3532,8.2505,8.157,8.0635,7.962,7.8605,7.6938,7.527,7.3448,7.1625,7.0032,6.844,6.6483,6.4525,6.3,6.1475,6.0023,5.857,5.127,4.397,4.2595,4.122,3.9765,3.831,3.6628,3.4945,3.321,3.1475,2.9882,2.829,2.6732,2.5175,2.3722,2.227,2.0995,1.972,1.866,1.76,1.6755,1.591,1.5123,1.4335,1.3625,1.2915,1.233,1.1745,1.1192,1.064
1.105,1.1635,1.222,1.2925,1.363,1.442,1.521,1.6085,1.696,1.7955,1.895,2.0065,2.118,2.243,2.368,2.55,2.732,2.976,3.22,3.47,3.72,3.945,4.17,4.365,4.56,4.8135,5.067,5.377,5.687,6.853,8.019,7.8895,7.76,7.982,8.204,8.791,9.378,9.252,9.126,9.539,9.952,9.985,10.018,9.55,9.082,8.9825,8.883,8.818,8.753,8.974,9.195,8.7945,8.394,8.22,8.046,8.266,8.486,8.3425,8.199,7.907,7.615,7.4825,7.35,7.2485,7.147,7.3325,7.518,7.429,7.34,7.196,7.052,6.9065,6.761,6.3755,5.99,6.0545,6.119,5.985,5.851,5.72,5.589,4.6745,3.76,3.85,3.94,3.811,3.682,3.5295,3.377,3.212,3.047,2.8925,2.738,2.5875,2.437,2.2975,2.158,2.039,1.92,1.8205,1.721,1.639,1.557,1.481,1.405,1.3365,1.268,1.211,1.154,1.1005,1.047
1.089,1.1458,1.2025,1.2708,1.339,1.4165,1.494,1.5767,1.6595,1.7558,1.852,1.9598,2.0675,2.186,2.3045,2.4642,2.624,2.8432,3.0625,3.299,3.5355,3.7428,3.95,4.1532,4.3565,4.587,4.8175,5.1345,5.4515,6.2305,7.0094,7.1784,7.3475,7.548,7.7485,7.9648,8.181,8.4192,8.6575,8.6663,8.675,8.6758,8.6765,8.5898,8.503,8.418,8.333,8.2635,8.194,8.0985,8.003,7.898,7.793,7.725,7.657,7.6545,7.652,7.5827,7.5135,7.4008,7.288,7.168,7.048,6.9505,6.853,6.791,6.729,6.6223,6.5155,6.3862,6.257,6.1315,6.006,5.8703,5.7345,5.6015,5.4685,5.339,5.2095,5.0925,4.9755,4.2788,3.582,3.506,3.43,3.329,3.228,3.1125,2.997,2.8632,2.7295,2.5962,2.463,2.336,2.209,2.095,1.981,1.883,1.785,1.6983,1.6115,1.5348,1.458,1.3892,1.3205,1.2585,1.1965,1.1452,1.094,1.0477,1.0014
1.073,1.128,1.183,1.249,1.315,1.391,1.467,1.545,1.623,1.716,1.809,1.913,2.017,2.129,2.241,2.3785,2.516,2.7105,2.905,3.128,3.351,3.5405,3.73,3.9415,4.153,4.3605,4.568,4.892,5.216,5.6079,5.9998,6.4674,6.935,7.114,7.293,7.1385,6.984,7.5865,8.189,7.7935,7.398,7.3665,7.335,7.6295,7.924,7.8535,7.783,7.709,7.635,7.223,6.811,7.0015,7.192,7.23,7.268,7.043,6.818,6.823,6.828,6.8945,6.961,6.8535,6.746,6.6525,6.559,6.2495,5.94,5.8155,5.691,5.5765,5.462,5.3565,5.251,5.365,5.479,5.1485,4.818,4.693,4.568,4.465,4.362,3.883,3.404,3.162,2.92,2.847,2.774,2.6955,2.617,2.5145,2.412,2.3,2.188,2.0845,1.981,1.8925,1.804,1.727,1.65,1.576,1.502,1.4305,1.359,1.2975,1.236,1.1805,1.125,1.0795,1.034,0.99485,0.9557
1.0329,1.0824,1.132,1.1913,1.2505,1.318,1.3855,1.4588,1.532,1.613,1.694,1.7857,1.8775,1.9788,2.08,2.1943,2.3085,2.4575,2.6065,2.7795,2.9525,3.1123,3.272,3.4502,3.6285,3.8095,3.9905,4.2218,4.453,5.0509,5.6487,5.8276,6.0065,6.157,6.3075,6.464,6.6205,6.8178,7.015,7.0203,7.0255,7.0008,6.976,6.9543,6.9325,6.8853,6.838,6.7865,6.735,6.6295,6.524,6.5088,6.4935,6.4638,6.434,6.3788,6.3235,6.2678,6.212,6.1822,6.1525,6.059,5.9655,5.8758,5.786,5.6665,5.547,5.445,5.343,5.2475,5.152,5.058,4.964,4.9075,4.851,4.7182,4.5855,4.4778,4.37,4.277,4.184,3.5778,2.9715,2.8823,2.793,2.7247,2.6565,2.5827,2.509,2.4155,2.322,2.22,2.118,2.021,1.924,1.8422,1.7605,1.6855,1.6105,1.539,1.4675,1.3987,1.33,1.2705,1.211,1.1575,1.104,1.0608,1.0175,0.97957,0.94165
0.9927,1.0369,1.081,1.1335,1.186,1.245,1.304,1.3725,1.441,1.51,1.579,1.6585,1.738,1.8285,1.919,2.01,2.101,2.2045,2.308,2.431,2.554,2.684,2.814,2.959,3.104,3.2585,3.413,3.5515,3.69,4.4938,5.2976,5.1878,5.078,5.2,5.322,5.7895,6.257,6.049,5.841,6.247,6.653,6.635,6.617,6.279,5.941,5.917,5.893,5.864,5.835,6.036,6.237,6.016,5.795,5.6975,5.6,5.7145,5.829,5.7125,5.596,5.47,5.344,5.2645,5.185,5.099,5.013,5.0835,5.154,5.0745,4.995,4.9185,4.842,4.7595,4.677,4.45,4.223,4.288,4.353,4.2625,4.172,4.089,4.006,3.2725,2.539,2.6025,2.666,2.6025,2.539,2.47,2.401,2.3165,2.232,2.14,2.048,1.9575,1.867,1.792,1.717,1.644,1.571,1.502,1.433,1.367,1.301,1.2435,1.186,1.1345,1.083,1.042,1.001,0.9643,0.9276
0.9813,1.0249,1.0685,1.118,1.1675,1.2238,1.28,1.346,1.412,1.4788,1.5455,1.6203,1.695,1.7813,1.8675,1.9537,2.04,2.1355,2.231,2.3405,2.45,2.5685,2.687,2.8173,2.9475,3.0812,3.215,3.3373,3.4595,4.0403,4.621,4.7041,4.7873,4.8989,5.0105,5.1965,5.3825,5.4195,5.4565,5.5853,5.714,5.7253,5.7365,5.6603,5.584,5.5637,5.5435,5.52,5.4965,5.5153,5.534,5.4802,5.4265,5.3912,5.356,5.342,5.328,5.2728,5.2175,5.1757,5.134,5.0663,4.9985,4.9215,4.8445,4.8042,4.764,4.6883,4.6125,4.5403,4.468,4.3905,4.313,4.2082,4.1035,4.0583,4.013,3.934,3.855,3.781,3.707,3.0837,2.4605,2.4352,2.41,2.356,2.302,2.2405,2.179,2.107,2.035,1.9568,1.8785,1.8018,1.725,1.6575,1.59,1.5243,1.4585,1.3977,1.337,1.2775,1.218,1.1663,1.1145,1.069,1.0234,0.98787,0.95235,0.923,0.89365
0.9699,1.013,1.056,1.1025,1.149,1.2025,1.256,1.3195,1.383,1.4475,1.512,1.582,1.652,1.734,1.816,1.8975,1.979,2.0665,2.154,2.25,2.346,2.453,2.56,2.6755,2.791,2.904,3.017,3.123,3.229,3.5867,3.9444,4.2205,4.4966,4.5978,4.699,4.6035,4.508,4.79,5.072,4.9235,4.775,4.8155,4.856,5.0415,5.227,5.2105,5.194,5.176,5.158,4.9945,4.831,4.9445,5.058,5.085,5.112,4.9695,4.827,4.833,4.839,4.8815,4.924,4.868,4.812,4.744,4.676,4.525,4.374,4.302,4.23,4.162,4.094,4.0215,3.949,3.9665,3.984,3.8285,3.673,3.6055,3.538,3.473,3.408,2.895,2.382,2.268,2.154,2.1095,2.065,2.011,1.957,1.8975,1.838,1.7735,1.709,1.646,1.583,1.523,1.463,1.4045,1.346,1.2935,1.241,1.188,1.135,1.089,1.043,1.0034,0.9638,0.93375,0.9037,0.8817,0.8597
0.93065,0.97208,1.0135,1.0585,1.1035,1.1527,1.202,1.259,1.316,1.3725,1.429,1.4882,1.5475,1.615,1.6825,1.7552,1.828,1.9038,1.9795,2.062,2.1445,2.2345,2.3245,2.4197,2.515,2.6063,2.6975,2.7797,2.862,3.3269,3.7918,3.9201,4.0484,4.1372,4.2258,4.2719,4.318,4.4322,4.5465,4.5593,4.572,4.6117,4.6515,4.692,4.7325,4.7292,4.726,4.7207,4.7155,4.6833,4.651,4.6535,4.656,4.6397,4.6235,4.5845,4.5455,4.5382,4.531,4.51,4.489,4.441,4.393,4.3342,4.2755,4.213,4.1505,4.089,4.0275,3.968,3.9085,3.844,3.7795,3.7283,3.677,3.6138,3.5505,3.4887,3.427,3.3632,3.2995,2.7375,2.1755,2.1332,2.091,2.0475,2.004,1.9518,1.8995,1.8433,1.787,1.7253,1.6635,1.6023,1.541,1.483,1.425,1.3697,1.3145,1.2633,1.212,1.1613,1.1105,1.0659,1.0214,0.98425,0.94715,0.91875,0.89035,0.86897,0.8476
0.8914,0.9312,0.971,1.0145,1.058,1.103,1.148,1.1985,1.249,1.2975,1.346,1.3945,1.443,1.496,1.549,1.613,1.677,1.741,1.805,1.874,1.943,2.016,2.089,2.164,2.239,2.3085,2.378,2.4365,2.495,3.0671,3.6391,3.6197,3.6003,3.6765,3.7527,3.9404,4.128,4.0745,4.021,4.195,4.369,4.408,4.447,4.3425,4.238,4.248,4.258,4.2655,4.273,4.372,4.471,4.3625,4.254,4.1945,4.135,4.1995,4.264,4.2435,4.223,4.1385,4.054,4.014,3.974,3.9245,3.875,3.901,3.927,3.876,3.825,3.774,3.723,3.6665,3.61,3.49,3.37,3.399,3.428,3.372,3.316,3.2535,3.191,2.58,1.969,1.9985,2.028,1.9855,1.943,1.8925,1.842,1.789,1.736,1.677,1.618,1.5585,1.499,1.443,1.387,1.335,1.283,1.233,1.183,1.1345,1.086,1.0429,0.9997,0.9651,0.9305,0.90375,0.877,0.85625,0.8355
0.8771,0.9161,0.9551,0.99805,1.041,1.0853,1.1295,1.179,1.2285,1.2757,1.323,1.3683,1.4135,1.463,1.5125,1.5725,1.6325,1.693,1.7535,1.8182,1.883,1.9518,2.0205,2.091,2.1615,2.2265,2.2915,2.3478,2.404,2.8578,3.3115,3.3811,3.4507,3.522,3.5934,3.669,3.7446,3.7927,3.8408,3.8984,3.956,3.99,4.024,4.0277,4.0315,4.0407,4.05,4.0533,4.0565,4.0635,4.0705,4.053,4.0355,4.0235,4.0115,4.009,4.0065,3.9965,3.9865,3.9588,3.931,3.891,3.851,3.8053,3.7595,3.7175,3.6755,3.626,3.5765,3.5275,3.4785,3.4255,3.3725,3.3308,3.289,3.2503,3.2115,3.161,3.1105,3.0471,2.9836,2.4458,1.908,1.8785,1.849,1.812,1.775,1.7298,1.6845,1.637,1.5895,1.538,1.4865,1.434,1.3815,1.3323,1.283,1.2368,1.1905,1.1467,1.103,1.06,1.017,0.98015,0.94335,0.91435,0.88535,0.86182,0.8383,0.82072,0.80315
0.8628,0.901,0.9392,0.9816,1.024,1.0675,1.111,1.1595,1.208,1.254,1.3,1.342,1.384,1.43,1.476,1.532,1.588,1.645,1.702,1.7625,1.823,1.8875,1.952,2.018,2.084,2.1445,2.205,2.259,2.313,2.6485,2.9839,3.1425,3.3011,3.3676,3.434,3.3976,3.3611,3.5109,3.6606,3.6018,3.543,3.572,3.601,3.713,3.825,3.8335,3.842,3.841,3.84,3.755,3.67,3.7435,3.817,3.8525,3.888,3.8185,3.749,3.7495,3.75,3.779,3.808,3.768,3.728,3.686,3.644,3.534,3.424,3.376,3.328,3.281,3.234,3.1845,3.135,3.1715,3.208,3.1015,2.995,2.95,2.905,2.8407,2.7763,2.3117,1.847,1.7585,1.67,1.6385,1.607,1.567,1.527,1.485,1.443,1.399,1.355,1.3095,1.264,1.2215,1.179,1.1385,1.098,1.0605,1.023,0.98545,0.9479,0.91745,0.887,0.8636,0.8402,0.8199,0.7996,0.7852,0.7708
0.83025,0.8621,0.89395,0.93033,0.9667,1.0064,1.0461,1.0923,1.1385,1.1818,1.225,1.266,1.307,1.3498,1.3925,1.4383,1.484,1.531,1.578,1.6295,1.681,1.736,1.791,1.8445,1.898,1.9502,2.0025,2.0495,2.0965,2.495,2.8935,2.969,3.0446,3.1052,3.1657,3.2079,3.2501,3.3111,3.3722,3.3983,3.4243,3.4529,3.4815,3.5125,3.5435,3.5545,3.5655,3.5693,3.573,3.5665,3.56,3.5717,3.5835,3.5782,3.573,3.5607,3.5485,3.544,3.5395,3.5185,3.4975,3.4608,3.424,3.3887,3.3535,3.3083,3.263,3.2208,3.1785,3.1403,3.102,3.065,3.028,3.003,2.978,2.9325,2.887,2.845,2.803,2.7409,2.6788,2.1799,1.681,1.65,1.619,1.5885,1.558,1.5197,1.4815,1.4417,1.402,1.3592,1.3165,1.2733,1.23,1.1895,1.149,1.1105,1.072,1.036,1,0.96473,0.9294,0.90125,0.8731,0.84972,0.82635,0.80658,0.7868,0.77345,0.7601
0.7977,0.8232,0.8487,0.87905,0.9094,0.94535,0.9813,1.0252,1.069,1.1095,1.15,1.19,1.23,1.2695,1.309,1.3445,1.38,1.417,1.454,1.4965,1.539,1.5845,1.63,1.671,1.712,1.756,1.8,1.84,1.88,2.3415,2.803,2.7956,2.7881,2.8428,2.8974,3.0182,3.139,3.1114,3.0838,3.1947,3.3056,3.3338,3.362,3.312,3.262,3.2755,3.289,3.2975,3.306,3.378,3.45,3.4,3.35,3.304,3.258,3.303,3.348,3.3385,3.329,3.258,3.187,3.1535,3.12,3.0915,3.063,3.0825,3.102,3.0655,3.029,2.9995,2.97,2.9455,2.921,2.8345,2.748,2.7635,2.779,2.7399,2.7009,2.641,2.5812,2.0481,1.515,1.5415,1.568,1.5385,1.509,1.4725,1.436,1.3985,1.361,1.3195,1.278,1.237,1.196,1.1575,1.119,1.0825,1.046,1.0115,0.9771,0.944,0.9109,0.88505,0.8592,0.83585,0.8125,0.79325,0.774,0.7617,0.7494
0.7869,0.81235,0.8378,0.86455,0.8913,0.92615,0.961,1.0033,1.0455,1.0858,1.126,1.1653,1.2045,1.244,1.2835,1.3178,1.352,1.3845,1.417,1.4585,1.5,1.5422,1.5845,1.624,1.6635,1.7045,1.7455,1.784,1.8225,2.2279,2.6333,2.6845,2.7357,2.7885,2.8414,2.8901,2.9389,2.9804,3.0218,3.0626,3.1033,3.1317,3.16,3.1778,3.1955,3.2077,3.22,3.2295,3.239,3.252,3.265,3.267,3.269,3.2437,3.2185,3.2155,3.2125,3.2277,3.243,3.1965,3.15,3.12,3.09,3.0618,3.0335,3.0343,3.035,2.999,2.963,2.9313,2.8995,2.8787,2.858,2.7908,2.7235,2.7087,2.694,2.6499,2.6059,2.5488,2.4918,1.9964,1.501,1.4973,1.4935,1.4625,1.4315,1.3967,1.362,1.324,1.286,1.2463,1.2065,1.1692,1.132,1.0965,1.061,1.0255,0.99005,0.95967,0.9293,0.90158,0.87385,0.8487,0.82355,0.80268,0.7818,0.76498,0.74815,0.74043,0.7327
0.7761,0.8015,0.8269,0.85005,0.8732,0.90695,0.9407,0.98135,1.022,1.062,1.102,1.1405,1.179,1.2185,1.258,1.291,1.324,1.352,1.38,1.4205,1.461,1.5,1.539,1.577,1.615,1.653,1.691,1.728,1.765,2.1143,2.4635,2.5734,2.6833,2.7344,2.7854,2.7621,2.7387,2.8493,2.9599,2.9304,2.901,2.9295,2.958,3.0435,3.129,3.14,3.151,3.1615,3.172,3.126,3.08,3.134,3.188,3.1835,3.179,3.128,3.077,3.117,3.157,3.135,3.113,3.0865,3.06,3.032,3.004,2.986,2.968,2.9325,2.897,2.863,2.829,2.812,2.795,2.747,2.699,2.654,2.609,2.5599,2.5108,2.4566,2.4025,1.9448,1.487,1.453,1.419,1.3865,1.354,1.321,1.288,1.2495,1.211,1.173,1.135,1.1015,1.068,1.0355,1.003,0.96855,0.9341,0.9078,0.8815,0.85915,0.8368,0.81235,0.7879,0.7695,0.7511,0.7367,0.7223,0.71915,0.716
