0.5672,0.58415,0.6011,0.61755,0.634,0.69085,0.7477,0.7684,0.7891,0.86075,0.9324,0.9583,0.9842,1.0721,1.16,1.1905,1.221,1.325,1.429,1.465,1.501,1.6155,1.73,1.769,1.808,1.9255,2.043,2.082,2.121,2.227,2.333,2.3655,2.398,2.4675,2.537,2.555,2.573,2.5985,2.624,2.626,2.628,2.612,2.596,2.5845,2.573,2.519,2.465,2.4435,2.422,2.341,2.26,2.2295,2.199,2.0945,1.99,1.953,1.916,1.8075,1.699,1.664,1.629,1.526,1.423,1.3895,1.356,1.2615,1.167,1.137,1.107,1.0277,0.9485,0.92395,0.8994,0.8334,0.7674,0.7471,0.7268,0.672,0.6172,0.6006,0.584
0.56935,0.6014,0.63345,0.65143,0.6694,0.73142,0.79345,0.81615,0.83885,0.91678,0.9947,1.0232,1.0516,1.1491,1.2465,1.281,1.3155,1.4325,1.5495,1.5905,1.6315,1.7613,1.891,1.9355,1.98,2.114,2.248,2.2923,2.3365,2.459,2.5815,2.6195,2.6575,2.7382,2.819,2.8392,2.8595,2.8895,2.9195,2.9235,2.9275,2.9093,2.891,2.878,2.865,2.8013,2.7375,2.7123,2.687,2.5935,2.5,2.4645,2.429,2.309,2.189,2.147,2.105,1.9815,1.858,1.8183,1.7785,1.6625,1.5465,1.5088,1.471,1.3653,1.2595,1.226,1.1925,1.1044,1.0163,0.98948,0.9627,0.8901,0.8175,0.79517,0.77285,0.7132,0.65355,0.63548,0.6174
0.5715,0.61865,0.6658,0.6853,0.7048,0.772,0.8392,0.8639,0.8886,0.9728,1.057,1.088,1.119,1.226,1.333,1.3715,1.41,1.54,1.67,1.716,1.762,1.907,2.052,2.102,2.152,2.3025,2.453,2.5025,2.552,2.691,2.83,2.8735,2.917,3.009,3.101,3.1235,3.146,3.1805,3.215,3.221,3.227,3.2065,3.186,3.1715,3.157,3.0835,3.01,2.981,2.952,2.846,2.74,2.6995,2.659,2.5235,2.388,2.341,2.294,2.1555,2.017,1.9725,1.928,1.799,1.67,1.628,1.586,1.469,1.352,1.315,1.278,1.181,1.084,1.055,1.026,0.9468,0.8676,0.84325,0.8189,0.7544,0.6899,0.67035,0.6508
0.60075,0.65073,0.7007,0.72157,0.74245,0.8155,0.88855,0.9153,0.94205,1.0353,1.1285,1.1617,1.195,1.3148,1.4345,1.477,1.5195,1.6657,1.812,1.8637,1.9155,2.0823,2.249,2.3063,2.3635,2.5372,2.711,2.7683,2.8255,2.9875,3.1495,3.1995,3.2495,3.3565,3.4635,3.4925,3.5215,3.5648,3.608,3.6155,3.623,3.5993,3.5755,3.5593,3.543,3.4573,3.3715,3.338,3.3045,3.1788,3.053,3.0057,2.9585,2.801,2.6435,2.5895,2.5355,2.3755,2.2155,2.1647,2.114,1.967,1.82,1.7723,1.7245,1.5933,1.462,1.4205,1.379,1.271,1.163,1.1303,1.0975,1.0109,0.92425,0.8976,0.87095,0.80065,0.73035,0.7091,0.68785
0.63,0.6828,0.7356,0.75785,0.7801,0.859,0.9379,0.9667,0.9955,1.0978,1.2,1.2355,1.271,1.4035,1.536,1.5825,1.629,1.7915,1.954,2.0115,2.069,2.2575,2.446,2.5105,2.575,2.772,2.969,3.034,3.099,3.284,3.469,3.5255,3.582,3.704,3.826,3.8615,3.897,3.949,4.001,4.01,4.019,3.992,3.965,3.947,3.929,3.831,3.733,3.695,3.657,3.5115,3.366,3.312,3.258,3.0785,2.899,2.838,2.777,2.5955,2.414,2.357,2.3,2.135,1.97,1.9165,1.863,1.7175,1.572,1.526,1.48,1.361,1.242,1.2055,1.169,1.075,0.9809,0.95195,0.923,0.8469,0.7708,0.74785,0.7249
0.6627,0.71825,0.7738,0.79793,0.82205,0.9075,0.99295,1.0241,1.0553,1.1671,1.279,1.3195,1.36,1.5065,1.653,1.7053,1.7575,1.941,2.1245,2.1902,2.256,2.4718,2.6875,2.7615,2.8355,3.0663,3.297,3.3732,3.4495,3.6658,3.882,3.9493,4.0165,4.169,4.3215,4.3628,4.404,4.4683,4.5325,4.5423,4.552,4.521,4.49,4.4685,4.447,4.3308,4.2145,4.1688,4.123,3.9482,3.7735,3.7097,3.646,3.4297,3.2135,3.1505,3.0875,2.8765,2.6655,2.5992,2.533,2.343,2.153,2.0922,2.0315,1.8668,1.702,1.6505,1.599,1.466,1.333,1.2925,1.252,1.1477,1.0435,1.0122,0.981,0.89813,0.81525,0.79045,0.76565
0.6954,0.7537,0.812,0.838,0.864,0.956,1.048,1.0815,1.115,1.2365,1.358,1.4035,1.449,1.6095,1.77,1.828,1.886,2.0905,2.295,2.369,2.443,2.686,2.929,3.0125,3.096,3.3605,3.625,3.7125,3.8,4.0475,4.295,4.373,4.451,4.634,4.817,4.864,4.911,4.9875,5.064,5.0745,5.085,5.05,5.015,4.99,4.965,4.8305,4.696,4.6425,4.589,4.385,4.181,4.1075,4.034,3.781,3.528,3.463,3.398,3.1575,2.917,2.8415,2.766,2.551,2.336,2.268,2.2,2.016,1.832,1.775,1.718,1.571,1.424,1.3795,1.335,1.2205,1.106,1.0725,1.039,0.94935,0.8597,0.83305,0.8064
0.73055,0.79225,0.85395,0.8819,0.90985,1.0097,1.1095,1.1455,1.1815,1.3165,1.4515,1.5013,1.551,1.7295,1.908,1.9737,2.0395,2.2715,2.5035,2.588,2.6725,2.9548,3.237,3.3353,3.4335,3.7455,4.0575,4.1617,4.266,4.5675,4.869,4.963,5.057,5.283,5.509,5.5687,5.6285,5.7245,5.8205,5.835,5.8495,5.809,5.7685,5.7378,5.707,5.5438,5.3805,5.316,5.2515,5.0035,4.7555,4.6667,4.578,4.2805,3.983,3.8945,3.806,3.5162,3.2265,3.146,3.0655,2.8163,2.567,2.4883,2.4095,2.1995,1.9895,1.925,1.8605,1.6962,1.532,1.4823,1.4325,1.3058,1.179,1.1418,1.1045,1.0072,0.9098,0.88077,0.85175
0.7657,0.8308,0.8959,0.9258,0.9557,1.0634,1.171,1.2095,1.248,1.3965,1.545,1.599,1.653,1.8495,2.046,2.1195,2.193,2.4525,2.712,2.807,2.902,3.2235,3.545,3.658,3.771,4.1305,4.49,4.611,4.732,5.0875,5.443,5.553,5.663,5.932,6.201,6.2735,6.346,6.4615,6.577,6.5955,6.614,6.568,6.522,6.4855,6.449,6.257,6.065,5.9895,5.914,5.622,5.33,5.226,5.122,4.78,4.438,4.326,4.214,3.875,3.536,3.4505,3.365,3.0815,2.798,2.7085,2.619,2.383,2.147,2.075,2.003,1.8215,1.64,1.585,1.53,1.391,1.252,1.211,1.17,1.065,0.9599,0.9285,0.8971
0.8042,0.8732,0.9422,0.97453,1.0069,1.1234,1.24,1.283,1.326,1.4883,1.6505,1.7108,1.771,1.9902,2.2095,2.2918,2.374,2.6708,2.9675,3.0768,3.186,3.563,3.94,4.0745,4.209,4.645,5.081,5.2267,5.3725,5.8135,6.2545,6.392,6.5295,6.8703,7.211,7.303,7.395,7.5455,7.696,7.72,7.744,7.687,7.63,7.5858,7.5415,7.3015,7.0615,6.9667,6.872,6.5092,6.1465,6.0177,5.889,5.4697,5.0505,4.9147,4.779,4.379,3.979,3.8668,3.7545,3.415,3.0755,2.9795,2.8835,2.6128,2.342,2.2597,2.1775,1.9718,1.766,1.7048,1.6435,1.4897,1.336,1.2905,1.245,1.13,1.015,0.98133,0.9477
0.8427,0.9156,0.9885,1.0233,1.058,1.1835,1.309,1.3565,1.404,1.58,1.756,1.8225,1.889,2.131,2.373,2.464,2.555,2.889,3.223,3.3465,3.47,3.9025,4.335,4.491,4.647,5.1595,5.672,5.8425,6.013,6.5395,7.066,7.231,7.396,7.8085,8.221,8.3325,8.444,8.6295,8.815,8.8445,8.874,8.806,8.738,8.686,8.634,8.346,8.058,7.944,7.83,7.3965,6.963,6.8095,6.656,6.1595,5.663,5.5035,5.344,4.883,4.422,4.283,4.144,3.7485,3.353,3.2505,3.148,2.8425,2.537,2.4445,2.352,2.122,1.892,1.8245,1.757,1.5885,1.42,1.37,1.32,1.195,1.07,1.0341,0.9983
0.8845,0.96088,1.0373,1.0744,1.1115,1.2477,1.384,1.4357,1.4875,1.6812,1.875,1.948,2.021,2.293,2.565,2.668,2.771,3.1565,3.542,3.686,3.83,4.348,4.866,5.049,5.232,5.8635,6.495,6.7092,6.9235,7.6033,8.283,8.5005,8.718,9.2643,9.8105,9.9588,10.107,10.35,10.592,10.627,10.662,10.558,10.454,10.381,10.307,9.9305,9.554,9.4045,9.255,8.699,8.143,7.9485,7.754,7.1365,6.519,6.3218,6.1245,5.5637,5.003,4.836,4.669,4.2038,3.7385,3.6088,3.479,3.1263,2.7735,2.6677,2.562,2.3015,2.041,1.9652,1.8895,1.7025,1.5155,1.4605,1.4055,1.2688,1.132,1.0923,1.0526
0.9263,1.0062,1.086,1.1255,1.165,1.312,1.459,1.515,1.571,1.7825,1.994,2.0735,2.153,2.455,2.757,2.872,2.987,3.424,3.861,4.0255,4.19,4.7935,5.397,5.607,5.817,6.5675,7.318,7.576,7.834,8.667,9.5,9.77,10.04,10.72,11.4,11.585,11.77,12.07,12.37,12.41,12.45,12.31,12.17,12.075,11.98,11.515,11.05,10.865,10.68,10.002,9.323,9.0875,8.852,8.1135,7.375,7.14,6.905,6.2445,5.584,5.389,5.194,4.659,4.124,3.967,3.81,3.41,3.01,2.891,2.772,2.481,2.19,2.106,2.022,1.8165,1.611,1.551,1.491,1.3425,1.194,1.1505,1.107
0.96965,1.0533,1.137,1.1788,1.2205,1.3795,1.5385,1.5997,1.661,1.8927,2.1245,2.213,2.3015,2.641,2.9805,3.1115,3.2425,3.746,4.2495,4.4452,4.641,5.3652,6.0895,6.3483,6.607,7.5732,8.5395,8.8857,9.232,10.436,11.64,12.005,12.37,13.483,14.595,14.9,15.205,15.403,15.6,15.53,15.46,15.205,14.95,14.637,14.325,13.775,13.225,12.905,12.585,12.066,11.547,10.831,10.116,9.5542,8.9925,8.3278,7.663,7.1705,6.678,6.1515,5.625,5.2337,4.8425,4.4428,4.043,3.752,3.461,3.1775,2.894,2.684,2.474,2.2793,2.0845,1.9382,1.792,1.6573,1.5225,1.418,1.3135,1.2183,1.123
1.013,1.1005,1.188,1.232,1.276,1.447,1.618,1.6845,1.751,2.003,2.255,2.3525,2.45,2.827,3.204,3.351,3.498,4.068,4.638,4.865,5.092,5.937,6.782,7.0895,7.397,8.579,9.761,10.195,10.63,12.205,13.78,14.24,14.7,16.245,17.79,18.215,18.64,18.735,18.83,18.65,18.47,18.1,17.73,17.2,16.67,16.035,15.4,14.945,14.49,14.13,13.77,12.575,11.38,10.995,10.61,9.5155,8.421,8.0965,7.772,6.914,6.056,5.8085,5.561,4.9185,4.276,4.094,3.912,3.464,3.016,2.887,2.758,2.4525,2.147,2.06,1.973,1.7635,1.554,1.4935,1.433,1.286,1.139
1.065,1.1525,1.24,1.2878,1.3355,1.5195,1.7035,1.7755,1.8475,2.1243,2.401,2.5088,2.6165,3.041,3.4655,3.6325,3.7995,4.47,5.1405,5.402,5.6635,6.707,7.7505,8.1445,8.5385,10.242,11.945,13.16,14.375,16.303,18.23,19.295,20.36,21.773,23.185,23.792,24.4,24.563,24.725,24.48,24.235,23.663,23.09,22.282,21.475,20.535,19.595,18.685,17.775,16.88,15.985,14.695,13.405,12.835,12.265,11.38,10.496,9.5433,8.591,7.9415,7.292,6.6262,5.9605,5.4895,5.0185,4.5622,4.106,3.7813,3.4565,3.155,2.8535,2.6342,2.415,2.2165,2.018,1.8698,1.7215,1.5873,1.453,1.35,1.247
1.117,1.2045,1.292,1.3435,1.395,1.592,1.789,1.8665,1.944,2.2455,2.547,2.665,2.783,3.255,3.727,3.914,4.101,4.872,5.643,5.939,6.235,7.477,8.719,9.1995,9.68,11.905,14.13,16.125,18.12,20.4,22.68,24.35,26.02,27.3,28.58,29.37,30.16,30.39,30.62,30.31,30,29.225,28.45,27.365,26.28,25.035,23.79,22.425,21.06,19.63,18.2,16.815,15.43,14.675,13.92,13.245,12.57,10.99,9.41,8.969,8.528,7.444,6.36,6.0605,5.761,5.0305,4.3,4.0985,3.897,3.423,2.949,2.816,2.683,2.373,2.063,1.976,1.889,1.681,1.473,1.414,1.355
1.1585,1.2535,1.3485,1.4035,1.4585,1.6712,1.884,1.9675,2.051,2.3805,2.71,2.8405,2.971,3.5,4.029,4.2408,4.4525,5.3543,6.256,6.6113,6.9665,8.648,10.329,10.95,11.57,15.01,18.45,20.9,23.35,25.922,28.495,30.633,32.77,34.502,36.235,37.407,38.58,39.125,39.67,39.495,39.32,38.498,37.675,36.237,34.8,32.992,31.185,29.255,27.325,25.295,23.265,21.343,19.42,17.93,16.44,15.133,13.825,12.928,12.03,10.69,9.349,8.516,7.683,6.8877,6.0925,5.5592,5.026,4.5317,4.0375,3.6965,3.3555,3.0507,2.746,2.5245,2.303,2.1085,1.914,1.7677,1.6215,1.4928,1.364
1.2,1.3025,1.405,1.4635,1.522,1.7505,1.979,2.0685,2.158,2.5155,2.873,3.016,3.159,3.745,4.331,4.5675,4.804,5.8365,6.869,7.2835,7.698,9.819,11.94,12.7,13.46,18.115,22.77,25.675,28.58,31.445,34.31,36.915,39.52,41.705,43.89,45.445,47,47.86,48.72,48.68,48.64,47.77,46.9,45.11,43.32,40.95,38.58,36.085,33.59,30.96,28.33,25.87,23.41,21.185,18.96,17.02,15.08,14.865,14.65,12.41,10.17,9.588,9.006,7.715,6.424,6.088,5.752,4.965,4.178,3.97,3.762,3.2855,2.809,2.676,2.543,2.241,1.939,1.8545,1.77,1.5715,1.373
1.259,1.3607,1.4625,1.5248,1.587,1.8318,2.0765,2.1732,2.27,2.6597,3.0495,3.2062,3.363,3.9668,4.5705,4.8905,5.2105,6.438,7.6655,8.1807,8.696,11.386,14.075,16.622,19.17,23.345,27.52,30.975,34.43,37.922,41.415,44.643,47.87,50.67,53.47,55.53,57.59,58.835,60.08,60.435,60.79,59.917,59.045,56.84,54.635,51.56,48.485,45.205,41.925,38.578,35.23,32.105,28.98,26.205,23.43,20.997,18.565,17.148,15.73,13.533,11.335,10.914,10.493,8.8477,7.2025,6.7927,6.383,5.4677,4.5525,4.3148,4.077,3.5315,2.986,2.8465,2.707,2.3762,2.0455,1.9535,1.8615,1.6483,1.435
1.318,1.419,1.52,1.586,1.652,1.913,2.174,2.278,2.382,2.804,3.226,3.3965,3.567,4.1885,4.81,5.2135,5.617,7.0395,8.462,9.078,9.694,12.952,16.21,20.545,24.88,28.575,32.27,36.275,40.28,44.4,48.52,52.37,56.22,59.635,63.05,65.615,68.18,69.81,71.44,72.19,72.94,72.065,71.19,68.57,65.95,62.17,58.39,54.325,50.26,46.195,42.13,38.34,34.55,31.225,27.9,24.975,22.05,19.43,16.81,14.655,12.5,12.24,11.98,9.9805,7.981,7.4975,7.014,5.9705,4.927,4.6595,4.392,3.7775,3.163,3.017,2.871,2.5115,2.152,2.0525,1.953,1.725,1.497
1.366,1.478,1.59,1.658,1.726,2.0005,2.275,2.3868,2.4985,2.9565,3.4145,3.6018,3.789,4.548,5.307,5.6943,6.0815,7.7988,9.516,10.294,11.072,15.688,20.305,24.67,29.035,33.3,37.565,42.14,46.715,51.323,55.93,60.338,64.745,68.76,72.775,76.032,79.29,81.45,83.61,84.608,85.605,84.647,83.69,80.895,78.1,74.027,69.955,65.162,60.37,55.505,50.64,46.022,41.405,37.358,33.31,29.813,26.315,23.22,20.125,17.5,14.875,13.518,12.16,11.015,9.8705,8.571,7.2715,6.5075,5.7435,5.105,4.4665,4.0323,3.598,3.2393,2.8805,2.6335,2.3865,2.171,1.9555,1.796,1.6365
1.414,1.537,1.66,1.73,1.8,2.088,2.376,2.4955,2.615,3.109,3.603,3.807,4.011,4.9075,5.804,6.175,6.546,8.558,10.57,11.51,12.45,18.425,24.4,28.795,33.19,38.025,42.86,48.005,53.15,58.245,63.34,68.305,73.27,77.885,82.5,86.45,90.4,93.09,95.78,97.025,98.27,97.23,96.19,93.22,90.25,85.885,81.52,76,70.48,64.815,59.15,53.705,48.26,43.49,38.72,34.65,30.58,27.01,23.44,20.345,17.25,14.795,12.34,12.05,11.76,9.6445,7.529,7.0445,6.56,5.5505,4.541,4.287,4.033,3.4615,2.89,2.7555,2.621,2.2895,1.958,1.867,1.776
1.459,1.583,1.707,1.783,1.859,2.1695,2.48,2.6073,2.7345,3.269,3.8035,4.0237,4.244,5.2393,6.2345,6.6505,7.0665,9.5332,12,14.255,16.51,22.145,27.78,32.67,37.56,42.92,48.28,53.993,59.705,65.345,70.985,76.33,81.675,86.912,92.15,96.625,101.1,104.42,107.74,109.41,111.09,110.34,109.6,106.66,103.72,98.968,94.21,88.105,82,75.565,69.13,62.835,56.54,50.855,45.17,40.278,35.385,31.227,27.07,23.563,20.055,17.19,14.325,13.815,13.305,10.829,8.354,7.7687,7.1835,6.029,4.8745,4.5915,4.3085,3.6803,3.052,2.906,2.76,2.402,2.044,1.9472,1.8505
1.504,1.629,1.754,1.836,1.918,2.251,2.584,2.719,2.854,3.429,4.004,4.2405,4.477,5.571,6.665,7.126,7.587,10.509,13.43,17,20.57,25.865,31.16,36.545,41.93,47.815,53.7,59.98,66.26,72.445,78.63,84.355,90.08,95.94,101.8,106.8,111.8,115.75,119.7,121.8,123.9,123.45,123,120.1,117.2,112.05,106.9,100.21,93.52,86.315,79.11,71.965,64.82,58.22,51.62,45.905,40.19,35.445,30.7,26.78,22.86,19.585,16.31,15.58,14.85,12.015,9.179,8.493,7.807,6.5075,5.208,4.896,4.584,3.899,3.214,3.0565,2.899,2.5145,2.13,2.0275,1.925
1.555,1.6825,1.81,1.8958,1.9815,2.3342,2.687,2.8303,2.9735,3.5895,4.2055,4.3238,4.442,5.7797,7.1175,7.6342,8.151,11.476,14.8,19.387,23.975,29.368,34.76,40.567,46.375,52.735,59.095,65.852,72.61,79.09,85.57,92.03,98.49,105,111.5,117.18,122.85,127.02,131.2,133.65,136.1,135.98,135.85,133.02,130.2,125.22,120.25,113.28,106.31,98.183,90.055,82.11,74.165,66.632,59.1,52.447,45.795,40.225,34.655,30.198,25.74,22.113,18.485,16.485,14.485,12.905,11.325,9.5998,7.875,6.9368,5.9985,5.283,4.5675,4.0877,3.608,3.242,2.876,2.607,2.338,2.1212,1.9045
1.606,1.736,1.866,1.9555,2.045,2.4175,2.79,2.9415,3.093,3.75,4.407,4.407,4.407,5.9885,7.57,8.1425,8.715,12.443,16.17,21.775,27.38,32.87,38.36,44.59,50.82,57.655,64.49,71.725,78.96,85.735,92.51,99.705,106.9,114.05,121.2,127.55,133.9,138.3,142.7,145.5,148.3,148.5,148.7,145.95,143.2,138.4,133.6,126.35,119.1,110.05,101,92.255,83.51,75.045,66.58,58.99,51.4,45.005,38.61,33.615,28.62,24.64,20.66,17.39,14.12,13.795,13.47,10.707,7.943,7.366,6.789,5.67,4.551,4.2765,4.002,3.4275,2.853,2.6995,2.546,2.215,1.884
1.6595,1.7975,1.9355,2.026,2.1165,2.5018,2.887,3.0473,3.2075,3.876,4.5445,4.7302,4.916,6.471,8.026,8.6563,9.2865,13.373,17.46,23.735,30.01,36.06,42.11,48.797,55.485,62.688,69.89,77.37,84.85,92.302,99.755,107.53,115.3,123.03,130.75,137.5,144.25,149.1,153.95,156.95,159.95,160.4,160.85,158.32,155.8,150.93,146.05,138.78,131.5,122.13,112.75,103.05,93.355,83.978,74.6,66.093,57.585,50.303,43.02,37.317,31.615,27.157,22.7,19.14,15.58,14.01,12.44,10.926,9.4115,8.0698,6.728,5.937,5.146,4.545,3.944,3.5317,3.1195,2.8128,2.506,2.2765,2.047
1.713,1.859,2.005,2.0965,2.188,2.586,2.984,3.153,3.322,4.002,4.682,5.0535,5.425,6.9535,8.482,9.17,9.858,14.304,18.75,25.695,32.64,39.25,45.86,53.005,60.15,67.72,75.29,83.015,90.74,98.87,107,115.35,123.7,132,140.3,147.45,154.6,159.9,165.2,168.4,171.6,172.3,173,170.7,168.4,163.45,158.5,151.2,143.9,134.2,124.5,113.85,103.2,92.91,82.62,73.195,63.77,55.6,47.43,41.02,34.61,29.675,24.74,20.89,17.04,14.225,11.41,11.145,10.88,8.7735,6.667,6.204,5.741,4.8135,3.886,3.636,3.386,2.926,2.466,2.338,2.21
2.0612,2.1533,2.2455,2.4882,2.731,3.0089,3.2868,3.7029,4.119,4.5959,5.0728,5.8819,6.691,7.716,8.741,10.7,12.659,17.093,21.526,28.753,35.98,43.099,50.218,57.782,65.347,73.431,81.514,89.898,98.281,107.09,115.89,125.02,134.16,142.77,151.38,158.87,166.36,172.16,177.96,181.33,184.7,185.52,186.34,184.24,182.14,177.18,172.21,164.63,157.04,146.9,136.76,125.42,114.07,103.01,91.954,81.409,70.864,61.856,52.847,45.626,38.404,32.907,27.41,23.19,18.97,15.927,12.884,12.525,12.166,9.8142,7.4625,6.9297,6.3969,5.3945,4.392,4.1141,3.8362,3.3325,2.8288,2.7012,2.5737
2.4093,2.4477,2.486,2.88,3.2739,3.4318,3.5896,4.2529,4.9161,5.1898,5.4635,6.7103,7.957,8.4785,9,12.23,15.459,19.881,24.303,31.811,39.319,46.947,54.575,62.56,70.545,79.142,87.739,96.781,105.82,115.3,124.78,134.7,144.62,153.54,162.45,170.28,178.11,184.42,190.72,194.26,197.8,198.73,199.67,197.77,195.87,190.9,185.93,178.05,170.18,159.6,149.02,136.98,124.94,113.11,101.29,89.623,77.958,68.112,58.265,50.232,42.199,36.139,30.08,25.49,20.9,17.629,14.358,13.905,13.452,10.855,8.2581,7.6554,7.0528,5.9754,4.898,4.5922,4.2864,3.739,3.1916,3.0645,2.9374
2.4739,2.5703,2.6668,2.9514,3.2359,3.5643,3.8926,4.3636,4.8346,5.4367,6.0388,6.8961,7.7535,9.0155,10.278,12.407,14.537,20.736,26.936,34.336,41.737,49.806,57.874,66.416,74.957,84.189,93.422,103.37,113.32,123.78,134.24,144.77,155.3,164.87,174.44,182.78,191.11,197.66,204.22,207.63,211.04,211.8,212.56,210.63,208.69,203.47,198.24,190.05,181.86,170.85,159.85,147.24,134.63,121.8,108.96,96.596,84.226,73.537,62.849,54.06,45.27,38.66,32.049,27.117,22.186,18.672,15.159,14.704,14.25,11.453,8.6547,8.0067,7.3587,6.2191,5.0794,4.7561,4.4329,3.861,3.2892,3.1567,3.0243
2.5385,2.693,2.8475,3.0228,3.198,3.6968,4.1957,4.4743,4.753,5.6835,6.614,7.082,7.55,9.5525,11.555,12.585,13.615,21.592,29.568,36.861,44.155,52.664,61.173,70.271,79.369,89.237,99.105,109.96,120.82,132.26,143.69,154.84,165.98,176.2,186.43,195.27,204.11,210.91,217.71,221,224.28,224.86,225.45,223.48,221.51,216.03,210.55,202.05,193.55,182.11,170.67,157.5,144.32,130.48,116.64,103.57,90.495,78.963,67.432,57.887,48.342,41.18,34.017,28.745,23.472,19.715,15.959,15.504,15.049,12.05,9.0512,8.3579,7.6647,6.4627,5.2608,4.9201,4.5794,3.9831,3.3867,3.249,3.1112
2.6018,2.762,2.9223,3.1067,3.2912,3.8056,4.32,4.6128,4.9055,5.872,6.8385,7.333,7.8275,9.9183,12.009,13.111,14.214,22.535,30.855,38.5,46.145,55.195,64.245,74.209,84.174,94.853,105.53,117.12,128.71,140.78,152.84,164.41,175.97,186.59,197.22,206.52,215.82,222.97,230.12,233.65,237.18,238.01,238.84,236.76,234.68,229.09,223.51,214.48,205.46,193.34,181.22,167.45,153.68,138.98,124.28,110.53,96.788,84.331,71.873,61.567,51.261,43.573,35.885,30.268,24.651,20.675,16.699,16.029,15.358,12.374,9.3896,8.6582,7.9268,6.6745,5.4223,5.0655,4.7088,4.0839,3.4591,3.3245,3.1899
2.665,2.831,2.997,3.1908,3.3845,3.9144,4.4443,4.7512,5.058,6.0605,7.063,7.584,8.105,10.284,12.463,13.637,14.812,23.477,32.143,40.139,48.135,57.725,67.316,78.148,88.979,100.47,111.96,124.28,136.6,149.29,161.99,173.97,185.95,196.98,208.01,217.77,227.53,235.03,242.53,246.31,250.08,251.16,252.23,250.04,247.85,242.16,236.46,226.92,217.37,204.57,191.76,177.4,163.03,147.47,131.92,117.5,103.08,89.698,76.314,65.247,54.18,45.966,37.753,31.791,25.829,21.634,17.438,16.553,15.668,12.698,9.728,8.9584,8.1888,6.8863,5.5837,5.2109,4.8381,4.1848,3.5314,3.4,3.2685
2.7352,2.9019,3.0685,3.2711,3.4737,4.0162,4.5587,4.8821,5.2055,6.2365,7.2675,7.8158,8.364,10.627,12.889,14.092,15.296,24.285,33.275,41.617,49.96,60.139,70.319,81.766,93.213,105.32,117.43,130.19,142.95,156.16,169.37,181.98,194.58,206.12,217.65,227.7,237.75,245.47,253.2,257.32,261.44,262.71,263.98,261.76,259.55,253.6,247.65,237.77,227.89,214.65,201.41,186.44,171.46,155.14,138.82,123.3,107.78,94.052,80.327,68.664,57.002,48.191,39.38,33.055,26.732,22.358,17.985,17.036,16.087,13.043,9.999,9.2042,8.4094,7.0663,5.7233,5.3362,4.9491,4.279,3.609,3.4749,3.3408
2.8055,2.9727,3.14,3.3515,3.563,4.118,4.673,5.013,5.353,6.4125,7.472,8.0475,8.623,10.969,13.315,14.547,15.779,25.093,34.406,43.096,51.785,62.553,73.321,85.383,97.446,110.18,122.91,136.11,149.31,163.03,176.75,189.98,203.21,215.25,227.29,237.63,247.96,255.91,263.87,268.33,272.79,274.26,275.72,273.49,271.25,265.04,258.83,248.62,238.41,224.74,211.06,195.48,179.89,162.81,145.73,129.1,112.48,98.407,84.34,72.081,59.823,50.415,41.006,34.32,27.634,23.083,18.532,17.519,16.505,13.387,10.27,9.45,8.63,7.2464,5.8628,5.4615,5.0601,4.3734,3.6866,3.5498,3.413
2.8739,3.0409,3.208,3.4295,3.651,4.2175,4.784,5.1405,5.497,6.5778,7.6585,8.266,8.8735,11.317,13.76,14.995,16.23,25.709,35.189,44.112,53.037,64.271,75.505,88.358,101.21,114.11,127.01,140.64,154.26,168.2,182.13,195.78,209.43,221.89,234.34,244.91,255.49,263.71,271.94,276.69,281.45,282.95,284.46,281.93,279.41,272.93,266.46,255.92,245.39,231.47,217.56,201.57,185.58,168.11,150.64,133.67,116.69,102.08,87.472,74.726,61.981,52.15,42.319,35.295,28.27,23.56,18.85,16.802,14.753,13.042,11.331,9.7892,8.247,7.2974,6.3479,5.6193,4.8908,4.4074,3.9239,3.6325,3.3411
2.9422,3.1091,3.276,3.5075,3.739,4.317,4.895,5.268,5.641,6.743,7.845,8.4845,9.124,11.664,14.205,15.443,16.681,26.326,35.971,45.13,54.288,65.989,77.689,91.334,104.98,118.05,131.12,145.17,159.22,173.37,187.52,201.59,215.66,228.52,241.38,252.19,263.01,271.51,280.02,285.06,290.1,291.65,293.19,290.38,287.57,280.83,274.09,263.23,252.37,238.21,224.05,207.66,191.27,173.41,155.55,138.23,120.91,105.76,90.604,77.371,64.138,53.886,43.633,36.269,28.906,24.037,19.168,16.084,13.001,12.697,12.393,10.128,7.864,7.3485,6.833,5.7773,4.7215,4.4413,4.1612,3.7152,3.2691
3.0081,3.1823,3.3565,3.5965,3.8365,4.4153,4.994,5.3857,5.7775,6.896,8.0145,8.6862,9.358,11.942,14.525,15.801,17.077,26.778,36.478,45.84,55.201,66.963,78.725,92.731,106.74,120.34,133.94,148.44,162.94,177.12,191.3,205.44,219.59,232.54,245.49,256.7,267.92,276.64,285.37,290.28,295.19,296.44,297.7,294.65,291.61,284.54,277.48,266.27,255.05,240.87,226.68,210.08,193.48,175.77,158.07,140.82,123.58,107.96,92.339,78.832,65.326,54.884,44.442,36.798,29.154,24.221,19.288,16.215,13.142,12.832,12.522,10.243,7.9635,7.4427,6.922,5.8524,4.7828,4.4997,4.2165,3.768,3.3194
3.074,3.2555,3.437,3.6855,3.934,4.5135,5.093,5.5035,5.914,7.049,8.184,8.888,9.592,12.219,14.846,16.16,17.473,27.229,36.985,46.55,56.115,67.938,79.761,94.13,108.5,122.63,136.76,151.71,166.66,180.87,195.07,209.29,223.52,236.55,249.59,261.21,272.82,281.77,290.71,295.5,300.28,301.24,302.21,298.93,295.65,288.26,280.87,269.3,257.73,243.52,229.31,212.5,195.69,178.13,160.58,143.41,126.25,110.16,94.075,80.294,66.513,55.882,45.251,37.327,29.402,24.404,19.407,16.345,13.282,12.967,12.651,10.357,8.063,7.537,7.011,5.9275,4.844,4.5579,4.2719,3.8208,3.3697
3.1315,3.3127,3.494,3.7555,4.017,4.6005,5.184,5.615,6.046,7.19,8.334,9.0723,9.8105,12.461,15.111,16.512,17.913,27.577,37.242,46.799,56.355,68.083,79.811,94.291,108.77,123.19,137.61,153.45,169.28,183.75,198.23,212.54,226.86,239.89,252.91,264.36,275.81,284.46,293.11,297.65,302.19,302.84,303.49,299.66,295.83,288,280.17,268.32,256.48,242.3,228.11,211.38,194.66,177.51,160.36,143.31,126.26,110.25,94.237,80.456,66.674,56.032,45.389,37.43,29.471,24.469,19.468,17.356,15.244,13.56,11.877,10.271,8.6645,7.6813,6.698,5.9245,5.151,4.6477,4.1445,3.8499,3.5553
3.189,3.37,3.551,3.8255,4.1,4.6875,5.275,5.7265,6.178,7.331,8.484,9.2565,10.029,12.703,15.376,16.864,18.352,27.926,37.499,47.047,56.595,68.228,79.862,94.453,109.05,123.76,138.47,155.18,171.9,186.64,201.38,215.8,230.21,243.22,256.23,267.51,278.8,287.15,295.5,299.8,304.1,304.44,304.78,300.39,296.01,287.74,279.46,267.35,255.23,241.07,226.92,210.27,193.63,176.89,160.15,143.21,126.26,110.33,94.4,80.618,66.835,56.181,45.527,37.533,29.539,24.534,19.528,18.367,17.206,14.154,11.103,10.185,9.266,7.8255,6.385,5.9215,5.458,4.7375,4.017,3.879,3.741
3.1995,3.42,3.6405,3.8697,4.099,4.7692,5.4395,5.824,6.2085,7.4753,8.742,9.4123,10.083,12.949,15.816,17.166,18.517,28.128,37.739,46.735,55.73,67.564,79.398,93.141,106.88,122.43,137.98,154.61,171.25,186.88,202.51,217.42,232.32,245.7,259.08,270.01,280.94,288.88,296.83,300.88,304.94,304.75,304.57,299.75,294.93,285.98,277.03,264.46,251.89,237.74,223.58,206.93,190.29,173.82,157.35,140.57,123.79,108.64,93.489,79.717,65.946,55.497,45.049,37.195,29.342,24.415,19.489,18.334,17.178,14.151,11.123,10.198,9.2735,7.8485,6.4235,5.9507,5.478,4.762,4.046,3.9087,3.7715
3.21,3.47,3.73,3.914,4.098,4.851,5.604,5.9215,6.239,7.6195,9,9.568,10.136,13.196,16.256,17.469,18.682,28.331,37.979,46.422,54.866,66.9,78.935,91.828,104.72,121.11,137.49,154.05,170.6,187.12,203.64,219.04,234.44,248.19,261.93,272.51,283.08,290.62,298.16,301.97,305.78,305.06,304.35,299.1,293.86,284.23,274.6,261.58,248.55,234.4,220.25,203.6,186.95,170.75,154.55,137.93,121.32,106.95,92.577,78.817,65.057,54.814,44.57,36.857,29.144,24.297,19.45,18.3,17.15,14.147,11.143,10.212,9.281,7.8715,6.462,5.98,5.498,4.7865,4.075,3.9385,3.802
3.255,3.5217,3.7885,3.9765,4.1645,4.9307,5.697,6.022,6.347,7.7348,9.1225,9.7188,10.315,13.36,16.405,17.689,18.974,28.483,37.993,46.028,54.064,65.986,77.907,90.329,102.75,118.51,134.26,151.34,168.43,185.43,202.44,218.3,234.17,248.3,262.43,273.08,283.72,291.2,298.68,302.26,305.84,304.83,303.81,298.01,292.21,282.24,272.27,259.13,245.98,231.39,216.8,199.62,182.44,166.49,150.54,133.98,117.42,103.68,89.936,76.726,63.516,53.654,43.791,36.293,28.794,24.075,19.356,17.802,16.248,14.06,11.872,10.304,8.7365,7.7748,6.813,6.0313,5.2495,4.751,4.2525,3.9685,3.6845
3.3,3.5735,3.847,4.039,4.231,5.0105,5.79,6.1225,6.455,7.85,9.245,9.8695,10.494,13.524,16.554,17.91,19.265,28.636,38.006,45.634,53.262,65.071,76.88,88.83,100.78,115.91,131.03,148.64,166.25,183.75,201.24,217.57,233.9,248.42,262.93,273.64,284.36,291.77,299.19,302.55,305.91,304.59,303.27,296.92,290.56,280.26,269.95,256.68,243.4,228.38,213.35,195.65,177.94,162.24,146.54,130.04,113.53,100.41,87.295,74.634,61.974,52.493,43.013,35.729,28.445,23.854,19.263,17.304,15.346,13.974,12.601,10.397,8.192,7.678,7.164,6.0825,5.001,4.7155,4.43,3.9985,3.567
3.4205,3.6247,3.829,4.1102,4.3915,5.078,5.7645,6.228,6.6915,7.9552,9.219,10.079,10.94,13.68,16.419,18.257,20.095,28.758,37.421,45.521,53.621,63.783,73.945,86.43,98.915,114.07,129.22,146.22,163.21,180.51,197.81,214.24,230.67,245.33,260,271.11,282.22,289.66,297.09,300.19,303.29,301.65,300.01,293.57,287.12,276.57,266.03,252.63,239.22,223.99,208.76,191.76,174.76,158.76,142.78,126.16,109.54,97.012,84.482,72.207,59.932,50.983,42.033,34.956,27.878,23.459,19.04,17.603,16.165,13.961,11.757,10.176,8.5945,7.7025,6.8105,6.02,5.2295,4.7653,4.301,3.9928,3.6845
3.541,3.676,3.811,4.1815,4.552,5.1455,5.739,6.3335,6.928,8.0605,9.193,10.29,11.386,13.836,16.285,18.605,20.925,28.88,36.835,45.407,53.98,62.495,71.01,84.03,97.05,112.24,127.42,143.8,160.17,177.27,194.37,210.91,227.44,242.25,257.06,268.57,280.08,287.53,294.99,297.84,300.68,298.72,296.76,290.22,283.67,272.89,262.11,248.58,235.04,219.6,204.16,187.87,171.57,155.29,139.01,122.28,105.55,93.61,81.67,69.78,57.89,49.471,41.053,34.182,27.312,23.065,18.818,17.901,16.984,13.949,10.913,9.955,8.997,7.727,6.457,5.9575,5.458,4.815,4.172,3.987,3.802
3.4945,3.717,3.9395,4.2305,4.5215,5.2382,5.955,6.426,6.897,7.997,9.097,10.209,11.322,14.144,16.965,18.909,20.852,29.36,37.868,45.139,52.41,61.382,70.355,83.007,95.66,110.43,125.19,141.16,157.13,173.91,190.69,206.94,223.2,237.72,252.24,264.05,275.87,283.52,291.17,293.97,296.76,294.72,292.68,286.01,279.34,268.37,257.39,243.67,229.95,214.54,199.13,183.12,167.12,151.18,135.24,119.49,103.75,91.528,79.305,67.648,55.992,47.964,39.935,33.268,26.602,22.547,18.493,17.534,16.576,13.688,10.8,9.8368,8.874,7.6505,6.427,5.9182,5.4095,4.783,4.1565,3.9877,3.819
3.448,3.758,4.068,4.2795,4.491,5.331,6.171,6.5185,6.866,7.9335,9.001,10.129,11.257,14.451,17.646,19.213,20.78,29.84,38.9,44.87,50.84,60.27,69.7,81.985,94.27,108.62,122.96,138.53,154.1,170.56,187.01,202.98,218.96,233.19,247.41,259.53,271.66,279.51,287.35,290.1,292.84,290.72,288.59,281.8,275.01,263.85,252.68,238.77,224.86,209.47,194.09,178.38,162.67,147.07,131.46,116.71,101.95,89.445,76.94,65.517,54.094,46.456,38.817,32.354,25.891,22.029,18.168,17.168,16.167,13.427,10.686,9.7185,8.751,7.574,6.397,5.879,5.361,4.751,4.141,3.9885,3.836
3.5625,3.7893,4.016,4.3468,4.6775,5.3765,6.0755,6.645,7.2145,8.2317,9.249,10.596,11.942,14.678,17.413,20.004,22.595,29.34,36.085,43.522,50.96,60.42,69.88,81.71,93.54,107.36,121.18,136.48,151.79,167.91,184.03,200.02,216.02,230.27,244.51,256.16,267.8,275.33,282.86,285.67,288.48,286.53,284.58,278.05,271.52,260.37,249.2,235.13,221.05,205.7,190.35,174.73,159.12,143.95,128.79,114.5,100.22,88.072,75.925,64.129,52.332,45.115,37.898,31.514,25.129,21.534,17.939,16.827,15.715,13.133,10.551,9.5808,8.611,7.4838,6.3565,5.8258,5.295,4.7177,4.1405,3.9747,3.809
3.677,3.8205,3.964,4.414,4.864,5.422,5.98,6.7715,7.563,8.53,9.497,11.063,12.628,14.904,17.18,20.795,24.41,28.84,33.27,42.175,51.08,60.57,70.06,81.435,92.81,106.1,119.39,134.44,149.48,165.26,181.04,197.06,213.08,227.35,241.61,252.78,263.95,271.15,278.36,281.24,284.12,282.35,280.57,274.3,268.04,256.88,245.73,231.48,217.23,201.92,186.6,171.08,155.57,140.84,126.11,112.3,98.49,86.7,74.91,62.74,50.57,43.775,36.98,30.673,24.366,21.038,17.71,16.486,15.263,12.839,10.415,9.443,8.471,7.3935,6.316,5.7725,5.229,4.6845,4.14,3.961,3.782
3.5935,3.8068,4.02,4.4605,4.901,5.5,6.099,6.8658,7.6325,8.7225,9.8125,11.325,12.838,15.379,17.92,20.995,24.07,28.21,32.35,41.86,51.37,60.938,70.505,81.69,92.875,105.97,119.06,134.03,149,164.59,180.18,195.86,211.54,225.45,239.36,250.52,261.67,269.15,276.63,279.5,282.36,280.2,278.03,271.05,264.07,252.94,241.82,227.98,214.14,199.13,184.12,168.63,153.13,138.49,123.83,110.3,96.77,85.223,73.675,62.37,51.065,43.71,36.355,30.001,23.647,21.559,19.471,16.758,14.044,12.394,10.745,9.3712,7.998,7.2477,6.4975,5.7555,5.0135,4.6308,4.248,3.9577,3.6675
3.51,3.793,4.076,4.507,4.938,5.578,6.218,6.96,7.702,8.915,10.128,11.588,13.047,15.854,18.66,21.195,23.73,27.58,31.43,41.545,51.66,61.305,70.95,81.945,92.94,105.83,118.73,133.62,148.51,163.91,179.31,194.66,210,223.55,237.1,248.25,259.4,267.15,274.9,277.75,280.6,278.05,275.5,267.8,260.1,249,237.9,224.47,211.04,196.34,181.63,166.16,150.7,136.13,121.56,108.31,95.05,83.745,72.44,62,51.56,43.645,35.73,29.329,22.928,22.081,21.233,17.029,12.826,11.95,11.074,9.2995,7.525,7.102,6.679,5.7385,4.798,4.577,4.356,3.9545,3.553
3.5315,3.8737,4.216,4.542,4.868,5.6583,6.4485,7.031,7.6135,9.1073,10.601,11.769,12.937,16.442,19.947,21.638,23.329,28.454,33.58,42.595,51.61,61.653,71.695,82.845,93.995,107.07,120.15,134.88,149.6,165.04,180.47,195.5,210.52,224.01,237.5,248.63,259.75,267.48,275.2,277.9,280.6,277.9,275.2,267.48,259.75,248.63,237.5,224.01,210.52,195.5,180.47,165.04,149.6,134.88,120.15,107.07,93.995,82.845,71.695,61.652,51.61,42.595,33.58,28.454,23.329,21.638,19.947,16.442,12.937,11.769,10.601,9.1072,7.6135,7.031,6.4485,5.6582,4.868,4.542,4.216,3.8737,3.5315
3.553,3.9545,4.356,4.577,4.798,5.7385,6.679,7.102,7.525,9.2995,11.074,11.95,12.826,17.029,21.233,22.081,22.928,29.329,35.73,43.645,51.56,62,72.44,83.745,95.05,108.31,121.56,136.13,150.7,166.16,181.63,196.34,211.04,224.47,237.9,249,260.1,267.8,275.5,278.05,280.6,277.75,274.9,267.15,259.4,248.25,237.1,223.55,210,194.66,179.31,163.91,148.51,133.62,118.73,105.83,92.94,81.945,70.95,61.305,51.66,41.545,31.43,27.58,23.73,21.195,18.66,15.854,13.047,11.588,10.128,8.915,7.702,6.96,6.218,5.578,4.938,4.507,4.076,3.793,3.51
3.6675,3.9577,4.248,4.6307,5.0135,5.7555,6.4975,7.2478,7.998,9.3712,10.745,12.394,14.044,16.758,19.471,21.559,23.647,30.001,36.355,43.71,51.065,62.37,73.675,85.222,96.77,110.3,123.83,138.49,153.13,168.63,184.12,199.13,214.14,227.98,241.82,252.94,264.07,271.05,278.03,280.2,282.36,279.5,276.63,269.15,261.67,250.51,239.36,225.45,211.54,195.86,180.18,164.59,149,134.03,119.06,105.97,92.875,81.69,70.505,60.938,51.37,41.86,32.35,28.21,24.07,20.995,17.92,15.379,12.838,11.325,9.8125,8.7225,7.6325,6.8658,6.099,5.5,4.901,4.4605,4.02,3.8067,3.5935
3.782,3.961,4.14,4.6845,5.229,5.7725,6.316,7.3935,8.471,9.443,10.415,12.839,15.263,16.486,17.71,21.038,24.366,30.673,36.98,43.775,50.57,62.74,74.91,86.7,98.49,112.3,126.11,140.84,155.57,171.08,186.6,201.92,217.23,231.48,245.73,256.88,268.04,274.3,280.57,282.35,284.12,281.24,278.36,271.15,263.95,252.78,241.61,227.35,213.08,197.06,181.04,165.26,149.48,134.44,119.39,106.1,92.81,81.435,70.06,60.57,51.08,42.175,33.27,28.84,24.41,20.795,17.18,14.904,12.628,11.063,9.497,8.53,7.563,6.7715,5.98,5.422,4.864,4.414,3.964,3.8205,3.677
3.809,3.9747,4.1405,4.7177,5.295,5.8257,6.3565,7.4838,8.611,9.5808,10.551,13.133,15.715,16.827,17.939,21.534,25.129,31.514,37.898,45.115,52.332,64.129,75.925,88.072,100.22,114.5,128.79,143.95,159.12,174.73,190.35,205.7,221.05,235.13,249.2,260.37,271.52,278.05,284.58,286.53,288.48,285.67,282.86,275.33,267.8,256.16,244.51,230.26,216.02,200.02,184.03,167.91,151.79,136.48,121.18,107.36,93.54,81.71,69.88,60.42,50.96,43.523,36.085,29.34,22.595,20.004,17.413,14.678,11.942,10.596,9.249,8.2317,7.2145,6.645,6.0755,5.3765,4.6775,4.3468,4.016,3.7893,3.5625
3.836,3.9885,4.141,4.751,5.361,5.879,6.397,7.574,8.751,9.7185,10.686,13.427,16.167,17.168,18.168,22.029,25.891,32.354,38.817,46.456,54.094,65.517,76.94,89.445,101.95,116.71,131.46,147.07,162.67,178.38,194.09,209.47,224.86,238.77,252.68,263.85,275.01,281.8,288.59,290.72,292.84,290.1,287.35,279.51,271.66,259.53,247.41,233.19,218.96,202.98,187.01,170.56,154.1,138.53,122.96,108.62,94.27,81.985,69.7,60.27,50.84,44.87,38.9,29.84,20.78,19.213,17.646,14.451,11.257,10.129,9.001,7.9335,6.866,6.5185,6.171,5.331,4.491,4.2795,4.068,3.758,3.448
3.819,3.9878,4.1565,4.783,5.4095,5.9183,6.427,7.6505,8.874,9.8368,10.8,13.688,16.576,17.534,18.493,22.547,26.602,33.268,39.935,47.963,55.992,67.648,79.305,91.528,103.75,119.49,135.24,151.18,167.12,183.12,199.13,214.54,229.95,243.67,257.39,268.37,279.34,286.01,292.68,294.72,296.76,293.97,291.17,283.52,275.87,264.05,252.24,237.72,223.2,206.94,190.69,173.91,157.13,141.16,125.19,110.43,95.66,83.007,70.355,61.382,52.41,45.139,37.868,29.36,20.852,18.909,16.965,14.144,11.322,10.209,9.097,7.997,6.897,6.426,5.955,5.2382,4.5215,4.2305,3.9395,3.717,3.4945
3.802,3.987,4.172,4.815,5.458,5.9575,6.457,7.727,8.997,9.955,10.913,13.949,16.984,17.901,18.818,23.065,27.312,34.182,41.053,49.471,57.89,69.78,81.67,93.61,105.55,122.28,139.01,155.29,171.57,187.87,204.16,219.6,235.04,248.58,262.11,272.89,283.67,290.22,296.76,298.72,300.68,297.84,294.99,287.53,280.08,268.57,257.06,242.25,227.44,210.91,194.37,177.27,160.17,143.8,127.42,112.24,97.05,84.03,71.01,62.495,53.98,45.407,36.835,28.88,20.925,18.605,16.285,13.836,11.386,10.29,9.193,8.0605,6.928,6.3335,5.739,5.1455,4.552,4.1815,3.811,3.676,3.541
3.6845,3.9928,4.301,4.7653,5.2295,6.02,6.8105,7.7025,8.5945,10.176,11.757,13.961,16.165,17.603,19.04,23.459,27.878,34.956,42.033,50.983,59.932,72.207,84.482,97.012,109.54,126.16,142.78,158.76,174.76,191.76,208.76,223.99,239.22,252.63,266.03,276.57,287.12,293.57,300.01,301.65,303.29,300.19,297.09,289.65,282.22,271.11,260,245.33,230.67,214.24,197.81,180.51,163.21,146.22,129.22,114.07,98.915,86.43,73.945,63.783,53.621,45.521,37.421,28.758,20.095,18.257,16.419,13.68,10.94,10.079,9.219,7.9553,6.6915,6.228,5.7645,5.078,4.3915,4.1102,3.829,3.6247,3.4205
3.567,3.9985,4.43,4.7155,5.001,6.0825,7.164,7.678,8.192,10.397,12.601,13.974,15.346,17.304,19.263,23.854,28.445,35.729,43.013,52.493,61.974,74.634,87.295,100.41,113.53,130.04,146.54,162.24,177.94,195.65,213.35,228.38,243.4,256.68,269.95,280.26,290.56,296.92,303.27,304.59,305.91,302.55,299.19,291.77,284.36,273.64,262.93,248.42,233.9,217.57,201.24,183.75,166.25,148.64,131.03,115.91,100.78,88.83,76.88,65.071,53.262,45.634,38.006,28.636,19.265,17.91,16.554,13.524,10.494,9.8695,9.245,7.85,6.455,6.1225,5.79,5.0105,4.231,4.039,3.847,3.5735,3.3
3.6845,3.9685,4.2525,4.751,5.2495,6.0313,6.813,7.7748,8.7365,10.304,11.872,14.06,16.248,17.802,19.356,24.075,28.794,36.293,43.791,53.653,63.516,76.726,89.936,103.68,117.42,133.98,150.54,166.49,182.44,199.62,216.8,231.39,245.98,259.13,272.27,282.24,292.21,298.01,303.81,304.83,305.84,302.26,298.68,291.2,283.72,273.08,262.43,248.3,234.17,218.31,202.44,185.43,168.43,151.34,134.26,118.51,102.75,90.329,77.907,65.986,54.064,46.028,37.993,28.483,18.974,17.689,16.405,13.36,10.315,9.7188,9.1225,7.7348,6.347,6.022,5.697,4.9307,4.1645,3.9765,3.7885,3.5217,3.255
3.802,3.9385,4.075,4.7865,5.498,5.98,6.462,7.8715,9.281,10.212,11.143,14.147,17.15,18.3,19.45,24.297,29.144,36.857,44.57,54.814,65.057,78.817,92.577,106.95,121.32,137.93,154.55,170.75,186.95,203.6,220.25,234.4,248.55,261.58,274.6,284.23,293.86,299.1,304.35,305.06,305.78,301.97,298.16,290.62,283.08,272.51,261.93,248.19,234.44,219.04,203.64,187.12,170.6,154.05,137.49,121.11,104.72,91.828,78.935,66.9,54.866,46.422,37.979,28.331,18.682,17.469,16.256,13.196,10.136,9.568,9,7.6195,6.239,5.9215,5.604,4.851,4.098,3.914,3.73,3.47,3.21
3.7715,3.9087,4.046,4.762,5.478,5.9507,6.4235,7.8485,9.2735,10.198,11.123,14.151,17.178,18.334,19.489,24.415,29.342,37.195,45.049,55.497,65.946,79.717,93.489,108.64,123.79,140.57,157.35,173.82,190.29,206.93,223.58,237.74,251.89,264.46,277.03,285.98,294.93,299.75,304.57,304.75,304.94,300.88,296.83,288.88,280.94,270.01,259.08,245.7,232.32,217.42,202.51,186.88,171.25,154.61,137.98,122.43,106.88,93.141,79.398,67.565,55.73,46.735,37.739,28.128,18.517,17.167,15.816,12.949,10.083,9.4123,8.742,7.4753,6.2085,5.824,5.4395,4.7692,4.099,3.8698,3.6405,3.42,3.1995
3.741,3.879,4.017,4.7375,5.458,5.9215,6.385,7.8255,9.266,10.185,11.103,14.154,17.206,18.367,19.528,24.534,29.539,37.533,45.527,56.181,66.835,80.618,94.4,110.33,126.26,143.21,160.15,176.89,193.63,210.27,226.92,241.07,255.23,267.35,279.46,287.74,296.01,300.39,304.78,304.44,304.1,299.8,295.5,287.15,278.8,267.51,256.23,243.22,230.21,215.8,201.38,186.64,171.9,155.18,138.47,123.76,109.05,94.453,79.862,68.228,56.595,47.047,37.499,27.926,18.352,16.864,15.376,12.703,10.029,9.2565,8.484,7.331,6.178,5.7265,5.275,4.6875,4.1,3.8255,3.551,3.37,3.189
3.5553,3.8499,4.1445,4.6477,5.151,5.9245,6.698,7.6813,8.6645,10.271,11.877,13.56,15.244,17.356,19.468,24.469,29.471,37.43,45.389,56.032,66.674,80.456,94.237,110.25,126.26,143.31,160.36,177.51,194.66,211.38,228.11,242.3,256.48,268.33,280.17,288,295.83,299.66,303.49,302.84,302.19,297.65,293.11,284.46,275.81,264.36,252.91,239.89,226.86,212.54,198.23,183.75,169.28,153.45,137.61,123.19,108.77,94.291,79.811,68.083,56.355,46.799,37.242,27.577,17.913,16.512,15.111,12.461,9.8105,9.0722,8.334,7.19,6.046,5.615,5.184,4.6005,4.017,3.7555,3.494,3.3127,3.1315
3.3697,3.8208,4.2719,4.5579,4.844,5.9275,7.011,7.537,8.063,10.357,12.651,12.967,13.282,16.345,19.407,24.404,29.402,37.327,45.251,55.882,66.513,80.294,94.075,110.16,126.25,143.41,160.58,178.13,195.69,212.5,229.31,243.52,257.73,269.3,280.87,288.26,295.65,298.93,302.21,301.24,300.28,295.5,290.71,281.77,272.82,261.21,249.59,236.55,223.52,209.29,195.07,180.87,166.66,151.71,136.76,122.63,108.5,94.13,79.761,67.938,56.115,46.55,36.985,27.229,17.473,16.16,14.846,12.219,9.592,8.888,8.184,7.049,5.914,5.5035,5.093,4.5135,3.934,3.6855,3.437,3.2555,3.074
3.3194,3.768,4.2165,4.4996,4.7828,5.8524,6.922,7.4428,7.9635,10.243,12.522,12.832,13.142,16.215,19.288,24.221,29.154,36.798,44.442,54.884,65.326,78.832,92.339,107.96,123.58,140.82,158.07,175.77,193.48,210.08,226.68,240.87,255.05,266.27,277.48,284.54,291.61,294.65,297.7,296.45,295.19,290.28,285.37,276.64,267.92,256.7,245.49,232.54,219.59,205.44,191.3,177.12,162.94,148.44,133.94,120.34,106.74,92.731,78.725,66.963,55.201,45.84,36.478,26.778,17.077,15.801,14.525,11.942,9.358,8.6862,8.0145,6.896,5.7775,5.3857,4.994,4.4153,3.8365,3.5965,3.3565,3.1823,3.0081
3.2691,3.7152,4.1612,4.4413,4.7215,5.7773,6.833,7.3485,7.864,10.128,12.393,12.697,13.001,16.084,19.168,24.037,28.906,36.269,43.633,53.886,64.138,77.371,90.604,105.76,120.91,138.23,155.55,173.41,191.27,207.66,224.05,238.21,252.37,263.23,274.09,280.83,287.57,290.38,293.19,291.65,290.1,285.06,280.02,271.51,263.01,252.19,241.38,228.52,215.66,201.59,187.52,173.37,159.22,145.17,131.12,118.05,104.98,91.334,77.689,65.989,54.288,45.13,35.971,26.326,16.681,15.443,14.205,11.664,9.124,8.4845,7.845,6.743,5.641,5.268,4.895,4.317,3.739,3.5075,3.276,3.1091,2.9422
3.3411,3.6325,3.9239,4.4073,4.8908,5.6194,6.3479,7.2974,8.247,9.7892,11.331,13.042,14.753,16.802,18.85,23.56,28.27,35.295,42.319,52.15,61.981,74.726,87.472,102.08,116.69,133.67,150.64,168.11,185.58,201.57,217.56,231.47,245.39,255.92,266.46,272.93,279.41,281.93,284.46,282.95,281.45,276.69,271.94,263.71,255.49,244.91,234.34,221.89,209.43,195.78,182.13,168.2,154.26,140.64,127.01,114.11,101.21,88.358,75.505,64.271,53.037,44.113,35.189,25.709,16.23,14.995,13.76,11.317,8.8735,8.266,7.6585,6.5778,5.497,5.1405,4.784,4.2175,3.651,3.4295,3.208,3.0409,2.8739
3.413,3.5498,3.6866,4.3734,5.0601,5.4615,5.8628,7.2464,8.63,9.45,10.27,13.387,16.505,17.519,18.532,23.083,27.634,34.32,41.006,50.415,59.823,72.081,84.34,98.407,112.48,129.1,145.73,162.81,179.89,195.48,211.06,224.74,238.41,248.62,258.83,265.04,271.25,273.49,275.72,274.26,272.79,268.33,263.87,255.91,247.96,237.63,227.29,215.25,203.21,189.98,176.75,163.03,149.31,136.11,122.91,110.18,97.446,85.383,73.321,62.553,51.785,43.096,34.406,25.093,15.779,14.547,13.315,10.969,8.623,8.0475,7.472,6.4125,5.353,5.013,4.673,4.118,3.563,3.3515,3.14,2.9727,2.8055
3.3408,3.4749,3.609,4.279,4.9491,5.3362,5.7233,7.0663,8.4094,9.2042,9.999,13.043,16.087,17.036,17.985,22.358,26.732,33.055,39.38,48.191,57.002,68.664,80.327,94.053,107.78,123.3,138.82,155.14,171.46,186.44,201.41,214.65,227.89,237.77,247.65,253.6,259.55,261.76,263.98,262.71,261.44,257.32,253.2,245.47,237.75,227.7,217.65,206.12,194.58,181.98,169.37,156.16,142.95,130.19,117.43,105.32,93.213,81.766,70.319,60.139,49.96,41.617,33.275,24.285,15.296,14.092,12.889,10.627,8.364,7.8158,7.2675,6.2365,5.2055,4.8821,4.5587,4.0162,3.4737,3.2711,3.0685,2.9019,2.7352
3.2685,3.4,3.5314,4.1848,4.8381,5.2109,5.5837,6.8863,8.1888,8.9584,9.728,12.698,15.668,16.553,17.438,21.634,25.829,31.791,37.753,45.966,54.18,65.247,76.314,89.698,103.08,117.5,131.92,147.47,163.03,177.4,191.76,204.57,217.37,226.92,236.46,242.16,247.85,250.04,252.23,251.16,250.08,246.31,242.53,235.03,227.53,217.77,208.01,196.98,185.95,173.97,161.99,149.29,136.6,124.28,111.96,100.47,88.979,78.148,67.316,57.725,48.135,40.139,32.143,23.477,14.812,13.637,12.463,10.284,8.105,7.584,7.063,6.0605,5.058,4.7512,4.4443,3.9144,3.3845,3.1908,2.997,2.831,2.665
3.1899,3.3245,3.4591,4.0839,4.7088,5.0655,5.4223,6.6745,7.9268,8.6582,9.3896,12.374,15.358,16.029,16.699,20.675,24.651,30.268,35.885,43.573,51.261,61.567,71.873,84.331,96.788,110.53,124.28,138.98,153.68,167.45,181.22,193.34,205.46,214.48,223.51,229.09,234.68,236.76,238.84,238.01,237.18,233.65,230.12,222.97,215.82,206.52,197.22,186.59,175.97,164.41,152.84,140.78,128.71,117.12,105.53,94.852,84.174,74.209,64.245,55.195,46.145,38.5,30.855,22.534,14.214,13.111,12.009,9.9183,7.8275,7.333,6.8385,5.872,4.9055,4.6128,4.32,3.8056,3.2912,3.1067,2.9223,2.762,2.6018
3.1112,3.249,3.3867,3.9831,4.5794,4.9201,5.2608,6.4627,7.6647,8.3579,9.0512,12.05,15.049,15.504,15.959,19.715,23.472,28.745,34.017,41.18,48.342,57.887,67.432,78.963,90.495,103.57,116.64,130.48,144.32,157.5,170.67,182.11,193.55,202.05,210.55,216.03,221.51,223.48,225.45,224.86,224.28,221,217.71,210.91,204.11,195.27,186.43,176.2,165.98,154.84,143.69,132.26,120.82,109.96,99.105,89.237,79.369,70.271,61.173,52.664,44.155,36.861,29.568,21.592,13.615,12.585,11.555,9.5525,7.55,7.082,6.614,5.6835,4.753,4.4743,4.1957,3.6968,3.198,3.0228,2.8475,2.693,2.5385
3.0243,3.1567,3.2892,3.861,4.4329,4.7561,5.0794,6.2191,7.3587,8.0067,8.6547,11.453,14.25,14.704,15.159,18.672,22.186,27.117,32.049,38.66,45.27,54.06,62.849,73.537,84.226,96.595,108.96,121.8,134.63,147.24,159.85,170.85,181.86,190.05,198.24,203.47,208.69,210.63,212.56,211.8,211.04,207.63,204.22,197.66,191.11,182.78,174.44,164.87,155.3,144.77,134.24,123.78,113.32,103.37,93.422,84.189,74.957,66.415,57.874,49.805,41.737,34.336,26.936,20.736,14.537,12.407,10.278,9.0155,7.7535,6.8961,6.0388,5.4367,4.8346,4.3636,3.8926,3.5643,3.2359,2.9514,2.6668,2.5703,2.4739
2.9374,3.0645,3.1916,3.739,4.2864,4.5922,4.898,5.9754,7.0528,7.6554,8.2581,10.855,13.452,13.905,14.358,17.629,20.9,25.49,30.08,36.139,42.199,50.232,58.265,68.112,77.958,89.623,101.29,113.11,124.94,136.98,149.02,159.6,170.18,178.05,185.93,190.9,195.87,197.77,199.67,198.73,197.8,194.26,190.72,184.42,178.11,170.28,162.45,153.54,144.62,134.7,124.78,115.3,105.82,96.781,87.739,79.142,70.545,62.56,54.575,46.947,39.319,31.811,24.303,19.881,15.459,12.23,9,8.4785,7.957,6.7103,5.4635,5.1898,4.9161,4.2529,3.5896,3.4318,3.2739,2.88,2.486,2.4477,2.4093
2.5737,2.7012,2.8288,3.3325,3.8362,4.1141,4.392,5.3945,6.3969,6.9297,7.4625,9.8142,12.166,12.525,12.884,15.927,18.97,23.19,27.41,32.907,38.404,45.626,52.847,61.856,70.864,81.409,91.954,103.01,114.07,125.42,136.76,146.9,157.04,164.63,172.21,177.18,182.14,184.24,186.34,185.52,184.7,181.33,177.96,172.16,166.36,158.87,151.38,142.77,134.16,125.02,115.89,107.09,98.281,89.898,81.514,73.431,65.347,57.782,50.218,43.099,35.98,28.753,21.526,17.093,12.659,10.7,8.741,7.716,6.691,5.8819,5.0728,4.5959,4.119,3.7029,3.2868,3.0089,2.731,2.4882,2.2455,2.1533,2.0612
2.21,2.338,2.466,2.926,3.386,3.636,3.886,4.8135,5.741,6.204,6.667,8.7735,10.88,11.145,11.41,14.225,17.04,20.89,24.74,29.675,34.61,41.02,47.43,55.6,63.77,73.195,82.62,92.91,103.2,113.85,124.5,134.2,143.9,151.2,158.5,163.45,168.4,170.7,173,172.3,171.6,168.4,165.2,159.9,154.6,147.45,140.3,132,123.7,115.35,107,98.87,90.74,83.015,75.29,67.72,60.15,53.005,45.86,39.25,32.64,25.695,18.75,14.304,9.858,9.17,8.482,6.9535,5.425,5.0535,4.682,4.002,3.322,3.153,2.984,2.586,2.188,2.0965,2.005,1.859,1.713
2.047,2.2765,2.506,2.8127,3.1195,3.5317,3.944,4.545,5.146,5.937,6.728,8.0697,9.4115,10.926,12.44,14.01,15.58,19.14,22.7,27.157,31.615,37.317,43.02,50.303,57.585,66.093,74.6,83.977,93.355,103.05,112.75,122.13,131.5,138.78,146.05,150.93,155.8,158.32,160.85,160.4,159.95,156.95,153.95,149.1,144.25,137.5,130.75,123.03,115.3,107.53,99.755,92.302,84.85,77.37,69.89,62.688,55.485,48.797,42.11,36.06,30.01,23.735,17.46,13.373,9.2865,8.6563,8.026,6.471,4.916,4.7302,4.5445,3.876,3.2075,3.0473,2.887,2.5017,2.1165,2.026,1.9355,1.7975,1.6595
1.884,2.215,2.546,2.6995,2.853,3.4275,4.002,4.2765,4.551,5.67,6.789,7.366,7.943,10.707,13.47,13.795,14.12,17.39,20.66,24.64,28.62,33.615,38.61,45.005,51.4,58.99,66.58,75.045,83.51,92.255,101,110.05,119.1,126.35,133.6,138.4,143.2,145.95,148.7,148.5,148.3,145.5,142.7,138.3,133.9,127.55,121.2,114.05,106.9,99.705,92.51,85.735,78.96,71.725,64.49,57.655,50.82,44.59,38.36,32.87,27.38,21.775,16.17,12.443,8.715,8.1425,7.57,5.9885,4.407,4.407,4.407,3.75,3.093,2.9415,2.79,2.4175,2.045,1.9555,1.866,1.736,1.606
1.9045,2.1212,2.338,2.607,2.876,3.242,3.608,4.0877,4.5675,5.283,5.9985,6.9368,7.875,9.5998,11.325,12.905,14.485,16.485,18.485,22.113,25.74,30.198,34.655,40.225,45.795,52.448,59.1,66.632,74.165,82.11,90.055,98.183,106.31,113.28,120.25,125.22,130.2,133.02,135.85,135.97,136.1,133.65,131.2,127.02,122.85,117.18,111.5,104.99,98.49,92.03,85.57,79.09,72.61,65.852,59.095,52.735,46.375,40.568,34.76,29.368,23.975,19.388,14.8,11.476,8.151,7.6342,7.1175,5.7797,4.442,4.3238,4.2055,3.5895,2.9735,2.8302,2.687,2.3342,1.9815,1.8958,1.81,1.6825,1.555
1.925,2.0275,2.13,2.5145,2.899,3.0565,3.214,3.899,4.584,4.896,5.208,6.5075,7.807,8.493,9.179,12.015,14.85,15.58,16.31,19.585,22.86,26.78,30.7,35.445,40.19,45.905,51.62,58.22,64.82,71.965,79.11,86.315,93.52,100.21,106.9,112.05,117.2,120.1,123,123.45,123.9,121.8,119.7,115.75,111.8,106.8,101.8,95.94,90.08,84.355,78.63,72.445,66.26,59.98,53.7,47.815,41.93,36.545,31.16,25.865,20.57,17,13.43,10.509,7.587,7.126,6.665,5.571,4.477,4.2405,4.004,3.429,2.854,2.719,2.584,2.251,1.918,1.836,1.754,1.629,1.504
1.8505,1.9472,2.044,2.402,2.76,2.906,3.052,3.6803,4.3085,4.5915,4.8745,6.029,7.1835,7.7687,8.354,10.829,13.305,13.815,14.325,17.19,20.055,23.563,27.07,31.227,35.385,40.277,45.17,50.855,56.54,62.835,69.13,75.565,82,88.105,94.21,98.968,103.72,106.66,109.6,110.34,111.09,109.41,107.74,104.42,101.1,96.625,92.15,86.912,81.675,76.33,70.985,65.345,59.705,53.993,48.28,42.92,37.56,32.67,27.78,22.145,16.51,14.255,12,9.5333,7.0665,6.6505,6.2345,5.2393,4.244,4.0237,3.8035,3.269,2.7345,2.6073,2.48,2.1695,1.859,1.783,1.707,1.583,1.459
1.776,1.867,1.958,2.2895,2.621,2.7555,2.89,3.4615,4.033,4.287,4.541,5.5505,6.56,7.0445,7.529,9.6445,11.76,12.05,12.34,14.795,17.25,20.345,23.44,27.01,30.58,34.65,38.72,43.49,48.26,53.705,59.15,64.815,70.48,76,81.52,85.885,90.25,93.22,96.19,97.23,98.27,97.025,95.78,93.09,90.4,86.45,82.5,77.885,73.27,68.305,63.34,58.245,53.15,48.005,42.86,38.025,33.19,28.795,24.4,18.425,12.45,11.51,10.57,8.558,6.546,6.175,5.804,4.9075,4.011,3.807,3.603,3.109,2.615,2.4955,2.376,2.088,1.8,1.73,1.66,1.537,1.414
1.6365,1.796,1.9555,2.171,2.3865,2.6335,2.8805,3.2393,3.598,4.0323,4.4665,5.105,5.7435,6.5075,7.2715,8.571,9.8705,11.015,12.16,13.518,14.875,17.5,20.125,23.22,26.315,29.813,33.31,37.358,41.405,46.023,50.64,55.505,60.37,65.162,69.955,74.028,78.1,80.895,83.69,84.647,85.605,84.608,83.61,81.45,79.29,76.032,72.775,68.76,64.745,60.338,55.93,51.323,46.715,42.14,37.565,33.3,29.035,24.67,20.305,15.689,11.072,10.294,9.516,7.7988,6.0815,5.6942,5.307,4.548,3.789,3.6018,3.4145,2.9565,2.4985,2.3867,2.275,2.0005,1.726,1.658,1.59,1.478,1.366
1.497,1.725,1.953,2.0525,2.152,2.5115,2.871,3.017,3.163,3.7775,4.392,4.6595,4.927,5.9705,7.014,7.4975,7.981,9.9805,11.98,12.24,12.5,14.655,16.81,19.43,22.05,24.975,27.9,31.225,34.55,38.34,42.13,46.195,50.26,54.325,58.39,62.17,65.95,68.57,71.19,72.065,72.94,72.19,71.44,69.81,68.18,65.615,63.05,59.635,56.22,52.37,48.52,44.4,40.28,36.275,32.27,28.575,24.88,20.545,16.21,12.952,9.694,9.078,8.462,7.0395,5.617,5.2135,4.81,4.1885,3.567,3.3965,3.226,2.804,2.382,2.278,2.174,1.913,1.652,1.586,1.52,1.419,1.318
1.435,1.6483,1.8615,1.9535,2.0455,2.3762,2.707,2.8465,2.986,3.5315,4.077,4.3148,4.5525,5.4677,6.383,6.7927,7.2025,8.8478,10.493,10.914,11.335,13.533,15.73,17.148,18.565,20.998,23.43,26.205,28.98,32.105,35.23,38.578,41.925,45.205,48.485,51.56,54.635,56.84,59.045,59.918,60.79,60.435,60.08,58.835,57.59,55.53,53.47,50.67,47.87,44.643,41.415,37.922,34.43,30.975,27.52,23.345,19.17,16.623,14.075,11.386,8.696,8.1807,7.6655,6.438,5.2105,4.8905,4.5705,3.9668,3.363,3.2062,3.0495,2.6597,2.27,2.1733,2.0765,1.8318,1.587,1.5248,1.4625,1.3608,1.259
1.373,1.5715,1.77,1.8545,1.939,2.241,2.543,2.676,2.809,3.2855,3.762,3.97,4.178,4.965,5.752,6.088,6.424,7.715,9.006,9.588,10.17,12.41,14.65,14.865,15.08,17.02,18.96,21.185,23.41,25.87,28.33,30.96,33.59,36.085,38.58,40.95,43.32,45.11,46.9,47.77,48.64,48.68,48.72,47.86,47,45.445,43.89,41.705,39.52,36.915,34.31,31.445,28.58,25.675,22.77,18.115,13.46,12.7,11.94,9.819,7.698,7.2835,6.869,5.8365,4.804,4.5675,4.331,3.745,3.159,3.016,2.873,2.5155,2.158,2.0685,1.979,1.7505,1.522,1.4635,1.405,1.3025,1.2
1.364,1.4927,1.6215,1.7678,1.914,2.1085,2.303,2.5245,2.746,3.0507,3.3555,3.6965,4.0375,4.5317,5.026,5.5592,6.0925,6.8878,7.683,8.516,9.349,10.689,12.03,12.928,13.825,15.133,16.44,17.93,19.42,21.343,23.265,25.295,27.325,29.255,31.185,32.993,34.8,36.237,37.675,38.498,39.32,39.495,39.67,39.125,38.58,37.407,36.235,34.503,32.77,30.633,28.495,25.922,23.35,20.9,18.45,15.01,11.57,10.95,10.329,8.648,6.9665,6.6113,6.256,5.3543,4.4525,4.2408,4.029,3.5,2.971,2.8405,2.71,2.3805,2.051,1.9675,1.884,1.6713,1.4585,1.4035,1.3485,1.2535,1.1585
1.355,1.414,1.473,1.681,1.889,1.976,2.063,2.373,2.683,2.816,2.949,3.423,3.897,4.0985,4.3,5.0305,5.761,6.0605,6.36,7.444,8.528,8.969,9.41,10.99,12.57,13.245,13.92,14.675,15.43,16.815,18.2,19.63,21.06,22.425,23.79,25.035,26.28,27.365,28.45,29.225,30,30.31,30.62,30.39,30.16,29.37,28.58,27.3,26.02,24.35,22.68,20.4,18.12,16.125,14.13,11.905,9.68,9.1995,8.719,7.477,6.235,5.939,5.643,4.872,4.101,3.914,3.727,3.255,2.783,2.665,2.547,2.2455,1.944,1.8665,1.789,1.592,1.395,1.3435,1.292,1.2045,1.117
1.247,1.35,1.453,1.5873,1.7215,1.8698,2.018,2.2165,2.415,2.6342,2.8535,3.155,3.4565,3.7813,4.106,4.5622,5.0185,5.4895,5.9605,6.6262,7.292,7.9415,8.591,9.5433,10.496,11.38,12.265,12.835,13.405,14.695,15.985,16.88,17.775,18.685,19.595,20.535,21.475,22.283,23.09,23.663,24.235,24.48,24.725,24.563,24.4,23.792,23.185,21.773,20.36,19.295,18.23,16.302,14.375,13.16,11.945,10.242,8.5385,8.1445,7.7505,6.707,5.6635,5.402,5.1405,4.47,3.7995,3.6325,3.4655,3.041,2.6165,2.5088,2.401,2.1243,1.8475,1.7755,1.7035,1.5195,1.3355,1.2878,1.24,1.1525,1.065
1.139,1.286,1.433,1.4935,1.554,1.7635,1.973,2.06,2.147,2.4525,2.758,2.887,3.016,3.464,3.912,4.094,4.276,4.9185,5.561,5.8085,6.056,6.914,7.772,8.0965,8.421,9.5155,10.61,10.995,11.38,12.575,13.77,14.13,14.49,14.945,15.4,16.035,16.67,17.2,17.73,18.1,18.47,18.65,18.83,18.735,18.64,18.215,17.79,16.245,14.7,14.24,13.78,12.205,10.63,10.195,9.761,8.579,7.397,7.0895,6.782,5.937,5.092,4.865,4.638,4.068,3.498,3.351,3.204,2.827,2.45,2.3525,2.255,2.003,1.751,1.6845,1.618,1.447,1.276,1.232,1.188,1.1005,1.013
1.123,1.2183,1.3135,1.418,1.5225,1.6572,1.792,1.9383,2.0845,2.2792,2.474,2.684,2.894,3.1775,3.461,3.752,4.043,4.4428,4.8425,5.2337,5.625,6.1515,6.678,7.1705,7.663,8.3278,8.9925,9.5542,10.116,10.831,11.547,12.066,12.585,12.905,13.225,13.775,14.325,14.638,14.95,15.205,15.46,15.53,15.6,15.403,15.205,14.9,14.595,13.483,12.37,12.005,11.64,10.436,9.232,8.8857,8.5395,7.5732,6.607,6.3483,6.0895,5.3653,4.641,4.4452,4.2495,3.746,3.2425,3.1115,2.9805,2.641,2.3015,2.213,2.1245,1.8927,1.661,1.5998,1.5385,1.3795,1.2205,1.1788,1.137,1.0533,0.96965
1.107,1.1505,1.194,1.3425,1.491,1.551,1.611,1.8165,2.022,2.106,2.19,2.481,2.772,2.891,3.01,3.41,3.81,3.967,4.124,4.659,5.194,5.389,5.584,6.2445,6.905,7.14,7.375,8.1135,8.852,9.0875,9.323,10.002,10.68,10.865,11.05,11.515,11.98,12.075,12.17,12.31,12.45,12.41,12.37,12.07,11.77,11.585,11.4,10.72,10.04,9.77,9.5,8.667,7.834,7.576,7.318,6.5675,5.817,5.607,5.397,4.7935,4.19,4.0255,3.861,3.424,2.987,2.872,2.757,2.455,2.153,2.0735,1.994,1.7825,1.571,1.515,1.459,1.312,1.165,1.1255,1.086,1.0062,0.9263
1.0526,1.0923,1.132,1.2688,1.4055,1.4605,1.5155,1.7025,1.8895,1.9652,2.041,2.3015,2.562,2.6677,2.7735,3.1262,3.479,3.6088,3.7385,4.2037,4.669,4.836,5.003,5.5638,6.1245,6.3218,6.519,7.1365,7.754,7.9485,8.143,8.699,9.255,9.4045,9.554,9.9305,10.307,10.381,10.454,10.558,10.662,10.627,10.592,10.35,10.107,9.9587,9.8105,9.2643,8.718,8.5005,8.283,7.6032,6.9235,6.7092,6.495,5.8635,5.232,5.049,4.866,4.348,3.83,3.686,3.542,3.1565,2.771,2.668,2.565,2.293,2.021,1.948,1.875,1.6812,1.4875,1.4357,1.384,1.2477,1.1115,1.0744,1.0373,0.96087,0.8845
0.9983,1.0341,1.07,1.195,1.32,1.37,1.42,1.5885,1.757,1.8245,1.892,2.122,2.352,2.4445,2.537,2.8425,3.148,3.2505,3.353,3.7485,4.144,4.283,4.422,4.883,5.344,5.5035,5.663,6.1595,6.656,6.8095,6.963,7.3965,7.83,7.944,8.058,8.346,8.634,8.686,8.738,8.806,8.874,8.8445,8.815,8.6295,8.444,8.3325,8.221,7.8085,7.396,7.231,7.066,6.5395,6.013,5.8425,5.672,5.1595,4.647,4.491,4.335,3.9025,3.47,3.3465,3.223,2.889,2.555,2.464,2.373,2.131,1.889,1.8225,1.756,1.58,1.404,1.3565,1.309,1.1835,1.058,1.0233,0.9885,0.9156,0.8427
0.9477,0.98133,1.015,1.13,1.245,1.2905,1.336,1.4897,1.6435,1.7048,1.766,1.9718,2.1775,2.2597,2.342,2.6127,2.8835,2.9795,3.0755,3.415,3.7545,3.8668,3.979,4.379,4.779,4.9147,5.0505,5.4697,5.889,6.0177,6.1465,6.5092,6.872,6.9668,7.0615,7.3015,7.5415,7.5857,7.63,7.687,7.744,7.72,7.696,7.5455,7.395,7.303,7.211,6.8703,6.5295,6.392,6.2545,5.8135,5.3725,5.2268,5.081,4.645,4.209,4.0745,3.94,3.563,3.186,3.0767,2.9675,2.6708,2.374,2.2918,2.2095,1.9903,1.771,1.7108,1.6505,1.4883,1.326,1.283,1.24,1.1234,1.0069,0.97453,0.9422,0.8732,0.8042
0.8971,0.9285,0.9599,1.065,1.17,1.211,1.252,1.391,1.53,1.585,1.64,1.8215,2.003,2.075,2.147,2.383,2.619,2.7085,2.798,3.0815,3.365,3.4505,3.536,3.875,4.214,4.326,4.438,4.78,5.122,5.226,5.33,5.622,5.914,5.9895,6.065,6.257,6.449,6.4855,6.522,6.568,6.614,6.5955,6.577,6.4615,6.346,6.2735,6.201,5.932,5.663,5.553,5.443,5.0875,4.732,4.611,4.49,4.1305,3.771,3.658,3.545,3.2235,2.902,2.807,2.712,2.4525,2.193,2.1195,2.046,1.8495,1.653,1.599,1.545,1.3965,1.248,1.2095,1.171,1.0634,0.9557,0.9258,0.8959,0.8308,0.7657
0.85175,0.88078,0.9098,1.0072,1.1045,1.1417,1.179,1.3058,1.4325,1.4823,1.532,1.6963,1.8605,1.925,1.9895,2.1995,2.4095,2.4883,2.567,2.8163,3.0655,3.146,3.2265,3.5162,3.806,3.8945,3.983,4.2805,4.578,4.6667,4.7555,5.0035,5.2515,5.316,5.3805,5.5438,5.707,5.7378,5.7685,5.809,5.8495,5.835,5.8205,5.7245,5.6285,5.5687,5.509,5.283,5.057,4.963,4.869,4.5675,4.266,4.1617,4.0575,3.7455,3.4335,3.3352,3.237,2.9548,2.6725,2.588,2.5035,2.2715,2.0395,1.9737,1.908,1.7295,1.551,1.5013,1.4515,1.3165,1.1815,1.1455,1.1095,1.0097,0.90985,0.8819,0.85395,0.79225,0.73055
0.8064,0.83305,0.8597,0.94935,1.039,1.0725,1.106,1.2205,1.335,1.3795,1.424,1.571,1.718,1.775,1.832,2.016,2.2,2.268,2.336,2.551,2.766,2.8415,2.917,3.1575,3.398,3.463,3.528,3.781,4.034,4.1075,4.181,4.385,4.589,4.6425,4.696,4.8305,4.965,4.99,5.015,5.05,5.085,5.0745,5.064,4.9875,4.911,4.864,4.817,4.634,4.451,4.373,4.295,4.0475,3.8,3.7125,3.625,3.3605,3.096,3.0125,2.929,2.686,2.443,2.369,2.295,2.0905,1.886,1.828,1.77,1.6095,1.449,1.4035,1.358,1.2365,1.115,1.0815,1.048,0.956,0.864,0.838,0.812,0.7537,0.6954
0.76565,0.79045,0.81525,0.89813,0.981,1.0122,1.0435,1.1477,1.252,1.2925,1.333,1.466,1.599,1.6505,1.702,1.8668,2.0315,2.0923,2.153,2.343,2.533,2.5993,2.6655,2.8765,3.0875,3.1505,3.2135,3.4297,3.646,3.7097,3.7735,3.9483,4.123,4.1688,4.2145,4.3308,4.447,4.4685,4.49,4.521,4.552,4.5423,4.5325,4.4683,4.404,4.3628,4.3215,4.169,4.0165,3.9492,3.882,3.6658,3.4495,3.3733,3.297,3.0663,2.8355,2.7615,2.6875,2.4718,2.256,2.1903,2.1245,1.941,1.7575,1.7052,1.653,1.5065,1.36,1.3195,1.279,1.1671,1.0553,1.0241,0.99295,0.9075,0.82205,0.79793,0.7738,0.71825,0.6627
0.7249,0.74785,0.7708,0.8469,0.923,0.95195,0.9809,1.075,1.169,1.2055,1.242,1.361,1.48,1.526,1.572,1.7175,1.863,1.9165,1.97,2.135,2.3,2.357,2.414,2.5955,2.777,2.838,2.899,3.0785,3.258,3.312,3.366,3.5115,3.657,3.695,3.733,3.831,3.929,3.947,3.965,3.992,4.019,4.01,4.001,3.949,3.897,3.8615,3.826,3.704,3.582,3.5255,3.469,3.284,3.099,3.034,2.969,2.772,2.575,2.5105,2.446,2.2575,2.069,2.0115,1.954,1.7915,1.629,1.5825,1.536,1.4035,1.271,1.2355,1.2,1.0978,0.9955,0.9667,0.9379,0.859,0.7801,0.75785,0.7356,0.6828,0.63
0.68785,0.7091,0.73035,0.80065,0.87095,0.8976,0.92425,1.0109,1.0975,1.1303,1.163,1.271,1.379,1.4205,1.462,1.5933,1.7245,1.7722,1.82,1.967,2.114,2.1647,2.2155,2.3755,2.5355,2.5895,2.6435,2.801,2.9585,3.0057,3.053,3.1788,3.3045,3.338,3.3715,3.4573,3.543,3.5593,3.5755,3.5993,3.623,3.6155,3.608,3.5648,3.5215,3.4925,3.4635,3.3565,3.2495,3.1995,3.1495,2.9875,2.8255,2.7682,2.711,2.5373,2.3635,2.3062,2.249,2.0823,1.9155,1.8638,1.812,1.6658,1.5195,1.477,1.4345,1.3147,1.195,1.1618,1.1285,1.0353,0.94205,0.9153,0.88855,0.8155,0.74245,0.72158,0.7007,0.65073,0.60075
0.6508,0.67035,0.6899,0.7544,0.8189,0.84325,0.8676,0.9468,1.026,1.055,1.084,1.181,1.278,1.315,1.352,1.469,1.586,1.628,1.67,1.799,1.928,1.9725,2.017,2.1555,2.294,2.341,2.388,2.5235,2.659,2.6995,2.74,2.846,2.952,2.981,3.01,3.0835,3.157,3.1715,3.186,3.2065,3.227,3.221,3.215,3.1805,3.146,3.1235,3.101,3.009,2.917,2.8735,2.83,2.691,2.552,2.5025,2.453,2.3025,2.152,2.102,2.052,1.907,1.762,1.716,1.67,1.54,1.41,1.3715,1.333,1.226,1.119,1.088,1.057,0.9728,0.8886,0.8639,0.8392,0.772,0.7048,0.6853,0.6658,0.61865,0.5715
0.6174,0.63548,0.65355,0.7132,0.77285,0.79517,0.8175,0.8901,0.9627,0.98948,1.0163,1.1044,1.1925,1.226,1.2595,1.3653,1.471,1.5088,1.5465,1.6625,1.7785,1.8182,1.858,1.9815,2.105,2.147,2.189,2.309,2.429,2.4645,2.5,2.5935,2.687,2.7123,2.7375,2.8013,2.865,2.878,2.891,2.9093,2.9275,2.9235,2.9195,2.8895,2.8595,2.8392,2.819,2.7382,2.6575,2.6195,2.5815,2.459,2.3365,2.2923,2.248,2.114,1.98,1.9355,1.891,1.7613,1.6315,1.5905,1.5495,1.4325,1.3155,1.281,1.2465,1.149,1.0516,1.0232,0.9947,0.91677,0.83885,0.81615,0.79345,0.73142,0.6694,0.65142,0.63345,0.6014,0.56935
0.584,0.6006,0.6172,0.672,0.7268,0.7471,0.7674,0.8334,0.8994,0.92395,0.9485,1.0277,1.107,1.137,1.167,1.2615,1.356,1.3895,1.423,1.526,1.629,1.664,1.699,1.8075,1.916,1.953,1.99,2.0945,2.199,2.2295,2.26,2.341,2.422,2.4435,2.465,2.519,2.573,2.5845,2.596,2.612,2.628,2.626,2.624,2.5985,2.573,2.555,2.537,2.4675,2.398,2.3655,2.333,2.227,2.121,2.082,2.043,1.9255,1.808,1.769,1.73,1.6155,1.501,1.465,1.429,1.325,1.221,1.1905,1.16,1.0721,0.9842,0.9583,0.9324,0.86075,0.7891,0.7684,0.7477,0.69085,0.634,0.61755,0.6011,0.58415,0.5672
