<svg xmlns="http://www.w3.org/2000/svg" width="116" height="60" viewBox="0 0 116 60">
  <g id="Group_802" data-name="Group 802" transform="translate(-166 -204)">
    <g id="_3V" data-name="3V" transform="translate(-677 116)">
      <rect id="Rectangle_454" data-name="Rectangle 454" width="116" height="60" transform="translate(843 88)" fill="#e3e4e5"/>
      <g id="Group_789" data-name="Group 789">
        <rect id="Rectangle_458" data-name="Rectangle 458" width="20" height="40" transform="translate(866 98)" fill="#f60"/>
        <rect id="Rectangle_457" data-name="Rectangle 457" width="20" height="40" transform="translate(891 98)" fill="#f60"/>
        <rect id="Rectangle_456" data-name="Rectangle 456" width="20" height="40" transform="translate(916 98)" fill="#f60"/>
      </g>
    </g>
    <text id="_L" data-name="△L" transform="translate(211 260)" fill="#424242" font-size="6" font-family="'Open Sans', sans-serif"><tspan x="-4.542" y="0">△</tspan><tspan y="0" font-family="'Open Sans', sans-serif">L</tspan></text>
    <text id="_L-2" data-name="△L" transform="translate(236 260)" fill="#424242" font-size="6" font-family="'Open Sans', sans-serif"><tspan x="-4.542" y="0">△</tspan><tspan y="0" font-family="'Open Sans', sans-serif">L</tspan></text>
    <text id="LENGTH" transform="translate(224 210)" fill="#424242" font-size="6" font-family="'Open Sans', sans-serif"><tspan x="-11.793" y="0">LENGTH</tspan></text>
    <text id="WIDTH" transform="translate(172 234) rotate(-90)" fill="#424242" font-size="6" font-family="'Open Sans', sans-serif"><tspan x="-10.128" y="0">WIDTH</tspan></text>
  </g>
</svg>
