0.008606,0.0090443,0.0094826,0.010075,0.010668,0.011701,0.012734,0.013258,0.013781,0.014512,0.015242,0.016528,0.017815,0.01856,0.019305,0.020211,0.021117,0.022626,0.024136,0.024911,0.025686,0.026705,0.027724,0.029465,0.031206,0.03247,0.033734,0.034176,0.034618,0.034786,0.045579,0.046422,0.047265,0.048988,0.050712,0.051931,0.05315,0.05411,0.05507,0.056497,0.057924,0.058449,0.058973,0.060359,0.061745,0.062598,0.063451,0.06327,0.063088,0.063603,0.064118,0.065974,0.067829,0.069162,0.070494,0.070494,0.070494,0.069162,0.067829,0.065974,0.064118,0.063603,0.063088,0.06327,0.063451,0.062598,0.061745,0.060359,0.058973,0.058449,0.057924,0.056497,0.05507,0.05411,0.05315,0.051931,0.050712,0.048988,0.047265,0.046422,0.045579,0.034786,0.034618,0.034176,0.033734,0.03247,0.031206,0.029465,0.027724,0.026705,0.025686,0.024911,0.024136,0.022626,0.021117,0.020211,0.019305,0.01856,0.017815,0.016528,0.015242,0.014512,0.013781,0.013258,0.012734,0.011701,0.010668,0.010075,0.0094826,0.0090443,0.008606
0.0085487,0.0091835,0.0098182,0.01044,0.011062,0.012013,0.012964,0.013626,0.014287,0.015215,0.016143,0.017224,0.018305,0.019467,0.020629,0.021703,0.022778,0.023881,0.024984,0.026419,0.027855,0.02911,0.030366,0.030782,0.031199,0.032812,0.034425,0.035225,0.036025,0.036704,0.048714,0.050063,0.051412,0.053169,0.054926,0.056272,0.057619,0.058863,0.060108,0.061521,0.062934,0.064067,0.0652,0.06617,0.067141,0.067712,0.068284,0.069241,0.070197,0.070781,0.071366,0.072424,0.073483,0.073037,0.072592,0.072592,0.072592,0.073037,0.073483,0.072424,0.071366,0.070781,0.070197,0.069241,0.068284,0.067712,0.067141,0.06617,0.0652,0.064067,0.062934,0.061521,0.060108,0.058863,0.057619,0.056272,0.054926,0.053169,0.051412,0.050063,0.048714,0.036704,0.036025,0.035225,0.034425,0.032812,0.031199,0.030782,0.030366,0.02911,0.027855,0.026419,0.024984,0.023881,0.022778,0.021703,0.020629,0.019467,0.018305,0.017224,0.016143,0.015215,0.014287,0.013626,0.012964,0.012013,0.011062,0.01044,0.0098182,0.0091835,0.0085487
0.0084914,0.0093226,0.010154,0.010805,0.011456,0.012326,0.013195,0.013994,0.014794,0.015919,0.017044,0.01792,0.018796,0.020374,0.021953,0.023195,0.024438,0.025135,0.025832,0.027927,0.030023,0.031515,0.033007,0.0321,0.031192,0.033154,0.035116,0.036274,0.037432,0.038622,0.05185,0.053704,0.055558,0.057349,0.05914,0.060613,0.062087,0.063616,0.065146,0.066545,0.067944,0.069685,0.071427,0.071981,0.072536,0.072827,0.073118,0.075212,0.077306,0.077959,0.078613,0.078875,0.079136,0.076913,0.074691,0.074691,0.074691,0.076913,0.079136,0.078875,0.078613,0.077959,0.077306,0.075212,0.073118,0.072827,0.072536,0.071981,0.071427,0.069685,0.067944,0.066545,0.065146,0.063616,0.062087,0.060613,0.05914,0.057349,0.055558,0.053704,0.05185,0.038622,0.037432,0.036274,0.035116,0.033154,0.031192,0.0321,0.033007,0.031515,0.030023,0.027927,0.025832,0.025135,0.024438,0.023195,0.021953,0.020374,0.018796,0.01792,0.017044,0.015919,0.014794,0.013994,0.013195,0.012326,0.011456,0.010805,0.010154,0.0093226,0.0084914
0.009426,0.010257,0.011089,0.011835,0.012581,0.013429,0.014278,0.015015,0.015751,0.01698,0.018209,0.019395,0.02058,0.02173,0.022879,0.024204,0.02553,0.02711,0.028689,0.029713,0.030737,0.032272,0.033806,0.034511,0.035215,0.036685,0.038155,0.039472,0.040788,0.042127,0.055939,0.057961,0.059982,0.061923,0.063864,0.065821,0.067777,0.069425,0.071072,0.07366,0.076249,0.077588,0.078926,0.080227,0.081527,0.082556,0.083586,0.082986,0.082386,0.082971,0.083557,0.083865,0.084173,0.083709,0.083245,0.083245,0.083245,0.083709,0.084173,0.083865,0.083557,0.082971,0.082386,0.082986,0.083586,0.082556,0.081527,0.080227,0.078926,0.077588,0.076249,0.07366,0.071072,0.069425,0.067777,0.065821,0.063864,0.061923,0.059982,0.057961,0.055939,0.042127,0.040788,0.039472,0.038155,0.036685,0.035215,0.034511,0.033806,0.032272,0.030737,0.029713,0.028689,0.02711,0.02553,0.024204,0.022879,0.02173,0.02058,0.019395,0.018209,0.01698,0.015751,0.015015,0.014278,0.013429,0.012581,0.011835,0.011089,0.010257,0.009426
0.010361,0.011192,0.012024,0.012865,0.013705,0.014533,0.015361,0.016035,0.016709,0.018042,0.019375,0.02087,0.022365,0.023085,0.023806,0.025213,0.026621,0.029084,0.031547,0.031499,0.031451,0.033029,0.034606,0.036922,0.039238,0.040216,0.041193,0.042669,0.044144,0.045632,0.060029,0.062217,0.064406,0.066497,0.068589,0.071028,0.073468,0.075233,0.076998,0.080776,0.084554,0.08549,0.086426,0.088472,0.090518,0.092286,0.094054,0.090761,0.087467,0.087984,0.0885,0.088855,0.08921,0.090505,0.0918,0.0918,0.0918,0.090505,0.08921,0.088855,0.0885,0.087984,0.087467,0.090761,0.094054,0.092286,0.090518,0.088472,0.086426,0.08549,0.084554,0.080776,0.076998,0.075233,0.073468,0.071028,0.068589,0.066497,0.064406,0.062217,0.060029,0.045632,0.044144,0.042669,0.041193,0.040216,0.039238,0.036922,0.034606,0.033029,0.031451,0.031499,0.031547,0.029084,0.026621,0.025213,0.023806,0.023085,0.022365,0.02087,0.019375,0.018042,0.016709,0.016035,0.015361,0.014533,0.013705,0.012865,0.012024,0.011192,0.010361
0.010864,0.01164,0.012416,0.013298,0.01418,0.015214,0.016249,0.017498,0.018748,0.019948,0.021148,0.022538,0.023929,0.025516,0.027102,0.028687,0.030271,0.031792,0.033313,0.034307,0.035301,0.037173,0.039045,0.040882,0.042719,0.044758,0.046797,0.048637,0.050476,0.052282,0.067992,0.071297,0.074603,0.077143,0.079683,0.082097,0.084511,0.086715,0.088919,0.091898,0.094877,0.096705,0.098533,0.10003,0.10153,0.1023,0.10308,0.10229,0.1015,0.10207,0.10264,0.103,0.10337,0.10377,0.10418,0.10418,0.10418,0.10377,0.10337,0.103,0.10264,0.10207,0.1015,0.10229,0.10308,0.1023,0.10153,0.10003,0.098533,0.096705,0.094877,0.091898,0.088919,0.086715,0.084511,0.082097,0.079683,0.077143,0.074603,0.071297,0.067992,0.052282,0.050476,0.048637,0.046797,0.044758,0.042719,0.040882,0.039045,0.037173,0.035301,0.034307,0.033313,0.031792,0.030271,0.028687,0.027102,0.025516,0.023929,0.022538,0.021148,0.019948,0.018748,0.017498,0.016249,0.015214,0.01418,0.013298,0.012416,0.01164,0.010864
0.011367,0.012088,0.012809,0.013731,0.014654,0.015895,0.017136,0.018962,0.020787,0.021854,0.02292,0.024207,0.025493,0.027946,0.030399,0.03216,0.033921,0.0345,0.035079,0.037115,0.039151,0.041318,0.043484,0.044842,0.046199,0.0493,0.0524,0.054605,0.056809,0.058932,0.075954,0.080377,0.0848,0.087788,0.090777,0.093166,0.095555,0.098197,0.10084,0.10302,0.1052,0.10792,0.11064,0.11159,0.11253,0.11232,0.11211,0.11382,0.11553,0.11616,0.11678,0.11715,0.11753,0.11704,0.11656,0.11656,0.11656,0.11704,0.11753,0.11715,0.11678,0.11616,0.11553,0.11382,0.11211,0.11232,0.11253,0.11159,0.11064,0.10792,0.1052,0.10302,0.10084,0.098197,0.095555,0.093166,0.090777,0.087788,0.0848,0.080377,0.075954,0.058932,0.056809,0.054605,0.0524,0.0493,0.046199,0.044842,0.043484,0.041318,0.039151,0.037115,0.035079,0.0345,0.033921,0.03216,0.030399,0.027946,0.025493,0.024207,0.02292,0.021854,0.020787,0.018962,0.017136,0.015895,0.014654,0.013731,0.012809,0.012088,0.011367
0.012122,0.013058,0.013995,0.01505,0.016104,0.017441,0.018778,0.020101,0.021425,0.022942,0.024459,0.02622,0.02798,0.029514,0.031049,0.032998,0.034948,0.036402,0.037856,0.040141,0.042426,0.044854,0.047282,0.049904,0.052525,0.055769,0.059013,0.061964,0.064915,0.067235,0.085522,0.089762,0.094002,0.097414,0.10083,0.10409,0.10735,0.11024,0.11314,0.1158,0.11846,0.12029,0.12212,0.1235,0.12487,0.1259,0.12692,0.12776,0.12861,0.13001,0.13141,0.13221,0.13301,0.13291,0.13282,0.13282,0.13282,0.13291,0.13301,0.13221,0.13141,0.13001,0.12861,0.12776,0.12692,0.1259,0.12487,0.1235,0.12212,0.12029,0.11846,0.1158,0.11314,0.11024,0.10735,0.10409,0.10083,0.097414,0.094002,0.089762,0.085522,0.067235,0.064915,0.061964,0.059013,0.055769,0.052525,0.049904,0.047282,0.044854,0.042426,0.040141,0.037856,0.036402,0.034948,0.032998,0.031049,0.029514,0.02798,0.02622,0.024459,0.022942,0.021425,0.020101,0.018778,0.017441,0.016104,0.01505,0.013995,0.013058,0.012122
0.012877,0.014029,0.015181,0.016368,0.017554,0.018987,0.02042,0.021241,0.022062,0.02403,0.025998,0.028232,0.030466,0.031082,0.031698,0.033837,0.035975,0.038304,0.040633,0.043167,0.045701,0.048391,0.05108,0.054966,0.058851,0.062238,0.065625,0.069323,0.073022,0.075537,0.09509,0.099147,0.1032,0.10704,0.11088,0.11501,0.11914,0.12229,0.12543,0.12858,0.13172,0.13266,0.13359,0.1354,0.13721,0.13947,0.14172,0.1417,0.14169,0.14386,0.14604,0.14726,0.14848,0.14878,0.14908,0.14908,0.14908,0.14878,0.14848,0.14726,0.14604,0.14386,0.14169,0.1417,0.14172,0.13947,0.13721,0.1354,0.13359,0.13266,0.13172,0.12858,0.12543,0.12229,0.11914,0.11501,0.11088,0.10704,0.1032,0.099147,0.09509,0.075537,0.073022,0.069323,0.065625,0.062238,0.058851,0.054966,0.05108,0.048391,0.045701,0.043167,0.040633,0.038304,0.035975,0.033837,0.031698,0.031082,0.030466,0.028232,0.025998,0.02403,0.022062,0.021241,0.02042,0.018987,0.017554,0.016368,0.015181,0.014029,0.012877
0.013489,0.014575,0.015661,0.016993,0.018325,0.019861,0.021397,0.022983,0.024569,0.026465,0.028361,0.030172,0.031982,0.033548,0.035113,0.037596,0.040079,0.042821,0.045564,0.048559,0.051554,0.054766,0.057979,0.062447,0.066914,0.070665,0.074417,0.078414,0.082411,0.085764,0.10757,0.11232,0.11706,0.12171,0.12636,0.1306,0.13484,0.13867,0.14249,0.14555,0.14862,0.15055,0.15249,0.15454,0.15658,0.15876,0.16093,0.1618,0.16267,0.16413,0.16559,0.16648,0.16737,0.16741,0.16744,0.16744,0.16744,0.16741,0.16737,0.16648,0.16559,0.16413,0.16267,0.1618,0.16093,0.15876,0.15658,0.15454,0.15249,0.15055,0.14862,0.14555,0.14249,0.13867,0.13484,0.1306,0.12636,0.12171,0.11706,0.11232,0.10757,0.085764,0.082411,0.078414,0.074417,0.070665,0.066914,0.062447,0.057979,0.054766,0.051554,0.048559,0.045564,0.042821,0.040079,0.037596,0.035113,0.033548,0.031982,0.030172,0.028361,0.026465,0.024569,0.022983,0.021397,0.019861,0.018325,0.016993,0.015661,0.014575,0.013489
0.014101,0.015121,0.016141,0.017619,0.019096,0.020735,0.022375,0.024725,0.027076,0.0289,0.030724,0.032111,0.033497,0.036013,0.038528,0.041355,0.044182,0.047338,0.050495,0.053951,0.057406,0.061142,0.064878,0.069927,0.074977,0.079092,0.083208,0.087504,0.0918,0.095991,0.12006,0.12548,0.13091,0.13638,0.14185,0.1462,0.15055,0.15505,0.15955,0.16253,0.16551,0.16845,0.17138,0.17367,0.17595,0.17805,0.18014,0.18189,0.18365,0.1844,0.18514,0.18571,0.18627,0.18603,0.18579,0.18579,0.18579,0.18603,0.18627,0.18571,0.18514,0.1844,0.18365,0.18189,0.18014,0.17805,0.17595,0.17367,0.17138,0.16845,0.16551,0.16253,0.15955,0.15505,0.15055,0.1462,0.14185,0.13638,0.13091,0.12548,0.12006,0.095991,0.0918,0.087504,0.083208,0.079092,0.074977,0.069927,0.064878,0.061142,0.057406,0.053951,0.050495,0.047338,0.044182,0.041355,0.038528,0.036013,0.033497,0.032111,0.030724,0.0289,0.027076,0.024725,0.022375,0.020735,0.019096,0.017619,0.016141,0.015121,0.014101
0.015011,0.01637,0.017729,0.019246,0.020763,0.022413,0.024063,0.02604,0.028018,0.030086,0.032154,0.033944,0.035733,0.03851,0.041286,0.044425,0.047563,0.051112,0.054661,0.059642,0.064623,0.069043,0.073464,0.078797,0.08413,0.089176,0.094222,0.099424,0.10463,0.10976,0.13537,0.14184,0.14831,0.15463,0.16095,0.16671,0.17247,0.17408,0.17569,0.179,0.18231,0.18557,0.18882,0.19212,0.19542,0.19755,0.19968,0.2044,0.20912,0.20979,0.21047,0.21082,0.21118,0.21106,0.21095,0.21095,0.21095,0.21106,0.21118,0.21082,0.21047,0.20979,0.20912,0.2044,0.19968,0.19755,0.19542,0.19212,0.18882,0.18557,0.18231,0.179,0.17569,0.17408,0.17247,0.16671,0.16095,0.15463,0.14831,0.14184,0.13537,0.10976,0.10463,0.099424,0.094222,0.089176,0.08413,0.078797,0.073464,0.069043,0.064623,0.059642,0.054661,0.051112,0.047563,0.044425,0.041286,0.03851,0.035733,0.033944,0.032154,0.030086,0.028018,0.02604,0.024063,0.022413,0.020763,0.019246,0.017729,0.01637,0.015011
0.015921,0.017619,0.019316,0.020873,0.02243,0.02409,0.025751,0.027355,0.02896,0.031272,0.033585,0.035776,0.037968,0.041006,0.044045,0.047494,0.050943,0.054885,0.058826,0.065332,0.071839,0.076944,0.08205,0.087666,0.093282,0.099259,0.10524,0.11134,0.11745,0.12354,0.15068,0.15819,0.16571,0.17288,0.18005,0.18722,0.19438,0.1931,0.19182,0.19546,0.1991,0.20268,0.20626,0.21058,0.21489,0.21705,0.21922,0.2269,0.23458,0.23519,0.23579,0.23594,0.23609,0.2361,0.23611,0.23611,0.23611,0.2361,0.23609,0.23594,0.23579,0.23519,0.23458,0.2269,0.21922,0.21705,0.21489,0.21058,0.20626,0.20268,0.1991,0.19546,0.19182,0.1931,0.19438,0.18722,0.18005,0.17288,0.16571,0.15819,0.15068,0.12354,0.11745,0.11134,0.10524,0.099259,0.093282,0.087666,0.08205,0.076944,0.071839,0.065332,0.058826,0.054885,0.050943,0.047494,0.044045,0.041006,0.037968,0.035776,0.033585,0.031272,0.02896,0.027355,0.025751,0.02409,0.02243,0.020873,0.019316,0.017619,0.015921
0.016772,0.018254,0.019737,0.02142,0.023103,0.025163,0.027223,0.029596,0.031969,0.03382,0.03567,0.038727,0.041785,0.045284,0.048783,0.052805,0.056827,0.06193,0.067032,0.073414,0.079796,0.085966,0.092137,0.098951,0.10577,0.11302,0.12027,0.12781,0.13535,0.14296,0.1737,0.17946,0.18523,0.19752,0.20981,0.21748,0.22516,0.22805,0.23095,0.23622,0.24149,0.24603,0.25056,0.25425,0.25794,0.2598,0.26167,0.26575,0.26984,0.27006,0.27027,0.27017,0.27007,0.26671,0.26335,0.26335,0.26335,0.26671,0.27007,0.27017,0.27027,0.27006,0.26984,0.26575,0.26167,0.2598,0.25794,0.25425,0.25056,0.24603,0.24149,0.23622,0.23095,0.22805,0.22516,0.21748,0.20981,0.19752,0.18523,0.17946,0.1737,0.14296,0.13535,0.12781,0.12027,0.11302,0.10577,0.098951,0.092137,0.085966,0.079796,0.073414,0.067032,0.06193,0.056827,0.052805,0.048783,0.045284,0.041785,0.038727,0.03567,0.03382,0.031969,0.029596,0.027223,0.025163,0.023103,0.02142,0.019737,0.018254,0.016772
0.017623,0.01889,0.020157,0.021966,0.023776,0.026236,0.028696,0.031837,0.034979,0.036368,0.037756,0.041679,0.045601,0.049561,0.053521,0.058116,0.062711,0.068975,0.075238,0.081496,0.087753,0.094988,0.10222,0.11024,0.11825,0.12677,0.1353,0.14427,0.15324,0.16239,0.19672,0.20073,0.20475,0.22215,0.23956,0.24775,0.25594,0.263,0.27007,0.27698,0.28388,0.28937,0.29485,0.29792,0.30099,0.30255,0.30412,0.30461,0.3051,0.30493,0.30475,0.3044,0.30404,0.29731,0.29058,0.29058,0.29058,0.29731,0.30404,0.3044,0.30475,0.30493,0.3051,0.30461,0.30412,0.30255,0.30099,0.29792,0.29485,0.28937,0.28388,0.27698,0.27007,0.263,0.25594,0.24775,0.23956,0.22215,0.20475,0.20073,0.19672,0.16239,0.15324,0.14427,0.1353,0.12677,0.11825,0.11024,0.10222,0.094988,0.087753,0.081496,0.075238,0.068975,0.062711,0.058116,0.053521,0.049561,0.045601,0.041679,0.037756,0.036368,0.034979,0.031837,0.028696,0.026236,0.023776,0.021966,0.020157,0.01889,0.017623
0.018458,0.020152,0.021846,0.02388,0.025914,0.02833,0.030745,0.033261,0.035776,0.038503,0.04123,0.044935,0.04864,0.053639,0.058639,0.064205,0.069772,0.076456,0.08314,0.090605,0.09807,0.10676,0.11544,0.12528,0.13511,0.14587,0.15663,0.16443,0.17224,0.18734,0.22837,0.23843,0.2485,0.26495,0.2814,0.29191,0.30243,0.31181,0.32119,0.32924,0.3373,0.34286,0.34842,0.35142,0.35443,0.35543,0.35644,0.35611,0.35578,0.35456,0.35334,0.34909,0.34484,0.34397,0.3431,0.3431,0.3431,0.34397,0.34484,0.34909,0.35334,0.35456,0.35578,0.35611,0.35644,0.35543,0.35443,0.35142,0.34842,0.34286,0.3373,0.32924,0.32119,0.31181,0.30243,0.29191,0.2814,0.26495,0.2485,0.23843,0.22837,0.18734,0.17224,0.16443,0.15663,0.14587,0.13511,0.12528,0.11544,0.10676,0.09807,0.090605,0.08314,0.076456,0.069772,0.064205,0.058639,0.053639,0.04864,0.044935,0.04123,0.038503,0.035776,0.033261,0.030745,0.02833,0.025914,0.02388,0.021846,0.020152,0.018458
0.019293,0.021414,0.023535,0.025794,0.028052,0.030423,0.032795,0.034684,0.036573,0.040639,0.044705,0.048191,0.051678,0.057718,0.063757,0.070295,0.076832,0.083937,0.091041,0.099714,0.10839,0.11852,0.12866,0.14032,0.15197,0.16497,0.17796,0.1846,0.19123,0.21229,0.26001,0.27614,0.29226,0.30775,0.32323,0.33608,0.34892,0.36061,0.37231,0.38151,0.39071,0.39635,0.40198,0.40493,0.40787,0.40831,0.40876,0.4076,0.40645,0.40419,0.40192,0.39378,0.38563,0.39062,0.39562,0.39562,0.39562,0.39062,0.38563,0.39378,0.40192,0.40419,0.40645,0.4076,0.40876,0.40831,0.40787,0.40493,0.40198,0.39635,0.39071,0.38151,0.37231,0.36061,0.34892,0.33608,0.32323,0.30775,0.29226,0.27614,0.26001,0.21229,0.19123,0.1846,0.17796,0.16497,0.15197,0.14032,0.12866,0.11852,0.10839,0.099714,0.091041,0.083937,0.076832,0.070295,0.063757,0.057718,0.051678,0.048191,0.044705,0.040639,0.036573,0.034684,0.032795,0.030423,0.028052,0.025794,0.023535,0.021414,0.019293
0.020159,0.022144,0.024129,0.026474,0.02882,0.031472,0.034124,0.036858,0.039593,0.043491,0.047388,0.052092,0.056796,0.063427,0.070058,0.077253,0.084447,0.092821,0.1012,0.11142,0.12164,0.1339,0.14616,0.15778,0.1694,0.18906,0.20871,0.22311,0.23751,0.25976,0.31109,0.33232,0.35354,0.37364,0.39373,0.41084,0.42794,0.44203,0.45611,0.46645,0.47679,0.48268,0.48857,0.49089,0.49322,0.49233,0.49145,0.48498,0.47851,0.47615,0.47379,0.4664,0.45902,0.45969,0.46036,0.46036,0.46036,0.45969,0.45902,0.4664,0.47379,0.47615,0.47851,0.48498,0.49145,0.49233,0.49322,0.49089,0.48857,0.48268,0.47679,0.46645,0.45611,0.44203,0.42794,0.41084,0.39373,0.37364,0.35354,0.33232,0.31109,0.25976,0.23751,0.22311,0.20871,0.18906,0.1694,0.15778,0.14616,0.1339,0.12164,0.11142,0.1012,0.092821,0.084447,0.077253,0.070058,0.063427,0.056796,0.052092,0.047388,0.043491,0.039593,0.036858,0.034124,0.031472,0.02882,0.026474,0.024129,0.022144,0.020159
0.021026,0.022875,0.024723,0.027155,0.029587,0.03252,0.035452,0.039033,0.042613,0.046342,0.050072,0.055993,0.061914,0.069137,0.076359,0.08421,0.092062,0.10171,0.11135,0.12312,0.1349,0.14928,0.16366,0.17525,0.18684,0.21315,0.23946,0.26162,0.28378,0.30723,0.36217,0.3885,0.41482,0.43953,0.46423,0.48559,0.50696,0.52344,0.53992,0.55139,0.56287,0.56901,0.57516,0.57686,0.57856,0.57635,0.57415,0.56236,0.55058,0.54812,0.54566,0.53903,0.53241,0.52875,0.5251,0.5251,0.5251,0.52875,0.53241,0.53903,0.54566,0.54812,0.55058,0.56236,0.57415,0.57635,0.57856,0.57686,0.57516,0.56901,0.56287,0.55139,0.53992,0.52344,0.50696,0.48559,0.46423,0.43953,0.41482,0.3885,0.36217,0.30723,0.28378,0.26162,0.23946,0.21315,0.18684,0.17525,0.16366,0.14928,0.1349,0.12312,0.11135,0.10171,0.092062,0.08421,0.076359,0.069137,0.061914,0.055993,0.050072,0.046342,0.042613,0.039033,0.035452,0.03252,0.029587,0.027155,0.024723,0.022875,0.021026
0.022029,0.024301,0.026573,0.029291,0.032009,0.034553,0.037096,0.040935,0.044773,0.049595,0.054418,0.060999,0.06758,0.075338,0.083096,0.092242,0.10139,0.11272,0.12405,0.13808,0.15212,0.16661,0.1811,0.20306,0.22502,0.25466,0.28429,0.31504,0.3458,0.37963,0.44579,0.48267,0.51956,0.5548,0.59005,0.62045,0.65085,0.67232,0.69379,0.70582,0.71785,0.72183,0.7258,0.72471,0.72361,0.71534,0.70707,0.69531,0.68355,0.67177,0.65998,0.64677,0.63356,0.62672,0.61988,0.61988,0.61988,0.62672,0.63356,0.64677,0.65998,0.67177,0.68355,0.69531,0.70707,0.71534,0.72361,0.72471,0.7258,0.72183,0.71785,0.70582,0.69379,0.67232,0.65085,0.62045,0.59005,0.5548,0.51956,0.48267,0.44579,0.37963,0.3458,0.31504,0.28429,0.25466,0.22502,0.20306,0.1811,0.16661,0.15212,0.13808,0.12405,0.11272,0.10139,0.092242,0.083096,0.075338,0.06758,0.060999,0.054418,0.049595,0.044773,0.040935,0.037096,0.034553,0.032009,0.029291,0.026573,0.024301,0.022029
0.023032,0.025728,0.028423,0.031427,0.034431,0.036586,0.03874,0.042837,0.046934,0.052849,0.058764,0.066005,0.073246,0.081539,0.089833,0.10027,0.11072,0.12373,0.13674,0.15304,0.16934,0.18394,0.19853,0.23087,0.26321,0.29616,0.32911,0.36847,0.40782,0.45203,0.52941,0.57685,0.6243,0.67008,0.71586,0.7553,0.79475,0.8212,0.84766,0.86025,0.87284,0.87464,0.87645,0.87256,0.86867,0.85433,0.83999,0.82826,0.81653,0.79541,0.7743,0.7545,0.7347,0.72468,0.71465,0.71465,0.71465,0.72468,0.7347,0.7545,0.7743,0.79541,0.81653,0.82826,0.83999,0.85433,0.86867,0.87256,0.87645,0.87464,0.87284,0.86025,0.84766,0.8212,0.79475,0.7553,0.71586,0.67008,0.6243,0.57685,0.52941,0.45203,0.40782,0.36847,0.32911,0.29616,0.26321,0.23087,0.19853,0.18394,0.16934,0.15304,0.13674,0.12373,0.11072,0.10027,0.089833,0.081539,0.073246,0.066005,0.058764,0.052849,0.046934,0.042837,0.03874,0.036586,0.034431,0.031427,0.028423,0.025728,0.023032
0.02396,0.026506,0.029052,0.031984,0.034917,0.038152,0.041386,0.045922,0.050458,0.056911,0.063365,0.070874,0.078383,0.088096,0.097809,0.10987,0.12192,0.13724,0.15255,0.17216,0.19176,0.21397,0.23618,0.27265,0.30912,0.35367,0.39823,0.45349,0.50875,0.57107,0.6692,0.73566,0.80211,0.86763,0.93315,0.99013,1.0471,1.0839,1.1207,1.1344,1.1481,1.1413,1.1345,1.1174,1.1004,1.0801,1.0599,1.0372,1.0145,0.98421,0.95393,0.92389,0.89385,0.87542,0.85699,0.85699,0.85699,0.87542,0.89385,0.92389,0.95393,0.98421,1.0145,1.0372,1.0599,1.0801,1.1004,1.1174,1.1345,1.1413,1.1481,1.1344,1.1207,1.0839,1.0471,0.99013,0.93315,0.86763,0.80211,0.73566,0.6692,0.57107,0.50875,0.45349,0.39823,0.35367,0.30912,0.27265,0.23618,0.21397,0.19176,0.17216,0.15255,0.13724,0.12192,0.10987,0.097809,0.088096,0.078383,0.070874,0.063365,0.056911,0.050458,0.045922,0.041386,0.038152,0.034917,0.031984,0.029052,0.026506,0.02396
0.024888,0.027284,0.029681,0.032542,0.035403,0.039717,0.044032,0.049007,0.053982,0.060974,0.067966,0.075743,0.083519,0.094652,0.10578,0.11946,0.13313,0.15074,0.16836,0.19127,0.21418,0.244,0.27382,0.31442,0.35502,0.41118,0.46734,0.53851,0.60968,0.69012,0.80899,0.89446,0.97993,1.0652,1.1504,1.225,1.2995,1.3467,1.3938,1.4086,1.4234,1.4079,1.3925,1.3623,1.332,1.3059,1.2797,1.2461,1.2124,1.173,1.1336,1.0933,1.053,1.0262,0.99932,0.99932,0.99932,1.0262,1.053,1.0933,1.1336,1.173,1.2124,1.2461,1.2797,1.3059,1.332,1.3623,1.3925,1.4079,1.4234,1.4086,1.3938,1.3467,1.2995,1.225,1.1504,1.0652,0.97993,0.89446,0.80899,0.69012,0.60968,0.53851,0.46734,0.41118,0.35502,0.31442,0.27382,0.244,0.21418,0.19127,0.16836,0.15074,0.13313,0.11946,0.10578,0.094652,0.083519,0.075743,0.067966,0.060974,0.053982,0.049007,0.044032,0.039717,0.035403,0.032542,0.029681,0.027284,0.024888
0.025858,0.028717,0.031577,0.034526,0.037476,0.041626,0.045776,0.051516,0.057257,0.064753,0.07225,0.081122,0.089995,0.10234,0.11468,0.13047,0.14626,0.16457,0.18288,0.21276,0.24264,0.27969,0.31674,0.36969,0.42264,0.49729,0.57195,0.66378,0.75562,0.85895,1.0013,1.1168,1.2324,1.352,1.4715,1.5747,1.6778,1.7384,1.799,1.8218,1.8446,1.828,1.8114,1.7648,1.7183,1.6683,1.6184,1.563,1.5075,1.4537,1.3999,1.3469,1.2939,1.2562,1.2184,1.2184,1.2184,1.2562,1.2939,1.3469,1.3999,1.4537,1.5075,1.563,1.6184,1.6683,1.7183,1.7648,1.8114,1.828,1.8446,1.8218,1.799,1.7384,1.6778,1.5747,1.4715,1.352,1.2324,1.1168,1.0013,0.85895,0.75562,0.66378,0.57195,0.49729,0.42264,0.36969,0.31674,0.27969,0.24264,0.21276,0.18288,0.16457,0.14626,0.13047,0.11468,0.10234,0.089995,0.081122,0.07225,0.064753,0.057257,0.051516,0.045776,0.041626,0.037476,0.034526,0.031577,0.028717,0.025858
0.026829,0.030151,0.033473,0.036511,0.039549,0.043534,0.047519,0.054025,0.060532,0.068533,0.076533,0.086502,0.09647,0.11002,0.12357,0.14148,0.15939,0.1784,0.19741,0.23425,0.27109,0.31537,0.35966,0.42496,0.49026,0.5834,0.67655,0.78906,0.90157,1.0278,1.1935,1.3392,1.4849,1.6387,1.7925,1.9244,2.0562,2.1302,2.2043,2.235,2.2658,2.248,2.2302,2.1673,2.1045,2.0308,1.957,1.8798,1.8026,1.7345,1.6663,1.6006,1.5349,1.4862,1.4374,1.4374,1.4374,1.4862,1.5349,1.6006,1.6663,1.7345,1.8026,1.8798,1.957,2.0308,2.1045,2.1673,2.2302,2.248,2.2658,2.235,2.2043,2.1302,2.0562,1.9244,1.7925,1.6387,1.4849,1.3392,1.1935,1.0278,0.90157,0.78906,0.67655,0.5834,0.49026,0.42496,0.35966,0.31537,0.27109,0.23425,0.19741,0.1784,0.15939,0.14148,0.12357,0.11002,0.09647,0.086502,0.076533,0.068533,0.060532,0.054025,0.047519,0.043534,0.039549,0.036511,0.033473,0.030151,0.026829
0.027743,0.030913,0.034083,0.037448,0.040813,0.045558,0.050302,0.057139,0.063975,0.072474,0.080973,0.091925,0.10288,0.11803,0.13318,0.15168,0.17018,0.19782,0.22545,0.26608,0.3067,0.36184,0.41699,0.50088,0.58477,0.70055,0.81633,0.95284,1.0894,1.2508,1.4542,1.6479,1.8416,2.0399,2.2383,2.3971,2.5558,2.6508,2.7459,2.8012,2.8565,2.8518,2.847,2.7728,2.6986,2.5966,2.4946,2.3817,2.2688,2.1669,2.0651,1.9749,1.8848,1.8222,1.7597,1.7597,1.7597,1.8222,1.8848,1.9749,2.0651,2.1669,2.2688,2.3817,2.4946,2.5966,2.6986,2.7728,2.847,2.8518,2.8565,2.8012,2.7459,2.6508,2.5558,2.3971,2.2383,2.0399,1.8416,1.6479,1.4542,1.2508,1.0894,0.95284,0.81633,0.70055,0.58477,0.50088,0.41699,0.36184,0.3067,0.26608,0.22545,0.19782,0.17018,0.15168,0.13318,0.11803,0.10288,0.091925,0.080973,0.072474,0.063975,0.057139,0.050302,0.045558,0.040813,0.037448,0.034083,0.030913,0.027743
0.028657,0.031675,0.034693,0.038385,0.042077,0.047581,0.053085,0.060252,0.067418,0.076415,0.085412,0.097348,0.10928,0.12604,0.14279,0.16188,0.18096,0.21723,0.2535,0.2979,0.34231,0.40831,0.47432,0.5768,0.67929,0.8177,0.95611,1.1166,1.2771,1.4739,1.7149,1.9565,2.1982,2.4412,2.6841,2.8698,3.0554,3.1714,3.2874,3.3673,3.4471,3.4555,3.4639,3.3783,3.2927,3.1625,3.0323,2.8836,2.735,2.5994,2.4639,2.3493,2.2347,2.1583,2.0819,2.0819,2.0819,2.1583,2.2347,2.3493,2.4639,2.5994,2.735,2.8836,3.0323,3.1625,3.2927,3.3783,3.4639,3.4555,3.4471,3.3673,3.2874,3.1714,3.0554,2.8698,2.6841,2.4412,2.1982,1.9565,1.7149,1.4739,1.2771,1.1166,0.95611,0.8177,0.67929,0.5768,0.47432,0.40831,0.34231,0.2979,0.2535,0.21723,0.18096,0.16188,0.14279,0.12604,0.10928,0.097348,0.085412,0.076415,0.067418,0.060252,0.053085,0.047581,0.042077,0.038385,0.034693,0.031675,0.028657
0.029514,0.032972,0.03643,0.0403,0.044169,0.049988,0.055806,0.063197,0.070587,0.080195,0.089802,0.10285,0.1159,0.13444,0.15298,0.17718,0.20139,0.24071,0.28003,0.33318,0.38633,0.46831,0.55028,0.67692,0.80356,0.96949,1.1354,1.332,1.5286,1.7684,2.0544,2.3438,2.6332,2.9127,3.1922,3.4141,3.636,3.7988,3.9616,4.0895,4.2174,4.2662,4.3151,4.2347,4.1543,3.9919,3.8294,3.6332,3.437,3.2474,3.0579,2.897,2.7361,2.6367,2.5373,2.5373,2.5373,2.6367,2.7361,2.897,3.0579,3.2474,3.437,3.6332,3.8294,3.9919,4.1543,4.2347,4.3151,4.2662,4.2174,4.0895,3.9616,3.7988,3.636,3.4141,3.1922,2.9127,2.6332,2.3438,2.0544,1.7684,1.5286,1.332,1.1354,0.96949,0.80356,0.67692,0.55028,0.46831,0.38633,0.33318,0.28003,0.24071,0.20139,0.17718,0.15298,0.13444,0.1159,0.10285,0.089802,0.080195,0.070587,0.063197,0.055806,0.049988,0.044169,0.0403,0.03643,0.032972,0.029514
0.030372,0.034269,0.038167,0.042214,0.046261,0.052394,0.058527,0.066142,0.073757,0.083974,0.094191,0.10836,0.12252,0.14284,0.16317,0.19249,0.22182,0.26419,0.30657,0.36847,0.43036,0.5283,0.62624,0.77704,0.92784,1.1213,1.3147,1.5474,1.78,2.0629,2.394,2.7311,3.0682,3.3842,3.7002,3.9583,4.2165,4.4261,4.6357,4.8117,4.9876,5.0769,5.1662,5.0911,5.0159,4.8212,4.6265,4.3827,4.139,3.8954,3.6518,3.4446,3.2374,3.1151,2.9927,2.9927,2.9927,3.1151,3.2374,3.4446,3.6518,3.8954,4.139,4.3827,4.6265,4.8212,5.0159,5.0911,5.1662,5.0769,4.9876,4.8117,4.6357,4.4261,4.2165,3.9583,3.7002,3.3842,3.0682,2.7311,2.394,2.0629,1.78,1.5474,1.3147,1.1213,0.92784,0.77704,0.62624,0.5283,0.43036,0.36847,0.30657,0.26419,0.22182,0.19249,0.16317,0.14284,0.12252,0.10836,0.094191,0.083974,0.073757,0.066142,0.058527,0.052394,0.046261,0.042214,0.038167,0.034269,0.030372
0.031281,0.034954,0.038628,0.043024,0.047419,0.054078,0.060737,0.0688,0.076863,0.087775,0.098687,0.11392,0.12916,0.15139,0.17361,0.20631,0.239,0.2877,0.3364,0.41081,0.48521,0.60579,0.72636,0.90683,1.0873,1.3135,1.5397,1.8062,2.0728,2.3877,2.7527,3.1182,3.4836,3.834,4.1843,4.5003,4.8162,5.0934,5.3707,5.614,5.8573,5.9999,6.1424,6.0941,6.0458,5.8355,5.6253,5.3327,5.0402,4.7374,4.4347,4.1657,3.8967,3.7363,3.5759,3.5759,3.5759,3.7363,3.8967,4.1657,4.4347,4.7374,5.0402,5.3327,5.6253,5.8355,6.0458,6.0941,6.1424,5.9999,5.8573,5.614,5.3707,5.0934,4.8162,4.5003,4.1843,3.834,3.4836,3.1182,2.7527,2.3877,2.0728,1.8062,1.5397,1.3135,1.0873,0.90683,0.72636,0.60579,0.48521,0.41081,0.3364,0.2877,0.239,0.20631,0.17361,0.15139,0.12916,0.11392,0.098687,0.087775,0.076863,0.0688,0.060737,0.054078,0.047419,0.043024,0.038628,0.034954,0.031281
0.03219,0.035639,0.039089,0.043833,0.048577,0.055763,0.062948,0.071459,0.07997,0.091576,0.10318,0.11949,0.1358,0.15993,0.18406,0.22012,0.25619,0.31121,0.36623,0.45315,0.54007,0.68327,0.82648,1.0366,1.2468,1.5057,1.7647,2.0651,2.3656,2.7126,3.1115,3.5053,3.899,4.2838,4.6685,5.0422,5.4159,5.7607,6.1056,6.4163,6.7269,6.9228,7.1186,7.0972,7.0757,6.8498,6.624,6.2827,5.9414,5.5794,5.2175,4.8868,4.556,4.3575,4.159,4.159,4.159,4.3575,4.556,4.8868,5.2175,5.5794,5.9414,6.2827,6.624,6.8498,7.0757,7.0972,7.1186,6.9228,6.7269,6.4163,6.1056,5.7607,5.4159,5.0422,4.6685,4.2838,3.899,3.5053,3.1115,2.7126,2.3656,2.0651,1.7647,1.5057,1.2468,1.0366,0.82648,0.68327,0.54007,0.45315,0.36623,0.31121,0.25619,0.22012,0.18406,0.15993,0.1358,0.11949,0.10318,0.091576,0.07997,0.071459,0.062948,0.055763,0.048577,0.043833,0.039089,0.035639,0.03219
0.032819,0.036657,0.040496,0.045664,0.050831,0.057914,0.064996,0.073925,0.082853,0.095113,0.10737,0.12479,0.14221,0.16824,0.19427,0.23409,0.27391,0.33682,0.39973,0.50364,0.60756,0.77763,0.9477,1.1893,1.4308,1.7205,2.0102,2.3351,2.6601,3.0258,3.4448,3.8463,4.2478,4.6634,5.0789,5.5081,5.9373,6.3527,6.768,7.1662,7.5643,7.8175,8.0707,8.0757,8.0808,7.8635,7.6463,7.2757,6.9051,6.4907,6.0762,5.6824,5.2885,5.0428,4.7972,4.7972,4.7972,5.0428,5.2885,5.6824,6.0762,6.4907,6.9051,7.2757,7.6463,7.8635,8.0808,8.0757,8.0707,7.8175,7.5643,7.1662,6.768,6.3527,5.9373,5.5081,5.0789,4.6634,4.2478,3.8463,3.4448,3.0258,2.6601,2.3351,2.0102,1.7205,1.4308,1.1893,0.9477,0.77763,0.60756,0.50364,0.39973,0.33682,0.27391,0.23409,0.19427,0.16824,0.14221,0.12479,0.10737,0.095113,0.082853,0.073925,0.064996,0.057914,0.050831,0.045664,0.040496,0.036657,0.032819
0.033448,0.037675,0.041903,0.047494,0.053085,0.060065,0.067045,0.07639,0.085736,0.098649,0.11156,0.13009,0.14862,0.17655,0.20448,0.24806,0.29163,0.36243,0.43322,0.55414,0.67505,0.87199,1.0689,1.3419,1.6148,1.9353,2.2557,2.6051,2.9546,3.339,3.7782,4.1874,4.5966,5.0429,5.4893,5.9741,6.4588,6.9446,7.4304,7.9161,8.4017,8.7122,9.0227,9.0543,9.0859,8.8772,8.6685,8.2687,7.8689,7.4019,6.935,6.478,6.0209,5.7281,5.4353,5.4353,5.4353,5.7281,6.0209,6.478,6.935,7.4019,7.8689,8.2687,8.6685,8.8772,9.0859,9.0543,9.0227,8.7122,8.4017,7.9161,7.4304,6.9446,6.4588,5.9741,5.4893,5.0429,4.5966,4.1874,3.7782,3.339,2.9546,2.6051,2.2557,1.9353,1.6148,1.3419,1.0689,0.87199,0.67505,0.55414,0.43322,0.36243,0.29163,0.24806,0.20448,0.17655,0.14862,0.13009,0.11156,0.098649,0.085736,0.07639,0.067045,0.060065,0.053085,0.047494,0.041903,0.037675,0.033448
0.034263,0.038397,0.042532,0.048444,0.054355,0.061565,0.068776,0.078504,0.088233,0.10176,0.11528,0.13345,0.15163,0.18282,0.21401,0.26157,0.30913,0.38902,0.4689,0.6066,0.74429,0.96676,1.1892,1.4866,1.784,2.1221,2.4603,2.8265,3.1928,3.5857,4.0346,4.444,4.8535,5.3132,5.7729,6.2963,6.8198,7.391,7.9623,8.5282,9.0942,9.4556,9.8171,9.8903,9.9635,9.7672,9.5709,9.1609,8.7509,8.2357,7.7205,7.2049,6.6893,6.3516,6.0138,6.0138,6.0138,6.3516,6.6893,7.2049,7.7205,8.2357,8.7509,9.1609,9.5709,9.7672,9.9635,9.8903,9.8171,9.4556,9.0942,8.5282,7.9623,7.391,6.8198,6.2963,5.7729,5.3132,4.8535,4.444,4.0346,3.5857,3.1928,2.8265,2.4603,2.1221,1.784,1.4866,1.1892,0.96676,0.74429,0.6066,0.4689,0.38902,0.30913,0.26157,0.21401,0.18282,0.15163,0.13345,0.11528,0.10176,0.088233,0.078504,0.068776,0.061565,0.054355,0.048444,0.042532,0.038397,0.034263
0.035079,0.03912,0.043161,0.049393,0.055626,0.063066,0.070506,0.080618,0.090729,0.10486,0.119,0.13682,0.15464,0.18909,0.22354,0.27508,0.32663,0.4156,0.50458,0.65905,0.81353,1.0615,1.3095,1.6313,1.9532,2.309,2.6648,3.048,3.4311,3.8325,4.291,4.7007,5.1104,5.5834,6.0565,6.6186,7.1807,7.8374,8.4941,9.1404,9.7867,10.199,10.611,10.726,10.841,10.657,10.473,10.053,9.6329,9.0695,8.506,7.9319,7.3577,6.9751,6.5924,6.5924,6.5924,6.9751,7.3577,7.9319,8.506,9.0695,9.6329,10.053,10.473,10.657,10.841,10.726,10.611,10.199,9.7867,9.1404,8.4941,7.8374,7.1807,6.6186,6.0565,5.5834,5.1104,4.7007,4.291,3.8325,3.4311,3.048,2.6648,2.309,1.9532,1.6313,1.3095,1.0615,0.81353,0.65905,0.50458,0.4156,0.32663,0.27508,0.22354,0.18909,0.15464,0.13682,0.119,0.10486,0.090729,0.080618,0.070506,0.063066,0.055626,0.049393,0.043161,0.03912,0.035079
0.03539,0.039817,0.044244,0.050424,0.056603,0.064246,0.071889,0.082283,0.092678,0.10731,0.12194,0.14194,0.16193,0.19669,0.23145,0.28698,0.34251,0.44001,0.53752,0.70357,0.86963,1.1299,1.3901,1.7228,2.0555,2.4225,2.7894,3.1818,3.5741,3.9762,4.4363,4.8555,5.2747,5.7648,6.2549,6.8577,7.4606,8.1791,8.8976,9.5998,10.302,10.758,11.214,11.367,11.521,11.355,11.188,10.751,10.315,9.7225,9.1305,8.5002,7.8699,7.4478,7.0257,7.0257,7.0257,7.4478,7.8699,8.5002,9.1305,9.7225,10.315,10.751,11.188,11.355,11.521,11.367,11.214,10.758,10.302,9.5998,8.8976,8.1791,7.4606,6.8577,6.2549,5.7648,5.2747,4.8555,4.4363,3.9762,3.5741,3.1818,2.7894,2.4225,2.0555,1.7228,1.3901,1.1299,0.86963,0.70357,0.53752,0.44001,0.34251,0.28698,0.23145,0.19669,0.16193,0.14194,0.12194,0.10731,0.092678,0.082283,0.071889,0.064246,0.056603,0.050424,0.044244,0.039817,0.03539
0.035702,0.040514,0.045327,0.051454,0.057581,0.065426,0.073271,0.083949,0.094627,0.10976,0.12489,0.14706,0.16923,0.2043,0.23936,0.29887,0.35838,0.46442,0.57045,0.74809,0.92572,1.1982,1.4706,1.8142,2.1578,2.5359,2.914,3.3156,3.7171,4.1199,4.5816,5.0103,5.439,5.9462,6.4533,7.0969,7.7405,8.5208,9.3012,10.059,10.817,11.317,11.816,12.008,12.2,12.052,11.903,11.45,10.996,10.376,9.755,9.0685,8.3821,7.9206,7.4591,7.4591,7.4591,7.9206,8.3821,9.0685,9.755,10.376,10.996,11.45,11.903,12.052,12.2,12.008,11.816,11.317,10.817,10.059,9.3012,8.5208,7.7405,7.0969,6.4533,5.9462,5.439,5.0103,4.5816,4.1199,3.7171,3.3156,2.914,2.5359,2.1578,1.8142,1.4706,1.1982,0.92572,0.74809,0.57045,0.46442,0.35838,0.29887,0.23936,0.2043,0.16923,0.14706,0.12489,0.10976,0.094627,0.083949,0.073271,0.065426,0.057581,0.051454,0.045327,0.040514,0.035702
0.036212,0.041065,0.045919,0.052067,0.058216,0.066176,0.074136,0.085023,0.09591,0.11136,0.12681,0.14958,0.17236,0.20873,0.2451,0.30766,0.37021,0.48285,0.59548,0.77857,0.96165,1.2335,1.5053,1.8455,2.1856,2.5712,2.9569,3.3597,3.7625,4.1697,4.6364,5.0742,5.512,6.0357,6.5595,7.2431,7.9268,8.7345,9.5422,10.333,11.123,11.669,12.215,12.424,12.634,12.478,12.322,11.881,11.44,10.795,10.15,9.4204,8.691,8.1999,7.7088,7.7088,7.7088,8.1999,8.691,9.4204,10.15,10.795,11.44,11.881,12.322,12.478,12.634,12.424,12.215,11.669,11.123,10.333,9.5422,8.7345,7.9268,7.2431,6.5595,6.0357,5.512,5.0742,4.6364,4.1697,3.7625,3.3597,2.9569,2.5712,2.1856,1.8455,1.5053,1.2335,0.96165,0.77857,0.59548,0.48285,0.37021,0.30766,0.2451,0.20873,0.17236,0.14958,0.12681,0.11136,0.09591,0.085023,0.074136,0.066176,0.058216,0.052067,0.045919,0.041065,0.036212
0.036723,0.041616,0.04651,0.052681,0.058851,0.066926,0.075002,0.086097,0.097192,0.11296,0.12873,0.15211,0.17548,0.21316,0.25084,0.31644,0.38204,0.50128,0.62051,0.80904,0.99758,1.2688,1.54,1.8767,2.2134,2.6066,2.9997,3.4038,3.808,4.2196,4.6912,5.138,5.5849,6.1253,6.6656,7.3893,8.113,8.9481,9.7831,10.606,11.429,12.021,12.613,12.841,13.068,12.904,12.74,12.313,11.885,11.215,10.545,9.7723,8.9998,8.4791,7.9584,7.9584,7.9584,8.4791,8.9998,9.7723,10.545,11.215,11.885,12.313,12.74,12.904,13.068,12.841,12.613,12.021,11.429,10.606,9.7831,8.9481,8.113,7.3893,6.6656,6.1253,5.5849,5.138,4.6912,4.2196,3.808,3.4038,2.9997,2.6066,2.2134,1.8767,1.54,1.2688,0.99758,0.80904,0.62051,0.50128,0.38204,0.31644,0.25084,0.21316,0.17548,0.15211,0.12873,0.11296,0.097192,0.086097,0.075002,0.066926,0.058851,0.052681,0.04651,0.041616,0.036723
0.036617,0.041691,0.046766,0.052908,0.05905,0.067154,0.075257,0.086446,0.097634,0.11351,0.12939,0.15297,0.17654,0.21468,0.25281,0.31955,0.38628,0.5081,0.62991,0.81925,1.0086,1.2788,1.5489,1.8793,2.2096,2.5969,2.9842,3.3905,3.7968,4.2118,4.6871,5.1389,5.5907,6.1414,6.6921,7.4293,8.1664,9.0119,9.8573,10.684,11.511,12.147,12.784,13.011,13.239,13.05,12.861,12.442,12.024,11.349,10.674,9.8894,9.1053,8.5714,8.0375,8.0375,8.0375,8.5714,9.1053,9.8894,10.674,11.349,12.024,12.442,12.861,13.05,13.239,13.011,12.784,12.147,11.511,10.684,9.8573,9.0119,8.1664,7.4293,6.6921,6.1414,5.5907,5.1389,4.6871,4.2118,3.7968,3.3905,2.9842,2.5969,2.2096,1.8793,1.5489,1.2788,1.0086,0.81925,0.62991,0.5081,0.38628,0.31955,0.25281,0.21468,0.17654,0.15297,0.12939,0.11351,0.097634,0.086446,0.075257,0.067154,0.05905,0.052908,0.046766,0.041691,0.036617
0.036511,0.041766,0.047021,0.053135,0.059249,0.067381,0.075512,0.086794,0.098076,0.11407,0.13005,0.15383,0.1776,0.21619,0.25478,0.32265,0.39051,0.51491,0.63931,0.82947,1.0196,1.2887,1.5578,1.8818,2.2058,2.5873,2.9687,3.3771,3.7856,4.204,4.6829,5.1397,5.5965,6.1575,6.7185,7.4692,8.2198,9.0756,9.9314,10.762,11.592,12.273,12.954,13.182,13.41,13.196,12.981,12.572,12.163,11.483,10.802,10.007,9.2107,8.6636,8.1166,8.1166,8.1166,8.6636,9.2107,10.007,10.802,11.483,12.163,12.572,12.981,13.196,13.41,13.182,12.954,12.273,11.592,10.762,9.9314,9.0756,8.2198,7.4692,6.7185,6.1575,5.5965,5.1397,4.6829,4.204,3.7856,3.3771,2.9687,2.5873,2.2058,1.8818,1.5578,1.2887,1.0196,0.82947,0.63931,0.51491,0.39051,0.32265,0.25478,0.21619,0.1776,0.15383,0.13005,0.11407,0.098076,0.086794,0.075512,0.067381,0.059249,0.053135,0.047021,0.041766,0.036511
0.036617,0.041691,0.046766,0.052908,0.05905,0.067154,0.075257,0.086446,0.097634,0.11351,0.12939,0.15297,0.17654,0.21468,0.25281,0.31955,0.38628,0.5081,0.62991,0.81925,1.0086,1.2788,1.5489,1.8793,2.2096,2.5969,2.9842,3.3905,3.7968,4.2118,4.6871,5.1389,5.5907,6.1414,6.6921,7.4293,8.1664,9.0119,9.8573,10.684,11.511,12.147,12.784,13.011,13.239,13.05,12.861,12.442,12.024,11.349,10.674,9.8894,9.1053,8.5714,8.0375,8.0375,8.0375,8.5714,9.1053,9.8894,10.674,11.349,12.024,12.442,12.861,13.05,13.239,13.011,12.784,12.147,11.511,10.684,9.8573,9.0119,8.1664,7.4293,6.6921,6.1414,5.5907,5.1389,4.6871,4.2118,3.7968,3.3905,2.9842,2.5969,2.2096,1.8793,1.5489,1.2788,1.0086,0.81925,0.62991,0.5081,0.38628,0.31955,0.25281,0.21468,0.17654,0.15297,0.12939,0.11351,0.097634,0.086446,0.075257,0.067154,0.05905,0.052908,0.046766,0.041691,0.036617
0.036723,0.041616,0.04651,0.052681,0.058851,0.066926,0.075002,0.086097,0.097192,0.11296,0.12873,0.15211,0.17548,0.21316,0.25084,0.31644,0.38204,0.50128,0.62051,0.80904,0.99758,1.2688,1.54,1.8767,2.2134,2.6066,2.9997,3.4038,3.808,4.2196,4.6912,5.138,5.5849,6.1253,6.6656,7.3893,8.113,8.9481,9.7831,10.606,11.429,12.021,12.613,12.841,13.068,12.904,12.74,12.313,11.885,11.215,10.545,9.7723,8.9998,8.4791,7.9584,7.9584,7.9584,8.4791,8.9998,9.7723,10.545,11.215,11.885,12.313,12.74,12.904,13.068,12.841,12.613,12.021,11.429,10.606,9.7831,8.9481,8.113,7.3893,6.6656,6.1253,5.5849,5.138,4.6912,4.2196,3.808,3.4038,2.9997,2.6066,2.2134,1.8767,1.54,1.2688,0.99758,0.80904,0.62051,0.50128,0.38204,0.31644,0.25084,0.21316,0.17548,0.15211,0.12873,0.11296,0.097192,0.086097,0.075002,0.066926,0.058851,0.052681,0.04651,0.041616,0.036723
0.036212,0.041065,0.045919,0.052067,0.058216,0.066176,0.074136,0.085023,0.09591,0.11136,0.12681,0.14958,0.17236,0.20873,0.2451,0.30766,0.37021,0.48285,0.59548,0.77857,0.96165,1.2335,1.5053,1.8455,2.1856,2.5712,2.9569,3.3597,3.7625,4.1697,4.6364,5.0742,5.512,6.0357,6.5595,7.2431,7.9268,8.7345,9.5422,10.333,11.123,11.669,12.215,12.424,12.634,12.478,12.322,11.881,11.44,10.795,10.15,9.4204,8.691,8.1999,7.7088,7.7088,7.7088,8.1999,8.691,9.4204,10.15,10.795,11.44,11.881,12.322,12.478,12.634,12.424,12.215,11.669,11.123,10.333,9.5422,8.7345,7.9268,7.2431,6.5595,6.0357,5.512,5.0742,4.6364,4.1697,3.7625,3.3597,2.9569,2.5712,2.1856,1.8455,1.5053,1.2335,0.96165,0.77857,0.59548,0.48285,0.37021,0.30766,0.2451,0.20873,0.17236,0.14958,0.12681,0.11136,0.09591,0.085023,0.074136,0.066176,0.058216,0.052067,0.045919,0.041065,0.036212
0.035702,0.040514,0.045327,0.051454,0.057581,0.065426,0.073271,0.083949,0.094627,0.10976,0.12489,0.14706,0.16923,0.2043,0.23936,0.29887,0.35838,0.46442,0.57045,0.74809,0.92572,1.1982,1.4706,1.8142,2.1578,2.5359,2.914,3.3156,3.7171,4.1199,4.5816,5.0103,5.439,5.9462,6.4533,7.0969,7.7405,8.5208,9.3012,10.059,10.817,11.317,11.816,12.008,12.2,12.052,11.903,11.45,10.996,10.376,9.755,9.0685,8.3821,7.9206,7.4591,7.4591,7.4591,7.9206,8.3821,9.0685,9.755,10.376,10.996,11.45,11.903,12.052,12.2,12.008,11.816,11.317,10.817,10.059,9.3012,8.5208,7.7405,7.0969,6.4533,5.9462,5.439,5.0103,4.5816,4.1199,3.7171,3.3156,2.914,2.5359,2.1578,1.8142,1.4706,1.1982,0.92572,0.74809,0.57045,0.46442,0.35838,0.29887,0.23936,0.2043,0.16923,0.14706,0.12489,0.10976,0.094627,0.083949,0.073271,0.065426,0.057581,0.051454,0.045327,0.040514,0.035702
0.03539,0.039817,0.044244,0.050424,0.056603,0.064246,0.071889,0.082283,0.092678,0.10731,0.12194,0.14194,0.16193,0.19669,0.23145,0.28698,0.34251,0.44001,0.53752,0.70357,0.86963,1.1299,1.3901,1.7228,2.0555,2.4225,2.7894,3.1818,3.5741,3.9762,4.4363,4.8555,5.2747,5.7648,6.2549,6.8577,7.4606,8.1791,8.8976,9.5998,10.302,10.758,11.214,11.367,11.521,11.355,11.188,10.751,10.315,9.7225,9.1305,8.5002,7.8699,7.4478,7.0257,7.0257,7.0257,7.4478,7.8699,8.5002,9.1305,9.7225,10.315,10.751,11.188,11.355,11.521,11.367,11.214,10.758,10.302,9.5998,8.8976,8.1791,7.4606,6.8577,6.2549,5.7648,5.2747,4.8555,4.4363,3.9762,3.5741,3.1818,2.7894,2.4225,2.0555,1.7228,1.3901,1.1299,0.86963,0.70357,0.53752,0.44001,0.34251,0.28698,0.23145,0.19669,0.16193,0.14194,0.12194,0.10731,0.092678,0.082283,0.071889,0.064246,0.056603,0.050424,0.044244,0.039817,0.03539
0.035079,0.03912,0.043161,0.049393,0.055626,0.063066,0.070506,0.080618,0.090729,0.10486,0.119,0.13682,0.15464,0.18909,0.22354,0.27508,0.32663,0.4156,0.50458,0.65905,0.81353,1.0615,1.3095,1.6313,1.9532,2.309,2.6648,3.048,3.4311,3.8325,4.291,4.7007,5.1104,5.5834,6.0565,6.6186,7.1807,7.8374,8.4941,9.1404,9.7867,10.199,10.611,10.726,10.841,10.657,10.473,10.053,9.6329,9.0695,8.506,7.9319,7.3577,6.9751,6.5924,6.5924,6.5924,6.9751,7.3577,7.9319,8.506,9.0695,9.6329,10.053,10.473,10.657,10.841,10.726,10.611,10.199,9.7867,9.1404,8.4941,7.8374,7.1807,6.6186,6.0565,5.5834,5.1104,4.7007,4.291,3.8325,3.4311,3.048,2.6648,2.309,1.9532,1.6313,1.3095,1.0615,0.81353,0.65905,0.50458,0.4156,0.32663,0.27508,0.22354,0.18909,0.15464,0.13682,0.119,0.10486,0.090729,0.080618,0.070506,0.063066,0.055626,0.049393,0.043161,0.03912,0.035079
0.034263,0.038397,0.042532,0.048444,0.054355,0.061565,0.068776,0.078504,0.088233,0.10176,0.11528,0.13345,0.15163,0.18282,0.21401,0.26157,0.30913,0.38902,0.4689,0.6066,0.74429,0.96676,1.1892,1.4866,1.784,2.1221,2.4603,2.8265,3.1928,3.5857,4.0346,4.444,4.8535,5.3132,5.7729,6.2963,6.8198,7.391,7.9623,8.5282,9.0942,9.4556,9.8171,9.8903,9.9635,9.7672,9.5709,9.1609,8.7509,8.2357,7.7205,7.2049,6.6893,6.3516,6.0138,6.0138,6.0138,6.3516,6.6893,7.2049,7.7205,8.2357,8.7509,9.1609,9.5709,9.7672,9.9635,9.8903,9.8171,9.4556,9.0942,8.5282,7.9623,7.391,6.8198,6.2963,5.7729,5.3132,4.8535,4.444,4.0346,3.5857,3.1928,2.8265,2.4603,2.1221,1.784,1.4866,1.1892,0.96676,0.74429,0.6066,0.4689,0.38902,0.30913,0.26157,0.21401,0.18282,0.15163,0.13345,0.11528,0.10176,0.088233,0.078504,0.068776,0.061565,0.054355,0.048444,0.042532,0.038397,0.034263
0.033448,0.037675,0.041903,0.047494,0.053085,0.060065,0.067045,0.07639,0.085736,0.098649,0.11156,0.13009,0.14862,0.17655,0.20448,0.24806,0.29163,0.36243,0.43322,0.55414,0.67505,0.87199,1.0689,1.3419,1.6148,1.9353,2.2557,2.6051,2.9546,3.339,3.7782,4.1874,4.5966,5.0429,5.4893,5.9741,6.4588,6.9446,7.4304,7.9161,8.4017,8.7122,9.0227,9.0543,9.0859,8.8772,8.6685,8.2687,7.8689,7.4019,6.935,6.478,6.0209,5.7281,5.4353,5.4353,5.4353,5.7281,6.0209,6.478,6.935,7.4019,7.8689,8.2687,8.6685,8.8772,9.0859,9.0543,9.0227,8.7122,8.4017,7.9161,7.4304,6.9446,6.4588,5.9741,5.4893,5.0429,4.5966,4.1874,3.7782,3.339,2.9546,2.6051,2.2557,1.9353,1.6148,1.3419,1.0689,0.87199,0.67505,0.55414,0.43322,0.36243,0.29163,0.24806,0.20448,0.17655,0.14862,0.13009,0.11156,0.098649,0.085736,0.07639,0.067045,0.060065,0.053085,0.047494,0.041903,0.037675,0.033448
0.032819,0.036657,0.040496,0.045664,0.050831,0.057914,0.064996,0.073925,0.082853,0.095113,0.10737,0.12479,0.14221,0.16824,0.19427,0.23409,0.27391,0.33682,0.39973,0.50364,0.60756,0.77763,0.9477,1.1893,1.4308,1.7205,2.0102,2.3351,2.6601,3.0258,3.4448,3.8463,4.2478,4.6634,5.0789,5.5081,5.9373,6.3527,6.768,7.1662,7.5643,7.8175,8.0707,8.0757,8.0808,7.8635,7.6463,7.2757,6.9051,6.4907,6.0762,5.6824,5.2885,5.0428,4.7972,4.7972,4.7972,5.0428,5.2885,5.6824,6.0762,6.4907,6.9051,7.2757,7.6463,7.8635,8.0808,8.0757,8.0707,7.8175,7.5643,7.1662,6.768,6.3527,5.9373,5.5081,5.0789,4.6634,4.2478,3.8463,3.4448,3.0258,2.6601,2.3351,2.0102,1.7205,1.4308,1.1893,0.9477,0.77763,0.60756,0.50364,0.39973,0.33682,0.27391,0.23409,0.19427,0.16824,0.14221,0.12479,0.10737,0.095113,0.082853,0.073925,0.064996,0.057914,0.050831,0.045664,0.040496,0.036657,0.032819
0.03219,0.035639,0.039089,0.043833,0.048577,0.055763,0.062948,0.071459,0.07997,0.091576,0.10318,0.11949,0.1358,0.15993,0.18406,0.22012,0.25619,0.31121,0.36623,0.45315,0.54007,0.68327,0.82648,1.0366,1.2468,1.5057,1.7647,2.0651,2.3656,2.7126,3.1115,3.5053,3.899,4.2838,4.6685,5.0422,5.4159,5.7607,6.1056,6.4163,6.7269,6.9228,7.1186,7.0972,7.0757,6.8498,6.624,6.2827,5.9414,5.5794,5.2175,4.8868,4.556,4.3575,4.159,4.159,4.159,4.3575,4.556,4.8868,5.2175,5.5794,5.9414,6.2827,6.624,6.8498,7.0757,7.0972,7.1186,6.9228,6.7269,6.4163,6.1056,5.7607,5.4159,5.0422,4.6685,4.2838,3.899,3.5053,3.1115,2.7126,2.3656,2.0651,1.7647,1.5057,1.2468,1.0366,0.82648,0.68327,0.54007,0.45315,0.36623,0.31121,0.25619,0.22012,0.18406,0.15993,0.1358,0.11949,0.10318,0.091576,0.07997,0.071459,0.062948,0.055763,0.048577,0.043833,0.039089,0.035639,0.03219
0.031281,0.034954,0.038628,0.043024,0.047419,0.054078,0.060737,0.0688,0.076863,0.087775,0.098687,0.11392,0.12916,0.15139,0.17361,0.20631,0.239,0.2877,0.3364,0.41081,0.48521,0.60579,0.72636,0.90683,1.0873,1.3135,1.5397,1.8062,2.0728,2.3877,2.7527,3.1182,3.4836,3.834,4.1843,4.5003,4.8162,5.0934,5.3707,5.614,5.8573,5.9999,6.1424,6.0941,6.0458,5.8355,5.6253,5.3327,5.0402,4.7374,4.4347,4.1657,3.8967,3.7363,3.5759,3.5759,3.5759,3.7363,3.8967,4.1657,4.4347,4.7374,5.0402,5.3327,5.6253,5.8355,6.0458,6.0941,6.1424,5.9999,5.8573,5.614,5.3707,5.0934,4.8162,4.5003,4.1843,3.834,3.4836,3.1182,2.7527,2.3877,2.0728,1.8062,1.5397,1.3135,1.0873,0.90683,0.72636,0.60579,0.48521,0.41081,0.3364,0.2877,0.239,0.20631,0.17361,0.15139,0.12916,0.11392,0.098687,0.087775,0.076863,0.0688,0.060737,0.054078,0.047419,0.043024,0.038628,0.034954,0.031281
0.030372,0.034269,0.038167,0.042214,0.046261,0.052394,0.058527,0.066142,0.073757,0.083974,0.094191,0.10836,0.12252,0.14284,0.16317,0.19249,0.22182,0.26419,0.30657,0.36847,0.43036,0.5283,0.62624,0.77704,0.92784,1.1213,1.3147,1.5474,1.78,2.0629,2.394,2.7311,3.0682,3.3842,3.7002,3.9583,4.2165,4.4261,4.6357,4.8117,4.9876,5.0769,5.1662,5.0911,5.0159,4.8212,4.6265,4.3827,4.139,3.8954,3.6518,3.4446,3.2374,3.1151,2.9927,2.9927,2.9927,3.1151,3.2374,3.4446,3.6518,3.8954,4.139,4.3827,4.6265,4.8212,5.0159,5.0911,5.1662,5.0769,4.9876,4.8117,4.6357,4.4261,4.2165,3.9583,3.7002,3.3842,3.0682,2.7311,2.394,2.0629,1.78,1.5474,1.3147,1.1213,0.92784,0.77704,0.62624,0.5283,0.43036,0.36847,0.30657,0.26419,0.22182,0.19249,0.16317,0.14284,0.12252,0.10836,0.094191,0.083974,0.073757,0.066142,0.058527,0.052394,0.046261,0.042214,0.038167,0.034269,0.030372
0.029514,0.032972,0.03643,0.0403,0.044169,0.049988,0.055806,0.063197,0.070587,0.080195,0.089802,0.10285,0.1159,0.13444,0.15298,0.17718,0.20139,0.24071,0.28003,0.33318,0.38633,0.46831,0.55028,0.67692,0.80356,0.96949,1.1354,1.332,1.5286,1.7684,2.0544,2.3438,2.6332,2.9127,3.1922,3.4141,3.636,3.7988,3.9616,4.0895,4.2174,4.2662,4.3151,4.2347,4.1543,3.9919,3.8294,3.6332,3.437,3.2474,3.0579,2.897,2.7361,2.6367,2.5373,2.5373,2.5373,2.6367,2.7361,2.897,3.0579,3.2474,3.437,3.6332,3.8294,3.9919,4.1543,4.2347,4.3151,4.2662,4.2174,4.0895,3.9616,3.7988,3.636,3.4141,3.1922,2.9127,2.6332,2.3438,2.0544,1.7684,1.5286,1.332,1.1354,0.96949,0.80356,0.67692,0.55028,0.46831,0.38633,0.33318,0.28003,0.24071,0.20139,0.17718,0.15298,0.13444,0.1159,0.10285,0.089802,0.080195,0.070587,0.063197,0.055806,0.049988,0.044169,0.0403,0.03643,0.032972,0.029514
0.028657,0.031675,0.034693,0.038385,0.042077,0.047581,0.053085,0.060252,0.067418,0.076415,0.085412,0.097348,0.10928,0.12604,0.14279,0.16188,0.18096,0.21723,0.2535,0.2979,0.34231,0.40831,0.47432,0.5768,0.67929,0.8177,0.95611,1.1166,1.2771,1.4739,1.7149,1.9565,2.1982,2.4412,2.6841,2.8698,3.0554,3.1714,3.2874,3.3673,3.4471,3.4555,3.4639,3.3783,3.2927,3.1625,3.0323,2.8836,2.735,2.5994,2.4639,2.3493,2.2347,2.1583,2.0819,2.0819,2.0819,2.1583,2.2347,2.3493,2.4639,2.5994,2.735,2.8836,3.0323,3.1625,3.2927,3.3783,3.4639,3.4555,3.4471,3.3673,3.2874,3.1714,3.0554,2.8698,2.6841,2.4412,2.1982,1.9565,1.7149,1.4739,1.2771,1.1166,0.95611,0.8177,0.67929,0.5768,0.47432,0.40831,0.34231,0.2979,0.2535,0.21723,0.18096,0.16188,0.14279,0.12604,0.10928,0.097348,0.085412,0.076415,0.067418,0.060252,0.053085,0.047581,0.042077,0.038385,0.034693,0.031675,0.028657
0.027743,0.030913,0.034083,0.037448,0.040813,0.045558,0.050302,0.057139,0.063975,0.072474,0.080973,0.091925,0.10288,0.11803,0.13318,0.15168,0.17018,0.19782,0.22545,0.26608,0.3067,0.36184,0.41699,0.50088,0.58477,0.70055,0.81633,0.95284,1.0894,1.2508,1.4542,1.6479,1.8416,2.0399,2.2383,2.3971,2.5558,2.6508,2.7459,2.8012,2.8565,2.8518,2.847,2.7728,2.6986,2.5966,2.4946,2.3817,2.2688,2.1669,2.0651,1.9749,1.8848,1.8222,1.7597,1.7597,1.7597,1.8222,1.8848,1.9749,2.0651,2.1669,2.2688,2.3817,2.4946,2.5966,2.6986,2.7728,2.847,2.8518,2.8565,2.8012,2.7459,2.6508,2.5558,2.3971,2.2383,2.0399,1.8416,1.6479,1.4542,1.2508,1.0894,0.95284,0.81633,0.70055,0.58477,0.50088,0.41699,0.36184,0.3067,0.26608,0.22545,0.19782,0.17018,0.15168,0.13318,0.11803,0.10288,0.091925,0.080973,0.072474,0.063975,0.057139,0.050302,0.045558,0.040813,0.037448,0.034083,0.030913,0.027743
0.026829,0.030151,0.033473,0.036511,0.039549,0.043534,0.047519,0.054025,0.060532,0.068533,0.076533,0.086502,0.09647,0.11002,0.12357,0.14148,0.15939,0.1784,0.19741,0.23425,0.27109,0.31537,0.35966,0.42496,0.49026,0.5834,0.67655,0.78906,0.90157,1.0278,1.1935,1.3392,1.4849,1.6387,1.7925,1.9244,2.0562,2.1302,2.2043,2.235,2.2658,2.248,2.2302,2.1673,2.1045,2.0308,1.957,1.8798,1.8026,1.7345,1.6663,1.6006,1.5349,1.4862,1.4374,1.4374,1.4374,1.4862,1.5349,1.6006,1.6663,1.7345,1.8026,1.8798,1.957,2.0308,2.1045,2.1673,2.2302,2.248,2.2658,2.235,2.2043,2.1302,2.0562,1.9244,1.7925,1.6387,1.4849,1.3392,1.1935,1.0278,0.90157,0.78906,0.67655,0.5834,0.49026,0.42496,0.35966,0.31537,0.27109,0.23425,0.19741,0.1784,0.15939,0.14148,0.12357,0.11002,0.09647,0.086502,0.076533,0.068533,0.060532,0.054025,0.047519,0.043534,0.039549,0.036511,0.033473,0.030151,0.026829
0.025858,0.028717,0.031577,0.034526,0.037476,0.041626,0.045776,0.051516,0.057257,0.064753,0.07225,0.081122,0.089995,0.10234,0.11468,0.13047,0.14626,0.16457,0.18288,0.21276,0.24264,0.27969,0.31674,0.36969,0.42264,0.49729,0.57195,0.66378,0.75562,0.85895,1.0013,1.1168,1.2324,1.352,1.4715,1.5747,1.6778,1.7384,1.799,1.8218,1.8446,1.828,1.8114,1.7648,1.7183,1.6683,1.6184,1.563,1.5075,1.4537,1.3999,1.3469,1.2939,1.2562,1.2184,1.2184,1.2184,1.2562,1.2939,1.3469,1.3999,1.4537,1.5075,1.563,1.6184,1.6683,1.7183,1.7648,1.8114,1.828,1.8446,1.8218,1.799,1.7384,1.6778,1.5747,1.4715,1.352,1.2324,1.1168,1.0013,0.85895,0.75562,0.66378,0.57195,0.49729,0.42264,0.36969,0.31674,0.27969,0.24264,0.21276,0.18288,0.16457,0.14626,0.13047,0.11468,0.10234,0.089995,0.081122,0.07225,0.064753,0.057257,0.051516,0.045776,0.041626,0.037476,0.034526,0.031577,0.028717,0.025858
0.024888,0.027284,0.029681,0.032542,0.035403,0.039717,0.044032,0.049007,0.053982,0.060974,0.067966,0.075743,0.083519,0.094652,0.10578,0.11946,0.13313,0.15074,0.16836,0.19127,0.21418,0.244,0.27382,0.31442,0.35502,0.41118,0.46734,0.53851,0.60968,0.69012,0.80899,0.89446,0.97993,1.0652,1.1504,1.225,1.2995,1.3467,1.3938,1.4086,1.4234,1.4079,1.3925,1.3623,1.332,1.3059,1.2797,1.2461,1.2124,1.173,1.1336,1.0933,1.053,1.0262,0.99932,0.99932,0.99932,1.0262,1.053,1.0933,1.1336,1.173,1.2124,1.2461,1.2797,1.3059,1.332,1.3623,1.3925,1.4079,1.4234,1.4086,1.3938,1.3467,1.2995,1.225,1.1504,1.0652,0.97993,0.89446,0.80899,0.69012,0.60968,0.53851,0.46734,0.41118,0.35502,0.31442,0.27382,0.244,0.21418,0.19127,0.16836,0.15074,0.13313,0.11946,0.10578,0.094652,0.083519,0.075743,0.067966,0.060974,0.053982,0.049007,0.044032,0.039717,0.035403,0.032542,0.029681,0.027284,0.024888
0.02396,0.026506,0.029052,0.031984,0.034917,0.038152,0.041386,0.045922,0.050458,0.056911,0.063365,0.070874,0.078383,0.088096,0.097809,0.10987,0.12192,0.13724,0.15255,0.17216,0.19176,0.21397,0.23618,0.27265,0.30912,0.35367,0.39823,0.45349,0.50875,0.57107,0.6692,0.73566,0.80211,0.86763,0.93315,0.99013,1.0471,1.0839,1.1207,1.1344,1.1481,1.1413,1.1345,1.1174,1.1004,1.0801,1.0599,1.0372,1.0145,0.98421,0.95393,0.92389,0.89385,0.87542,0.85699,0.85699,0.85699,0.87542,0.89385,0.92389,0.95393,0.98421,1.0145,1.0372,1.0599,1.0801,1.1004,1.1174,1.1345,1.1413,1.1481,1.1344,1.1207,1.0839,1.0471,0.99013,0.93315,0.86763,0.80211,0.73566,0.6692,0.57107,0.50875,0.45349,0.39823,0.35367,0.30912,0.27265,0.23618,0.21397,0.19176,0.17216,0.15255,0.13724,0.12192,0.10987,0.097809,0.088096,0.078383,0.070874,0.063365,0.056911,0.050458,0.045922,0.041386,0.038152,0.034917,0.031984,0.029052,0.026506,0.02396
0.023032,0.025728,0.028423,0.031427,0.034431,0.036586,0.03874,0.042837,0.046934,0.052849,0.058764,0.066005,0.073246,0.081539,0.089833,0.10027,0.11072,0.12373,0.13674,0.15304,0.16934,0.18394,0.19853,0.23087,0.26321,0.29616,0.32911,0.36847,0.40782,0.45203,0.52941,0.57685,0.6243,0.67008,0.71586,0.7553,0.79475,0.8212,0.84766,0.86025,0.87284,0.87464,0.87645,0.87256,0.86867,0.85433,0.83999,0.82826,0.81653,0.79541,0.7743,0.7545,0.7347,0.72468,0.71465,0.71465,0.71465,0.72468,0.7347,0.7545,0.7743,0.79541,0.81653,0.82826,0.83999,0.85433,0.86867,0.87256,0.87645,0.87464,0.87284,0.86025,0.84766,0.8212,0.79475,0.7553,0.71586,0.67008,0.6243,0.57685,0.52941,0.45203,0.40782,0.36847,0.32911,0.29616,0.26321,0.23087,0.19853,0.18394,0.16934,0.15304,0.13674,0.12373,0.11072,0.10027,0.089833,0.081539,0.073246,0.066005,0.058764,0.052849,0.046934,0.042837,0.03874,0.036586,0.034431,0.031427,0.028423,0.025728,0.023032
0.022029,0.024301,0.026573,0.029291,0.032009,0.034553,0.037096,0.040935,0.044773,0.049595,0.054418,0.060999,0.06758,0.075338,0.083096,0.092242,0.10139,0.11272,0.12405,0.13808,0.15212,0.16661,0.1811,0.20306,0.22502,0.25466,0.28429,0.31504,0.3458,0.37963,0.44579,0.48267,0.51956,0.5548,0.59005,0.62045,0.65085,0.67232,0.69379,0.70582,0.71785,0.72183,0.7258,0.72471,0.72361,0.71534,0.70707,0.69531,0.68355,0.67177,0.65998,0.64677,0.63356,0.62672,0.61988,0.61988,0.61988,0.62672,0.63356,0.64677,0.65998,0.67177,0.68355,0.69531,0.70707,0.71534,0.72361,0.72471,0.7258,0.72183,0.71785,0.70582,0.69379,0.67232,0.65085,0.62045,0.59005,0.5548,0.51956,0.48267,0.44579,0.37963,0.3458,0.31504,0.28429,0.25466,0.22502,0.20306,0.1811,0.16661,0.15212,0.13808,0.12405,0.11272,0.10139,0.092242,0.083096,0.075338,0.06758,0.060999,0.054418,0.049595,0.044773,0.040935,0.037096,0.034553,0.032009,0.029291,0.026573,0.024301,0.022029
0.021026,0.022875,0.024723,0.027155,0.029587,0.03252,0.035452,0.039033,0.042613,0.046342,0.050072,0.055993,0.061914,0.069137,0.076359,0.08421,0.092062,0.10171,0.11135,0.12312,0.1349,0.14928,0.16366,0.17525,0.18684,0.21315,0.23946,0.26162,0.28378,0.30723,0.36217,0.3885,0.41482,0.43953,0.46423,0.48559,0.50696,0.52344,0.53992,0.55139,0.56287,0.56901,0.57516,0.57686,0.57856,0.57635,0.57415,0.56236,0.55058,0.54812,0.54566,0.53903,0.53241,0.52875,0.5251,0.5251,0.5251,0.52875,0.53241,0.53903,0.54566,0.54812,0.55058,0.56236,0.57415,0.57635,0.57856,0.57686,0.57516,0.56901,0.56287,0.55139,0.53992,0.52344,0.50696,0.48559,0.46423,0.43953,0.41482,0.3885,0.36217,0.30723,0.28378,0.26162,0.23946,0.21315,0.18684,0.17525,0.16366,0.14928,0.1349,0.12312,0.11135,0.10171,0.092062,0.08421,0.076359,0.069137,0.061914,0.055993,0.050072,0.046342,0.042613,0.039033,0.035452,0.03252,0.029587,0.027155,0.024723,0.022875,0.021026
0.020159,0.022144,0.024129,0.026474,0.02882,0.031472,0.034124,0.036858,0.039593,0.043491,0.047388,0.052092,0.056796,0.063427,0.070058,0.077253,0.084447,0.092821,0.1012,0.11142,0.12164,0.1339,0.14616,0.15778,0.1694,0.18906,0.20871,0.22311,0.23751,0.25976,0.31109,0.33232,0.35354,0.37364,0.39373,0.41084,0.42794,0.44203,0.45611,0.46645,0.47679,0.48268,0.48857,0.49089,0.49322,0.49233,0.49145,0.48498,0.47851,0.47615,0.47379,0.4664,0.45902,0.45969,0.46036,0.46036,0.46036,0.45969,0.45902,0.4664,0.47379,0.47615,0.47851,0.48498,0.49145,0.49233,0.49322,0.49089,0.48857,0.48268,0.47679,0.46645,0.45611,0.44203,0.42794,0.41084,0.39373,0.37364,0.35354,0.33232,0.31109,0.25976,0.23751,0.22311,0.20871,0.18906,0.1694,0.15778,0.14616,0.1339,0.12164,0.11142,0.1012,0.092821,0.084447,0.077253,0.070058,0.063427,0.056796,0.052092,0.047388,0.043491,0.039593,0.036858,0.034124,0.031472,0.02882,0.026474,0.024129,0.022144,0.020159
0.019293,0.021414,0.023535,0.025794,0.028052,0.030423,0.032795,0.034684,0.036573,0.040639,0.044705,0.048191,0.051678,0.057718,0.063757,0.070295,0.076832,0.083937,0.091041,0.099714,0.10839,0.11852,0.12866,0.14032,0.15197,0.16497,0.17796,0.1846,0.19123,0.21229,0.26001,0.27614,0.29226,0.30775,0.32323,0.33608,0.34892,0.36061,0.37231,0.38151,0.39071,0.39635,0.40198,0.40493,0.40787,0.40831,0.40876,0.4076,0.40645,0.40419,0.40192,0.39378,0.38563,0.39062,0.39562,0.39562,0.39562,0.39062,0.38563,0.39378,0.40192,0.40419,0.40645,0.4076,0.40876,0.40831,0.40787,0.40493,0.40198,0.39635,0.39071,0.38151,0.37231,0.36061,0.34892,0.33608,0.32323,0.30775,0.29226,0.27614,0.26001,0.21229,0.19123,0.1846,0.17796,0.16497,0.15197,0.14032,0.12866,0.11852,0.10839,0.099714,0.091041,0.083937,0.076832,0.070295,0.063757,0.057718,0.051678,0.048191,0.044705,0.040639,0.036573,0.034684,0.032795,0.030423,0.028052,0.025794,0.023535,0.021414,0.019293
0.018458,0.020152,0.021846,0.02388,0.025914,0.02833,0.030745,0.033261,0.035776,0.038503,0.04123,0.044935,0.04864,0.053639,0.058639,0.064205,0.069772,0.076456,0.08314,0.090605,0.09807,0.10676,0.11544,0.12528,0.13511,0.14587,0.15663,0.16443,0.17224,0.18734,0.22837,0.23843,0.2485,0.26495,0.2814,0.29191,0.30243,0.31181,0.32119,0.32924,0.3373,0.34286,0.34842,0.35142,0.35443,0.35543,0.35644,0.35611,0.35578,0.35456,0.35334,0.34909,0.34484,0.34397,0.3431,0.3431,0.3431,0.34397,0.34484,0.34909,0.35334,0.35456,0.35578,0.35611,0.35644,0.35543,0.35443,0.35142,0.34842,0.34286,0.3373,0.32924,0.32119,0.31181,0.30243,0.29191,0.2814,0.26495,0.2485,0.23843,0.22837,0.18734,0.17224,0.16443,0.15663,0.14587,0.13511,0.12528,0.11544,0.10676,0.09807,0.090605,0.08314,0.076456,0.069772,0.064205,0.058639,0.053639,0.04864,0.044935,0.04123,0.038503,0.035776,0.033261,0.030745,0.02833,0.025914,0.02388,0.021846,0.020152,0.018458
0.017623,0.01889,0.020157,0.021966,0.023776,0.026236,0.028696,0.031837,0.034979,0.036368,0.037756,0.041679,0.045601,0.049561,0.053521,0.058116,0.062711,0.068975,0.075238,0.081496,0.087753,0.094988,0.10222,0.11024,0.11825,0.12677,0.1353,0.14427,0.15324,0.16239,0.19672,0.20073,0.20475,0.22215,0.23956,0.24775,0.25594,0.263,0.27007,0.27698,0.28388,0.28937,0.29485,0.29792,0.30099,0.30255,0.30412,0.30461,0.3051,0.30493,0.30475,0.3044,0.30404,0.29731,0.29058,0.29058,0.29058,0.29731,0.30404,0.3044,0.30475,0.30493,0.3051,0.30461,0.30412,0.30255,0.30099,0.29792,0.29485,0.28937,0.28388,0.27698,0.27007,0.263,0.25594,0.24775,0.23956,0.22215,0.20475,0.20073,0.19672,0.16239,0.15324,0.14427,0.1353,0.12677,0.11825,0.11024,0.10222,0.094988,0.087753,0.081496,0.075238,0.068975,0.062711,0.058116,0.053521,0.049561,0.045601,0.041679,0.037756,0.036368,0.034979,0.031837,0.028696,0.026236,0.023776,0.021966,0.020157,0.01889,0.017623
0.016772,0.018254,0.019737,0.02142,0.023103,0.025163,0.027223,0.029596,0.031969,0.03382,0.03567,0.038727,0.041785,0.045284,0.048783,0.052805,0.056827,0.06193,0.067032,0.073414,0.079796,0.085966,0.092137,0.098951,0.10577,0.11302,0.12027,0.12781,0.13535,0.14296,0.1737,0.17946,0.18523,0.19752,0.20981,0.21748,0.22516,0.22805,0.23095,0.23622,0.24149,0.24603,0.25056,0.25425,0.25794,0.2598,0.26167,0.26575,0.26984,0.27006,0.27027,0.27017,0.27007,0.26671,0.26335,0.26335,0.26335,0.26671,0.27007,0.27017,0.27027,0.27006,0.26984,0.26575,0.26167,0.2598,0.25794,0.25425,0.25056,0.24603,0.24149,0.23622,0.23095,0.22805,0.22516,0.21748,0.20981,0.19752,0.18523,0.17946,0.1737,0.14296,0.13535,0.12781,0.12027,0.11302,0.10577,0.098951,0.092137,0.085966,0.079796,0.073414,0.067032,0.06193,0.056827,0.052805,0.048783,0.045284,0.041785,0.038727,0.03567,0.03382,0.031969,0.029596,0.027223,0.025163,0.023103,0.02142,0.019737,0.018254,0.016772
0.015921,0.017619,0.019316,0.020873,0.02243,0.02409,0.025751,0.027355,0.02896,0.031272,0.033585,0.035776,0.037968,0.041006,0.044045,0.047494,0.050943,0.054885,0.058826,0.065332,0.071839,0.076944,0.08205,0.087666,0.093282,0.099259,0.10524,0.11134,0.11745,0.12354,0.15068,0.15819,0.16571,0.17288,0.18005,0.18722,0.19438,0.1931,0.19182,0.19546,0.1991,0.20268,0.20626,0.21058,0.21489,0.21705,0.21922,0.2269,0.23458,0.23519,0.23579,0.23594,0.23609,0.2361,0.23611,0.23611,0.23611,0.2361,0.23609,0.23594,0.23579,0.23519,0.23458,0.2269,0.21922,0.21705,0.21489,0.21058,0.20626,0.20268,0.1991,0.19546,0.19182,0.1931,0.19438,0.18722,0.18005,0.17288,0.16571,0.15819,0.15068,0.12354,0.11745,0.11134,0.10524,0.099259,0.093282,0.087666,0.08205,0.076944,0.071839,0.065332,0.058826,0.054885,0.050943,0.047494,0.044045,0.041006,0.037968,0.035776,0.033585,0.031272,0.02896,0.027355,0.025751,0.02409,0.02243,0.020873,0.019316,0.017619,0.015921
0.015011,0.01637,0.017729,0.019246,0.020763,0.022413,0.024063,0.02604,0.028018,0.030086,0.032154,0.033944,0.035733,0.03851,0.041286,0.044425,0.047563,0.051112,0.054661,0.059642,0.064623,0.069043,0.073464,0.078797,0.08413,0.089176,0.094222,0.099424,0.10463,0.10976,0.13537,0.14184,0.14831,0.15463,0.16095,0.16671,0.17247,0.17408,0.17569,0.179,0.18231,0.18557,0.18882,0.19212,0.19542,0.19755,0.19968,0.2044,0.20912,0.20979,0.21047,0.21082,0.21118,0.21106,0.21095,0.21095,0.21095,0.21106,0.21118,0.21082,0.21047,0.20979,0.20912,0.2044,0.19968,0.19755,0.19542,0.19212,0.18882,0.18557,0.18231,0.179,0.17569,0.17408,0.17247,0.16671,0.16095,0.15463,0.14831,0.14184,0.13537,0.10976,0.10463,0.099424,0.094222,0.089176,0.08413,0.078797,0.073464,0.069043,0.064623,0.059642,0.054661,0.051112,0.047563,0.044425,0.041286,0.03851,0.035733,0.033944,0.032154,0.030086,0.028018,0.02604,0.024063,0.022413,0.020763,0.019246,0.017729,0.01637,0.015011
0.014101,0.015121,0.016141,0.017619,0.019096,0.020735,0.022375,0.024725,0.027076,0.0289,0.030724,0.032111,0.033497,0.036013,0.038528,0.041355,0.044182,0.047338,0.050495,0.053951,0.057406,0.061142,0.064878,0.069927,0.074977,0.079092,0.083208,0.087504,0.0918,0.095991,0.12006,0.12548,0.13091,0.13638,0.14185,0.1462,0.15055,0.15505,0.15955,0.16253,0.16551,0.16845,0.17138,0.17367,0.17595,0.17805,0.18014,0.18189,0.18365,0.1844,0.18514,0.18571,0.18627,0.18603,0.18579,0.18579,0.18579,0.18603,0.18627,0.18571,0.18514,0.1844,0.18365,0.18189,0.18014,0.17805,0.17595,0.17367,0.17138,0.16845,0.16551,0.16253,0.15955,0.15505,0.15055,0.1462,0.14185,0.13638,0.13091,0.12548,0.12006,0.095991,0.0918,0.087504,0.083208,0.079092,0.074977,0.069927,0.064878,0.061142,0.057406,0.053951,0.050495,0.047338,0.044182,0.041355,0.038528,0.036013,0.033497,0.032111,0.030724,0.0289,0.027076,0.024725,0.022375,0.020735,0.019096,0.017619,0.016141,0.015121,0.014101
0.013489,0.014575,0.015661,0.016993,0.018325,0.019861,0.021397,0.022983,0.024569,0.026465,0.028361,0.030172,0.031982,0.033548,0.035113,0.037596,0.040079,0.042821,0.045564,0.048559,0.051554,0.054766,0.057979,0.062447,0.066914,0.070665,0.074417,0.078414,0.082411,0.085764,0.10757,0.11232,0.11706,0.12171,0.12636,0.1306,0.13484,0.13867,0.14249,0.14555,0.14862,0.15055,0.15249,0.15454,0.15658,0.15876,0.16093,0.1618,0.16267,0.16413,0.16559,0.16648,0.16737,0.16741,0.16744,0.16744,0.16744,0.16741,0.16737,0.16648,0.16559,0.16413,0.16267,0.1618,0.16093,0.15876,0.15658,0.15454,0.15249,0.15055,0.14862,0.14555,0.14249,0.13867,0.13484,0.1306,0.12636,0.12171,0.11706,0.11232,0.10757,0.085764,0.082411,0.078414,0.074417,0.070665,0.066914,0.062447,0.057979,0.054766,0.051554,0.048559,0.045564,0.042821,0.040079,0.037596,0.035113,0.033548,0.031982,0.030172,0.028361,0.026465,0.024569,0.022983,0.021397,0.019861,0.018325,0.016993,0.015661,0.014575,0.013489
0.012877,0.014029,0.015181,0.016368,0.017554,0.018987,0.02042,0.021241,0.022062,0.02403,0.025998,0.028232,0.030466,0.031082,0.031698,0.033837,0.035975,0.038304,0.040633,0.043167,0.045701,0.048391,0.05108,0.054966,0.058851,0.062238,0.065625,0.069323,0.073022,0.075537,0.09509,0.099147,0.1032,0.10704,0.11088,0.11501,0.11914,0.12229,0.12543,0.12858,0.13172,0.13266,0.13359,0.1354,0.13721,0.13947,0.14172,0.1417,0.14169,0.14386,0.14604,0.14726,0.14848,0.14878,0.14908,0.14908,0.14908,0.14878,0.14848,0.14726,0.14604,0.14386,0.14169,0.1417,0.14172,0.13947,0.13721,0.1354,0.13359,0.13266,0.13172,0.12858,0.12543,0.12229,0.11914,0.11501,0.11088,0.10704,0.1032,0.099147,0.09509,0.075537,0.073022,0.069323,0.065625,0.062238,0.058851,0.054966,0.05108,0.048391,0.045701,0.043167,0.040633,0.038304,0.035975,0.033837,0.031698,0.031082,0.030466,0.028232,0.025998,0.02403,0.022062,0.021241,0.02042,0.018987,0.017554,0.016368,0.015181,0.014029,0.012877
0.012122,0.013058,0.013995,0.01505,0.016104,0.017441,0.018778,0.020101,0.021425,0.022942,0.024459,0.02622,0.02798,0.029514,0.031049,0.032998,0.034948,0.036402,0.037856,0.040141,0.042426,0.044854,0.047282,0.049904,0.052525,0.055769,0.059013,0.061964,0.064915,0.067235,0.085522,0.089762,0.094002,0.097414,0.10083,0.10409,0.10735,0.11024,0.11314,0.1158,0.11846,0.12029,0.12212,0.1235,0.12487,0.1259,0.12692,0.12776,0.12861,0.13001,0.13141,0.13221,0.13301,0.13291,0.13282,0.13282,0.13282,0.13291,0.13301,0.13221,0.13141,0.13001,0.12861,0.12776,0.12692,0.1259,0.12487,0.1235,0.12212,0.12029,0.11846,0.1158,0.11314,0.11024,0.10735,0.10409,0.10083,0.097414,0.094002,0.089762,0.085522,0.067235,0.064915,0.061964,0.059013,0.055769,0.052525,0.049904,0.047282,0.044854,0.042426,0.040141,0.037856,0.036402,0.034948,0.032998,0.031049,0.029514,0.02798,0.02622,0.024459,0.022942,0.021425,0.020101,0.018778,0.017441,0.016104,0.01505,0.013995,0.013058,0.012122
0.011367,0.012088,0.012809,0.013731,0.014654,0.015895,0.017136,0.018962,0.020787,0.021854,0.02292,0.024207,0.025493,0.027946,0.030399,0.03216,0.033921,0.0345,0.035079,0.037115,0.039151,0.041318,0.043484,0.044842,0.046199,0.0493,0.0524,0.054605,0.056809,0.058932,0.075954,0.080377,0.0848,0.087788,0.090777,0.093166,0.095555,0.098197,0.10084,0.10302,0.1052,0.10792,0.11064,0.11159,0.11253,0.11232,0.11211,0.11382,0.11553,0.11616,0.11678,0.11715,0.11753,0.11704,0.11656,0.11656,0.11656,0.11704,0.11753,0.11715,0.11678,0.11616,0.11553,0.11382,0.11211,0.11232,0.11253,0.11159,0.11064,0.10792,0.1052,0.10302,0.10084,0.098197,0.095555,0.093166,0.090777,0.087788,0.0848,0.080377,0.075954,0.058932,0.056809,0.054605,0.0524,0.0493,0.046199,0.044842,0.043484,0.041318,0.039151,0.037115,0.035079,0.0345,0.033921,0.03216,0.030399,0.027946,0.025493,0.024207,0.02292,0.021854,0.020787,0.018962,0.017136,0.015895,0.014654,0.013731,0.012809,0.012088,0.011367
0.010864,0.01164,0.012416,0.013298,0.01418,0.015214,0.016249,0.017498,0.018748,0.019948,0.021148,0.022538,0.023929,0.025516,0.027102,0.028687,0.030271,0.031792,0.033313,0.034307,0.035301,0.037173,0.039045,0.040882,0.042719,0.044758,0.046797,0.048637,0.050476,0.052282,0.067992,0.071297,0.074603,0.077143,0.079683,0.082097,0.084511,0.086715,0.088919,0.091898,0.094877,0.096705,0.098533,0.10003,0.10153,0.1023,0.10308,0.10229,0.1015,0.10207,0.10264,0.103,0.10337,0.10377,0.10418,0.10418,0.10418,0.10377,0.10337,0.103,0.10264,0.10207,0.1015,0.10229,0.10308,0.1023,0.10153,0.10003,0.098533,0.096705,0.094877,0.091898,0.088919,0.086715,0.084511,0.082097,0.079683,0.077143,0.074603,0.071297,0.067992,0.052282,0.050476,0.048637,0.046797,0.044758,0.042719,0.040882,0.039045,0.037173,0.035301,0.034307,0.033313,0.031792,0.030271,0.028687,0.027102,0.025516,0.023929,0.022538,0.021148,0.019948,0.018748,0.017498,0.016249,0.015214,0.01418,0.013298,0.012416,0.01164,0.010864
0.010361,0.011192,0.012024,0.012865,0.013705,0.014533,0.015361,0.016035,0.016709,0.018042,0.019375,0.02087,0.022365,0.023085,0.023806,0.025213,0.026621,0.029084,0.031547,0.031499,0.031451,0.033029,0.034606,0.036922,0.039238,0.040216,0.041193,0.042669,0.044144,0.045632,0.060029,0.062217,0.064406,0.066497,0.068589,0.071028,0.073468,0.075233,0.076998,0.080776,0.084554,0.08549,0.086426,0.088472,0.090518,0.092286,0.094054,0.090761,0.087467,0.087984,0.0885,0.088855,0.08921,0.090505,0.0918,0.0918,0.0918,0.090505,0.08921,0.088855,0.0885,0.087984,0.087467,0.090761,0.094054,0.092286,0.090518,0.088472,0.086426,0.08549,0.084554,0.080776,0.076998,0.075233,0.073468,0.071028,0.068589,0.066497,0.064406,0.062217,0.060029,0.045632,0.044144,0.042669,0.041193,0.040216,0.039238,0.036922,0.034606,0.033029,0.031451,0.031499,0.031547,0.029084,0.026621,0.025213,0.023806,0.023085,0.022365,0.02087,0.019375,0.018042,0.016709,0.016035,0.015361,0.014533,0.013705,0.012865,0.012024,0.011192,0.010361
0.009426,0.010257,0.011089,0.011835,0.012581,0.013429,0.014278,0.015015,0.015751,0.01698,0.018209,0.019395,0.02058,0.02173,0.022879,0.024204,0.02553,0.02711,0.028689,0.029713,0.030737,0.032272,0.033806,0.034511,0.035215,0.036685,0.038155,0.039472,0.040788,0.042127,0.055939,0.057961,0.059982,0.061923,0.063864,0.065821,0.067777,0.069425,0.071072,0.07366,0.076249,0.077588,0.078926,0.080227,0.081527,0.082556,0.083586,0.082986,0.082386,0.082971,0.083557,0.083865,0.084173,0.083709,0.083245,0.083245,0.083245,0.083709,0.084173,0.083865,0.083557,0.082971,0.082386,0.082986,0.083586,0.082556,0.081527,0.080227,0.078926,0.077588,0.076249,0.07366,0.071072,0.069425,0.067777,0.065821,0.063864,0.061923,0.059982,0.057961,0.055939,0.042127,0.040788,0.039472,0.038155,0.036685,0.035215,0.034511,0.033806,0.032272,0.030737,0.029713,0.028689,0.02711,0.02553,0.024204,0.022879,0.02173,0.02058,0.019395,0.018209,0.01698,0.015751,0.015015,0.014278,0.013429,0.012581,0.011835,0.011089,0.010257,0.009426
0.0084914,0.0093226,0.010154,0.010805,0.011456,0.012326,0.013195,0.013994,0.014794,0.015919,0.017044,0.01792,0.018796,0.020374,0.021953,0.023195,0.024438,0.025135,0.025832,0.027927,0.030023,0.031515,0.033007,0.0321,0.031192,0.033154,0.035116,0.036274,0.037432,0.038622,0.05185,0.053704,0.055558,0.057349,0.05914,0.060613,0.062087,0.063616,0.065146,0.066545,0.067944,0.069685,0.071427,0.071981,0.072536,0.072827,0.073118,0.075212,0.077306,0.077959,0.078613,0.078875,0.079136,0.076913,0.074691,0.074691,0.074691,0.076913,0.079136,0.078875,0.078613,0.077959,0.077306,0.075212,0.073118,0.072827,0.072536,0.071981,0.071427,0.069685,0.067944,0.066545,0.065146,0.063616,0.062087,0.060613,0.05914,0.057349,0.055558,0.053704,0.05185,0.038622,0.037432,0.036274,0.035116,0.033154,0.031192,0.0321,0.033007,0.031515,0.030023,0.027927,0.025832,0.025135,0.024438,0.023195,0.021953,0.020374,0.018796,0.01792,0.017044,0.015919,0.014794,0.013994,0.013195,0.012326,0.011456,0.010805,0.010154,0.0093226,0.0084914
0.0085487,0.0091835,0.0098182,0.01044,0.011062,0.012013,0.012964,0.013626,0.014287,0.015215,0.016143,0.017224,0.018305,0.019467,0.020629,0.021703,0.022778,0.023881,0.024984,0.026419,0.027855,0.02911,0.030366,0.030782,0.031199,0.032812,0.034425,0.035225,0.036025,0.036704,0.048714,0.050063,0.051412,0.053169,0.054926,0.056272,0.057619,0.058863,0.060108,0.061521,0.062934,0.064067,0.0652,0.06617,0.067141,0.067712,0.068284,0.069241,0.070197,0.070781,0.071366,0.072424,0.073483,0.073037,0.072592,0.072592,0.072592,0.073037,0.073483,0.072424,0.071366,0.070781,0.070197,0.069241,0.068284,0.067712,0.067141,0.06617,0.0652,0.064067,0.062934,0.061521,0.060108,0.058863,0.057619,0.056272,0.054926,0.053169,0.051412,0.050063,0.048714,0.036704,0.036025,0.035225,0.034425,0.032812,0.031199,0.030782,0.030366,0.02911,0.027855,0.026419,0.024984,0.023881,0.022778,0.021703,0.020629,0.019467,0.018305,0.017224,0.016143,0.015215,0.014287,0.013626,0.012964,0.012013,0.011062,0.01044,0.0098182,0.0091835,0.0085487
0.008606,0.0090443,0.0094826,0.010075,0.010668,0.011701,0.012734,0.013258,0.013781,0.014512,0.015242,0.016528,0.017815,0.01856,0.019305,0.020211,0.021117,0.022626,0.024136,0.024911,0.025686,0.026705,0.027724,0.029465,0.031206,0.03247,0.033734,0.034176,0.034618,0.034786,0.045579,0.046422,0.047265,0.048988,0.050712,0.051931,0.05315,0.05411,0.05507,0.056497,0.057924,0.058449,0.058973,0.060359,0.061745,0.062598,0.063451,0.06327,0.063088,0.063603,0.064118,0.065974,0.067829,0.069162,0.070494,0.070494,0.070494,0.069162,0.067829,0.065974,0.064118,0.063603,0.063088,0.06327,0.063451,0.062598,0.061745,0.060359,0.058973,0.058449,0.057924,0.056497,0.05507,0.05411,0.05315,0.051931,0.050712,0.048988,0.047265,0.046422,0.045579,0.034786,0.034618,0.034176,0.033734,0.03247,0.031206,0.029465,0.027724,0.026705,0.025686,0.024911,0.024136,0.022626,0.021117,0.020211,0.019305,0.01856,0.017815,0.016528,0.015242,0.014512,0.013781,0.013258,0.012734,0.011701,0.010668,0.010075,0.0094826,0.0090443,0.008606
