0.015574,0.016387,0.017201,0.017738,0.018275,0.017756,0.017236,0.020214,0.023192,0.02448,0.025768,0.026202,0.026635,0.029007,0.031379,0.031771,0.032163,0.035069,0.037976,0.038198,0.038421,0.040024,0.041627,0.045249,0.048871,0.050655,0.052439,0.05417,0.055901,0.054785,0.071255,0.071392,0.071528,0.074752,0.077976,0.083062,0.088147,0.086888,0.08563,0.09032,0.095011,0.096626,0.098241,0.099672,0.1011,0.10199,0.10287,0.10378,0.10468,0.10184,0.099007,0.099547,0.10009,0.10002,0.099951,0.099805,0.09966,0.098947,0.098235,0.099764,0.10129,0.098193,0.095094,0.094064,0.093034,0.091704,0.090374,0.090347,0.09032,0.087438,0.084555,0.083997,0.083439,0.081681,0.079924,0.077195,0.074467,0.072805,0.071142,0.068031,0.06492,0.046704,0.045694,0.045021,0.044347,0.043067,0.041788,0.039751,0.037715,0.036604,0.035494,0.034182,0.03287,0.032006,0.031142,0.029527,0.027912,0.027087,0.026261,0.024836,0.023411,0.022687,0.021963,0.021084,0.020205,0.017794,0.015384,0.01596,0.016536,0.016034,0.015532
0.016016,0.016873,0.017729,0.017744,0.017759,0.018739,0.019718,0.021824,0.023931,0.025285,0.026638,0.028152,0.029666,0.031124,0.032582,0.034409,0.036236,0.037927,0.039617,0.041746,0.043875,0.045867,0.047859,0.049598,0.051338,0.053235,0.055132,0.057008,0.058884,0.060998,0.080699,0.08242,0.084142,0.087182,0.090222,0.09191,0.093598,0.095373,0.097148,0.097608,0.098068,0.099704,0.10134,0.10208,0.10282,0.10453,0.10623,0.10719,0.10815,0.1103,0.11246,0.11212,0.11178,0.11246,0.11314,0.11259,0.11204,0.11122,0.1104,0.109,0.10759,0.10656,0.10553,0.10242,0.099309,0.097567,0.095824,0.093897,0.091971,0.090258,0.088545,0.086504,0.084463,0.084182,0.083902,0.080307,0.076712,0.076232,0.075753,0.072637,0.069521,0.048687,0.04752,0.046285,0.04505,0.043636,0.042221,0.039594,0.036966,0.036583,0.0362,0.034814,0.033428,0.032205,0.030981,0.029579,0.028176,0.027076,0.025976,0.023938,0.0219,0.021703,0.021505,0.02061,0.019715,0.0179,0.016084,0.016188,0.016292,0.015664,0.015037
0.016459,0.017358,0.018258,0.01775,0.017242,0.019721,0.0222,0.023435,0.02467,0.026089,0.027508,0.030103,0.032697,0.033241,0.033784,0.037047,0.040309,0.040784,0.041259,0.045294,0.049328,0.051709,0.05409,0.053947,0.053805,0.055815,0.057825,0.059846,0.061868,0.067212,0.090142,0.093449,0.096756,0.099612,0.10247,0.10076,0.099048,0.10386,0.10867,0.1049,0.10113,0.10278,0.10444,0.10449,0.10454,0.10707,0.10959,0.11061,0.11162,0.11876,0.12591,0.12469,0.12346,0.12489,0.12632,0.12537,0.12442,0.1235,0.12257,0.11823,0.11389,0.11493,0.11597,0.11078,0.10559,0.10343,0.10127,0.097448,0.093621,0.093078,0.092535,0.089011,0.085487,0.086683,0.08788,0.083418,0.078956,0.079659,0.080363,0.077243,0.074123,0.05067,0.049346,0.04755,0.045754,0.044204,0.042654,0.039436,0.036218,0.036563,0.036907,0.035446,0.033986,0.032404,0.030821,0.029631,0.02844,0.027066,0.025691,0.02304,0.020389,0.020719,0.021048,0.020137,0.019225,0.018005,0.016785,0.016417,0.016049,0.015295,0.014541
0.017587,0.017633,0.017679,0.018695,0.019712,0.021992,0.024272,0.025734,0.027196,0.028853,0.030509,0.032206,0.033903,0.035973,0.038044,0.040043,0.042043,0.044569,0.047096,0.049401,0.051706,0.054249,0.056791,0.059778,0.062765,0.065373,0.067981,0.07003,0.07208,0.072867,0.092654,0.095622,0.098591,0.10154,0.10449,0.10503,0.10556,0.10977,0.11399,0.11272,0.11145,0.11325,0.11505,0.11659,0.11813,0.11926,0.12038,0.12138,0.12237,0.12624,0.13011,0.13065,0.13118,0.13044,0.12969,0.12878,0.12786,0.12837,0.12888,0.12757,0.12626,0.12398,0.12169,0.11971,0.11773,0.11555,0.11336,0.11126,0.10915,0.10659,0.10403,0.10169,0.099357,0.096773,0.094188,0.091643,0.089097,0.086425,0.083753,0.081179,0.078606,0.052929,0.051513,0.049677,0.047841,0.046181,0.044522,0.043018,0.041514,0.039911,0.038308,0.036765,0.035221,0.03359,0.031958,0.030665,0.029372,0.027956,0.02654,0.0246,0.02266,0.022233,0.021805,0.020855,0.019905,0.018994,0.018082,0.017278,0.016473,0.015703,0.014933
0.018715,0.017907,0.0171,0.019641,0.022182,0.024263,0.026344,0.028034,0.029723,0.031617,0.033511,0.034309,0.035108,0.038706,0.042304,0.04304,0.043777,0.048354,0.052932,0.053508,0.054084,0.056789,0.059493,0.065609,0.071724,0.07493,0.078137,0.080215,0.082293,0.078522,0.095165,0.097795,0.10043,0.10347,0.10652,0.10929,0.11207,0.11569,0.11931,0.12054,0.12178,0.12372,0.12565,0.12869,0.13172,0.13145,0.13117,0.13215,0.13313,0.13372,0.1343,0.13661,0.13891,0.13598,0.13306,0.13218,0.1313,0.13325,0.1352,0.13692,0.13864,0.13303,0.12742,0.12865,0.12988,0.12766,0.12544,0.12506,0.12469,0.12011,0.11553,0.11438,0.11323,0.10686,0.1005,0.099868,0.099238,0.093191,0.087144,0.085116,0.083088,0.055188,0.05368,0.051804,0.049928,0.048158,0.046389,0.0466,0.046811,0.04326,0.03971,0.038083,0.036456,0.034776,0.033095,0.0317,0.030305,0.028847,0.027389,0.02616,0.024931,0.023747,0.022562,0.021574,0.020585,0.019982,0.01938,0.018139,0.016898,0.016111,0.015325
0.019252,0.019383,0.019513,0.021826,0.024139,0.025648,0.027158,0.028932,0.030705,0.032711,0.034716,0.037041,0.039365,0.041722,0.044079,0.046993,0.049907,0.052652,0.055396,0.059002,0.062607,0.066067,0.069527,0.071116,0.072704,0.075969,0.079235,0.081966,0.084697,0.084415,0.10523,0.10886,0.1125,0.11638,0.12026,0.12345,0.12664,0.12965,0.13265,0.1354,0.13816,0.14051,0.14286,0.14454,0.14622,0.1479,0.14957,0.15068,0.15179,0.15238,0.15298,0.15266,0.15234,0.15219,0.15203,0.1511,0.15017,0.1505,0.15084,0.15078,0.15072,0.14983,0.14894,0.14604,0.14314,0.14026,0.13738,0.1342,0.13101,0.12818,0.12535,0.12208,0.11881,0.11646,0.11411,0.1102,0.10629,0.1036,0.10092,0.097481,0.094046,0.064926,0.062999,0.06074,0.058481,0.056216,0.05395,0.051418,0.048886,0.047127,0.045368,0.04333,0.041292,0.03934,0.037388,0.035653,0.033918,0.032234,0.030551,0.029087,0.027624,0.025577,0.02353,0.022996,0.022461,0.021234,0.020006,0.019067,0.018127,0.017251,0.016375
0.019789,0.020858,0.021927,0.024011,0.026095,0.027033,0.027971,0.02983,0.031688,0.033805,0.035921,0.039772,0.043622,0.044739,0.045855,0.050946,0.056037,0.056949,0.05786,0.064495,0.07113,0.075346,0.079562,0.076623,0.073683,0.077008,0.080333,0.083718,0.087102,0.090308,0.1153,0.11993,0.12457,0.12928,0.134,0.13761,0.14122,0.14361,0.146,0.15026,0.15453,0.1573,0.16007,0.1604,0.16073,0.16435,0.16797,0.16921,0.17045,0.17105,0.17165,0.16871,0.16577,0.16839,0.171,0.17002,0.16904,0.16776,0.16649,0.16464,0.1628,0.16663,0.17046,0.16343,0.15639,0.15286,0.14933,0.14333,0.13733,0.13625,0.13516,0.12978,0.1244,0.12606,0.12773,0.12053,0.11333,0.11401,0.11469,0.10985,0.105,0.074663,0.072318,0.069676,0.067034,0.064273,0.061512,0.056236,0.050961,0.050994,0.051026,0.048577,0.046128,0.043904,0.041681,0.039606,0.03753,0.035622,0.033713,0.032015,0.030317,0.027407,0.024498,0.024418,0.024338,0.022485,0.020633,0.019994,0.019356,0.018391,0.017426
0.021087,0.022399,0.023711,0.02528,0.026849,0.02877,0.030691,0.032853,0.035016,0.037529,0.040042,0.042708,0.045374,0.048711,0.052047,0.055322,0.058596,0.062793,0.066989,0.069535,0.07208,0.076385,0.08069,0.081491,0.082293,0.08633,0.090368,0.094331,0.098294,0.10217,0.1296,0.13482,0.14003,0.14485,0.14966,0.154,0.15834,0.16249,0.16664,0.17017,0.1737,0.1766,0.1795,0.18207,0.18464,0.18619,0.18773,0.18874,0.18975,0.19008,0.19041,0.19055,0.19068,0.18939,0.1881,0.1866,0.1851,0.18695,0.18881,0.18835,0.18789,0.18857,0.18926,0.18439,0.17952,0.17753,0.17554,0.17214,0.16874,0.16471,0.16068,0.1568,0.15293,0.15129,0.14966,0.1427,0.13574,0.13199,0.12824,0.1237,0.11915,0.082382,0.076237,0.073372,0.070507,0.067538,0.06457,0.061976,0.059383,0.056343,0.053303,0.050692,0.048081,0.045714,0.043346,0.041143,0.038941,0.036923,0.034906,0.033115,0.031323,0.02942,0.027517,0.02631,0.025103,0.023716,0.022328,0.021139,0.01995,0.018936,0.017922
0.022384,0.02394,0.025495,0.026549,0.027603,0.030507,0.03341,0.035877,0.038344,0.041253,0.044163,0.045644,0.047125,0.052683,0.05824,0.059698,0.061156,0.068637,0.076118,0.074574,0.07303,0.077424,0.081818,0.08636,0.090902,0.095652,0.1004,0.10494,0.10949,0.11403,0.14389,0.1497,0.1555,0.16041,0.16532,0.17039,0.17546,0.18137,0.18728,0.19007,0.19287,0.1959,0.19892,0.20374,0.20856,0.20803,0.2075,0.20828,0.20906,0.20912,0.20918,0.21238,0.21559,0.21039,0.2052,0.20318,0.20116,0.20615,0.21113,0.21206,0.21298,0.21051,0.20805,0.20535,0.20264,0.2022,0.20175,0.20095,0.20015,0.19317,0.1862,0.18383,0.18147,0.17652,0.17158,0.16486,0.15814,0.14997,0.1418,0.13755,0.1333,0.0901,0.080155,0.077068,0.07398,0.070804,0.067627,0.067716,0.067805,0.061693,0.05558,0.052807,0.050035,0.047523,0.045012,0.042681,0.040351,0.038225,0.0361,0.034214,0.032329,0.031433,0.030536,0.028203,0.025869,0.024946,0.024023,0.022283,0.020543,0.019481,0.018418
0.02291,0.02453,0.026151,0.028084,0.030017,0.032228,0.03444,0.037042,0.039644,0.042726,0.045807,0.049432,0.053057,0.056941,0.060826,0.065652,0.070477,0.073787,0.077097,0.079131,0.081165,0.086345,0.091525,0.096973,0.10242,0.10817,0.11391,0.11952,0.12513,0.13061,0.16306,0.16999,0.17693,0.18239,0.18786,0.19462,0.20139,0.20695,0.21251,0.21769,0.22287,0.22663,0.23039,0.23333,0.23627,0.23838,0.24049,0.2414,0.24231,0.24245,0.2426,0.24388,0.24516,0.24421,0.24326,0.24155,0.23984,0.24125,0.24266,0.24198,0.2413,0.23864,0.23598,0.23297,0.22996,0.22792,0.22589,0.22348,0.22108,0.21768,0.21428,0.20881,0.20334,0.19776,0.19219,0.18636,0.18053,0.17266,0.16479,0.15851,0.15223,0.11039,0.10278,0.09822,0.093663,0.087087,0.080512,0.075821,0.07113,0.067896,0.064662,0.061182,0.057703,0.05458,0.051457,0.048576,0.045694,0.043121,0.040547,0.038267,0.035987,0.03432,0.032653,0.03046,0.028268,0.026543,0.024818,0.023444,0.022069,0.020869,0.019668
0.023435,0.025121,0.026807,0.029619,0.03243,0.03395,0.03547,0.038207,0.040945,0.044198,0.047452,0.05322,0.058988,0.0612,0.063412,0.071605,0.079799,0.078938,0.078077,0.083688,0.089299,0.095266,0.10123,0.10759,0.11394,0.12068,0.12742,0.1341,0.14078,0.14719,0.18222,0.19029,0.19835,0.20438,0.2104,0.21886,0.22731,0.23252,0.23774,0.2453,0.25287,0.25737,0.26186,0.26292,0.26398,0.26873,0.27348,0.27452,0.27556,0.27579,0.27603,0.27538,0.27472,0.27802,0.28132,0.27992,0.27852,0.27636,0.27419,0.2719,0.26962,0.26677,0.26392,0.26059,0.25727,0.25365,0.25003,0.24602,0.24201,0.24219,0.24237,0.23379,0.22521,0.219,0.21279,0.20786,0.20292,0.19536,0.18779,0.17947,0.17116,0.13068,0.1254,0.11937,0.11335,0.10337,0.093396,0.083926,0.074455,0.074099,0.073743,0.069557,0.065371,0.061636,0.057902,0.05447,0.051038,0.048016,0.044994,0.042319,0.039644,0.037207,0.03477,0.032718,0.030667,0.02814,0.025614,0.024605,0.023595,0.022256,0.020918
0.025092,0.026996,0.0289,0.031115,0.03333,0.036086,0.038843,0.04205,0.045258,0.049122,0.052986,0.057197,0.061408,0.066922,0.072437,0.076593,0.080749,0.083599,0.086449,0.093084,0.099719,0.10692,0.11412,0.12191,0.1297,0.13784,0.14597,0.15382,0.16168,0.16975,0.20803,0.21751,0.22699,0.23561,0.24424,0.25377,0.26331,0.2717,0.28008,0.2873,0.29452,0.30005,0.30558,0.30954,0.3135,0.31471,0.31593,0.31908,0.32222,0.32292,0.32362,0.32257,0.32151,0.32224,0.32297,0.32075,0.31854,0.31549,0.31243,0.31053,0.30863,0.30545,0.30227,0.29893,0.29559,0.29153,0.28746,0.2831,0.27873,0.27584,0.27294,0.26747,0.26199,0.25437,0.24676,0.23877,0.23078,0.22206,0.21333,0.20442,0.1955,0.15044,0.14377,0.13649,0.1292,0.12,0.11079,0.10201,0.093218,0.085351,0.077483,0.072941,0.068399,0.064409,0.060419,0.056757,0.053095,0.049882,0.046668,0.043838,0.041007,0.038451,0.035895,0.033735,0.031575,0.029703,0.027832,0.026083,0.024335,0.022923,0.021511
0.026748,0.028871,0.030993,0.032611,0.034229,0.038222,0.042215,0.045893,0.049572,0.054045,0.058519,0.061173,0.063827,0.072644,0.081462,0.08158,0.081699,0.08826,0.094821,0.10248,0.11014,0.11857,0.127,0.13623,0.14547,0.155,0.16453,0.17355,0.18258,0.19231,0.23384,0.24473,0.25562,0.26685,0.27807,0.28869,0.29932,0.31087,0.32243,0.3293,0.33618,0.34274,0.3493,0.35616,0.36301,0.3607,0.35838,0.36364,0.36889,0.37005,0.37121,0.36975,0.3683,0.36646,0.36462,0.36159,0.35856,0.35461,0.35066,0.34915,0.34764,0.34413,0.34063,0.33728,0.33392,0.32941,0.3249,0.32018,0.31546,0.30949,0.30352,0.30115,0.29877,0.28975,0.28072,0.26968,0.25865,0.24876,0.23887,0.22936,0.21985,0.1702,0.16215,0.1536,0.14505,0.13662,0.12819,0.12008,0.11198,0.096602,0.081224,0.076326,0.071427,0.067182,0.062937,0.059045,0.055153,0.051748,0.048343,0.045356,0.042369,0.039695,0.03702,0.034752,0.032484,0.031266,0.030049,0.027562,0.025074,0.023589,0.022105
0.027333,0.029539,0.031744,0.034434,0.037124,0.040299,0.043474,0.047354,0.051234,0.055937,0.060639,0.066404,0.072169,0.077276,0.082382,0.086271,0.09016,0.097908,0.10566,0.11489,0.12412,0.13456,0.14499,0.15629,0.16758,0.17977,0.19196,0.20414,0.21633,0.22935,0.27503,0.29027,0.30552,0.32021,0.33489,0.34916,0.36343,0.37719,0.39096,0.40265,0.41434,0.42332,0.4323,0.43665,0.441,0.44258,0.44415,0.44446,0.44477,0.44192,0.43907,0.4355,0.43192,0.42837,0.42482,0.42099,0.41716,0.41278,0.40841,0.40538,0.40235,0.38495,0.36756,0.36255,0.35755,0.35194,0.34633,0.34041,0.33448,0.32758,0.32068,0.315,0.30931,0.30085,0.29239,0.28248,0.27256,0.27566,0.27875,0.26524,0.25174,0.19856,0.18819,0.17754,0.1669,0.15648,0.14606,0.13632,0.12659,0.11398,0.10138,0.092713,0.084044,0.078493,0.072941,0.068056,0.063171,0.058916,0.05466,0.051007,0.047354,0.044145,0.040936,0.038274,0.035613,0.033233,0.030854,0.028949,0.027045,0.02532,0.023595
0.027918,0.030207,0.032496,0.036257,0.040018,0.042375,0.044733,0.048815,0.052897,0.057828,0.062759,0.071635,0.080512,0.081907,0.083302,0.090961,0.098621,0.10756,0.11649,0.1273,0.1381,0.15054,0.16298,0.17634,0.1897,0.20454,0.21939,0.23474,0.25008,0.26638,0.31622,0.33581,0.35541,0.37357,0.39172,0.40963,0.42754,0.44351,0.45949,0.476,0.49251,0.50391,0.51531,0.51715,0.51899,0.52445,0.52992,0.52528,0.52065,0.5138,0.50694,0.50124,0.49554,0.49028,0.48503,0.4804,0.47577,0.47096,0.46615,0.46161,0.45706,0.42577,0.39448,0.38783,0.38118,0.37447,0.36776,0.36064,0.35351,0.34568,0.33784,0.32884,0.31985,0.31195,0.30406,0.29527,0.28648,0.30255,0.31863,0.30112,0.28362,0.22693,0.21422,0.20149,0.18875,0.17634,0.16393,0.15256,0.14119,0.13137,0.12154,0.1091,0.096661,0.089804,0.082946,0.077068,0.07119,0.066084,0.060977,0.056658,0.052338,0.048595,0.044851,0.041797,0.038742,0.0352,0.031658,0.030337,0.029016,0.027051,0.025086
0.029788,0.032344,0.0349,0.037988,0.041075,0.044964,0.048853,0.053563,0.058273,0.064123,0.069973,0.075673,0.081372,0.086271,0.091169,0.10013,0.1091,0.11997,0.13083,0.14339,0.15595,0.17266,0.18937,0.20806,0.22675,0.24743,0.2681,0.28923,0.31035,0.33284,0.39177,0.41796,0.44416,0.47017,0.49617,0.51913,0.54209,0.56418,0.58626,0.60277,0.61927,0.63424,0.6492,0.65533,0.66146,0.66532,0.66918,0.65984,0.6505,0.63605,0.62159,0.6093,0.59701,0.58773,0.57845,0.55696,0.53547,0.54379,0.55212,0.54691,0.5417,0.52451,0.50732,0.50373,0.50014,0.49775,0.49536,0.4914,0.48743,0.47914,0.47084,0.45987,0.4489,0.43866,0.42842,0.4116,0.39478,0.38874,0.38269,0.36104,0.33939,0.25734,0.22298,0.22202,0.22105,0.20506,0.18908,0.17496,0.16084,0.14898,0.13712,0.12494,0.11275,0.10303,0.093307,0.083777,0.074248,0.06883,0.063412,0.058816,0.054221,0.050268,0.046315,0.043104,0.039894,0.037164,0.034434,0.03208,0.029726,0.028127,0.026528
0.031658,0.034482,0.037305,0.039718,0.042132,0.047553,0.052974,0.058311,0.063649,0.070418,0.077187,0.07971,0.082233,0.090635,0.099036,0.10931,0.11958,0.13237,0.14517,0.15948,0.17379,0.19478,0.21577,0.23978,0.2638,0.29031,0.31682,0.34372,0.37061,0.39929,0.46732,0.50011,0.5329,0.56677,0.60063,0.62864,0.65665,0.68484,0.71303,0.72953,0.74604,0.76456,0.78309,0.79351,0.80393,0.80618,0.80844,0.7944,0.78036,0.7583,0.73624,0.71736,0.69848,0.68518,0.67188,0.63352,0.59517,0.61663,0.6381,0.63222,0.62634,0.62325,0.62016,0.61963,0.6191,0.62103,0.62295,0.62215,0.62135,0.61259,0.60384,0.59089,0.57795,0.56536,0.55277,0.52793,0.50308,0.47492,0.44676,0.42096,0.39517,0.28776,0.23174,0.24254,0.25335,0.23379,0.21422,0.19736,0.1805,0.1666,0.15271,0.14078,0.12884,0.11625,0.10367,0.090486,0.077305,0.071576,0.065846,0.060974,0.056103,0.051941,0.047778,0.044412,0.041045,0.039128,0.03721,0.033823,0.030435,0.029203,0.027971
0.032314,0.035239,0.038163,0.041816,0.045469,0.049962,0.054455,0.060047,0.065638,0.071739,0.07784,0.08348,0.089121,0.098903,0.10868,0.12098,0.13327,0.14875,0.16423,0.18434,0.20446,0.23279,0.26113,0.29497,0.32881,0.36518,0.40155,0.4359,0.47024,0.50792,0.58597,0.63455,0.68312,0.73113,0.77914,0.8167,0.85426,0.88201,0.90976,0.92875,0.94773,0.96571,0.98368,0.99627,1.0089,1.0118,1.0147,0.99966,0.98463,0.9564,0.92817,0.88686,0.84555,0.83589,0.82622,0.79657,0.76691,0.7694,0.7719,0.76664,0.76139,0.7613,0.76121,0.76698,0.77276,0.77834,0.78392,0.78292,0.78193,0.77007,0.75821,0.74264,0.72707,0.70988,0.69269,0.66584,0.63899,0.60306,0.56713,0.52862,0.49012,0.38774,0.33808,0.32319,0.3083,0.26555,0.2228,0.2164,0.21001,0.19205,0.17409,0.15939,0.1447,0.13119,0.11768,0.1052,0.092713,0.083822,0.07493,0.068947,0.062963,0.057958,0.052953,0.048967,0.044982,0.041595,0.038207,0.0355,0.032792,0.030916,0.02904
0.032971,0.035996,0.039021,0.043913,0.048806,0.052371,0.055937,0.061782,0.067627,0.07306,0.078493,0.08725,0.096008,0.10717,0.11833,0.13264,0.14695,0.16512,0.18329,0.20921,0.23512,0.27081,0.30649,0.35016,0.39383,0.44005,0.48628,0.52807,0.56987,0.61654,0.70463,0.76899,0.83334,0.89549,0.95765,1.0048,1.0519,1.0792,1.1065,1.128,1.1494,1.1669,1.1843,1.199,1.2138,1.2174,1.2209,1.2049,1.1889,1.1545,1.1201,1.0564,0.99262,0.98659,0.98057,0.95961,0.93865,0.92217,0.9057,0.90106,0.89643,0.89934,0.90225,0.91433,0.92642,0.93565,0.94488,0.94369,0.94251,0.92754,0.91258,0.89438,0.87619,0.8544,0.83261,0.80375,0.77489,0.73119,0.68749,0.63628,0.58507,0.48773,0.44442,0.40383,0.36325,0.29732,0.23138,0.23545,0.23952,0.21749,0.19546,0.178,0.16055,0.14612,0.13169,0.11991,0.10812,0.096068,0.084015,0.076919,0.069824,0.063976,0.058127,0.053523,0.048918,0.044062,0.039205,0.037177,0.03515,0.032629,0.030109
0.034986,0.038322,0.041657,0.045821,0.049984,0.055274,0.060565,0.067317,0.074069,0.079131,0.084193,0.094093,0.10399,0.11703,0.13006,0.14662,0.16319,0.18771,0.21223,0.24795,0.28366,0.33153,0.3794,0.43322,0.48705,0.54188,0.59671,0.64923,0.70174,0.76338,0.86981,0.9529,1.036,1.1115,1.187,1.2388,1.2905,1.3189,1.3472,1.3667,1.3861,1.4021,1.418,1.4365,1.4551,1.4675,1.4799,1.4701,1.4604,1.4138,1.3673,1.3234,1.2795,1.2536,1.2277,1.1983,1.1689,1.145,1.1211,1.1134,1.1056,1.1155,1.1253,1.1454,1.1654,1.1762,1.187,1.1822,1.1774,1.1571,1.1369,1.1129,1.089,1.0625,1.036,1.0013,0.96664,0.91563,0.86461,0.80436,0.74411,0.62757,0.56895,0.51363,0.45831,0.39631,0.33431,0.31219,0.29007,0.2593,0.22853,0.20563,0.18272,0.16472,0.14671,0.1327,0.11869,0.1056,0.092505,0.082397,0.072288,0.066158,0.060027,0.055169,0.050311,0.046386,0.042462,0.039218,0.035975,0.033364,0.030753
0.037002,0.040648,0.044293,0.047728,0.051163,0.058178,0.065193,0.072852,0.080512,0.085202,0.089893,0.10094,0.11198,0.12688,0.14179,0.16061,0.17943,0.2103,0.24118,0.28669,0.3322,0.39226,0.45231,0.51629,0.58026,0.64371,0.70715,0.77038,0.83361,0.91021,1.035,1.1368,1.2386,1.3275,1.4164,1.4728,1.5292,1.5585,1.5879,1.6054,1.6228,1.6373,1.6517,1.6741,1.6964,1.7176,1.7388,1.7353,1.7318,1.6732,1.6146,1.5905,1.5664,1.5206,1.4748,1.437,1.3992,1.3678,1.3365,1.3257,1.3148,1.3316,1.3484,1.3764,1.4044,1.4168,1.4292,1.4207,1.4122,1.3867,1.3612,1.3315,1.3018,1.2706,1.2393,1.1989,1.1584,1.1001,1.0417,0.97243,0.90314,0.76741,0.69349,0.62343,0.55337,0.4953,0.43723,0.38893,0.34063,0.30112,0.2616,0.23325,0.2049,0.18332,0.16174,0.1455,0.12926,0.11513,0.101,0.087874,0.074752,0.06834,0.061927,0.056815,0.051703,0.048711,0.045718,0.041259,0.0368,0.034099,0.031397
0.03767,0.041434,0.045199,0.050012,0.054826,0.060841,0.066855,0.073966,0.081076,0.088572,0.096068,0.10855,0.12103,0.13846,0.15589,0.18002,0.20416,0.24444,0.28473,0.34511,0.4055,0.47718,0.54886,0.61825,0.68764,0.75306,0.81847,0.89225,0.96602,1.064,1.2113,1.3327,1.4541,1.5519,1.6496,1.7069,1.7642,1.796,1.8278,1.8472,1.8667,1.8835,1.9002,1.9238,1.9473,1.9781,2.0088,2.0255,2.0422,2.0114,1.9807,1.9465,1.9122,1.8541,1.796,1.7371,1.6781,1.6379,1.5978,1.586,1.5742,1.5964,1.6187,1.6545,1.6902,1.7122,1.7342,1.7308,1.7275,1.6926,1.6576,1.6107,1.5638,1.5201,1.4763,1.4278,1.3792,1.3136,1.248,1.1686,1.0891,0.93841,0.85083,0.76489,0.67894,0.60805,0.53716,0.47765,0.41814,0.36727,0.31641,0.26425,0.21208,0.1966,0.18112,0.16144,0.14176,0.12648,0.11121,0.097329,0.083451,0.075791,0.068132,0.062221,0.056311,0.05158,0.046849,0.043137,0.039425,0.036426,0.033428
0.038338,0.042221,0.046104,0.052297,0.05849,0.063504,0.068518,0.075079,0.08164,0.091941,0.10224,0.11617,0.13009,0.15004,0.16999,0.19944,0.22889,0.27858,0.32828,0.40354,0.47879,0.5621,0.6454,0.72021,0.79502,0.86241,0.9298,1.0141,1.0984,1.2178,1.3876,1.5286,1.6696,1.7762,1.8828,1.941,1.9993,2.0335,2.0676,2.0891,2.1106,2.1296,2.1487,2.1735,2.1983,2.2385,2.2788,2.3157,2.3525,2.3496,2.3468,2.3024,2.2581,2.1877,2.1173,2.0371,1.957,1.908,1.859,1.8462,1.8335,1.8613,1.8891,1.9325,1.976,2.0076,2.0392,2.041,2.0428,1.9984,1.9541,1.8899,1.8258,1.7696,1.7134,1.6567,1.6,1.5271,1.4543,1.3647,1.2751,1.1094,1.0082,0.90635,0.80452,0.7208,0.63709,0.56637,0.49566,0.43343,0.37121,0.29524,0.21927,0.20989,0.20051,0.17738,0.15425,0.13784,0.12142,0.10678,0.092149,0.083243,0.074337,0.067627,0.060918,0.054449,0.04798,0.045015,0.042049,0.038754,0.035458
0.040327,0.04456,0.048794,0.054219,0.059644,0.06659,0.073535,0.079903,0.086271,0.097596,0.10892,0.12445,0.13997,0.16279,0.1856,0.22256,0.25952,0.3242,0.38887,0.4786,0.56833,0.65466,0.74099,0.80972,0.87844,0.94761,1.0168,1.1174,1.2181,1.3567,1.5495,1.6939,1.8382,1.9463,2.0545,2.1332,2.212,2.2725,2.3329,2.3665,2.4001,2.4178,2.4355,2.4547,2.4738,2.5115,2.5493,2.5978,2.6463,2.6702,2.694,2.6573,2.6205,2.5359,2.4513,2.3583,2.2654,2.2136,2.1618,2.1572,2.1526,2.1837,2.2148,2.2642,2.3136,2.3596,2.4057,2.4083,2.411,2.3627,2.3143,2.2356,2.1568,2.0795,2.0022,1.9214,1.8406,1.7499,1.6593,1.5612,1.4632,1.2853,1.1756,1.061,0.94643,0.84712,0.74782,0.6663,0.58478,0.51335,0.44192,0.36723,0.29254,0.25987,0.2272,0.1983,0.16939,0.15016,0.13092,0.11593,0.10094,0.08875,0.076563,0.069527,0.062491,0.05702,0.051549,0.047246,0.042942,0.03954,0.036138
0.042316,0.0469,0.051483,0.056141,0.060799,0.069676,0.078552,0.084727,0.090902,0.10325,0.1156,0.13273,0.14986,0.17554,0.20122,0.24569,0.29016,0.36981,0.44946,0.55367,0.65787,0.74723,0.83658,0.89922,0.96186,1.0328,1.1038,1.2207,1.3377,1.4956,1.7113,1.8591,2.0069,2.1165,2.2262,2.3255,2.4247,2.5114,2.5982,2.6439,2.6897,2.706,2.7224,2.7358,2.7493,2.7845,2.8197,2.8799,2.9402,2.9907,3.0413,3.0121,2.983,2.8841,2.7852,2.6796,2.5739,2.5193,2.4646,2.4682,2.4718,2.5062,2.5406,2.5959,2.6512,2.7117,2.7722,2.7757,2.7791,2.7269,2.6746,2.5812,2.4878,2.3894,2.291,2.1861,2.0812,1.9727,1.8643,1.7578,1.6513,1.4612,1.343,1.2157,1.0883,0.97344,0.85855,0.76623,0.6739,0.59327,0.51264,0.43922,0.3658,0.30984,0.25388,0.21921,0.18454,0.16248,0.14042,0.12507,0.10972,0.094257,0.07879,0.071427,0.064065,0.059591,0.055117,0.049477,0.043836,0.040327,0.036818
0.042948,0.047645,0.052341,0.058352,0.064362,0.07168,0.078997,0.087295,0.095593,0.10897,0.12234,0.1413,0.16025,0.18969,0.21912,0.27302,0.32691,0.42049,0.51406,0.62456,0.73505,0.81862,0.90219,0.96424,1.0263,1.1158,1.2053,1.3517,1.498,1.6677,1.8964,2.0463,2.1962,2.3136,2.4309,2.5521,2.6733,2.7976,2.9218,2.9855,3.0492,3.0636,3.078,3.078,3.0781,3.1189,3.1598,3.2256,3.2914,3.3481,3.4049,3.379,3.3532,3.2588,3.1644,3.0616,2.9589,2.9016,2.8443,2.8503,2.8562,2.8994,2.9426,3.0094,3.0762,3.1376,3.199,3.1972,3.1955,3.1473,3.0992,3.0075,2.9159,2.7925,2.6692,2.5263,2.3834,2.2402,2.0969,1.9654,1.8339,1.6355,1.5102,1.376,1.2418,1.1128,0.98383,0.87681,0.76979,0.67841,0.58703,0.50397,0.4209,0.3553,0.28969,0.24669,0.20368,0.17743,0.15117,0.13393,0.1167,0.10215,0.087607,0.078344,0.069082,0.062708,0.056334,0.051412,0.04649,0.04265,0.03881
0.043581,0.04839,0.053199,0.060562,0.067924,0.073683,0.079443,0.089863,0.10028,0.11468,0.12908,0.14986,0.17064,0.20383,0.23702,0.30034,0.36367,0.47116,0.57866,0.69545,0.81224,0.89002,0.9678,1.0293,1.0907,1.1988,1.3068,1.4826,1.6583,1.8397,2.0814,2.2335,2.3856,2.5106,2.6357,2.7788,2.9219,3.0837,3.2455,3.3272,3.4088,3.4212,3.4336,3.4202,3.4068,3.4533,3.4998,3.5712,3.6426,3.7055,3.7685,3.7459,3.7234,3.6334,3.5435,3.4437,3.344,3.284,3.224,3.2323,3.2406,3.2926,3.3446,3.4228,3.5011,3.5634,3.6257,3.6188,3.6118,3.5678,3.5237,3.4338,3.3439,3.1956,3.0474,2.8665,2.6857,2.5076,2.3295,2.173,2.0165,1.8097,1.6773,1.5363,1.3953,1.2522,1.1091,0.98739,0.86568,0.76355,0.66143,0.56872,0.476,0.40075,0.32549,0.27416,0.22283,0.19237,0.16191,0.1428,0.12368,0.11005,0.096424,0.085261,0.074099,0.065825,0.057551,0.053348,0.049144,0.044973,0.040802
0.045386,0.050528,0.055669,0.062376,0.069082,0.075895,0.082708,0.093811,0.10491,0.12043,0.13594,0.15863,0.18133,0.21859,0.25584,0.32785,0.39986,0.51515,0.63044,0.74761,0.86479,0.94272,1.0206,1.1021,1.1836,1.3254,1.4671,1.6671,1.867,2.0554,2.3079,2.4684,2.6289,2.7812,2.9335,3.1086,3.2837,3.4675,3.6513,3.759,3.8667,3.8976,3.9285,3.9291,3.9296,3.9594,3.9893,4.0545,4.1197,4.1748,4.2298,4.2046,4.1794,4.0943,4.0092,3.9089,3.8086,3.7338,3.6589,3.6634,3.6678,3.7217,3.7756,3.8602,3.9447,3.9985,4.0523,4.0419,4.0316,3.9944,3.9572,3.8665,3.7758,3.5972,3.4187,3.199,2.9793,2.774,2.5687,2.3876,2.2064,1.9819,1.835,1.691,1.547,1.394,1.2409,1.1026,0.96424,0.84994,0.73565,0.63308,0.53051,0.44792,0.36533,0.29681,0.22829,0.20112,0.17394,0.15237,0.1308,0.11603,0.10126,0.088512,0.075762,0.068448,0.061135,0.05558,0.050026,0.045742,0.041458
0.047191,0.052665,0.058139,0.06419,0.07024,0.078107,0.085974,0.09776,0.10955,0.12617,0.1428,0.16741,0.19202,0.23334,0.27467,0.35536,0.43604,0.55913,0.68221,0.79977,0.91733,0.99541,1.0735,1.175,1.2765,1.452,1.6274,1.8516,2.0757,2.2711,2.5344,2.7033,2.8722,3.0518,3.2314,3.4384,3.6454,3.8512,4.057,4.1909,4.3247,4.3741,4.4234,4.4379,4.4524,4.4656,4.4788,4.5378,4.5968,4.644,4.6912,4.6633,4.6353,4.5552,4.475,4.3741,4.2732,4.1835,4.0939,4.0945,4.095,4.1509,4.2067,4.2975,4.3884,4.4336,4.4788,4.4651,4.4514,4.421,4.3907,4.2992,4.2077,3.9988,3.7899,3.5314,3.2729,3.0404,2.8079,2.6021,2.3963,2.1541,1.9926,1.8456,1.6987,1.5357,1.3727,1.2178,1.0628,0.93633,0.80987,0.69744,0.58501,0.49509,0.40517,0.31946,0.23376,0.20986,0.18596,0.16194,0.13793,0.12201,0.1061,0.091763,0.077424,0.071071,0.064718,0.057813,0.050908,0.046511,0.042114
0.047737,0.053306,0.058876,0.066131,0.073387,0.081239,0.089091,0.10159,0.11409,0.13175,0.14942,0.17548,0.20155,0.24697,0.29239,0.37878,0.46517,0.59358,0.72199,0.84683,0.97166,1.0659,1.1602,1.2918,1.4235,1.6269,1.8302,2.0735,2.3168,2.5319,2.8162,3.0076,3.199,3.4054,3.6118,3.8576,4.1035,4.3323,4.5611,4.7204,4.8798,4.9521,5.0244,5.045,5.0656,5.0705,5.0754,5.1186,5.1617,5.2028,5.2439,5.2028,5.1617,5.0731,4.9845,4.8685,4.7526,4.6435,4.5344,4.5254,4.5163,4.5785,4.6407,4.729,4.8173,4.8488,4.8804,4.8627,4.845,4.8216,4.7981,4.6922,4.5862,4.337,4.0879,3.8056,3.5233,3.2698,3.0163,2.7965,2.5768,2.3149,2.1345,1.9795,1.8246,1.6589,1.4933,1.326,1.1587,1.0198,0.88082,0.75944,0.63807,0.5394,0.44074,0.35766,0.27458,0.23641,0.19825,0.17167,0.14508,0.12786,0.11064,0.096513,0.082382,0.074114,0.065846,0.059665,0.053484,0.048757,0.044029
0.048283,0.053947,0.059612,0.068073,0.076533,0.084371,0.092208,0.10542,0.11863,0.13733,0.15604,0.18356,0.21108,0.26059,0.31011,0.4022,0.49429,0.62803,0.76177,0.89388,1.026,1.1364,1.2469,1.4087,1.5704,1.8017,2.033,2.2954,2.5578,2.7927,3.098,3.312,3.5259,3.759,3.9922,4.2769,4.5615,4.8133,5.0651,5.25,5.4349,5.5301,5.6254,5.6521,5.6789,5.6755,5.6721,5.6994,5.7266,5.7617,5.7967,5.7424,5.6881,5.591,5.4939,5.363,5.2321,5.1035,4.975,4.9563,4.9376,5.0061,5.0747,5.1605,5.2463,5.2641,5.2819,5.2603,5.2386,5.2221,5.2056,5.0851,4.9647,4.6752,4.3858,4.0798,3.7737,3.4992,3.2246,2.9909,2.7572,2.4756,2.2764,2.1134,1.9504,1.7821,1.6138,1.4342,1.2546,1.1032,0.95177,0.82144,0.69112,0.58371,0.4763,0.39585,0.3154,0.26297,0.21054,0.18139,0.15224,0.13371,0.11519,0.10126,0.08734,0.077157,0.066974,0.061518,0.056061,0.051003,0.045944
0.049726,0.055619,0.061512,0.069438,0.077365,0.086182,0.094999,0.10877,0.12255,0.14214,0.16174,0.19077,0.2198,0.27207,0.32433,0.42132,0.51831,0.66394,0.80957,0.96023,1.1109,1.2442,1.3775,1.5618,1.7462,1.988,2.2298,2.5072,2.7847,3.0456,3.3805,3.618,3.8554,4.1156,4.3759,4.698,5.0201,5.3202,5.6204,5.8547,6.089,6.2131,6.3372,6.3709,6.4046,6.4066,6.4086,6.4182,6.4279,6.4328,6.4377,6.3513,6.2649,6.1414,6.0179,5.8711,5.7243,5.5831,5.4419,5.4176,5.3933,5.4688,5.5444,5.6201,5.6958,5.7143,5.7328,5.7133,5.6938,5.6632,5.6326,5.4825,5.3323,5.0331,4.7339,4.407,4.0801,3.7834,3.4867,3.2359,2.985,2.6764,2.4513,2.2611,2.071,1.8921,1.7132,1.5317,1.3502,1.1869,1.0236,0.88334,0.74307,0.62517,0.50726,0.42141,0.33555,0.27873,0.22191,0.19034,0.15877,0.1391,0.11943,0.10545,0.091466,0.080897,0.070329,0.063605,0.056881,0.051714,0.046546
0.051169,0.05729,0.063412,0.070804,0.078196,0.087993,0.097789,0.11213,0.12647,0.14695,0.16744,0.19798,0.22853,0.28354,0.33855,0.44044,0.54232,0.69984,0.85736,1.0266,1.1958,1.352,1.5081,1.715,1.9219,2.1743,2.4266,2.719,3.0115,3.2985,3.663,3.924,4.1849,4.4722,4.7596,5.1191,5.4787,5.8272,6.1756,6.4594,6.7432,6.8961,7.049,7.0897,7.1304,7.1378,7.1451,7.1371,7.1291,7.1038,7.0786,6.9601,6.8417,6.6918,6.5419,6.3792,6.2165,6.0627,5.9089,5.8789,5.849,5.9315,6.014,6.0796,6.1452,6.1645,6.1837,6.1663,6.1489,6.1043,6.0597,5.8798,5.6999,5.3909,5.0819,4.7342,4.3866,4.0677,3.7488,3.4808,3.2129,2.8773,2.6261,2.4088,2.1915,2.0021,1.8127,1.6292,1.4458,1.2706,1.0955,0.94524,0.79502,0.66662,0.53823,0.44697,0.35571,0.2945,0.23328,0.19929,0.1653,0.14449,0.12368,0.10963,0.095593,0.084638,0.073683,0.065692,0.0577,0.052425,0.047149
0.05154,0.057743,0.063946,0.072051,0.080155,0.090086,0.10002,0.11486,0.1297,0.15097,0.17224,0.20402,0.2358,0.29269,0.34957,0.45689,0.5642,0.73928,0.91436,1.1072,1.3,1.4747,1.6494,1.8623,2.0751,2.3249,2.5748,2.8788,3.1828,3.4946,3.8849,4.1748,4.4646,4.7725,5.0804,5.478,5.8756,6.2768,6.6779,7.0212,7.3645,7.5572,7.75,7.8197,7.8893,7.8828,7.8763,7.8427,7.8092,7.7626,7.716,7.5704,7.4248,7.2376,7.0504,6.8724,6.6944,6.5478,6.4011,6.3815,6.362,6.4451,6.5282,6.6036,6.679,6.7221,6.7652,6.7487,6.7323,6.6559,6.5796,6.3801,6.1806,5.8561,5.5316,5.1526,4.7735,4.4243,4.075,3.7773,3.4796,3.1203,2.8464,2.5948,2.3432,2.1265,1.9098,1.7236,1.5375,1.3558,1.1741,1.0097,0.84519,0.7055,0.56581,0.46863,0.37145,0.30691,0.24237,0.20658,0.17079,0.14904,0.1273,0.11269,0.098086,0.086404,0.074723,0.067298,0.059873,0.054319,0.048764
0.051911,0.058196,0.06448,0.073298,0.082115,0.092179,0.10224,0.11759,0.13294,0.155,0.17705,0.21007,0.24308,0.30183,0.36058,0.47333,0.58608,0.77872,0.97136,1.1878,1.4042,1.5975,1.7907,2.0095,2.2283,2.4756,2.7229,3.0385,3.3541,3.6907,4.1068,4.4256,4.7443,5.0728,5.4013,5.837,6.2726,6.7263,7.1801,7.5829,7.9857,8.2184,8.451,8.5496,8.6482,8.6278,8.6075,8.5484,8.4893,8.4214,8.3534,8.1806,8.0078,7.7834,7.5589,7.3657,7.1724,7.0329,6.8934,6.8842,6.8749,6.9587,7.0424,7.1276,7.2128,7.2797,7.3467,7.3311,7.3156,7.2076,7.0996,6.8804,6.6613,6.3213,5.9813,5.5709,5.1605,4.7808,4.4012,4.0738,3.7464,3.3633,3.0667,2.7808,2.4949,2.2509,2.0069,1.818,1.6292,1.441,1.2528,1.0741,0.89536,0.74438,0.59339,0.49028,0.38718,0.31931,0.25145,0.21387,0.17628,0.1536,0.13092,0.11575,0.10058,0.088171,0.075762,0.068904,0.062046,0.056213,0.050379
0.052724,0.059137,0.065549,0.074025,0.082501,0.093188,0.10388,0.11964,0.1354,0.15811,0.18082,0.2151,0.24937,0.30987,0.37038,0.48875,0.60713,0.81404,1.0209,1.2593,1.4977,1.6978,1.8979,2.1124,2.3269,2.5816,2.8363,3.1753,3.5144,3.8751,4.3177,4.6583,4.9989,5.3634,5.728,6.1863,6.6445,7.1378,7.631,8.0618,8.4927,8.7531,9.0135,9.1361,9.2586,9.2365,9.2143,9.12,9.0258,8.9139,8.8019,8.6073,8.4127,8.1843,7.9559,7.7617,7.5675,7.4571,7.3467,7.3778,7.409,7.5285,7.648,7.7421,7.8362,7.9077,7.9792,7.9568,7.9345,7.7888,7.643,7.4026,7.1622,6.8077,6.4532,6.0258,5.5983,5.1856,4.7729,4.41,4.047,3.6275,3.2953,2.9797,2.6641,2.3935,2.1229,1.9234,1.7239,1.5286,1.3332,1.1364,0.9396,0.77712,0.61464,0.5063,0.39796,0.32769,0.25742,0.21885,0.18029,0.15696,0.13362,0.11802,0.10242,0.090279,0.078137,0.070403,0.06267,0.056762,0.050854
0.053538,0.060078,0.066618,0.074752,0.082886,0.094197,0.10551,0.12169,0.13787,0.16123,0.18459,0.22013,0.25567,0.31792,0.38017,0.50418,0.62818,0.84935,1.0705,1.3309,1.5912,1.7981,2.0051,2.2153,2.4254,2.6876,2.9497,3.3122,3.6747,4.0594,4.5286,4.8911,5.2536,5.6541,6.0546,6.5355,7.0165,7.5492,8.0818,8.5407,8.9996,9.2878,9.5761,9.7226,9.8691,9.8451,9.8211,9.6917,9.5622,9.4064,9.2505,9.0341,8.8177,8.5852,8.3528,8.1577,7.9627,7.8813,7.8,7.8715,7.9431,8.0984,8.2536,8.3566,8.4596,8.5356,8.6116,8.5825,8.5534,8.37,8.1865,7.9249,7.6632,7.2942,6.9251,6.4807,6.0362,5.5904,5.1447,4.7461,4.3476,3.8917,3.5239,3.1786,2.8333,2.5362,2.239,2.0288,1.8186,1.6162,1.4137,1.1988,0.98383,0.80987,0.6359,0.52232,0.40873,0.33606,0.26338,0.22384,0.1843,0.16031,0.13632,0.12029,0.10426,0.092386,0.080512,0.071902,0.063293,0.057311,0.051329
0.053633,0.06017,0.066707,0.075108,0.08351,0.094999,0.10649,0.12289,0.13929,0.16319,0.18709,0.2238,0.2605,0.32509,0.38967,0.51798,0.64629,0.87161,1.0969,1.371,1.645,1.8663,2.0876,2.2889,2.4902,2.7618,3.0334,3.4146,3.7958,4.1987,4.6875,5.0788,5.4702,5.904,6.3377,6.8418,7.346,7.8793,8.4127,8.8639,9.315,9.6022,9.8895,10.036,10.183,10.167,10.15,9.9897,9.8291,9.6161,9.4031,9.1684,8.9338,8.735,8.5362,8.3844,8.2325,8.1916,8.1506,8.2835,8.4163,8.6226,8.829,8.9481,9.0673,9.1305,9.1937,9.135,9.0763,8.8456,8.6148,8.3294,8.0439,7.6748,7.3057,6.8431,6.3805,5.904,5.4275,4.9875,4.5475,4.0613,3.6637,3.3015,2.9393,2.6404,2.3414,2.1335,1.9255,1.7113,1.4971,1.2602,1.0233,0.83747,0.65163,0.53285,0.41408,0.34024,0.26641,0.22662,0.18682,0.16246,0.1381,0.12179,0.10548,0.093307,0.081135,0.072823,0.06451,0.058393,0.052276
0.053728,0.060262,0.066796,0.075465,0.084133,0.0958,0.10747,0.12409,0.14072,0.16515,0.18958,0.22746,0.26534,0.33226,0.39917,0.53179,0.6644,0.89388,1.1234,1.411,1.6987,1.9344,2.1701,2.3625,2.5549,2.836,3.1171,3.517,3.9169,4.3379,4.8464,5.2666,5.6869,6.1538,6.6208,7.1481,7.6754,8.2095,8.7436,9.187,9.6304,9.9166,10.203,10.35,10.497,10.488,10.48,10.288,10.096,9.8258,9.5557,9.3028,9.0498,8.8848,8.7197,8.6111,8.5024,8.5018,8.5012,8.6954,8.8895,9.1469,9.4043,9.5397,9.675,9.7254,9.7757,9.6875,9.5992,9.3212,9.0431,8.7339,8.4247,8.0555,7.6862,7.2055,6.7248,6.2176,5.7103,5.2289,4.7474,4.231,3.8035,3.4244,3.0453,2.7446,2.4438,2.2381,2.0324,1.8065,1.5805,1.3217,1.0628,0.86508,0.66737,0.54339,0.41942,0.34443,0.26944,0.22939,0.18934,0.16462,0.13989,0.12329,0.1067,0.094227,0.081758,0.073743,0.065727,0.059475,0.053223
0.053668,0.060099,0.066529,0.075272,0.084015,0.09583,0.10765,0.12434,0.14104,0.1657,0.19035,0.22902,0.26769,0.33741,0.40713,0.53977,0.67241,0.89625,1.1201,1.4092,1.6984,1.9399,2.1814,2.3668,2.5522,2.8344,3.1166,3.5136,3.9107,4.3435,4.8645,5.3214,5.7782,6.2729,6.7675,7.2892,7.8108,8.3067,8.8026,9.2142,9.6258,9.9177,10.21,10.34,10.469,10.459,10.449,10.259,10.069,9.7877,9.5064,9.2569,9.0074,8.8776,8.7479,8.6936,8.6393,8.6862,8.7331,8.9532,9.1733,9.4482,9.7231,9.8851,10.047,10.078,10.109,10.008,9.9077,9.62,9.3322,8.9877,8.6432,8.2297,7.8162,7.3179,6.8195,6.3047,5.7899,5.3025,4.815,4.2901,3.854,3.4673,3.0806,2.7887,2.4967,2.3046,2.1125,1.8759,1.6393,1.3646,1.0898,0.88186,0.6739,0.54558,0.41725,0.3435,0.26974,0.22999,0.19024,0.16543,0.14063,0.12394,0.10726,0.095043,0.082827,0.074411,0.065995,0.059705,0.053416
0.053609,0.059935,0.066262,0.075079,0.083896,0.09586,0.10782,0.1246,0.14137,0.16625,0.19113,0.23058,0.27003,0.34256,0.41509,0.54776,0.68043,0.89863,1.1168,1.4075,1.6981,1.9454,2.1927,2.3711,2.5495,2.8327,3.116,3.5102,3.9045,4.3492,4.8826,5.3761,5.8696,6.3919,6.9142,7.4302,7.9462,8.404,8.8617,9.2415,9.6212,9.9187,10.216,10.329,10.442,10.431,10.419,10.23,10.042,9.7496,9.4571,9.211,8.9649,8.8705,8.7761,8.7761,8.7761,8.8705,8.9649,9.211,9.4571,9.7496,10.042,10.23,10.419,10.431,10.442,10.329,10.216,9.9187,9.6212,9.2415,8.8617,8.404,7.9462,7.4302,6.9142,6.3919,5.8696,5.3761,4.8826,4.3492,3.9045,3.5102,3.116,2.8327,2.5495,2.3711,2.1927,1.9454,1.6981,1.4075,1.1168,0.89863,0.68043,0.54776,0.41509,0.34256,0.27003,0.23058,0.19113,0.16625,0.14137,0.1246,0.10782,0.09586,0.083896,0.075079,0.066262,0.059935,0.053609
0.053416,0.059705,0.065995,0.074411,0.082827,0.095043,0.10726,0.12394,0.14063,0.16543,0.19024,0.22999,0.26974,0.3435,0.41725,0.54558,0.6739,0.88186,1.0898,1.3646,1.6393,1.8759,2.1125,2.3046,2.4967,2.7887,3.0806,3.4673,3.854,4.2901,4.815,5.3025,5.7899,6.3047,6.8195,7.3179,7.8162,8.2297,8.6432,8.9877,9.3322,9.62,9.9077,10.008,10.109,10.078,10.047,9.8851,9.7231,9.4482,9.1733,8.9532,8.7331,8.6862,8.6393,8.6936,8.7479,8.8776,9.0074,9.2569,9.5064,9.7877,10.069,10.259,10.449,10.459,10.469,10.34,10.21,9.9177,9.6258,9.2142,8.8026,8.3067,7.8108,7.2892,6.7675,6.2729,5.7782,5.3214,4.8645,4.3435,3.9107,3.5136,3.1166,2.8344,2.5522,2.3668,2.1814,1.9399,1.6984,1.4092,1.1201,0.89625,0.67241,0.53977,0.40713,0.33741,0.26769,0.22902,0.19035,0.1657,0.14104,0.12434,0.10765,0.09583,0.084015,0.075272,0.066529,0.060099,0.053668
0.053223,0.059475,0.065727,0.073743,0.081758,0.094227,0.1067,0.12329,0.13989,0.16462,0.18934,0.22939,0.26944,0.34443,0.41942,0.54339,0.66737,0.86508,1.0628,1.3217,1.5805,1.8065,2.0324,2.2381,2.4438,2.7446,3.0453,3.4244,3.8035,4.231,4.7474,5.2289,5.7103,6.2176,6.7248,7.2055,7.6862,8.0555,8.4247,8.7339,9.0431,9.3212,9.5992,9.6875,9.7757,9.7254,9.675,9.5397,9.4043,9.1469,8.8895,8.6954,8.5012,8.5018,8.5024,8.6111,8.7197,8.8848,9.0498,9.3028,9.5557,9.8258,10.096,10.288,10.48,10.488,10.497,10.35,10.203,9.9166,9.6304,9.187,8.7436,8.2095,7.6754,7.1481,6.6208,6.1538,5.6869,5.2666,4.8464,4.3379,3.9169,3.517,3.1171,2.836,2.5549,2.3625,2.1701,1.9344,1.6987,1.411,1.1234,0.89388,0.6644,0.53179,0.39917,0.33226,0.26534,0.22746,0.18958,0.16515,0.14072,0.12409,0.10747,0.0958,0.084133,0.075465,0.066796,0.060262,0.053728
0.052276,0.058393,0.06451,0.072823,0.081135,0.093307,0.10548,0.12179,0.1381,0.16246,0.18682,0.22662,0.26641,0.34024,0.41408,0.53285,0.65163,0.83747,1.0233,1.2602,1.4971,1.7113,1.9255,2.1335,2.3414,2.6404,2.9393,3.3015,3.6637,4.0613,4.5475,4.9875,5.4275,5.904,6.3805,6.8431,7.3057,7.6748,8.0439,8.3294,8.6148,8.8456,9.0763,9.135,9.1937,9.1305,9.0673,8.9481,8.829,8.6226,8.4163,8.2835,8.1506,8.1916,8.2325,8.3844,8.5362,8.735,8.9338,9.1684,9.4031,9.6161,9.8291,9.9897,10.15,10.167,10.183,10.036,9.8895,9.6022,9.315,8.8639,8.4127,7.8793,7.346,6.8418,6.3377,5.904,5.4702,5.0788,4.6875,4.1987,3.7958,3.4146,3.0334,2.7618,2.4902,2.2889,2.0876,1.8663,1.645,1.371,1.0969,0.87161,0.64629,0.51798,0.38967,0.32509,0.2605,0.2238,0.18709,0.16319,0.13929,0.12289,0.10649,0.094999,0.08351,0.075108,0.066707,0.06017,0.053633
0.051329,0.057311,0.063293,0.071902,0.080512,0.092386,0.10426,0.12029,0.13632,0.16031,0.1843,0.22384,0.26338,0.33606,0.40873,0.52232,0.6359,0.80987,0.98383,1.1988,1.4137,1.6162,1.8186,2.0288,2.239,2.5362,2.8333,3.1786,3.5239,3.8917,4.3476,4.7461,5.1447,5.5904,6.0362,6.4807,6.9251,7.2942,7.6632,7.9249,8.1865,8.37,8.5534,8.5825,8.6116,8.5356,8.4596,8.3566,8.2536,8.0984,7.9431,7.8715,7.8,7.8813,7.9627,8.1577,8.3528,8.5852,8.8177,9.0341,9.2505,9.4064,9.5622,9.6917,9.8211,9.8451,9.8691,9.7226,9.5761,9.2878,8.9996,8.5407,8.0818,7.5492,7.0165,6.5355,6.0546,5.6541,5.2536,4.8911,4.5286,4.0594,3.6747,3.3122,2.9497,2.6876,2.4254,2.2153,2.0051,1.7981,1.5912,1.3309,1.0705,0.84935,0.62818,0.50418,0.38017,0.31792,0.25567,0.22013,0.18459,0.16123,0.13787,0.12169,0.10551,0.094197,0.082886,0.074752,0.066618,0.060078,0.053538
0.050854,0.056762,0.06267,0.070403,0.078137,0.090279,0.10242,0.11802,0.13362,0.15696,0.18029,0.21885,0.25742,0.32769,0.39796,0.5063,0.61464,0.77712,0.9396,1.1364,1.3332,1.5286,1.7239,1.9234,2.1229,2.3935,2.6641,2.9797,3.2953,3.6275,4.047,4.41,4.7729,5.1856,5.5983,6.0258,6.4532,6.8077,7.1622,7.4026,7.643,7.7888,7.9345,7.9568,7.9792,7.9077,7.8362,7.7421,7.648,7.5285,7.409,7.3778,7.3467,7.4571,7.5675,7.7617,7.9559,8.1843,8.4127,8.6073,8.8019,8.9139,9.0258,9.12,9.2143,9.2365,9.2586,9.1361,9.0135,8.7531,8.4927,8.0618,7.631,7.1378,6.6445,6.1863,5.728,5.3634,4.9989,4.6583,4.3177,3.8751,3.5144,3.1753,2.8363,2.5816,2.3269,2.1124,1.8979,1.6978,1.4977,1.2593,1.0209,0.81404,0.60713,0.48875,0.37038,0.30987,0.24937,0.2151,0.18082,0.15811,0.1354,0.11964,0.10388,0.093188,0.082501,0.074025,0.065549,0.059137,0.052724
0.050379,0.056213,0.062046,0.068904,0.075762,0.088171,0.10058,0.11575,0.13092,0.1536,0.17628,0.21387,0.25145,0.31931,0.38718,0.49028,0.59339,0.74438,0.89536,1.0741,1.2528,1.441,1.6292,1.818,2.0069,2.2509,2.4949,2.7808,3.0667,3.3633,3.7464,4.0738,4.4012,4.7808,5.1605,5.5709,5.9813,6.3213,6.6613,6.8804,7.0996,7.2076,7.3156,7.3311,7.3467,7.2797,7.2128,7.1276,7.0424,6.9587,6.8749,6.8842,6.8934,7.0329,7.1724,7.3657,7.5589,7.7834,8.0078,8.1806,8.3534,8.4214,8.4893,8.5484,8.6075,8.6278,8.6482,8.5496,8.451,8.2184,7.9857,7.5829,7.1801,6.7263,6.2726,5.837,5.4013,5.0728,4.7443,4.4256,4.1068,3.6907,3.3541,3.0385,2.7229,2.4756,2.2283,2.0095,1.7907,1.5975,1.4042,1.1878,0.97136,0.77872,0.58608,0.47333,0.36058,0.30183,0.24308,0.21007,0.17705,0.155,0.13294,0.11759,0.10224,0.092179,0.082115,0.073298,0.06448,0.058196,0.051911
0.048764,0.054319,0.059873,0.067298,0.074723,0.086404,0.098086,0.11269,0.1273,0.14904,0.17079,0.20658,0.24237,0.30691,0.37145,0.46863,0.56581,0.7055,0.84519,1.0097,1.1741,1.3558,1.5375,1.7236,1.9098,2.1265,2.3432,2.5948,2.8464,3.1203,3.4796,3.7773,4.075,4.4243,4.7735,5.1526,5.5316,5.8561,6.1806,6.3801,6.5796,6.6559,6.7323,6.7487,6.7652,6.7221,6.679,6.6036,6.5282,6.4451,6.362,6.3815,6.4011,6.5478,6.6944,6.8724,7.0504,7.2376,7.4248,7.5704,7.716,7.7626,7.8092,7.8427,7.8763,7.8828,7.8893,7.8197,7.75,7.5572,7.3645,7.0212,6.6779,6.2768,5.8756,5.478,5.0804,4.7725,4.4646,4.1748,3.8849,3.4946,3.1828,2.8788,2.5748,2.3249,2.0751,1.8623,1.6494,1.4747,1.3,1.1072,0.91436,0.73928,0.5642,0.45689,0.34957,0.29269,0.2358,0.20402,0.17224,0.15097,0.1297,0.11486,0.10002,0.090086,0.080155,0.072051,0.063946,0.057743,0.05154
0.047149,0.052425,0.0577,0.065692,0.073683,0.084638,0.095593,0.10963,0.12368,0.14449,0.1653,0.19929,0.23328,0.2945,0.35571,0.44697,0.53823,0.66662,0.79502,0.94524,1.0955,1.2706,1.4458,1.6292,1.8127,2.0021,2.1915,2.4088,2.6261,2.8773,3.2129,3.4808,3.7488,4.0677,4.3866,4.7342,5.0819,5.3909,5.6999,5.8798,6.0597,6.1043,6.1489,6.1663,6.1837,6.1645,6.1452,6.0796,6.014,5.9315,5.849,5.8789,5.9089,6.0627,6.2165,6.3792,6.5419,6.6918,6.8417,6.9601,7.0786,7.1038,7.1291,7.1371,7.1451,7.1378,7.1304,7.0897,7.049,6.8961,6.7432,6.4594,6.1756,5.8272,5.4787,5.1191,4.7596,4.4722,4.1849,3.924,3.663,3.2985,3.0115,2.719,2.4266,2.1743,1.9219,1.715,1.5081,1.352,1.1958,1.0266,0.85736,0.69984,0.54232,0.44044,0.33855,0.28354,0.22853,0.19798,0.16744,0.14695,0.12647,0.11213,0.097789,0.087993,0.078196,0.070804,0.063412,0.05729,0.051169
0.046546,0.051714,0.056881,0.063605,0.070329,0.080897,0.091466,0.10545,0.11943,0.1391,0.15877,0.19034,0.22191,0.27873,0.33555,0.42141,0.50726,0.62517,0.74307,0.88334,1.0236,1.1869,1.3502,1.5317,1.7132,1.8921,2.071,2.2611,2.4513,2.6764,2.985,3.2359,3.4867,3.7834,4.0801,4.407,4.7339,5.0331,5.3323,5.4825,5.6326,5.6632,5.6938,5.7133,5.7328,5.7143,5.6958,5.6201,5.5444,5.4688,5.3933,5.4176,5.4419,5.5831,5.7243,5.8711,6.0179,6.1414,6.2649,6.3513,6.4377,6.4328,6.4279,6.4182,6.4086,6.4066,6.4046,6.3709,6.3372,6.2131,6.089,5.8547,5.6204,5.3202,5.0201,4.698,4.3759,4.1156,3.8554,3.618,3.3805,3.0456,2.7847,2.5072,2.2298,1.988,1.7462,1.5618,1.3775,1.2442,1.1109,0.96023,0.80957,0.66394,0.51831,0.42132,0.32433,0.27207,0.2198,0.19077,0.16174,0.14214,0.12255,0.10877,0.094999,0.086182,0.077365,0.069438,0.061512,0.055619,0.049726
0.045944,0.051003,0.056061,0.061518,0.066974,0.077157,0.08734,0.10126,0.11519,0.13371,0.15224,0.18139,0.21054,0.26297,0.3154,0.39585,0.4763,0.58371,0.69112,0.82144,0.95177,1.1032,1.2546,1.4342,1.6138,1.7821,1.9504,2.1134,2.2764,2.4756,2.7572,2.9909,3.2246,3.4992,3.7737,4.0798,4.3858,4.6752,4.9647,5.0851,5.2056,5.2221,5.2386,5.2603,5.2819,5.2641,5.2463,5.1605,5.0747,5.0061,4.9376,4.9563,4.975,5.1035,5.2321,5.363,5.4939,5.591,5.6881,5.7424,5.7967,5.7617,5.7266,5.6994,5.6721,5.6755,5.6789,5.6521,5.6254,5.5301,5.4349,5.25,5.0651,4.8133,4.5615,4.2769,3.9922,3.759,3.5259,3.312,3.098,2.7927,2.5578,2.2954,2.033,1.8017,1.5704,1.4087,1.2469,1.1364,1.026,0.89388,0.76177,0.62803,0.49429,0.4022,0.31011,0.26059,0.21108,0.18356,0.15604,0.13733,0.11863,0.10542,0.092208,0.084371,0.076533,0.068073,0.059612,0.053947,0.048283
0.044029,0.048757,0.053484,0.059665,0.065846,0.074114,0.082382,0.096513,0.11064,0.12786,0.14508,0.17167,0.19825,0.23641,0.27458,0.35766,0.44074,0.5394,0.63807,0.75944,0.88082,1.0198,1.1587,1.326,1.4933,1.6589,1.8246,1.9795,2.1345,2.3149,2.5768,2.7965,3.0163,3.2698,3.5233,3.8056,4.0879,4.337,4.5862,4.6922,4.7981,4.8216,4.845,4.8627,4.8804,4.8488,4.8173,4.729,4.6407,4.5785,4.5163,4.5254,4.5344,4.6435,4.7526,4.8685,4.9845,5.0731,5.1617,5.2028,5.2439,5.2028,5.1617,5.1186,5.0754,5.0705,5.0656,5.045,5.0244,4.9521,4.8798,4.7204,4.5611,4.3323,4.1035,3.8576,3.6118,3.4054,3.199,3.0076,2.8162,2.5319,2.3168,2.0735,1.8302,1.6269,1.4235,1.2918,1.1602,1.0659,0.97166,0.84683,0.72199,0.59358,0.46517,0.37878,0.29239,0.24697,0.20155,0.17548,0.14942,0.13175,0.11409,0.10159,0.089091,0.081239,0.073387,0.066131,0.058876,0.053306,0.047737
0.042114,0.046511,0.050908,0.057813,0.064718,0.071071,0.077424,0.091763,0.1061,0.12201,0.13793,0.16194,0.18596,0.20986,0.23376,0.31946,0.40517,0.49509,0.58501,0.69744,0.80987,0.93633,1.0628,1.2178,1.3727,1.5357,1.6987,1.8456,1.9926,2.1541,2.3963,2.6021,2.8079,3.0404,3.2729,3.5314,3.7899,3.9988,4.2077,4.2992,4.3907,4.421,4.4514,4.4651,4.4788,4.4336,4.3884,4.2975,4.2067,4.1509,4.095,4.0945,4.0939,4.1835,4.2732,4.3741,4.475,4.5552,4.6353,4.6633,4.6912,4.644,4.5968,4.5378,4.4788,4.4656,4.4524,4.4379,4.4234,4.3741,4.3247,4.1909,4.057,3.8512,3.6454,3.4384,3.2314,3.0518,2.8722,2.7033,2.5344,2.2711,2.0757,1.8516,1.6274,1.452,1.2765,1.175,1.0735,0.99541,0.91733,0.79977,0.68221,0.55913,0.43604,0.35536,0.27467,0.23334,0.19202,0.16741,0.1428,0.12617,0.10955,0.09776,0.085974,0.078107,0.07024,0.06419,0.058139,0.052665,0.047191
0.041458,0.045742,0.050026,0.05558,0.061135,0.068448,0.075762,0.088512,0.10126,0.11603,0.1308,0.15237,0.17394,0.20112,0.22829,0.29681,0.36533,0.44792,0.53051,0.63308,0.73565,0.84994,0.96424,1.1026,1.2409,1.394,1.547,1.691,1.835,1.9819,2.2064,2.3876,2.5687,2.774,2.9793,3.199,3.4187,3.5972,3.7758,3.8665,3.9572,3.9944,4.0316,4.0419,4.0523,3.9985,3.9447,3.8602,3.7756,3.7217,3.6678,3.6634,3.6589,3.7338,3.8086,3.9089,4.0092,4.0943,4.1794,4.2046,4.2298,4.1748,4.1197,4.0545,3.9893,3.9594,3.9296,3.9291,3.9285,3.8976,3.8667,3.759,3.6513,3.4675,3.2837,3.1086,2.9335,2.7812,2.6289,2.4684,2.3079,2.0554,1.867,1.6671,1.4671,1.3254,1.1836,1.1021,1.0206,0.94272,0.86479,0.74761,0.63044,0.51515,0.39986,0.32785,0.25584,0.21859,0.18133,0.15863,0.13594,0.12043,0.10491,0.093811,0.082708,0.075895,0.069082,0.062376,0.055669,0.050528,0.045386
0.040802,0.044973,0.049144,0.053348,0.057551,0.065825,0.074099,0.085261,0.096424,0.11005,0.12368,0.1428,0.16191,0.19237,0.22283,0.27416,0.32549,0.40075,0.476,0.56872,0.66143,0.76355,0.86568,0.98739,1.1091,1.2522,1.3953,1.5363,1.6773,1.8097,2.0165,2.173,2.3295,2.5076,2.6857,2.8665,3.0474,3.1956,3.3439,3.4338,3.5237,3.5678,3.6118,3.6188,3.6257,3.5634,3.5011,3.4228,3.3446,3.2926,3.2406,3.2323,3.224,3.284,3.344,3.4437,3.5435,3.6334,3.7234,3.7459,3.7685,3.7055,3.6426,3.5712,3.4998,3.4533,3.4068,3.4202,3.4336,3.4212,3.4088,3.3272,3.2455,3.0837,2.9219,2.7788,2.6357,2.5106,2.3856,2.2335,2.0814,1.8397,1.6583,1.4826,1.3068,1.1988,1.0907,1.0293,0.9678,0.89002,0.81224,0.69545,0.57866,0.47116,0.36367,0.30034,0.23702,0.20383,0.17064,0.14986,0.12908,0.11468,0.10028,0.089863,0.079443,0.073683,0.067924,0.060562,0.053199,0.04839,0.043581
0.03881,0.04265,0.04649,0.051412,0.056334,0.062708,0.069082,0.078344,0.087607,0.10215,0.1167,0.13393,0.15117,0.17743,0.20368,0.24669,0.28969,0.3553,0.4209,0.50397,0.58703,0.67841,0.76979,0.87681,0.98383,1.1128,1.2418,1.376,1.5102,1.6355,1.8339,1.9654,2.0969,2.2402,2.3834,2.5263,2.6692,2.7925,2.9159,3.0075,3.0992,3.1473,3.1955,3.1972,3.199,3.1376,3.0762,3.0094,2.9426,2.8994,2.8562,2.8503,2.8443,2.9016,2.9589,3.0616,3.1644,3.2588,3.3532,3.379,3.4049,3.3481,3.2914,3.2256,3.1598,3.1189,3.0781,3.078,3.078,3.0636,3.0492,2.9855,2.9218,2.7976,2.6733,2.5521,2.4309,2.3136,2.1962,2.0463,1.8964,1.6677,1.498,1.3517,1.2053,1.1158,1.0263,0.96424,0.90219,0.81862,0.73505,0.62456,0.51406,0.42049,0.32691,0.27302,0.21912,0.18969,0.16025,0.1413,0.12234,0.10897,0.095593,0.087295,0.078997,0.07168,0.064362,0.058352,0.052341,0.047645,0.042948
0.036818,0.040327,0.043836,0.049477,0.055117,0.059591,0.064065,0.071427,0.07879,0.094257,0.10972,0.12507,0.14042,0.16248,0.18454,0.21921,0.25388,0.30984,0.3658,0.43922,0.51264,0.59327,0.6739,0.76623,0.85855,0.97344,1.0883,1.2157,1.343,1.4612,1.6513,1.7578,1.8643,1.9727,2.0812,2.1861,2.291,2.3894,2.4878,2.5812,2.6746,2.7269,2.7791,2.7757,2.7722,2.7117,2.6512,2.5959,2.5406,2.5062,2.4718,2.4682,2.4646,2.5193,2.5739,2.6796,2.7852,2.8841,2.983,3.0121,3.0413,2.9907,2.9402,2.8799,2.8197,2.7845,2.7493,2.7358,2.7224,2.706,2.6897,2.6439,2.5982,2.5114,2.4247,2.3255,2.2262,2.1165,2.0069,1.8591,1.7113,1.4956,1.3377,1.2207,1.1038,1.0328,0.96186,0.89922,0.83658,0.74723,0.65787,0.55367,0.44946,0.36981,0.29016,0.24569,0.20122,0.17554,0.14986,0.13273,0.1156,0.10325,0.090902,0.084727,0.078552,0.069676,0.060799,0.056141,0.051483,0.0469,0.042316
0.036138,0.03954,0.042942,0.047246,0.051549,0.05702,0.062491,0.069527,0.076563,0.08875,0.10094,0.11593,0.13092,0.15016,0.16939,0.1983,0.2272,0.25987,0.29254,0.36723,0.44192,0.51335,0.58478,0.6663,0.74782,0.84712,0.94643,1.061,1.1756,1.2853,1.4632,1.5612,1.6593,1.7499,1.8406,1.9214,2.0022,2.0795,2.1568,2.2356,2.3143,2.3627,2.411,2.4083,2.4057,2.3596,2.3136,2.2642,2.2148,2.1837,2.1526,2.1572,2.1618,2.2136,2.2654,2.3583,2.4513,2.5359,2.6205,2.6573,2.694,2.6702,2.6463,2.5978,2.5493,2.5115,2.4738,2.4547,2.4355,2.4178,2.4001,2.3665,2.3329,2.2725,2.212,2.1332,2.0545,1.9463,1.8382,1.6939,1.5495,1.3567,1.2181,1.1174,1.0168,0.94761,0.87844,0.80972,0.74099,0.65466,0.56833,0.4786,0.38887,0.3242,0.25952,0.22256,0.1856,0.16279,0.13997,0.12445,0.10892,0.097596,0.086271,0.079903,0.073535,0.06659,0.059644,0.054219,0.048794,0.04456,0.040327
0.035458,0.038754,0.042049,0.045015,0.04798,0.054449,0.060918,0.067627,0.074337,0.083243,0.092149,0.10678,0.12142,0.13784,0.15425,0.17738,0.20051,0.20989,0.21927,0.29524,0.37121,0.43343,0.49566,0.56637,0.63709,0.7208,0.80452,0.90635,1.0082,1.1094,1.2751,1.3647,1.4543,1.5271,1.6,1.6567,1.7134,1.7696,1.8258,1.8899,1.9541,1.9984,2.0428,2.041,2.0392,2.0076,1.976,1.9325,1.8891,1.8613,1.8335,1.8462,1.859,1.908,1.957,2.0371,2.1173,2.1877,2.2581,2.3024,2.3468,2.3496,2.3525,2.3157,2.2788,2.2385,2.1983,2.1735,2.1487,2.1296,2.1106,2.0891,2.0676,2.0335,1.9993,1.941,1.8828,1.7762,1.6696,1.5286,1.3876,1.2178,1.0984,1.0141,0.9298,0.86241,0.79502,0.72021,0.6454,0.5621,0.47879,0.40354,0.32828,0.27858,0.22889,0.19944,0.16999,0.15004,0.13009,0.11617,0.10224,0.091941,0.08164,0.075079,0.068518,0.063504,0.05849,0.052297,0.046104,0.042221,0.038338
0.033428,0.036426,0.039425,0.043137,0.046849,0.05158,0.056311,0.062221,0.068132,0.075791,0.083451,0.097329,0.11121,0.12648,0.14176,0.16144,0.18112,0.1966,0.21208,0.26425,0.31641,0.36727,0.41814,0.47765,0.53716,0.60805,0.67894,0.76489,0.85083,0.93841,1.0891,1.1686,1.248,1.3136,1.3792,1.4278,1.4763,1.5201,1.5638,1.6107,1.6576,1.6926,1.7275,1.7308,1.7342,1.7122,1.6902,1.6545,1.6187,1.5964,1.5742,1.586,1.5978,1.6379,1.6781,1.7371,1.796,1.8541,1.9122,1.9465,1.9807,2.0114,2.0422,2.0255,2.0088,1.9781,1.9473,1.9238,1.9002,1.8835,1.8667,1.8472,1.8278,1.796,1.7642,1.7069,1.6496,1.5519,1.4541,1.3327,1.2113,1.064,0.96602,0.89225,0.81847,0.75306,0.68764,0.61825,0.54886,0.47718,0.4055,0.34511,0.28473,0.24444,0.20416,0.18002,0.15589,0.13846,0.12103,0.10855,0.096068,0.088572,0.081076,0.073966,0.066855,0.060841,0.054826,0.050012,0.045199,0.041434,0.03767
0.031397,0.034099,0.0368,0.041259,0.045718,0.048711,0.051703,0.056815,0.061927,0.06834,0.074752,0.087874,0.101,0.11513,0.12926,0.1455,0.16174,0.18332,0.2049,0.23325,0.2616,0.30112,0.34063,0.38893,0.43723,0.4953,0.55337,0.62343,0.69349,0.76741,0.90314,0.97243,1.0417,1.1001,1.1584,1.1989,1.2393,1.2706,1.3018,1.3315,1.3612,1.3867,1.4122,1.4207,1.4292,1.4168,1.4044,1.3764,1.3484,1.3316,1.3148,1.3257,1.3365,1.3678,1.3992,1.437,1.4748,1.5206,1.5664,1.5905,1.6146,1.6732,1.7318,1.7353,1.7388,1.7176,1.6964,1.6741,1.6517,1.6373,1.6228,1.6054,1.5879,1.5585,1.5292,1.4728,1.4164,1.3275,1.2386,1.1368,1.035,0.91021,0.83361,0.77038,0.70715,0.64371,0.58026,0.51629,0.45231,0.39226,0.3322,0.28669,0.24118,0.2103,0.17943,0.16061,0.14179,0.12688,0.11198,0.10094,0.089893,0.085202,0.080512,0.072852,0.065193,0.058178,0.051163,0.047728,0.044293,0.040648,0.037002
0.030753,0.033364,0.035975,0.039218,0.042462,0.046386,0.050311,0.055169,0.060027,0.066158,0.072288,0.082397,0.092505,0.1056,0.11869,0.1327,0.14671,0.16472,0.18272,0.20563,0.22853,0.2593,0.29007,0.31219,0.33431,0.39631,0.45831,0.51363,0.56895,0.62757,0.74411,0.80436,0.86461,0.91563,0.96664,1.0013,1.036,1.0625,1.089,1.1129,1.1369,1.1571,1.1774,1.1822,1.187,1.1762,1.1654,1.1454,1.1253,1.1155,1.1056,1.1134,1.1211,1.145,1.1689,1.1983,1.2277,1.2536,1.2795,1.3234,1.3673,1.4138,1.4604,1.4701,1.4799,1.4675,1.4551,1.4365,1.418,1.4021,1.3861,1.3667,1.3472,1.3189,1.2905,1.2388,1.187,1.1115,1.036,0.9529,0.86981,0.76338,0.70174,0.64923,0.59671,0.54188,0.48705,0.43322,0.3794,0.33153,0.28366,0.24795,0.21223,0.18771,0.16319,0.14662,0.13006,0.11703,0.10399,0.094093,0.084193,0.079131,0.074069,0.067317,0.060565,0.055274,0.049984,0.045821,0.041657,0.038322,0.034986
0.030109,0.032629,0.03515,0.037177,0.039205,0.044062,0.048918,0.053523,0.058127,0.063976,0.069824,0.076919,0.084015,0.096068,0.10812,0.11991,0.13169,0.14612,0.16055,0.178,0.19546,0.21749,0.23952,0.23545,0.23138,0.29732,0.36325,0.40383,0.44442,0.48773,0.58507,0.63628,0.68749,0.73119,0.77489,0.80375,0.83261,0.8544,0.87619,0.89438,0.91258,0.92754,0.94251,0.94369,0.94488,0.93565,0.92642,0.91433,0.90225,0.89934,0.89643,0.90106,0.9057,0.92217,0.93865,0.95961,0.98057,0.98659,0.99262,1.0564,1.1201,1.1545,1.1889,1.2049,1.2209,1.2174,1.2138,1.199,1.1843,1.1669,1.1494,1.128,1.1065,1.0792,1.0519,1.0048,0.95765,0.89549,0.83334,0.76899,0.70463,0.61654,0.56987,0.52807,0.48628,0.44005,0.39383,0.35016,0.30649,0.27081,0.23512,0.20921,0.18329,0.16512,0.14695,0.13264,0.11833,0.10717,0.096008,0.08725,0.078493,0.07306,0.067627,0.061782,0.055937,0.052371,0.048806,0.043913,0.039021,0.035996,0.032971
0.02904,0.030916,0.032792,0.0355,0.038207,0.041595,0.044982,0.048967,0.052953,0.057958,0.062963,0.068947,0.07493,0.083822,0.092713,0.1052,0.11768,0.13119,0.1447,0.15939,0.17409,0.19205,0.21001,0.2164,0.2228,0.26555,0.3083,0.32319,0.33808,0.38774,0.49012,0.52862,0.56713,0.60306,0.63899,0.66584,0.69269,0.70988,0.72707,0.74264,0.75821,0.77007,0.78193,0.78292,0.78392,0.77834,0.77276,0.76698,0.76121,0.7613,0.76139,0.76664,0.7719,0.7694,0.76691,0.79657,0.82622,0.83589,0.84555,0.88686,0.92817,0.9564,0.98463,0.99966,1.0147,1.0118,1.0089,0.99627,0.98368,0.96571,0.94773,0.92875,0.90976,0.88201,0.85426,0.8167,0.77914,0.73113,0.68312,0.63455,0.58597,0.50792,0.47024,0.4359,0.40155,0.36518,0.32881,0.29497,0.26113,0.23279,0.20446,0.18434,0.16423,0.14875,0.13327,0.12098,0.10868,0.098903,0.089121,0.08348,0.07784,0.071739,0.065638,0.060047,0.054455,0.049962,0.045469,0.041816,0.038163,0.035239,0.032314
0.027971,0.029203,0.030435,0.033823,0.03721,0.039128,0.041045,0.044412,0.047778,0.051941,0.056103,0.060974,0.065846,0.071576,0.077305,0.090486,0.10367,0.11625,0.12884,0.14078,0.15271,0.1666,0.1805,0.19736,0.21422,0.23379,0.25335,0.24254,0.23174,0.28776,0.39517,0.42096,0.44676,0.47492,0.50308,0.52793,0.55277,0.56536,0.57795,0.59089,0.60384,0.61259,0.62135,0.62215,0.62295,0.62103,0.6191,0.61963,0.62016,0.62325,0.62634,0.63222,0.6381,0.61663,0.59517,0.63352,0.67188,0.68518,0.69848,0.71736,0.73624,0.7583,0.78036,0.7944,0.80844,0.80618,0.80393,0.79351,0.78309,0.76456,0.74604,0.72953,0.71303,0.68484,0.65665,0.62864,0.60063,0.56677,0.5329,0.50011,0.46732,0.39929,0.37061,0.34372,0.31682,0.29031,0.2638,0.23978,0.21577,0.19478,0.17379,0.15948,0.14517,0.13237,0.11958,0.10931,0.099036,0.090635,0.082233,0.07971,0.077187,0.070418,0.063649,0.058311,0.052974,0.047553,0.042132,0.039718,0.037305,0.034482,0.031658
0.026528,0.028127,0.029726,0.03208,0.034434,0.037164,0.039894,0.043104,0.046315,0.050268,0.054221,0.058816,0.063412,0.06883,0.074248,0.083777,0.093307,0.10303,0.11275,0.12494,0.13712,0.14898,0.16084,0.17496,0.18908,0.20506,0.22105,0.22202,0.22298,0.25734,0.33939,0.36104,0.38269,0.38874,0.39478,0.4116,0.42842,0.43866,0.4489,0.45987,0.47084,0.47914,0.48743,0.4914,0.49536,0.49775,0.50014,0.50373,0.50732,0.52451,0.5417,0.54691,0.55212,0.54379,0.53547,0.55696,0.57845,0.58773,0.59701,0.6093,0.62159,0.63605,0.6505,0.65984,0.66918,0.66532,0.66146,0.65533,0.6492,0.63424,0.61927,0.60277,0.58626,0.56418,0.54209,0.51913,0.49617,0.47017,0.44416,0.41796,0.39177,0.33284,0.31035,0.28923,0.2681,0.24743,0.22675,0.20806,0.18937,0.17266,0.15595,0.14339,0.13083,0.11997,0.1091,0.10013,0.091169,0.086271,0.081372,0.075673,0.069973,0.064123,0.058273,0.053563,0.048853,0.044964,0.041075,0.037988,0.0349,0.032344,0.029788
0.025086,0.027051,0.029016,0.030337,0.031658,0.0352,0.038742,0.041797,0.044851,0.048595,0.052338,0.056658,0.060977,0.066084,0.07119,0.077068,0.082946,0.089804,0.096661,0.1091,0.12154,0.13137,0.14119,0.15256,0.16393,0.17634,0.18875,0.20149,0.21422,0.22693,0.28362,0.30112,0.31863,0.30255,0.28648,0.29527,0.30406,0.31195,0.31985,0.32884,0.33784,0.34568,0.35351,0.36064,0.36776,0.37447,0.38118,0.38783,0.39448,0.42577,0.45706,0.46161,0.46615,0.47096,0.47577,0.4804,0.48503,0.49028,0.49554,0.50124,0.50694,0.5138,0.52065,0.52528,0.52992,0.52445,0.51899,0.51715,0.51531,0.50391,0.49251,0.476,0.45949,0.44351,0.42754,0.40963,0.39172,0.37357,0.35541,0.33581,0.31622,0.26638,0.25008,0.23474,0.21939,0.20454,0.1897,0.17634,0.16298,0.15054,0.1381,0.1273,0.11649,0.10756,0.098621,0.090961,0.083302,0.081907,0.080512,0.071635,0.062759,0.057828,0.052897,0.048815,0.044733,0.042375,0.040018,0.036257,0.032496,0.030207,0.027918
0.023595,0.02532,0.027045,0.028949,0.030854,0.033233,0.035613,0.038274,0.040936,0.044145,0.047354,0.051007,0.05466,0.058916,0.063171,0.068056,0.072941,0.078493,0.084044,0.092713,0.10138,0.11398,0.12659,0.13632,0.14606,0.15648,0.1669,0.17754,0.18819,0.19856,0.25174,0.26524,0.27875,0.27566,0.27256,0.28248,0.29239,0.30085,0.30931,0.315,0.32068,0.32758,0.33448,0.34041,0.34633,0.35194,0.35755,0.36255,0.36756,0.38495,0.40235,0.40538,0.40841,0.41278,0.41716,0.42099,0.42482,0.42837,0.43192,0.4355,0.43907,0.44192,0.44477,0.44446,0.44415,0.44258,0.441,0.43665,0.4323,0.42332,0.41434,0.40265,0.39096,0.37719,0.36343,0.34916,0.33489,0.32021,0.30552,0.29027,0.27503,0.22935,0.21633,0.20414,0.19196,0.17977,0.16758,0.15629,0.14499,0.13456,0.12412,0.11489,0.10566,0.097908,0.09016,0.086271,0.082382,0.077276,0.072169,0.066404,0.060639,0.055937,0.051234,0.047354,0.043474,0.040299,0.037124,0.034434,0.031744,0.029539,0.027333
0.022105,0.023589,0.025074,0.027562,0.030049,0.031266,0.032484,0.034752,0.03702,0.039695,0.042369,0.045356,0.048343,0.051748,0.055153,0.059045,0.062937,0.067182,0.071427,0.076326,0.081224,0.096602,0.11198,0.12008,0.12819,0.13662,0.14505,0.1536,0.16215,0.1702,0.21985,0.22936,0.23887,0.24876,0.25865,0.26968,0.28072,0.28975,0.29877,0.30115,0.30352,0.30949,0.31546,0.32018,0.3249,0.32941,0.33392,0.33728,0.34063,0.34413,0.34764,0.34915,0.35066,0.35461,0.35856,0.36159,0.36462,0.36646,0.3683,0.36975,0.37121,0.37005,0.36889,0.36364,0.35838,0.3607,0.36301,0.35616,0.3493,0.34274,0.33618,0.3293,0.32243,0.31087,0.29932,0.28869,0.27807,0.26685,0.25562,0.24473,0.23384,0.19231,0.18258,0.17355,0.16453,0.155,0.14547,0.13623,0.127,0.11857,0.11014,0.10248,0.094821,0.08826,0.081699,0.08158,0.081462,0.072644,0.063827,0.061173,0.058519,0.054045,0.049572,0.045893,0.042215,0.038222,0.034229,0.032611,0.030993,0.028871,0.026748
0.021511,0.022923,0.024335,0.026083,0.027832,0.029703,0.031575,0.033735,0.035895,0.038451,0.041007,0.043838,0.046668,0.049882,0.053095,0.056757,0.060419,0.064409,0.068399,0.072941,0.077483,0.085351,0.093218,0.10201,0.11079,0.12,0.1292,0.13649,0.14377,0.15044,0.1955,0.20442,0.21333,0.22206,0.23078,0.23877,0.24676,0.25437,0.26199,0.26747,0.27294,0.27584,0.27873,0.2831,0.28746,0.29153,0.29559,0.29893,0.30227,0.30545,0.30863,0.31053,0.31243,0.31549,0.31854,0.32075,0.32297,0.32224,0.32151,0.32257,0.32362,0.32292,0.32222,0.31908,0.31593,0.31471,0.3135,0.30954,0.30558,0.30005,0.29452,0.2873,0.28008,0.2717,0.26331,0.25377,0.24424,0.23561,0.22699,0.21751,0.20803,0.16975,0.16168,0.15382,0.14597,0.13784,0.1297,0.12191,0.11412,0.10692,0.099719,0.093084,0.086449,0.083599,0.080749,0.076593,0.072437,0.066922,0.061408,0.057197,0.052986,0.049122,0.045258,0.04205,0.038843,0.036086,0.03333,0.031115,0.0289,0.026996,0.025092
0.020918,0.022256,0.023595,0.024605,0.025614,0.02814,0.030667,0.032718,0.03477,0.037207,0.039644,0.042319,0.044994,0.048016,0.051038,0.05447,0.057902,0.061636,0.065371,0.069557,0.073743,0.074099,0.074455,0.083926,0.093396,0.10337,0.11335,0.11937,0.1254,0.13068,0.17116,0.17947,0.18779,0.19536,0.20292,0.20786,0.21279,0.219,0.22521,0.23379,0.24237,0.24219,0.24201,0.24602,0.25003,0.25365,0.25727,0.26059,0.26392,0.26677,0.26962,0.2719,0.27419,0.27636,0.27852,0.27992,0.28132,0.27802,0.27472,0.27538,0.27603,0.27579,0.27556,0.27452,0.27348,0.26873,0.26398,0.26292,0.26186,0.25737,0.25287,0.2453,0.23774,0.23252,0.22731,0.21886,0.2104,0.20438,0.19835,0.19029,0.18222,0.14719,0.14078,0.1341,0.12742,0.12068,0.11394,0.10759,0.10123,0.095266,0.089299,0.083688,0.078077,0.078938,0.079799,0.071605,0.063412,0.0612,0.058988,0.05322,0.047452,0.044198,0.040945,0.038207,0.03547,0.03395,0.03243,0.029619,0.026807,0.025121,0.023435
0.019668,0.020869,0.022069,0.023444,0.024818,0.026543,0.028268,0.03046,0.032653,0.03432,0.035987,0.038267,0.040547,0.043121,0.045694,0.048576,0.051457,0.05458,0.057703,0.061182,0.064662,0.067896,0.07113,0.075821,0.080512,0.087087,0.093663,0.09822,0.10278,0.11039,0.15223,0.15851,0.16479,0.17266,0.18053,0.18636,0.19219,0.19776,0.20334,0.20881,0.21428,0.21768,0.22108,0.22348,0.22589,0.22792,0.22996,0.23297,0.23598,0.23864,0.2413,0.24198,0.24266,0.24125,0.23984,0.24155,0.24326,0.24421,0.24516,0.24388,0.2426,0.24245,0.24231,0.2414,0.24049,0.23838,0.23627,0.23333,0.23039,0.22663,0.22287,0.21769,0.21251,0.20695,0.20139,0.19462,0.18786,0.18239,0.17693,0.16999,0.16306,0.13061,0.12513,0.11952,0.11391,0.10817,0.10242,0.096973,0.091525,0.086345,0.081165,0.079131,0.077097,0.073787,0.070477,0.065652,0.060826,0.056941,0.053057,0.049432,0.045807,0.042726,0.039644,0.037042,0.03444,0.032228,0.030017,0.028084,0.026151,0.02453,0.02291
0.018418,0.019481,0.020543,0.022283,0.024023,0.024946,0.025869,0.028203,0.030536,0.031433,0.032329,0.034214,0.0361,0.038225,0.040351,0.042681,0.045012,0.047523,0.050035,0.052807,0.05558,0.061693,0.067805,0.067716,0.067627,0.070804,0.07398,0.077068,0.080155,0.0901,0.1333,0.13755,0.1418,0.14997,0.15814,0.16486,0.17158,0.17652,0.18147,0.18383,0.1862,0.19317,0.20015,0.20095,0.20175,0.2022,0.20264,0.20535,0.20805,0.21051,0.21298,0.21206,0.21113,0.20615,0.20116,0.20318,0.2052,0.21039,0.21559,0.21238,0.20918,0.20912,0.20906,0.20828,0.2075,0.20803,0.20856,0.20374,0.19892,0.1959,0.19287,0.19007,0.18728,0.18137,0.17546,0.17039,0.16532,0.16041,0.1555,0.1497,0.14389,0.11403,0.10949,0.10494,0.1004,0.095652,0.090902,0.08636,0.081818,0.077424,0.07303,0.074574,0.076118,0.068637,0.061156,0.059698,0.05824,0.052683,0.047125,0.045644,0.044163,0.041253,0.038344,0.035877,0.03341,0.030507,0.027603,0.026549,0.025495,0.02394,0.022384
0.017922,0.018936,0.01995,0.021139,0.022328,0.023716,0.025103,0.02631,0.027517,0.02942,0.031323,0.033115,0.034906,0.036923,0.038941,0.041143,0.043346,0.045714,0.048081,0.050692,0.053303,0.056343,0.059383,0.061976,0.06457,0.067538,0.070507,0.073372,0.076237,0.082382,0.11915,0.1237,0.12824,0.13199,0.13574,0.1427,0.14966,0.15129,0.15293,0.1568,0.16068,0.16471,0.16874,0.17214,0.17554,0.17753,0.17952,0.18439,0.18926,0.18857,0.18789,0.18835,0.18881,0.18695,0.1851,0.1866,0.1881,0.18939,0.19068,0.19055,0.19041,0.19008,0.18975,0.18874,0.18773,0.18619,0.18464,0.18207,0.1795,0.1766,0.1737,0.17017,0.16664,0.16249,0.15834,0.154,0.14966,0.14485,0.14003,0.13482,0.1296,0.10217,0.098294,0.094331,0.090368,0.08633,0.082293,0.081491,0.08069,0.076385,0.07208,0.069535,0.066989,0.062793,0.058596,0.055322,0.052047,0.048711,0.045374,0.042708,0.040042,0.037529,0.035016,0.032853,0.030691,0.02877,0.026849,0.02528,0.023711,0.022399,0.021087
0.017426,0.018391,0.019356,0.019994,0.020633,0.022485,0.024338,0.024418,0.024498,0.027407,0.030317,0.032015,0.033713,0.035622,0.03753,0.039606,0.041681,0.043904,0.046128,0.048577,0.051026,0.050994,0.050961,0.056236,0.061512,0.064273,0.067034,0.069676,0.072318,0.074663,0.105,0.10985,0.11469,0.11401,0.11333,0.12053,0.12773,0.12606,0.1244,0.12978,0.13516,0.13625,0.13733,0.14333,0.14933,0.15286,0.15639,0.16343,0.17046,0.16663,0.1628,0.16464,0.16649,0.16776,0.16904,0.17002,0.171,0.16839,0.16577,0.16871,0.17165,0.17105,0.17045,0.16921,0.16797,0.16435,0.16073,0.1604,0.16007,0.1573,0.15453,0.15026,0.146,0.14361,0.14122,0.13761,0.134,0.12928,0.12457,0.11993,0.1153,0.090308,0.087102,0.083718,0.080333,0.077008,0.073683,0.076623,0.079562,0.075346,0.07113,0.064495,0.05786,0.056949,0.056037,0.050946,0.045855,0.044739,0.043622,0.039772,0.035921,0.033805,0.031688,0.02983,0.027971,0.027033,0.026095,0.024011,0.021927,0.020858,0.019789
0.016375,0.017251,0.018127,0.019067,0.020006,0.021234,0.022461,0.022996,0.02353,0.025577,0.027624,0.029087,0.030551,0.032234,0.033918,0.035653,0.037388,0.03934,0.041292,0.04333,0.045368,0.047127,0.048886,0.051418,0.05395,0.056216,0.058481,0.06074,0.062999,0.064926,0.094046,0.097481,0.10092,0.1036,0.10629,0.1102,0.11411,0.11646,0.11881,0.12208,0.12535,0.12818,0.13101,0.1342,0.13738,0.14026,0.14314,0.14604,0.14894,0.14983,0.15072,0.15078,0.15084,0.1505,0.15017,0.1511,0.15203,0.15219,0.15234,0.15266,0.15298,0.15238,0.15179,0.15068,0.14957,0.1479,0.14622,0.14454,0.14286,0.14051,0.13816,0.1354,0.13265,0.12965,0.12664,0.12345,0.12026,0.11638,0.1125,0.10886,0.10523,0.084415,0.084697,0.081966,0.079235,0.075969,0.072704,0.071116,0.069527,0.066067,0.062607,0.059002,0.055396,0.052652,0.049907,0.046993,0.044079,0.041722,0.039365,0.037041,0.034716,0.032711,0.030705,0.028932,0.027158,0.025648,0.024139,0.021826,0.019513,0.019383,0.019252
0.015325,0.016111,0.016898,0.018139,0.01938,0.019982,0.020585,0.021574,0.022562,0.023747,0.024931,0.02616,0.027389,0.028847,0.030305,0.0317,0.033095,0.034776,0.036456,0.038083,0.03971,0.04326,0.046811,0.0466,0.046389,0.048158,0.049928,0.051804,0.05368,0.055188,0.083088,0.085116,0.087144,0.093191,0.099238,0.099868,0.1005,0.10686,0.11323,0.11438,0.11553,0.12011,0.12469,0.12506,0.12544,0.12766,0.12988,0.12865,0.12742,0.13303,0.13864,0.13692,0.1352,0.13325,0.1313,0.13218,0.13306,0.13598,0.13891,0.13661,0.1343,0.13372,0.13313,0.13215,0.13117,0.13145,0.13172,0.12869,0.12565,0.12372,0.12178,0.12054,0.11931,0.11569,0.11207,0.10929,0.10652,0.10347,0.10043,0.097795,0.095165,0.078522,0.082293,0.080215,0.078137,0.07493,0.071724,0.065609,0.059493,0.056789,0.054084,0.053508,0.052932,0.048354,0.043777,0.04304,0.042304,0.038706,0.035108,0.034309,0.033511,0.031617,0.029723,0.028034,0.026344,0.024263,0.022182,0.019641,0.0171,0.017907,0.018715
0.014933,0.015703,0.016473,0.017278,0.018082,0.018994,0.019905,0.020855,0.021805,0.022233,0.02266,0.0246,0.02654,0.027956,0.029372,0.030665,0.031958,0.03359,0.035221,0.036765,0.038308,0.039911,0.041514,0.043018,0.044522,0.046181,0.047841,0.049677,0.051513,0.052929,0.078606,0.081179,0.083753,0.086425,0.089097,0.091643,0.094188,0.096773,0.099357,0.10169,0.10403,0.10659,0.10915,0.11126,0.11336,0.11555,0.11773,0.11971,0.12169,0.12398,0.12626,0.12757,0.12888,0.12837,0.12786,0.12878,0.12969,0.13044,0.13118,0.13065,0.13011,0.12624,0.12237,0.12138,0.12038,0.11926,0.11813,0.11659,0.11505,0.11325,0.11145,0.11272,0.11399,0.10977,0.10556,0.10503,0.10449,0.10154,0.098591,0.095622,0.092654,0.072867,0.07208,0.07003,0.067981,0.065373,0.062765,0.059778,0.056791,0.054249,0.051706,0.049401,0.047096,0.044569,0.042043,0.040043,0.038044,0.035973,0.033903,0.032206,0.030509,0.028853,0.027196,0.025734,0.024272,0.021992,0.019712,0.018695,0.017679,0.017633,0.017587
0.014541,0.015295,0.016049,0.016417,0.016785,0.018005,0.019225,0.020137,0.021048,0.020719,0.020389,0.02304,0.025691,0.027066,0.02844,0.029631,0.030821,0.032404,0.033986,0.035446,0.036907,0.036563,0.036218,0.039436,0.042654,0.044204,0.045754,0.04755,0.049346,0.05067,0.074123,0.077243,0.080363,0.079659,0.078956,0.083418,0.08788,0.086683,0.085487,0.089011,0.092535,0.093078,0.093621,0.097448,0.10127,0.10343,0.10559,0.11078,0.11597,0.11493,0.11389,0.11823,0.12257,0.1235,0.12442,0.12537,0.12632,0.12489,0.12346,0.12469,0.12591,0.11876,0.11162,0.11061,0.10959,0.10707,0.10454,0.10449,0.10444,0.10278,0.10113,0.1049,0.10867,0.10386,0.099048,0.10076,0.10247,0.099612,0.096756,0.093449,0.090142,0.067212,0.061868,0.059846,0.057825,0.055815,0.053805,0.053947,0.05409,0.051709,0.049328,0.045294,0.041259,0.040784,0.040309,0.037047,0.033784,0.033241,0.032697,0.030103,0.027508,0.026089,0.02467,0.023435,0.0222,0.019721,0.017242,0.01775,0.018258,0.017358,0.016459
0.015037,0.015664,0.016292,0.016188,0.016084,0.0179,0.019715,0.02061,0.021505,0.021703,0.0219,0.023938,0.025976,0.027076,0.028176,0.029579,0.030981,0.032205,0.033428,0.034814,0.0362,0.036583,0.036966,0.039594,0.042221,0.043636,0.04505,0.046285,0.04752,0.048687,0.069521,0.072637,0.075753,0.076232,0.076712,0.080307,0.083902,0.084182,0.084463,0.086504,0.088545,0.090258,0.091971,0.093897,0.095824,0.097567,0.099309,0.10242,0.10553,0.10656,0.10759,0.109,0.1104,0.11122,0.11204,0.11259,0.11314,0.11246,0.11178,0.11212,0.11246,0.1103,0.10815,0.10719,0.10623,0.10453,0.10282,0.10208,0.10134,0.099704,0.098068,0.097608,0.097148,0.095373,0.093598,0.09191,0.090222,0.087182,0.084142,0.08242,0.080699,0.060998,0.058884,0.057008,0.055132,0.053235,0.051338,0.049598,0.047859,0.045867,0.043875,0.041746,0.039617,0.037927,0.036236,0.034409,0.032582,0.031124,0.029666,0.028152,0.026638,0.025285,0.023931,0.021824,0.019718,0.018739,0.017759,0.017744,0.017729,0.016873,0.016016
0.015532,0.016034,0.016536,0.01596,0.015384,0.017794,0.020205,0.021084,0.021963,0.022687,0.023411,0.024836,0.026261,0.027087,0.027912,0.029527,0.031142,0.032006,0.03287,0.034182,0.035494,0.036604,0.037715,0.039751,0.041788,0.043067,0.044347,0.045021,0.045694,0.046704,0.06492,0.068031,0.071142,0.072805,0.074467,0.077195,0.079924,0.081681,0.083439,0.083997,0.084555,0.087438,0.09032,0.090347,0.090374,0.091704,0.093034,0.094064,0.095094,0.098193,0.10129,0.099764,0.098235,0.098947,0.09966,0.099805,0.099951,0.10002,0.10009,0.099547,0.099007,0.10184,0.10468,0.10378,0.10287,0.10199,0.1011,0.099672,0.098241,0.096626,0.095011,0.09032,0.08563,0.086888,0.088147,0.083062,0.077976,0.074752,0.071528,0.071392,0.071255,0.054785,0.055901,0.05417,0.052439,0.050655,0.048871,0.045249,0.041627,0.040024,0.038421,0.038198,0.037976,0.035069,0.032163,0.031771,0.031379,0.029007,0.026635,0.026202,0.025768,0.02448,0.023192,0.020214,0.017236,0.017756,0.018275,0.017738,0.017201,0.016387,0.015574
