0.0051479,0.0053154,0.0054828,0.0057038,0.0059249,0.0062793,0.0066338,0.0070833,0.0075329,0.0077375,0.0079421,0.008504,0.009066,0.0090458,0.0090256,0.0099478,0.01087,0.010547,0.010224,0.011648,0.013072,0.013193,0.013314,0.014409,0.015504,0.016095,0.016685,0.015608,0.01453,0.014657,0.020812,0.021192,0.021573,0.024209,0.026846,0.026276,0.025705,0.027336,0.028967,0.029443,0.029918,0.030224,0.030529,0.030757,0.030984,0.031376,0.031768,0.031846,0.031924,0.031267,0.03061,0.028388,0.026166,0.027071,0.027976,0.027186,0.026397,0.027734,0.029071,0.028849,0.028627,0.027941,0.027255,0.027359,0.027463,0.026688,0.025913,0.025826,0.02574,0.026535,0.02733,0.026688,0.026045,0.024509,0.022973,0.023878,0.024783,0.022878,0.020973,0.020414,0.019855,0.013429,0.013135,0.012919,0.012703,0.01234,0.011977,0.012236,0.012495,0.012123,0.011752,0.011495,0.011239,0.010573,0.0099074,0.0097806,0.0096538,0.0093023,0.0089507,0.008455,0.0079594,0.0077144,0.0074695,0.007262,0.0070545,0.0067433,0.006432,0.0061525,0.005873,0.0056655,0.005458
0.0052243,0.0054012,0.0055782,0.005812,0.0060459,0.0064234,0.0068009,0.0072865,0.0077721,0.0081971,0.0086222,0.0090299,0.0094377,0.009687,0.0099362,0.01068,0.011423,0.011651,0.011879,0.012861,0.013844,0.013779,0.013714,0.014492,0.01527,0.01588,0.016489,0.016826,0.017164,0.018159,0.025186,0.025862,0.026538,0.027535,0.028532,0.029338,0.030143,0.030502,0.030861,0.031356,0.031852,0.032064,0.032275,0.032663,0.033051,0.033407,0.033762,0.033699,0.033636,0.033545,0.033454,0.032999,0.032543,0.03258,0.032616,0.031767,0.030918,0.031002,0.031085,0.030876,0.030667,0.030575,0.030483,0.029972,0.02946,0.029015,0.02857,0.028032,0.027495,0.028044,0.028593,0.028081,0.02757,0.025937,0.024305,0.024843,0.025382,0.023753,0.022123,0.021996,0.02187,0.014942,0.014576,0.014164,0.013752,0.013314,0.012876,0.012533,0.01219,0.011887,0.011585,0.011324,0.011063,0.010387,0.0097115,0.0095847,0.0094579,0.009102,0.0087461,0.0082533,0.0077605,0.0075703,0.0073801,0.0071006,0.0068211,0.0065171,0.006213,0.0059617,0.0057105,0.0055185,0.0053266
0.0053007,0.0054871,0.0056736,0.0059202,0.0061669,0.0065675,0.006968,0.0074896,0.0080112,0.0086567,0.0093023,0.0095558,0.0098094,0.010328,0.010847,0.011412,0.011977,0.012755,0.013533,0.014074,0.014616,0.014365,0.014115,0.014576,0.015037,0.015665,0.016293,0.018045,0.019798,0.021662,0.029561,0.030532,0.031503,0.030861,0.030218,0.032399,0.034581,0.033667,0.032754,0.03327,0.033786,0.033904,0.034022,0.034569,0.035117,0.035437,0.035757,0.035552,0.035347,0.035823,0.036298,0.03761,0.038921,0.038088,0.037255,0.036347,0.03544,0.03427,0.0331,0.032904,0.032708,0.033209,0.033711,0.032584,0.031457,0.031342,0.031227,0.030238,0.02925,0.029552,0.029855,0.029474,0.029094,0.027365,0.025636,0.025809,0.025982,0.024627,0.023273,0.023578,0.023884,0.016455,0.016017,0.015409,0.014801,0.014288,0.013775,0.01283,0.011884,0.011651,0.011417,0.011152,0.010887,0.010201,0.0095155,0.0093887,0.0092619,0.0089017,0.0085415,0.0080516,0.0075617,0.0074262,0.0072908,0.0069392,0.0065877,0.0062908,0.005994,0.005771,0.0055479,0.0053716,0.0051952
0.0054986,0.0057109,0.0059231,0.0062093,0.0064954,0.0069594,0.0074234,0.0080357,0.0086481,0.0091611,0.009674,0.01026,0.010847,0.011481,0.012115,0.012814,0.013512,0.014069,0.014625,0.014868,0.015112,0.015852,0.016593,0.01792,0.019247,0.020139,0.021031,0.022472,0.023913,0.024522,0.031515,0.032456,0.033396,0.034555,0.035713,0.036255,0.036797,0.037831,0.038866,0.039471,0.040076,0.040535,0.040993,0.041274,0.041555,0.04184,0.042125,0.042301,0.042477,0.042405,0.042333,0.041899,0.041465,0.041254,0.041042,0.040754,0.040465,0.039589,0.038713,0.038288,0.037863,0.037213,0.036564,0.03587,0.035177,0.035252,0.035327,0.034709,0.034091,0.033293,0.032494,0.031693,0.030892,0.030271,0.02965,0.028803,0.027956,0.027343,0.026731,0.025915,0.0251,0.017407,0.016924,0.016306,0.015688,0.01512,0.014553,0.014037,0.013521,0.012982,0.012443,0.011919,0.011394,0.010974,0.010553,0.010464,0.010374,0.009612,0.0088498,0.0085112,0.0081726,0.0078282,0.0074839,0.0071179,0.0067519,0.0064335,0.0061151,0.0058769,0.0056387,0.0054494,0.00526
0.0056966,0.0059347,0.0061727,0.0064983,0.006824,0.0073513,0.0078787,0.0085818,0.009285,0.0096654,0.010046,0.010965,0.011884,0.012634,0.013383,0.014216,0.015048,0.015383,0.015717,0.015662,0.015608,0.017339,0.019071,0.021264,0.023457,0.024613,0.025769,0.026898,0.028028,0.027382,0.033469,0.034379,0.03529,0.038249,0.041209,0.040111,0.039013,0.041996,0.044978,0.045673,0.046367,0.047165,0.047964,0.047978,0.047992,0.048243,0.048494,0.04905,0.049606,0.048987,0.048367,0.046189,0.04401,0.044419,0.044828,0.04516,0.045491,0.044909,0.044327,0.043673,0.043019,0.041218,0.039416,0.039157,0.038898,0.039163,0.039428,0.03918,0.038932,0.037033,0.035134,0.033912,0.03269,0.033177,0.033664,0.031797,0.02993,0.030059,0.030189,0.028253,0.026316,0.01836,0.017832,0.017204,0.016576,0.015953,0.015331,0.015244,0.015158,0.014314,0.013469,0.012685,0.011902,0.011746,0.01159,0.011538,0.011487,0.010322,0.0091582,0.0089709,0.0087835,0.0082302,0.007677,0.0072966,0.0069162,0.0065761,0.0062361,0.0059828,0.0057295,0.0055272,0.0053249
0.0057906,0.0060465,0.0063024,0.0066482,0.006994,0.0075574,0.0081207,0.0088758,0.0096308,0.010341,0.011051,0.011752,0.012452,0.01327,0.014089,0.014999,0.01591,0.016132,0.016354,0.017319,0.018285,0.020479,0.022674,0.023803,0.024933,0.026202,0.027472,0.028717,0.029961,0.031404,0.039765,0.041133,0.0425,0.043422,0.044344,0.04589,0.047436,0.048065,0.048693,0.049507,0.050321,0.050873,0.051425,0.051891,0.052358,0.052688,0.053018,0.053097,0.053177,0.053171,0.053165,0.053227,0.053289,0.0527,0.05211,0.05134,0.050569,0.04984,0.049111,0.047673,0.046235,0.045105,0.043975,0.042739,0.041503,0.041581,0.041658,0.042091,0.042523,0.041844,0.041166,0.040179,0.039192,0.036669,0.034146,0.033095,0.032045,0.032061,0.032077,0.03109,0.030103,0.021528,0.020965,0.020181,0.019397,0.018606,0.017815,0.01693,0.016046,0.015393,0.01474,0.014095,0.013449,0.012789,0.012129,0.01225,0.012371,0.011217,0.010063,0.0095775,0.0090919,0.0086769,0.0082619,0.0078153,0.0073686,0.0069536,0.0065387,0.0062492,0.0059597,0.0057352,0.0055108
0.0058845,0.0061583,0.006432,0.006798,0.007164,0.0077634,0.0083628,0.0091697,0.0099766,0.011017,0.012057,0.012538,0.01302,0.013907,0.014795,0.015783,0.016772,0.016881,0.016991,0.018976,0.020962,0.023619,0.026276,0.026342,0.026408,0.027791,0.029175,0.030535,0.031895,0.035425,0.046062,0.047886,0.04971,0.048595,0.04748,0.05167,0.05586,0.054133,0.052407,0.053341,0.054275,0.05458,0.054886,0.055805,0.056724,0.057133,0.057543,0.057145,0.056747,0.057355,0.057963,0.060266,0.062568,0.06098,0.059393,0.05752,0.055646,0.05477,0.053894,0.051672,0.049451,0.048992,0.048534,0.046321,0.044108,0.043998,0.043889,0.045001,0.046114,0.046655,0.047197,0.046445,0.045693,0.04016,0.034627,0.034394,0.03416,0.034062,0.033964,0.033927,0.033889,0.024697,0.024097,0.023158,0.022218,0.021259,0.020299,0.018616,0.016933,0.016472,0.016011,0.015504,0.014997,0.013832,0.012668,0.012962,0.013256,0.012112,0.010968,0.010184,0.0094002,0.0091236,0.0088469,0.008334,0.007821,0.0073311,0.0068412,0.0065156,0.00619,0.0059433,0.0056966
0.0061381,0.0064508,0.0067634,0.0071885,0.0076136,0.0083052,0.0089968,0.0099478,0.010899,0.011753,0.012608,0.013587,0.014567,0.014789,0.015011,0.017063,0.019115,0.019633,0.020152,0.022512,0.024872,0.026405,0.027938,0.029986,0.032033,0.033882,0.035731,0.037579,0.039428,0.04069,0.049546,0.0514,0.053255,0.055534,0.057813,0.058911,0.060009,0.062073,0.064136,0.065312,0.066487,0.067315,0.068142,0.068634,0.069127,0.069476,0.069825,0.069934,0.070044,0.069679,0.069314,0.068271,0.067228,0.065609,0.063989,0.064812,0.065635,0.064535,0.063436,0.061646,0.059857,0.058956,0.058056,0.057102,0.056148,0.054799,0.053451,0.053916,0.054381,0.051743,0.049105,0.04855,0.047995,0.04601,0.044024,0.04236,0.040696,0.040602,0.040509,0.03888,0.037252,0.026222,0.024097,0.023934,0.023771,0.022695,0.021619,0.020642,0.019665,0.018677,0.017688,0.016747,0.015806,0.015048,0.014291,0.013959,0.013628,0.012527,0.011426,0.010861,0.010296,0.0097172,0.009138,0.008589,0.0080401,0.007517,0.006994,0.0066467,0.0062995,0.0060465,0.0057934
0.0063917,0.0067433,0.0070948,0.007579,0.0080631,0.0088469,0.0096308,0.010726,0.011821,0.012489,0.013158,0.014636,0.016115,0.015671,0.015227,0.018342,0.021457,0.022385,0.023313,0.026048,0.028783,0.029192,0.029601,0.03363,0.037659,0.039973,0.042287,0.044624,0.046961,0.045955,0.05303,0.054914,0.056799,0.062473,0.068147,0.066153,0.064159,0.070012,0.075865,0.077282,0.0787,0.080049,0.081398,0.081464,0.08153,0.081818,0.082107,0.082723,0.08334,0.082003,0.080666,0.076277,0.071888,0.070237,0.068585,0.072104,0.075623,0.0743,0.072977,0.07162,0.070263,0.06892,0.067577,0.067882,0.068188,0.0656,0.063012,0.062831,0.062649,0.056831,0.051013,0.050655,0.050298,0.05186,0.053422,0.050327,0.047232,0.047142,0.047053,0.043834,0.040615,0.027748,0.024097,0.024711,0.025325,0.024132,0.022939,0.022668,0.022397,0.020881,0.019365,0.017991,0.016616,0.016265,0.015913,0.014956,0.013999,0.012942,0.011884,0.011538,0.011193,0.010311,0.0094291,0.0088441,0.0082591,0.0077029,0.0071467,0.0067779,0.006409,0.0061496,0.0058903
0.0065156,0.0068859,0.0072562,0.0077692,0.0082821,0.0091178,0.0099535,0.011128,0.012302,0.013463,0.014625,0.015158,0.015691,0.016728,0.017766,0.020174,0.022581,0.02425,0.025918,0.02824,0.030561,0.033198,0.035834,0.038084,0.040333,0.04288,0.045428,0.047995,0.050563,0.053593,0.064943,0.067721,0.070499,0.072303,0.074107,0.076545,0.078983,0.078718,0.078452,0.080046,0.08164,0.082599,0.083559,0.084318,0.085078,0.08556,0.086043,0.085977,0.08591,0.088049,0.090187,0.09016,0.090132,0.087605,0.085078,0.084769,0.084461,0.083278,0.082095,0.080964,0.079833,0.078039,0.076245,0.074456,0.072666,0.071268,0.069871,0.068271,0.066672,0.06478,0.062888,0.061287,0.059687,0.058256,0.056825,0.05609,0.055355,0.052635,0.049915,0.048785,0.047655,0.034847,0.032103,0.031443,0.030783,0.029401,0.028019,0.025943,0.023867,0.022642,0.021417,0.020244,0.019071,0.01791,0.016749,0.015897,0.015046,0.014129,0.013213,0.012425,0.011636,0.010936,0.010236,0.00954,0.0088441,0.0082058,0.0075674,0.0071496,0.0067317,0.0064306,0.0061295
0.0066395,0.0070286,0.0074176,0.0079594,0.0085011,0.0093887,0.010276,0.01153,0.012783,0.014438,0.016092,0.01568,0.015267,0.017786,0.020305,0.022005,0.023705,0.026114,0.028523,0.030431,0.032339,0.037203,0.042068,0.042537,0.043007,0.045788,0.048569,0.051367,0.054165,0.061231,0.076856,0.080527,0.084199,0.082132,0.080066,0.086936,0.093806,0.087423,0.08104,0.08281,0.084579,0.08515,0.08572,0.087173,0.088625,0.089302,0.089979,0.08923,0.088481,0.094095,0.099708,0.10404,0.10838,0.10497,0.10157,0.097434,0.093299,0.092256,0.091213,0.090308,0.089403,0.087158,0.084913,0.081029,0.077144,0.076937,0.076729,0.073712,0.070695,0.072729,0.074764,0.07192,0.069075,0.064652,0.060228,0.061854,0.063479,0.058128,0.052776,0.053736,0.054695,0.041947,0.040108,0.038174,0.036241,0.03467,0.0331,0.029218,0.025336,0.024403,0.023469,0.022498,0.021527,0.019555,0.017584,0.016838,0.016092,0.015316,0.014541,0.013311,0.01208,0.011562,0.011043,0.010236,0.0094291,0.0087086,0.0079882,0.0075213,0.0070545,0.0067116,0.0063686
0.006945,0.0073917,0.0078383,0.0084536,0.0090688,0.010085,0.0111,0.012572,0.014043,0.015455,0.016867,0.017806,0.018746,0.02111,0.023475,0.025642,0.027809,0.029888,0.031967,0.035487,0.039007,0.042007,0.045007,0.049134,0.05326,0.057115,0.060969,0.064212,0.067456,0.068568,0.078891,0.082494,0.086098,0.086876,0.087654,0.092782,0.09791,0.096175,0.09444,0.09658,0.09872,0.10018,0.10163,0.1025,0.10337,0.10388,0.10439,0.10484,0.1053,0.10677,0.10825,0.10984,0.11144,0.11035,0.10926,0.10897,0.10868,0.1074,0.10611,0.10432,0.10254,0.10089,0.099238,0.097532,0.095826,0.093593,0.09136,0.089688,0.088017,0.085047,0.082078,0.078827,0.075577,0.074255,0.072934,0.070763,0.068591,0.066715,0.064839,0.061456,0.058073,0.044726,0.042716,0.040592,0.038468,0.036509,0.034549,0.032414,0.030278,0.028564,0.026849,0.024829,0.022809,0.021437,0.020066,0.018757,0.017449,0.016328,0.015207,0.014265,0.013322,0.012373,0.011423,0.01056,0.0096971,0.0089449,0.0081928,0.0076986,0.0072043,0.0068398,0.0064753
0.0072505,0.0077548,0.0082591,0.0089478,0.0096365,0.010781,0.011925,0.013613,0.015302,0.016472,0.017642,0.019933,0.022224,0.024434,0.026645,0.029278,0.031912,0.033662,0.035411,0.040543,0.045676,0.046811,0.047946,0.05573,0.063514,0.068441,0.073369,0.077058,0.080746,0.075905,0.080925,0.084461,0.087997,0.091619,0.095241,0.098628,0.10201,0.10493,0.10784,0.11035,0.11286,0.1152,0.11755,0.11783,0.11812,0.11846,0.1188,0.12046,0.12212,0.11945,0.11679,0.11564,0.1145,0.11572,0.11695,0.12051,0.12407,0.12254,0.12101,0.11834,0.11567,0.11462,0.11356,0.11404,0.11451,0.11025,0.10599,0.10566,0.10534,0.097365,0.089392,0.085735,0.082078,0.083859,0.08564,0.079671,0.073703,0.075303,0.076902,0.069176,0.06145,0.047505,0.045324,0.04301,0.040696,0.038347,0.035999,0.03561,0.035221,0.032725,0.030229,0.02716,0.024091,0.023319,0.022547,0.020676,0.018806,0.017339,0.015873,0.015218,0.014564,0.013184,0.011804,0.010884,0.0099651,0.0091812,0.0083974,0.0078758,0.0073542,0.006968,0.0065819
0.0073974,0.0079262,0.008455,0.0091855,0.0099161,0.011125,0.012334,0.014133,0.015933,0.017772,0.01961,0.021426,0.023241,0.025619,0.027996,0.030855,0.033713,0.03701,0.040307,0.044532,0.048756,0.054087,0.059419,0.062071,0.064724,0.069796,0.074868,0.079349,0.08383,0.084046,0.09444,0.099166,0.10389,0.10845,0.11301,0.11739,0.12178,0.1256,0.12942,0.13266,0.13589,0.13796,0.14003,0.14166,0.14329,0.14338,0.14348,0.14296,0.14245,0.14138,0.14032,0.13883,0.13734,0.13513,0.13291,0.13559,0.13826,0.13669,0.13511,0.135,0.13489,0.13208,0.12926,0.12599,0.12273,0.12549,0.12825,0.12571,0.12316,0.11669,0.11022,0.10725,0.10428,0.098952,0.093625,0.091966,0.090308,0.086252,0.082196,0.079278,0.07636,0.060293,0.057185,0.053896,0.050606,0.04738,0.044154,0.040735,0.037316,0.035415,0.033515,0.031179,0.028843,0.026351,0.023858,0.022259,0.020659,0.019227,0.017795,0.016488,0.015181,0.01403,0.012878,0.011804,0.010729,0.009857,0.0089853,0.0083758,0.0077663,0.0073297,0.0068931
0.0075444,0.0080977,0.008651,0.0094233,0.010196,0.011469,0.012743,0.014654,0.016564,0.019071,0.021578,0.022918,0.024258,0.026803,0.029348,0.032431,0.035515,0.040359,0.045203,0.04852,0.051837,0.061364,0.070891,0.068412,0.065934,0.07115,0.076366,0.08164,0.086913,0.092187,0.10796,0.11387,0.11979,0.12528,0.13077,0.13616,0.14155,0.14628,0.151,0.15497,0.15893,0.16072,0.16251,0.16548,0.16845,0.1683,0.16815,0.16546,0.16278,0.16331,0.16385,0.16202,0.16018,0.15453,0.14888,0.15066,0.15244,0.15083,0.14922,0.15167,0.15412,0.14953,0.14495,0.13795,0.13095,0.14073,0.15052,0.14575,0.14097,0.13601,0.13104,0.12876,0.12648,0.11404,0.10161,0.10426,0.10691,0.097201,0.08749,0.08938,0.09127,0.073081,0.069046,0.064782,0.060517,0.056413,0.052309,0.04586,0.039411,0.038105,0.0368,0.035198,0.033595,0.029382,0.025169,0.023841,0.022512,0.021115,0.019717,0.017757,0.015798,0.014876,0.013953,0.012723,0.011492,0.010533,0.0095731,0.0088758,0.0081784,0.0076914,0.0072043
0.007919,0.0085357,0.0091524,0.010026,0.010899,0.012344,0.013789,0.015106,0.016423,0.019436,0.022449,0.02511,0.027771,0.030957,0.034143,0.038105,0.042068,0.04587,0.049673,0.056887,0.064101,0.068274,0.072447,0.07481,0.077173,0.083758,0.090343,0.097129,0.10392,0.11076,0.12903,0.13547,0.14191,0.1494,0.15689,0.16368,0.17046,0.17663,0.18279,0.18789,0.19299,0.1965,0.20002,0.20147,0.20292,0.20235,0.20178,0.20039,0.199,0.19579,0.19257,0.18886,0.18516,0.18317,0.18118,0.17727,0.17337,0.17534,0.17731,0.17991,0.1825,0.17986,0.17723,0.17701,0.17679,0.17891,0.18103,0.17889,0.17674,0.17257,0.16841,0.16403,0.15965,0.15123,0.1428,0.14067,0.13854,0.12865,0.11875,0.11382,0.10889,0.084147,0.074176,0.069479,0.064782,0.06028,0.055779,0.052024,0.048269,0.044807,0.041344,0.038131,0.034918,0.032229,0.029541,0.027402,0.025264,0.022983,0.020702,0.019146,0.01759,0.016041,0.014492,0.013181,0.01187,0.01085,0.0098296,0.0091063,0.008383,0.0078671,0.0073513
0.0082936,0.0089737,0.0096538,0.010628,0.011602,0.013219,0.014835,0.015559,0.016282,0.0198,0.023319,0.027302,0.031284,0.035111,0.038938,0.043779,0.048621,0.051381,0.054142,0.065254,0.076366,0.075185,0.074003,0.081207,0.088412,0.096365,0.10432,0.11262,0.12092,0.12933,0.1501,0.15707,0.16403,0.17352,0.18301,0.19119,0.19938,0.20698,0.21459,0.22082,0.22705,0.23229,0.23753,0.23746,0.2374,0.23641,0.23542,0.23532,0.23523,0.22826,0.22129,0.21571,0.21014,0.21181,0.21348,0.20388,0.19429,0.19985,0.20541,0.20815,0.21089,0.21019,0.2095,0.21607,0.22264,0.2171,0.21155,0.21202,0.2125,0.20914,0.20579,0.1993,0.19282,0.18841,0.18399,0.17708,0.17017,0.16009,0.15001,0.13826,0.12651,0.095213,0.079305,0.074176,0.069046,0.064148,0.059249,0.058188,0.057128,0.051508,0.045889,0.041065,0.036241,0.035077,0.033912,0.030964,0.028016,0.024852,0.021688,0.020535,0.019383,0.017207,0.015031,0.013639,0.012247,0.011167,0.010086,0.0093368,0.0085876,0.0080429,0.0074983
0.0084666,0.0091783,0.0098901,0.01091,0.01193,0.013629,0.015328,0.016995,0.018662,0.022447,0.026232,0.029457,0.032682,0.036807,0.040932,0.046187,0.051442,0.058751,0.066061,0.071934,0.077807,0.082158,0.08651,0.095832,0.10515,0.11547,0.12579,0.13621,0.14662,0.15773,0.18168,0.19272,0.20376,0.21567,0.22758,0.23886,0.25014,0.26086,0.27158,0.28082,0.29007,0.29534,0.30061,0.30224,0.30387,0.30146,0.29906,0.29411,0.28916,0.28305,0.27695,0.2699,0.26284,0.26055,0.25826,0.25257,0.24688,0.24839,0.2499,0.25071,0.25152,0.25124,0.25097,0.25502,0.25907,0.26019,0.2613,0.2595,0.2577,0.25468,0.25166,0.24642,0.24119,0.23373,0.22628,0.21746,0.20864,0.19697,0.18531,0.17175,0.15819,0.12806,0.11328,0.10441,0.09553,0.085242,0.074954,0.067969,0.060983,0.056265,0.051546,0.047559,0.043572,0.039618,0.035664,0.033206,0.030748,0.02799,0.025233,0.022757,0.020282,0.01841,0.016538,0.014907,0.013276,0.012038,0.010801,0.0099636,0.0091265,0.0085184,0.0079104
0.0086395,0.0093829,0.010126,0.011193,0.012259,0.01404,0.015821,0.018432,0.021042,0.025094,0.029146,0.031613,0.034079,0.038503,0.042926,0.048595,0.054263,0.066122,0.07798,0.078614,0.079248,0.089132,0.099017,0.11046,0.1219,0.13458,0.14726,0.15979,0.17233,0.18613,0.21326,0.22838,0.2435,0.25782,0.27214,0.28653,0.30091,0.31474,0.32858,0.34083,0.35309,0.35839,0.3637,0.36702,0.37034,0.36652,0.36271,0.35289,0.34308,0.33785,0.33261,0.32408,0.31555,0.3093,0.30304,0.30126,0.29947,0.29693,0.2944,0.29327,0.29215,0.29229,0.29244,0.29397,0.29549,0.30327,0.31105,0.30697,0.30289,0.30022,0.29754,0.29355,0.28955,0.27906,0.26857,0.25783,0.2471,0.23386,0.22062,0.20525,0.18988,0.16092,0.14726,0.13463,0.12201,0.10634,0.09066,0.077749,0.064839,0.061021,0.057203,0.054053,0.050903,0.04416,0.037417,0.035448,0.03348,0.031129,0.028777,0.024979,0.021181,0.019613,0.018045,0.016175,0.014305,0.01291,0.011515,0.01059,0.0096654,0.0089939,0.0083225
0.0090602,0.0098844,0.010709,0.011887,0.013066,0.015043,0.01702,0.020089,0.023158,0.026696,0.030235,0.034484,0.038733,0.044215,0.049696,0.057044,0.064392,0.071849,0.079305,0.085876,0.092446,0.10508,0.11772,0.13234,0.14697,0.16407,0.18117,0.19924,0.21731,0.2363,0.26998,0.2895,0.30902,0.32786,0.3467,0.36774,0.38877,0.41307,0.43738,0.45945,0.48153,0.49396,0.5064,0.50459,0.50279,0.49015,0.47752,0.46251,0.4475,0.43239,0.41728,0.40854,0.39981,0.38902,0.37823,0.37125,0.36428,0.36003,0.35578,0.33907,0.32235,0.32048,0.31861,0.34283,0.36705,0.37418,0.38131,0.38545,0.38959,0.38881,0.38803,0.3812,0.37436,0.36225,0.35015,0.33468,0.31922,0.27701,0.23481,0.21834,0.20186,0.18288,0.18149,0.16462,0.14775,0.13125,0.11475,0.098138,0.081524,0.073981,0.066439,0.060153,0.053868,0.048773,0.043679,0.040118,0.036558,0.033072,0.029587,0.025952,0.022316,0.020542,0.018769,0.016777,0.014786,0.013319,0.011853,0.010883,0.0099132,0.0092086,0.008504
0.0094809,0.010386,0.011291,0.012582,0.013873,0.016046,0.018218,0.021746,0.025273,0.028299,0.031325,0.037356,0.043387,0.049926,0.056465,0.065493,0.074522,0.077576,0.080631,0.093138,0.10564,0.12103,0.13642,0.15423,0.17204,0.19357,0.21509,0.23869,0.2623,0.28647,0.3267,0.35062,0.37455,0.39791,0.42127,0.44895,0.47662,0.51141,0.54619,0.57808,0.60997,0.62953,0.6491,0.64217,0.63523,0.61378,0.59233,0.57212,0.55191,0.52693,0.50194,0.49301,0.48407,0.46874,0.45341,0.44125,0.42909,0.42313,0.41716,0.38486,0.35255,0.34866,0.34477,0.39169,0.4386,0.44508,0.45157,0.46393,0.47629,0.47741,0.47853,0.46884,0.45916,0.44544,0.43173,0.41154,0.39134,0.32017,0.249,0.23142,0.21385,0.20483,0.21573,0.1946,0.17348,0.15616,0.13884,0.11853,0.09821,0.086942,0.075674,0.066254,0.056834,0.053387,0.049941,0.044788,0.039635,0.035016,0.030397,0.026924,0.023452,0.021472,0.019492,0.01738,0.015267,0.013729,0.01219,0.011175,0.010161,0.0094233,0.0086856
0.0096826,0.010621,0.011559,0.012904,0.01425,0.016511,0.018772,0.022413,0.026054,0.03046,0.034866,0.040027,0.045189,0.0522,0.059211,0.067385,0.075559,0.083787,0.092014,0.10775,0.12348,0.14337,0.16325,0.18906,0.21486,0.24841,0.28195,0.32098,0.36002,0.39772,0.45215,0.48591,0.51966,0.54713,0.5746,0.62193,0.66927,0.74698,0.82469,0.89247,0.96024,0.99029,1.0203,1.012,1.0037,0.94714,0.89061,0.82908,0.76755,0.72646,0.68536,0.65691,0.62845,0.60191,0.57537,0.55396,0.53255,0.52239,0.51223,0.49706,0.48188,0.48762,0.49335,0.52729,0.56122,0.5789,0.59658,0.62119,0.6458,0.66613,0.68645,0.67938,0.67232,0.64609,0.61986,0.57728,0.5347,0.46657,0.39844,0.36187,0.32531,0.26515,0.22708,0.22053,0.21397,0.19109,0.16821,0.14645,0.12469,0.11089,0.097086,0.08301,0.068934,0.062269,0.055603,0.049701,0.0438,0.039249,0.034699,0.030764,0.026829,0.02411,0.021391,0.018942,0.016492,0.014762,0.013031,0.0119,0.010769,0.0099579,0.0091466
0.0098844,0.010856,0.011827,0.013227,0.014628,0.016976,0.019325,0.02308,0.026835,0.032621,0.038408,0.042699,0.04699,0.054474,0.061957,0.069277,0.076597,0.089997,0.1034,0.12236,0.14132,0.1657,0.19008,0.22388,0.25769,0.30325,0.34881,0.40327,0.45774,0.50897,0.57761,0.6212,0.66478,0.69636,0.72793,0.79492,0.86191,0.98255,1.1032,1.2069,1.3105,1.351,1.3916,1.3818,1.3721,1.2805,1.1889,1.086,0.98319,0.92599,0.86879,0.82081,0.77282,0.73507,0.69732,0.66666,0.636,0.62165,0.6073,0.60926,0.61122,0.62658,0.64194,0.66289,0.68384,0.71271,0.74159,0.77844,0.8153,0.85484,0.89438,0.88992,0.88547,0.84673,0.80799,0.74302,0.67806,0.61297,0.54787,0.49232,0.43677,0.32546,0.23844,0.24645,0.25446,0.22601,0.19757,0.17437,0.15118,0.13484,0.1185,0.099766,0.081035,0.07115,0.061266,0.054615,0.047964,0.043483,0.039001,0.034604,0.030206,0.026748,0.02329,0.020504,0.017717,0.015795,0.013873,0.012625,0.011377,0.010492,0.0096077
0.010334,0.011389,0.012443,0.013966,0.015489,0.018012,0.020535,0.024838,0.02914,0.034396,0.039653,0.046127,0.0526,0.061688,0.070776,0.078066,0.085357,0.10148,0.1176,0.14135,0.16509,0.20015,0.23521,0.29062,0.34604,0.43846,0.53087,0.63346,0.73605,0.8121,0.90739,0.96826,1.0291,1.0742,1.1193,1.2316,1.3439,1.5006,1.6574,1.755,1.8527,1.8983,1.9439,1.9622,1.9806,1.9106,1.8406,1.6876,1.5346,1.4054,1.2762,1.1889,1.1017,1.002,0.90227,0.85964,0.817,0.79245,0.7679,0.77085,0.7738,0.80098,0.82815,0.86978,0.91141,0.9791,1.0468,1.1573,1.2678,1.3458,1.4237,1.414,1.4043,1.3443,1.2842,1.1646,1.045,0.91337,0.78176,0.68506,0.58836,0.47664,0.38999,0.35919,0.3284,0.2679,0.2074,0.1945,0.18161,0.15835,0.1351,0.11453,0.093974,0.081121,0.068268,0.060664,0.053059,0.046817,0.040575,0.036623,0.03267,0.028413,0.024155,0.021214,0.018273,0.01626,0.014247,0.012949,0.011651,0.010732,0.0098123
0.010783,0.011922,0.01306,0.014706,0.016351,0.019048,0.021746,0.026596,0.031446,0.036172,0.040898,0.049554,0.058211,0.068902,0.079594,0.086856,0.094118,0.11296,0.13181,0.16034,0.18887,0.2346,0.28034,0.35736,0.43439,0.57367,0.71294,0.86366,1.0144,1.1152,1.2372,1.3153,1.3935,1.4521,1.5106,1.6683,1.8259,2.0187,2.2116,2.3032,2.3949,2.4456,2.4962,2.5426,2.5891,2.5407,2.4922,2.2892,2.0861,1.8848,1.6836,1.557,1.4305,1.2689,1.1072,1.0526,0.998,0.96325,0.9285,0.93244,0.93639,0.97538,1.0144,1.0767,1.139,1.2455,1.352,1.5361,1.7203,1.8367,1.9531,1.9381,1.9231,1.8418,1.7604,1.5862,1.4119,1.2138,1.0156,0.8778,0.73996,0.62782,0.54154,0.47194,0.40235,0.30979,0.21723,0.21463,0.21204,0.18187,0.15169,0.1293,0.10691,0.091092,0.075271,0.066712,0.058154,0.050151,0.042148,0.038641,0.035134,0.030077,0.025019,0.021924,0.018829,0.016726,0.014622,0.013273,0.011925,0.010971,0.010017
0.010982,0.012157,0.013331,0.015027,0.016723,0.01946,0.022198,0.027201,0.032203,0.038438,0.044673,0.052422,0.060171,0.070286,0.080401,0.092216,0.10403,0.12638,0.14873,0.18499,0.22126,0.29025,0.35924,0.50564,0.65205,0.8639,1.0758,1.2469,1.4181,1.5329,1.6698,1.799,1.9283,2.0967,2.2652,2.467,2.6688,2.7318,2.7947,2.8296,2.8645,2.9598,3.055,3.1939,3.3328,3.388,3.4432,3.2184,2.9936,2.7013,2.4091,2.2011,1.9931,1.8039,1.6148,1.4887,1.3627,1.311,1.2593,1.2582,1.2572,1.3126,1.3681,1.465,1.5619,1.7452,1.9285,2.1763,2.4242,2.5581,2.692,2.6145,2.5369,2.4086,2.2803,2.1218,1.9634,1.743,1.5225,1.3142,1.1058,0.95063,0.82349,0.70829,0.59309,0.47301,0.35293,0.28753,0.22212,0.20027,0.17841,0.15161,0.12481,0.10703,0.089247,0.076597,0.063946,0.055716,0.047485,0.041908,0.03633,0.031858,0.027385,0.023792,0.020198,0.017875,0.015553,0.014077,0.012602,0.011559,0.010515
0.011181,0.012391,0.013602,0.015348,0.017094,0.019872,0.02265,0.027806,0.032961,0.040705,0.048448,0.055289,0.06213,0.071669,0.081207,0.097576,0.11394,0.13979,0.16564,0.20965,0.25365,0.3459,0.43814,0.65392,0.86971,1.1541,1.4386,1.6302,1.8218,1.9506,2.1024,2.2827,2.463,2.7414,3.0198,3.2658,3.5117,3.4448,3.3778,3.3559,3.3341,3.474,3.6139,3.8452,4.0765,4.2354,4.3942,4.1477,3.9011,3.5178,3.1346,2.8451,2.5557,2.339,2.1223,1.9248,1.7273,1.6587,1.5901,1.584,1.5779,1.6499,1.7218,1.8533,1.9848,2.2449,2.505,2.8165,3.1281,3.2795,3.431,3.2909,3.1507,2.9754,2.8002,2.6575,2.5149,2.2722,2.0294,1.7505,1.4716,1.2734,1.1054,0.94463,0.78383,0.63623,0.48863,0.36042,0.23221,0.21867,0.20512,0.17391,0.1427,0.12296,0.10322,0.086481,0.069738,0.06128,0.052822,0.045174,0.037526,0.033639,0.029751,0.025659,0.021567,0.019025,0.016484,0.014881,0.013279,0.012147,0.011014
0.011677,0.012966,0.014256,0.016125,0.017994,0.021017,0.024039,0.029652,0.035264,0.042474,0.049684,0.058847,0.068009,0.077951,0.087893,0.10624,0.12458,0.15412,0.18365,0.23842,0.29319,0.43148,0.56978,0.88415,1.1985,1.4535,1.7086,1.8416,1.9746,2.1171,2.2851,2.5573,2.8295,3.3071,3.7846,3.9921,4.1996,4.0216,3.8436,3.8159,3.7882,4,4.2118,4.5021,4.7924,4.9695,5.1465,4.8811,4.6158,4.2111,3.8065,3.5448,3.2831,3.0258,2.7686,2.5221,2.2757,2.096,1.9164,1.8869,1.8574,1.9533,2.0493,2.2923,2.5353,2.9524,3.3695,3.7208,4.0721,4.0958,4.1195,3.8669,3.6144,3.4497,3.285,3.1779,3.0709,2.8519,2.6329,2.293,1.9532,1.6818,1.4412,1.2658,1.0905,0.89691,0.70338,0.52873,0.35408,0.28339,0.2127,0.18672,0.16074,0.13726,0.11377,0.094233,0.074695,0.064715,0.054736,0.048039,0.041341,0.03596,0.030578,0.026378,0.022178,0.019531,0.016884,0.015227,0.01357,0.012396,0.011221
0.012172,0.013541,0.01491,0.016901,0.018893,0.022161,0.025428,0.031497,0.037566,0.044243,0.05092,0.062404,0.073888,0.084233,0.094579,0.11489,0.13521,0.16844,0.20166,0.26719,0.33273,0.51707,0.70142,1.1144,1.5273,1.753,1.9786,2.053,2.1273,2.2835,2.4678,2.8319,3.196,3.8727,4.5494,4.7184,4.8875,4.5984,4.3093,4.2758,4.2423,4.526,4.8097,5.1591,5.5084,5.7036,5.8988,5.6146,5.3305,4.9044,4.4784,4.2445,4.0105,3.7127,3.4149,3.1195,2.8241,2.5333,2.2426,2.1897,2.1368,2.2568,2.3767,2.7313,3.0858,3.6599,4.234,4.625,5.0161,4.912,4.808,4.443,4.0781,3.9239,3.7698,3.6983,3.6268,3.4316,3.2363,2.8356,2.4349,2.0901,1.7769,1.587,1.3971,1.1576,0.91812,0.69704,0.47595,0.34811,0.22028,0.19953,0.17878,0.15155,0.12432,0.10198,0.079651,0.06815,0.056649,0.050903,0.045157,0.038281,0.031405,0.027097,0.022789,0.020037,0.017285,0.015573,0.013861,0.012645,0.011429
0.012391,0.013795,0.015198,0.017247,0.019296,0.022597,0.025898,0.032105,0.038313,0.04641,0.054508,0.065091,0.075674,0.088253,0.10083,0.12321,0.14559,0.18282,0.22005,0.29974,0.37944,0.60988,0.84032,1.2635,1.6867,1.853,2.0192,2.1531,2.2869,2.4779,2.6973,3.1327,3.568,4.2343,4.9005,5.1464,5.3922,5.1669,4.9415,4.9618,4.9822,5.3075,5.6328,5.9315,6.2302,6.3994,6.5686,6.3086,6.0486,5.6036,5.1587,4.9593,4.7599,4.4575,4.1552,3.7555,3.3558,3.0241,2.6924,2.6727,2.6531,2.815,2.977,3.4095,3.842,4.5263,5.2107,5.6943,6.178,5.8877,5.5974,5.2069,4.8164,4.7152,4.614,4.4978,4.3817,4.0845,3.7874,3.3668,2.9461,2.5148,2.1166,1.8828,1.6489,1.3987,1.1484,0.88236,0.61635,0.45467,0.29299,0.24611,0.19924,0.16741,0.13559,0.11291,0.090227,0.076379,0.062531,0.054488,0.046445,0.040137,0.033829,0.02898,0.024132,0.021162,0.018192,0.01636,0.014527,0.013229,0.01193
0.01261,0.014048,0.015486,0.017593,0.0197,0.023034,0.026368,0.032714,0.039059,0.048577,0.058096,0.067779,0.077461,0.092273,0.10709,0.13152,0.15596,0.1972,0.23844,0.33229,0.42615,0.70268,0.97922,1.4126,1.846,1.953,2.0599,2.2532,2.4466,2.6722,2.9268,3.4334,3.94,4.5958,5.2516,5.5743,5.897,5.7354,5.5737,5.6479,5.722,6.0889,6.4558,6.7039,6.952,7.0952,7.2384,7.0025,6.7667,6.3029,5.839,5.6742,5.5093,5.2024,4.8955,4.3915,3.8875,3.5149,3.1422,3.1558,3.1693,3.3732,3.5772,4.0877,4.5983,5.3928,6.1873,6.7636,7.3399,6.8634,6.3868,5.9707,5.5547,5.5064,5.4581,5.2973,5.1365,4.7375,4.3386,3.8979,3.4573,2.9394,2.4564,2.1786,1.9008,1.6397,1.3786,1.0677,0.75674,0.56122,0.36569,0.2927,0.2197,0.18328,0.14685,0.12383,0.1008,0.084608,0.068412,0.058073,0.047733,0.041993,0.036252,0.030863,0.025475,0.022287,0.0191,0.017146,0.015193,0.013812,0.012432
0.013106,0.014632,0.016158,0.018374,0.02059,0.024159,0.027728,0.034448,0.041169,0.050137,0.059104,0.069407,0.079709,0.096293,0.11288,0.13961,0.16633,0.21066,0.25498,0.35437,0.45376,0.7515,1.0492,1.4877,1.9262,2.0482,2.1702,2.4006,2.631,2.9132,3.2264,3.7749,4.3234,5.0048,5.6862,6.1165,6.5468,6.508,6.4692,6.6818,6.8944,7.3021,7.7097,7.8928,8.076,8.1537,8.2313,7.8583,7.4853,6.9297,6.374,6.2272,6.0805,5.7837,5.4868,4.9456,4.4045,4.0892,3.7739,3.8478,3.9218,4.1615,4.4012,4.9545,5.5077,6.353,7.1984,7.7907,8.3831,7.8438,7.3045,6.9161,6.5277,6.575,6.6222,6.3829,6.1435,5.6316,5.1197,4.6404,4.1612,3.5535,2.9812,2.575,2.1688,1.8561,1.5435,1.2139,0.88441,0.65296,0.42151,0.32327,0.22504,0.19146,0.15789,0.13224,0.1066,0.088498,0.070401,0.060969,0.051537,0.044297,0.037056,0.03195,0.026843,0.023174,0.019504,0.017494,0.015484,0.01407,0.012657
0.013602,0.015216,0.016829,0.019155,0.02148,0.025284,0.029088,0.036183,0.043278,0.051696,0.060113,0.071035,0.081957,0.10031,0.11867,0.14769,0.17671,0.22411,0.27152,0.37644,0.48137,0.80032,1.1193,1.5628,2.0063,2.1434,2.2806,2.548,2.8155,3.1541,3.5259,4.1163,4.7067,5.4137,6.1208,6.6587,7.1967,7.2807,7.3646,7.7158,8.0669,8.5152,8.9635,9.0817,9.2,9.2121,9.2243,8.7142,8.204,7.5565,6.9089,6.7803,6.6516,6.3649,6.0782,5.4998,4.9214,4.6635,4.4056,4.5399,4.6742,4.9497,5.2253,5.8212,6.4172,7.3133,8.2094,8.8179,9.4263,8.8243,8.2222,7.8615,7.5008,7.6436,7.7864,7.4684,7.1504,6.5256,5.9008,5.3829,4.865,4.1676,3.5059,2.9714,2.4368,2.0725,1.7083,1.3602,1.0121,0.7447,0.47733,0.35385,0.23037,0.19965,0.16893,0.14066,0.11239,0.092389,0.072389,0.063865,0.055341,0.046601,0.03786,0.033036,0.028212,0.02406,0.019907,0.017841,0.015775,0.014328,0.012881
0.013798,0.015443,0.017089,0.019469,0.021849,0.025675,0.0295,0.036699,0.043898,0.053417,0.062937,0.073989,0.08504,0.1043,0.12357,0.15319,0.18282,0.23339,0.28397,0.39102,0.49808,0.81775,1.1374,1.6335,2.1296,2.3078,2.4861,2.8191,3.152,3.5561,3.9939,4.6176,5.2413,6.0542,6.867,7.5335,8.2001,8.4302,8.6603,9.2436,9.8268,10.405,10.983,10.99,10.997,10.719,10.441,9.6385,8.8357,8.0714,7.3072,7.137,6.9669,6.6597,6.3525,5.8455,5.3384,5.1949,5.0514,5.2851,5.5188,5.9073,6.2958,6.9488,7.6017,8.3522,9.1027,9.4885,9.8743,9.3596,8.8449,8.5659,8.2869,8.4505,8.6141,8.3248,8.0356,7.3113,6.587,5.9352,5.2834,4.5869,3.9272,3.366,2.8048,2.3384,1.872,1.4881,1.1043,0.81287,0.52145,0.39271,0.26397,0.22099,0.17801,0.14793,0.11786,0.097864,0.077865,0.067205,0.056545,0.04834,0.040134,0.034447,0.02876,0.024769,0.020777,0.01858,0.016383,0.014865,0.013348
0.013994,0.015671,0.017348,0.019783,0.022218,0.026065,0.029912,0.037215,0.044517,0.055139,0.065761,0.076942,0.088124,0.1083,0.12847,0.1587,0.18893,0.24267,0.29642,0.4056,0.51479,0.83519,1.1556,1.7043,2.2529,2.4722,2.6915,3.0901,3.4886,3.9581,4.4619,5.1189,5.776,6.6946,7.6131,8.4084,9.2036,9.5798,9.956,10.771,11.587,12.295,13.003,12.899,12.795,12.227,11.658,10.563,9.4673,8.5864,7.7055,7.4938,7.2822,6.9545,6.6268,6.1911,5.7554,5.7263,5.6972,6.0303,6.3635,6.8649,7.3663,8.0763,8.7863,9.3912,9.9961,10.159,10.322,9.8948,9.4675,9.2703,9.0731,9.2574,9.4417,9.1813,8.9208,8.097,7.2732,6.4875,5.7018,5.0062,4.3485,3.7607,3.1728,2.6042,2.0357,1.6161,1.1965,0.88103,0.56557,0.43157,0.29757,0.24233,0.18708,0.15521,0.12334,0.10334,0.08334,0.070545,0.05775,0.050079,0.042408,0.035857,0.029307,0.025477,0.021648,0.019319,0.016991,0.015403,0.013815
0.014331,0.016058,0.017786,0.020321,0.022855,0.026877,0.030898,0.038418,0.045938,0.056167,0.066395,0.078484,0.090573,0.11132,0.13207,0.16337,0.19466,0.25003,0.30541,0.41422,0.52304,0.82317,1.1233,1.7253,2.3273,2.7146,3.1019,3.5834,4.065,4.5117,4.9939,5.6737,6.3534,7.4116,8.4697,9.2132,9.9567,10.437,10.917,11.916,12.916,13.703,14.489,14.32,14.151,13.264,12.376,11.196,10.016,9.1114,8.2065,7.8502,7.494,7.0885,6.683,6.3717,6.0603,6.1754,6.2905,6.7973,7.3041,7.9999,8.6958,9.3839,10.072,10.463,10.855,10.708,10.561,10.233,9.9044,9.7588,9.6133,9.6562,9.6992,9.577,9.4547,8.7634,8.0721,7.131,6.1898,5.3619,4.5722,4.0346,3.497,2.8705,2.244,1.7482,1.2524,0.91932,0.58623,0.44776,0.3093,0.25153,0.19377,0.16067,0.12757,0.10746,0.087346,0.074075,0.060805,0.051942,0.043079,0.036392,0.029705,0.025839,0.021973,0.019599,0.017224,0.015608,0.013991
0.014668,0.016446,0.018224,0.020858,0.023492,0.027688,0.031884,0.039621,0.047359,0.057194,0.067029,0.080026,0.093023,0.11435,0.13567,0.16803,0.2004,0.2574,0.3144,0.42284,0.53128,0.81115,1.091,1.7463,2.4016,2.957,3.5123,4.0768,4.6413,5.0652,5.5259,6.2284,6.9309,8.1286,9.3263,10.018,10.71,11.294,11.878,13.061,14.245,15.11,15.976,15.742,15.508,14.301,13.094,11.829,10.565,9.6363,8.7075,8.2066,7.7058,7.2225,6.7392,6.5522,6.3652,6.6245,6.8839,7.5643,8.2447,9.135,10.025,10.692,11.358,11.536,11.713,11.256,10.799,10.57,10.341,10.247,10.154,10.055,9.9566,9.9726,9.9887,9.4299,8.871,7.7744,6.6778,5.7177,4.7958,4.3085,3.8212,3.1368,2.4524,1.8803,1.3083,0.9576,0.60689,0.46396,0.32103,0.26074,0.20045,0.16613,0.13181,0.11158,0.091351,0.077605,0.063859,0.053805,0.043751,0.036927,0.030103,0.026201,0.022299,0.019878,0.017458,0.015812,0.014167
0.014743,0.016533,0.018322,0.020956,0.02359,0.027806,0.032022,0.039781,0.04754,0.057717,0.067894,0.081279,0.094665,0.11603,0.1374,0.17058,0.20377,0.26196,0.32016,0.42931,0.53845,0.8012,1.0639,1.7178,2.3717,3.1578,3.9439,4.532,5.12,5.595,6.1072,6.8035,7.4998,8.4168,9.3338,9.9595,10.585,11.197,11.81,12.864,13.919,14.798,15.677,15.538,15.399,14.294,13.19,12.09,10.991,10.199,9.4077,8.6962,7.9847,7.3758,6.7669,6.6457,6.5245,6.9747,7.4248,8.1503,8.8758,9.805,10.734,11.404,12.074,12.188,12.301,11.723,11.145,10.902,10.659,10.48,10.301,10.057,9.8124,9.8198,9.8273,9.437,9.0468,8.0137,6.9806,6.0125,5.0828,4.5887,4.0947,3.3182,2.5417,1.9204,1.2991,0.95025,0.60142,0.46406,0.3267,0.26554,0.20437,0.16955,0.13472,0.11402,0.093311,0.079003,0.064695,0.054984,0.045272,0.038124,0.030976,0.02691,0.022844,0.020352,0.017861,0.016167,0.014472
0.014818,0.016619,0.01842,0.021054,0.023688,0.027924,0.03216,0.039941,0.047722,0.05824,0.068758,0.082533,0.096308,0.11772,0.13913,0.17313,0.20714,0.26653,0.32592,0.43578,0.54563,0.79124,1.0368,1.6893,2.3417,3.3587,4.3756,4.9871,5.5986,6.1248,6.6885,7.3786,8.0687,8.7049,9.3412,9.9009,10.461,11.101,11.741,12.667,13.593,14.486,15.379,15.334,15.29,14.288,13.286,12.351,11.416,10.762,10.108,9.1858,8.2637,7.5291,6.7946,6.7392,6.6839,7.3248,7.9657,8.7363,9.5069,10.475,11.443,12.117,12.791,12.84,12.889,12.19,11.491,11.234,10.976,10.712,10.448,10.058,9.6682,9.6671,9.6659,9.4442,9.2226,8.253,7.2833,6.3073,5.3698,4.869,4.3681,3.4996,2.631,1.9604,1.2899,0.94291,0.59594,0.46416,0.33238,0.27034,0.20829,0.17296,0.13763,0.11645,0.09527,0.080401,0.065531,0.056162,0.046794,0.039321,0.031849,0.027619,0.023388,0.020826,0.018264,0.016521,0.014778
0.014867,0.016654,0.01844,0.021058,0.023676,0.02793,0.032183,0.039882,0.04758,0.058083,0.068585,0.082634,0.096682,0.11815,0.13962,0.17417,0.20872,0.269,0.32927,0.44256,0.55586,0.81854,1.0812,1.744,2.4068,3.4058,4.4047,5.0354,5.6661,6.3156,7.0031,7.67,8.3369,8.7542,9.1715,9.5873,10.003,10.667,11.331,12.066,12.802,13.468,14.134,14.348,14.562,13.911,13.259,12.425,11.591,10.872,10.154,9.2766,8.3994,7.5987,6.798,6.7704,6.7427,7.4966,8.2504,9.0518,9.8532,10.729,11.604,12.308,13.012,13.187,13.362,12.776,12.19,11.842,11.494,11.089,10.684,10.145,9.6068,9.4704,9.3339,9.1239,8.9139,8.1072,7.3005,6.4068,5.5517,4.9763,4.401,3.4762,2.5515,1.8796,1.2077,0.89438,0.58102,0.45676,0.3325,0.2709,0.2093,0.17409,0.13887,0.11752,0.096164,0.081568,0.066972,0.057044,0.047116,0.039572,0.032028,0.027777,0.023527,0.020944,0.018362,0.016605,0.014847
0.014916,0.016688,0.01846,0.021063,0.023665,0.027936,0.032206,0.039823,0.047439,0.057926,0.068412,0.082735,0.097057,0.11858,0.14011,0.17521,0.21031,0.27146,0.33261,0.44935,0.56609,0.84585,1.1256,1.7988,2.472,3.4529,4.4338,5.0837,5.7335,6.5064,7.3177,7.9615,8.6052,8.8036,9.0019,9.2737,9.5454,10.233,10.92,11.466,12.012,12.45,12.889,13.362,13.835,13.533,13.232,12.499,11.766,10.983,10.2,9.3674,8.5351,7.6683,6.8015,6.8015,6.8015,7.6683,8.5351,9.3674,10.2,10.983,11.766,12.499,13.232,13.533,13.835,13.362,12.889,12.45,12.012,11.466,10.92,10.233,9.5454,9.2737,9.0019,8.8036,8.6052,7.9615,7.3177,6.5064,5.7335,5.0837,4.4338,3.4529,2.472,1.7988,1.1256,0.84585,0.56609,0.44935,0.33261,0.27146,0.21031,0.17521,0.14011,0.11858,0.097057,0.082735,0.068412,0.057926,0.047439,0.039823,0.032206,0.027936,0.023665,0.021063,0.01846,0.016688,0.014916
0.014847,0.016605,0.018362,0.020944,0.023527,0.027777,0.032028,0.039572,0.047116,0.057044,0.066972,0.081568,0.096164,0.11752,0.13887,0.17409,0.2093,0.2709,0.3325,0.45676,0.58102,0.89438,1.2077,1.8796,2.5515,3.4762,4.401,4.9763,5.5517,6.4068,7.3005,8.1072,8.9139,9.1239,9.3339,9.4704,9.6068,10.145,10.684,11.089,11.494,11.842,12.19,12.776,13.362,13.187,13.012,12.308,11.604,10.729,9.8532,9.0518,8.2504,7.4966,6.7427,6.7704,6.798,7.5987,8.3994,9.2766,10.154,10.872,11.591,12.425,13.259,13.911,14.562,14.348,14.134,13.468,12.802,12.066,11.331,10.667,10.003,9.5873,9.1715,8.7542,8.3369,7.67,7.0031,6.3156,5.6661,5.0354,4.4047,3.4058,2.4068,1.744,1.0812,0.81854,0.55586,0.44256,0.32927,0.269,0.20872,0.17417,0.13962,0.11815,0.096682,0.082634,0.068585,0.058083,0.04758,0.039882,0.032183,0.02793,0.023676,0.021058,0.01844,0.016654,0.014867
0.014778,0.016521,0.018264,0.020826,0.023388,0.027619,0.031849,0.039321,0.046794,0.056162,0.065531,0.080401,0.09527,0.11645,0.13763,0.17296,0.20829,0.27034,0.33238,0.46416,0.59594,0.94291,1.2899,1.9604,2.631,3.4996,4.3681,4.869,5.3698,6.3073,7.2833,8.253,9.2226,9.4442,9.6659,9.6671,9.6682,10.058,10.448,10.712,10.976,11.234,11.491,12.19,12.889,12.84,12.791,12.117,11.443,10.475,9.5069,8.7363,7.9657,7.3248,6.6839,6.7392,6.7946,7.5291,8.2637,9.1858,10.108,10.762,11.416,12.351,13.286,14.288,15.29,15.334,15.379,14.486,13.593,12.667,11.741,11.101,10.461,9.9009,9.3412,8.7049,8.0687,7.3786,6.6885,6.1248,5.5986,4.9871,4.3756,3.3587,2.3417,1.6893,1.0368,0.79124,0.54563,0.43578,0.32592,0.26653,0.20714,0.17313,0.13913,0.11772,0.096308,0.082533,0.068758,0.05824,0.047722,0.039941,0.03216,0.027924,0.023688,0.021054,0.01842,0.016619,0.014818
0.014472,0.016167,0.017861,0.020352,0.022844,0.02691,0.030976,0.038124,0.045272,0.054984,0.064695,0.079003,0.093311,0.11402,0.13472,0.16955,0.20437,0.26554,0.3267,0.46406,0.60142,0.95025,1.2991,1.9204,2.5417,3.3182,4.0947,4.5887,5.0828,6.0125,6.9806,8.0137,9.0468,9.437,9.8273,9.8198,9.8124,10.057,10.301,10.48,10.659,10.902,11.145,11.723,12.301,12.188,12.074,11.404,10.734,9.805,8.8758,8.1503,7.4248,6.9747,6.5245,6.6457,6.7669,7.3758,7.9847,8.6962,9.4077,10.199,10.991,12.09,13.19,14.294,15.399,15.538,15.677,14.798,13.919,12.864,11.81,11.197,10.585,9.9595,9.3338,8.4168,7.4998,6.8035,6.1072,5.595,5.12,4.532,3.9439,3.1578,2.3717,1.7178,1.0639,0.8012,0.53845,0.42931,0.32016,0.26196,0.20377,0.17058,0.1374,0.11603,0.094665,0.081279,0.067894,0.057717,0.04754,0.039781,0.032022,0.027806,0.02359,0.020956,0.018322,0.016533,0.014743
0.014167,0.015812,0.017458,0.019878,0.022299,0.026201,0.030103,0.036927,0.043751,0.053805,0.063859,0.077605,0.091351,0.11158,0.13181,0.16613,0.20045,0.26074,0.32103,0.46396,0.60689,0.9576,1.3083,1.8803,2.4524,3.1368,3.8212,4.3085,4.7958,5.7177,6.6778,7.7744,8.871,9.4299,9.9887,9.9726,9.9566,10.055,10.154,10.247,10.341,10.57,10.799,11.256,11.713,11.536,11.358,10.692,10.025,9.135,8.2447,7.5643,6.8839,6.6245,6.3652,6.5522,6.7392,7.2225,7.7058,8.2066,8.7075,9.6363,10.565,11.829,13.094,14.301,15.508,15.742,15.976,15.11,14.245,13.061,11.878,11.294,10.71,10.018,9.3263,8.1286,6.9309,6.2284,5.5259,5.0652,4.6413,4.0768,3.5123,2.957,2.4016,1.7463,1.091,0.81115,0.53128,0.42284,0.3144,0.2574,0.2004,0.16803,0.13567,0.11435,0.093023,0.080026,0.067029,0.057194,0.047359,0.039621,0.031884,0.027688,0.023492,0.020858,0.018224,0.016446,0.014668
0.013991,0.015608,0.017224,0.019599,0.021973,0.025839,0.029705,0.036392,0.043079,0.051942,0.060805,0.074075,0.087346,0.10746,0.12757,0.16067,0.19377,0.25153,0.3093,0.44776,0.58623,0.91932,1.2524,1.7482,2.244,2.8705,3.497,4.0346,4.5722,5.3619,6.1898,7.131,8.0721,8.7634,9.4547,9.577,9.6992,9.6562,9.6133,9.7588,9.9044,10.233,10.561,10.708,10.855,10.463,10.072,9.3839,8.6958,7.9999,7.3041,6.7973,6.2905,6.1754,6.0603,6.3717,6.683,7.0885,7.494,7.8502,8.2065,9.1114,10.016,11.196,12.376,13.264,14.151,14.32,14.489,13.703,12.916,11.916,10.917,10.437,9.9567,9.2132,8.4697,7.4116,6.3534,5.6737,4.9939,4.5117,4.065,3.5834,3.1019,2.7146,2.3273,1.7253,1.1233,0.82317,0.52304,0.41422,0.30541,0.25003,0.19466,0.16337,0.13207,0.11132,0.090573,0.078484,0.066395,0.056167,0.045938,0.038418,0.030898,0.026877,0.022855,0.020321,0.017786,0.016058,0.014331
0.013815,0.015403,0.016991,0.019319,0.021648,0.025477,0.029307,0.035857,0.042408,0.050079,0.05775,0.070545,0.08334,0.10334,0.12334,0.15521,0.18708,0.24233,0.29757,0.43157,0.56557,0.88103,1.1965,1.6161,2.0357,2.6042,3.1728,3.7607,4.3485,5.0062,5.7018,6.4875,7.2732,8.097,8.9208,9.1813,9.4417,9.2574,9.0731,9.2703,9.4675,9.8948,10.322,10.159,9.9961,9.3912,8.7863,8.0763,7.3663,6.8649,6.3635,6.0303,5.6972,5.7263,5.7554,6.1911,6.6268,6.9545,7.2822,7.4938,7.7055,8.5864,9.4673,10.563,11.658,12.227,12.795,12.899,13.003,12.295,11.587,10.771,9.956,9.5798,9.2036,8.4084,7.6131,6.6946,5.776,5.1189,4.4619,3.9581,3.4886,3.0901,2.6915,2.4722,2.2529,1.7043,1.1556,0.83519,0.51479,0.4056,0.29642,0.24267,0.18893,0.1587,0.12847,0.1083,0.088124,0.076942,0.065761,0.055139,0.044517,0.037215,0.029912,0.026065,0.022218,0.019783,0.017348,0.015671,0.013994
0.013348,0.014865,0.016383,0.01858,0.020777,0.024769,0.02876,0.034447,0.040134,0.04834,0.056545,0.067205,0.077865,0.097864,0.11786,0.14793,0.17801,0.22099,0.26397,0.39271,0.52145,0.81287,1.1043,1.4881,1.872,2.3384,2.8048,3.366,3.9272,4.5869,5.2834,5.9352,6.587,7.3113,8.0356,8.3248,8.6141,8.4505,8.2869,8.5659,8.8449,9.3596,9.8743,9.4885,9.1027,8.3522,7.6017,6.9488,6.2958,5.9073,5.5188,5.2851,5.0514,5.1949,5.3384,5.8455,6.3525,6.6597,6.9669,7.137,7.3072,8.0714,8.8357,9.6385,10.441,10.719,10.997,10.99,10.983,10.405,9.8268,9.2436,8.6603,8.4302,8.2001,7.5335,6.867,6.0542,5.2413,4.6176,3.9939,3.5561,3.152,2.8191,2.4861,2.3078,2.1296,1.6335,1.1374,0.81775,0.49808,0.39102,0.28397,0.23339,0.18282,0.15319,0.12357,0.1043,0.08504,0.073989,0.062937,0.053417,0.043898,0.036699,0.0295,0.025675,0.021849,0.019469,0.017089,0.015443,0.013798
0.012881,0.014328,0.015775,0.017841,0.019907,0.02406,0.028212,0.033036,0.03786,0.046601,0.055341,0.063865,0.072389,0.092389,0.11239,0.14066,0.16893,0.19965,0.23037,0.35385,0.47733,0.7447,1.0121,1.3602,1.7083,2.0725,2.4368,2.9714,3.5059,4.1676,4.865,5.3829,5.9008,6.5256,7.1504,7.4684,7.7864,7.6436,7.5008,7.8615,8.2222,8.8243,9.4263,8.8179,8.2094,7.3133,6.4172,5.8212,5.2253,4.9497,4.6742,4.5399,4.4056,4.6635,4.9214,5.4998,6.0782,6.3649,6.6516,6.7803,6.9089,7.5565,8.204,8.7142,9.2243,9.2121,9.2,9.0817,8.9635,8.5152,8.0669,7.7158,7.3646,7.2807,7.1967,6.6587,6.1208,5.4137,4.7067,4.1163,3.5259,3.1541,2.8155,2.548,2.2806,2.1434,2.0063,1.5628,1.1193,0.80032,0.48137,0.37644,0.27152,0.22411,0.17671,0.14769,0.11867,0.10031,0.081957,0.071035,0.060113,0.051696,0.043278,0.036183,0.029088,0.025284,0.02148,0.019155,0.016829,0.015216,0.013602
0.012657,0.01407,0.015484,0.017494,0.019504,0.023174,0.026843,0.03195,0.037056,0.044297,0.051537,0.060969,0.070401,0.088498,0.1066,0.13224,0.15789,0.19146,0.22504,0.32327,0.42151,0.65296,0.88441,1.2139,1.5435,1.8561,2.1688,2.575,2.9812,3.5535,4.1612,4.6404,5.1197,5.6316,6.1435,6.3829,6.6222,6.575,6.5277,6.9161,7.3045,7.8438,8.3831,7.7907,7.1984,6.353,5.5077,4.9545,4.4012,4.1615,3.9218,3.8478,3.7739,4.0892,4.4045,4.9456,5.4868,5.7837,6.0805,6.2272,6.374,6.9297,7.4853,7.8583,8.2313,8.1537,8.076,7.8928,7.7097,7.3021,6.8944,6.6818,6.4692,6.508,6.5468,6.1165,5.6862,5.0048,4.3234,3.7749,3.2264,2.9132,2.631,2.4006,2.1702,2.0482,1.9262,1.4877,1.0492,0.7515,0.45376,0.35437,0.25498,0.21066,0.16633,0.13961,0.11288,0.096293,0.079709,0.069407,0.059104,0.050137,0.041169,0.034448,0.027728,0.024159,0.02059,0.018374,0.016158,0.014632,0.013106
0.012432,0.013812,0.015193,0.017146,0.0191,0.022287,0.025475,0.030863,0.036252,0.041993,0.047733,0.058073,0.068412,0.084608,0.1008,0.12383,0.14685,0.18328,0.2197,0.2927,0.36569,0.56122,0.75674,1.0677,1.3786,1.6397,1.9008,2.1786,2.4564,2.9394,3.4573,3.8979,4.3386,4.7375,5.1365,5.2973,5.4581,5.5064,5.5547,5.9707,6.3868,6.8634,7.3399,6.7636,6.1873,5.3928,4.5983,4.0877,3.5772,3.3732,3.1693,3.1558,3.1422,3.5149,3.8875,4.3915,4.8955,5.2024,5.5093,5.6742,5.839,6.3029,6.7667,7.0025,7.2384,7.0952,6.952,6.7039,6.4558,6.0889,5.722,5.6479,5.5737,5.7354,5.897,5.5743,5.2516,4.5958,3.94,3.4334,2.9268,2.6722,2.4466,2.2532,2.0599,1.953,1.846,1.4126,0.97922,0.70268,0.42615,0.33229,0.23844,0.1972,0.15596,0.13152,0.10709,0.092273,0.077461,0.067779,0.058096,0.048577,0.039059,0.032714,0.026368,0.023034,0.0197,0.017593,0.015486,0.014048,0.01261
0.01193,0.013229,0.014527,0.01636,0.018192,0.021162,0.024132,0.02898,0.033829,0.040137,0.046445,0.054488,0.062531,0.076379,0.090227,0.11291,0.13559,0.16741,0.19924,0.24611,0.29299,0.45467,0.61635,0.88236,1.1484,1.3987,1.6489,1.8828,2.1166,2.5148,2.9461,3.3668,3.7874,4.0845,4.3817,4.4978,4.614,4.7152,4.8164,5.2069,5.5974,5.8877,6.178,5.6943,5.2107,4.5263,3.842,3.4095,2.977,2.815,2.6531,2.6727,2.6924,3.0241,3.3558,3.7555,4.1552,4.4575,4.7599,4.9593,5.1587,5.6036,6.0486,6.3086,6.5686,6.3994,6.2302,5.9315,5.6328,5.3075,4.9822,4.9618,4.9415,5.1669,5.3922,5.1464,4.9005,4.2343,3.568,3.1327,2.6973,2.4779,2.2869,2.1531,2.0192,1.853,1.6867,1.2635,0.84032,0.60988,0.37944,0.29974,0.22005,0.18282,0.14559,0.12321,0.10083,0.088253,0.075674,0.065091,0.054508,0.04641,0.038313,0.032105,0.025898,0.022597,0.019296,0.017247,0.015198,0.013795,0.012391
0.011429,0.012645,0.013861,0.015573,0.017285,0.020037,0.022789,0.027097,0.031405,0.038281,0.045157,0.050903,0.056649,0.06815,0.079651,0.10198,0.12432,0.15155,0.17878,0.19953,0.22028,0.34811,0.47595,0.69704,0.91812,1.1576,1.3971,1.587,1.7769,2.0901,2.4349,2.8356,3.2363,3.4316,3.6268,3.6983,3.7698,3.9239,4.0781,4.443,4.808,4.912,5.0161,4.625,4.234,3.6599,3.0858,2.7313,2.3767,2.2568,2.1368,2.1897,2.2426,2.5333,2.8241,3.1195,3.4149,3.7127,4.0105,4.2445,4.4784,4.9044,5.3305,5.6146,5.8988,5.7036,5.5084,5.1591,4.8097,4.526,4.2423,4.2758,4.3093,4.5984,4.8875,4.7184,4.5494,3.8727,3.196,2.8319,2.4678,2.2835,2.1273,2.053,1.9786,1.753,1.5273,1.1144,0.70142,0.51707,0.33273,0.26719,0.20166,0.16844,0.13521,0.11489,0.094579,0.084233,0.073888,0.062404,0.05092,0.044243,0.037566,0.031497,0.025428,0.022161,0.018893,0.016901,0.01491,0.013541,0.012172
0.011221,0.012396,0.01357,0.015227,0.016884,0.019531,0.022178,0.026378,0.030578,0.03596,0.041341,0.048039,0.054736,0.064715,0.074695,0.094233,0.11377,0.13726,0.16074,0.18672,0.2127,0.28339,0.35408,0.52873,0.70338,0.89691,1.0905,1.2658,1.4412,1.6818,1.9532,2.293,2.6329,2.8519,3.0709,3.1779,3.285,3.4497,3.6144,3.8669,4.1195,4.0958,4.0721,3.7208,3.3695,2.9524,2.5353,2.2923,2.0493,1.9533,1.8574,1.8869,1.9164,2.096,2.2757,2.5221,2.7686,3.0258,3.2831,3.5448,3.8065,4.2111,4.6158,4.8811,5.1465,4.9695,4.7924,4.5021,4.2118,4,3.7882,3.8159,3.8436,4.0216,4.1996,3.9921,3.7846,3.3071,2.8295,2.5573,2.2851,2.1171,1.9746,1.8416,1.7086,1.4535,1.1985,0.88415,0.56978,0.43148,0.29319,0.23842,0.18365,0.15412,0.12458,0.10624,0.087893,0.077951,0.068009,0.058847,0.049684,0.042474,0.035264,0.029652,0.024039,0.021017,0.017994,0.016125,0.014256,0.012966,0.011677
0.011014,0.012147,0.013279,0.014881,0.016484,0.019025,0.021567,0.025659,0.029751,0.033639,0.037526,0.045174,0.052822,0.06128,0.069738,0.086481,0.10322,0.12296,0.1427,0.17391,0.20512,0.21867,0.23221,0.36042,0.48863,0.63623,0.78383,0.94463,1.1054,1.2734,1.4716,1.7505,2.0294,2.2722,2.5149,2.6575,2.8002,2.9754,3.1507,3.2909,3.431,3.2795,3.1281,2.8165,2.505,2.2449,1.9848,1.8533,1.7218,1.6499,1.5779,1.584,1.5901,1.6587,1.7273,1.9248,2.1223,2.339,2.5557,2.8451,3.1346,3.5178,3.9011,4.1477,4.3942,4.2354,4.0765,3.8452,3.6139,3.474,3.3341,3.3559,3.3778,3.4448,3.5117,3.2658,3.0198,2.7414,2.463,2.2827,2.1024,1.9506,1.8218,1.6302,1.4386,1.1541,0.86971,0.65392,0.43814,0.3459,0.25365,0.20965,0.16564,0.13979,0.11394,0.097576,0.081207,0.071669,0.06213,0.055289,0.048448,0.040705,0.032961,0.027806,0.02265,0.019872,0.017094,0.015348,0.013602,0.012391,0.011181
0.010515,0.011559,0.012602,0.014077,0.015553,0.017875,0.020198,0.023792,0.027385,0.031858,0.03633,0.041908,0.047485,0.055716,0.063946,0.076597,0.089247,0.10703,0.12481,0.15161,0.17841,0.20027,0.22212,0.28753,0.35293,0.47301,0.59309,0.70829,0.82349,0.95063,1.1058,1.3142,1.5225,1.743,1.9634,2.1218,2.2803,2.4086,2.5369,2.6145,2.692,2.5581,2.4242,2.1763,1.9285,1.7452,1.5619,1.465,1.3681,1.3126,1.2572,1.2582,1.2593,1.311,1.3627,1.4887,1.6148,1.8039,1.9931,2.2011,2.4091,2.7013,2.9936,3.2184,3.4432,3.388,3.3328,3.1939,3.055,2.9598,2.8645,2.8296,2.7947,2.7318,2.6688,2.467,2.2652,2.0967,1.9283,1.799,1.6698,1.5329,1.4181,1.2469,1.0758,0.8639,0.65205,0.50564,0.35924,0.29025,0.22126,0.18499,0.14873,0.12638,0.10403,0.092216,0.080401,0.070286,0.060171,0.052422,0.044673,0.038438,0.032203,0.027201,0.022198,0.01946,0.016723,0.015027,0.013331,0.012157,0.010982
0.010017,0.010971,0.011925,0.013273,0.014622,0.016726,0.018829,0.021924,0.025019,0.030077,0.035134,0.038641,0.042148,0.050151,0.058154,0.066712,0.075271,0.091092,0.10691,0.1293,0.15169,0.18187,0.21204,0.21463,0.21723,0.30979,0.40235,0.47194,0.54154,0.62782,0.73996,0.8778,1.0156,1.2138,1.4119,1.5862,1.7604,1.8418,1.9231,1.9381,1.9531,1.8367,1.7203,1.5361,1.352,1.2455,1.139,1.0767,1.0144,0.97538,0.93639,0.93244,0.9285,0.96325,0.998,1.0526,1.1072,1.2689,1.4305,1.557,1.6836,1.8848,2.0861,2.2892,2.4922,2.5407,2.5891,2.5426,2.4962,2.4456,2.3949,2.3032,2.2116,2.0187,1.8259,1.6683,1.5106,1.4521,1.3935,1.3153,1.2372,1.1152,1.0144,0.86366,0.71294,0.57367,0.43439,0.35736,0.28034,0.2346,0.18887,0.16034,0.13181,0.11296,0.094118,0.086856,0.079594,0.068902,0.058211,0.049554,0.040898,0.036172,0.031446,0.026596,0.021746,0.019048,0.016351,0.014706,0.01306,0.011922,0.010783
0.0098123,0.010732,0.011651,0.012949,0.014247,0.01626,0.018273,0.021214,0.024155,0.028413,0.03267,0.036623,0.040575,0.046817,0.053059,0.060664,0.068268,0.081121,0.093974,0.11453,0.1351,0.15835,0.18161,0.1945,0.2074,0.2679,0.3284,0.35919,0.38999,0.47664,0.58836,0.68506,0.78176,0.91337,1.045,1.1646,1.2842,1.3443,1.4043,1.414,1.4237,1.3458,1.2678,1.1573,1.0468,0.9791,0.91141,0.86978,0.82815,0.80098,0.7738,0.77085,0.7679,0.79245,0.817,0.85964,0.90227,1.002,1.1017,1.1889,1.2762,1.4054,1.5346,1.6876,1.8406,1.9106,1.9806,1.9622,1.9439,1.8983,1.8527,1.755,1.6574,1.5006,1.3439,1.2316,1.1193,1.0742,1.0291,0.96826,0.90739,0.8121,0.73605,0.63346,0.53087,0.43846,0.34604,0.29062,0.23521,0.20015,0.16509,0.14135,0.1176,0.10148,0.085357,0.078066,0.070776,0.061688,0.0526,0.046127,0.039653,0.034396,0.02914,0.024838,0.020535,0.018012,0.015489,0.013966,0.012443,0.011389,0.010334
0.0096077,0.010492,0.011377,0.012625,0.013873,0.015795,0.017717,0.020504,0.02329,0.026748,0.030206,0.034604,0.039001,0.043483,0.047964,0.054615,0.061266,0.07115,0.081035,0.099766,0.1185,0.13484,0.15118,0.17437,0.19757,0.22601,0.25446,0.24645,0.23844,0.32546,0.43677,0.49232,0.54787,0.61297,0.67806,0.74302,0.80799,0.84673,0.88547,0.88992,0.89438,0.85484,0.8153,0.77844,0.74159,0.71271,0.68384,0.66289,0.64194,0.62658,0.61122,0.60926,0.6073,0.62165,0.636,0.66666,0.69732,0.73507,0.77282,0.82081,0.86879,0.92599,0.98319,1.086,1.1889,1.2805,1.3721,1.3818,1.3916,1.351,1.3105,1.2069,1.1032,0.98255,0.86191,0.79492,0.72793,0.69636,0.66478,0.6212,0.57761,0.50897,0.45774,0.40327,0.34881,0.30325,0.25769,0.22388,0.19008,0.1657,0.14132,0.12236,0.1034,0.089997,0.076597,0.069277,0.061957,0.054474,0.04699,0.042699,0.038408,0.032621,0.026835,0.02308,0.019325,0.016976,0.014628,0.013227,0.011827,0.010856,0.0098844
0.0091466,0.0099579,0.010769,0.0119,0.013031,0.014762,0.016492,0.018942,0.021391,0.02411,0.026829,0.030764,0.034699,0.039249,0.0438,0.049701,0.055603,0.062269,0.068934,0.08301,0.097086,0.11089,0.12469,0.14645,0.16821,0.19109,0.21397,0.22053,0.22708,0.26515,0.32531,0.36187,0.39844,0.46657,0.5347,0.57728,0.61986,0.64609,0.67232,0.67938,0.68645,0.66613,0.6458,0.62119,0.59658,0.5789,0.56122,0.52729,0.49335,0.48762,0.48188,0.49706,0.51223,0.52239,0.53255,0.55396,0.57537,0.60191,0.62845,0.65691,0.68536,0.72646,0.76755,0.82908,0.89061,0.94714,1.0037,1.012,1.0203,0.99029,0.96024,0.89247,0.82469,0.74698,0.66927,0.62193,0.5746,0.54713,0.51966,0.48591,0.45215,0.39772,0.36002,0.32098,0.28195,0.24841,0.21486,0.18906,0.16325,0.14337,0.12348,0.10775,0.092014,0.083787,0.075559,0.067385,0.059211,0.0522,0.045189,0.040027,0.034866,0.03046,0.026054,0.022413,0.018772,0.016511,0.01425,0.012904,0.011559,0.010621,0.0096826
0.0086856,0.0094233,0.010161,0.011175,0.01219,0.013729,0.015267,0.01738,0.019492,0.021472,0.023452,0.026924,0.030397,0.035016,0.039635,0.044788,0.049941,0.053387,0.056834,0.066254,0.075674,0.086942,0.09821,0.11853,0.13884,0.15616,0.17348,0.1946,0.21573,0.20483,0.21385,0.23142,0.249,0.32017,0.39134,0.41154,0.43173,0.44544,0.45916,0.46884,0.47853,0.47741,0.47629,0.46393,0.45157,0.44508,0.4386,0.39169,0.34477,0.34866,0.35255,0.38486,0.41716,0.42313,0.42909,0.44125,0.45341,0.46874,0.48407,0.49301,0.50194,0.52693,0.55191,0.57212,0.59233,0.61378,0.63523,0.64217,0.6491,0.62953,0.60997,0.57808,0.54619,0.51141,0.47662,0.44895,0.42127,0.39791,0.37455,0.35062,0.3267,0.28647,0.2623,0.23869,0.21509,0.19357,0.17204,0.15423,0.13642,0.12103,0.10564,0.093138,0.080631,0.077576,0.074522,0.065493,0.056465,0.049926,0.043387,0.037356,0.031325,0.028299,0.025273,0.021746,0.018218,0.016046,0.013873,0.012582,0.011291,0.010386,0.0094809
0.008504,0.0092086,0.0099132,0.010883,0.011853,0.013319,0.014786,0.016777,0.018769,0.020542,0.022316,0.025952,0.029587,0.033072,0.036558,0.040118,0.043679,0.048773,0.053868,0.060153,0.066439,0.073981,0.081524,0.098138,0.11475,0.13125,0.14775,0.16462,0.18149,0.18288,0.20186,0.21834,0.23481,0.27701,0.31922,0.33468,0.35015,0.36225,0.37436,0.3812,0.38803,0.38881,0.38959,0.38545,0.38131,0.37418,0.36705,0.34283,0.31861,0.32048,0.32235,0.33907,0.35578,0.36003,0.36428,0.37125,0.37823,0.38902,0.39981,0.40854,0.41728,0.43239,0.4475,0.46251,0.47752,0.49015,0.50279,0.50459,0.5064,0.49396,0.48153,0.45945,0.43738,0.41307,0.38877,0.36774,0.3467,0.32786,0.30902,0.2895,0.26998,0.2363,0.21731,0.19924,0.18117,0.16407,0.14697,0.13234,0.11772,0.10508,0.092446,0.085876,0.079305,0.071849,0.064392,0.057044,0.049696,0.044215,0.038733,0.034484,0.030235,0.026696,0.023158,0.020089,0.01702,0.015043,0.013066,0.011887,0.010709,0.0098844,0.0090602
0.0083225,0.0089939,0.0096654,0.01059,0.011515,0.01291,0.014305,0.016175,0.018045,0.019613,0.021181,0.024979,0.028777,0.031129,0.03348,0.035448,0.037417,0.04416,0.050903,0.054053,0.057203,0.061021,0.064839,0.077749,0.09066,0.10634,0.12201,0.13463,0.14726,0.16092,0.18988,0.20525,0.22062,0.23386,0.2471,0.25783,0.26857,0.27906,0.28955,0.29355,0.29754,0.30022,0.30289,0.30697,0.31105,0.30327,0.29549,0.29397,0.29244,0.29229,0.29215,0.29327,0.2944,0.29693,0.29947,0.30126,0.30304,0.3093,0.31555,0.32408,0.33261,0.33785,0.34308,0.35289,0.36271,0.36652,0.37034,0.36702,0.3637,0.35839,0.35309,0.34083,0.32858,0.31474,0.30091,0.28653,0.27214,0.25782,0.2435,0.22838,0.21326,0.18613,0.17233,0.15979,0.14726,0.13458,0.1219,0.11046,0.099017,0.089132,0.079248,0.078614,0.07798,0.066122,0.054263,0.048595,0.042926,0.038503,0.034079,0.031613,0.029146,0.025094,0.021042,0.018432,0.015821,0.01404,0.012259,0.011193,0.010126,0.0093829,0.0086395
0.0079104,0.0085184,0.0091265,0.0099636,0.010801,0.012038,0.013276,0.014907,0.016538,0.01841,0.020282,0.022757,0.025233,0.02799,0.030748,0.033206,0.035664,0.039618,0.043572,0.047559,0.051546,0.056265,0.060983,0.067969,0.074954,0.085242,0.09553,0.10441,0.11328,0.12806,0.15819,0.17175,0.18531,0.19697,0.20864,0.21746,0.22628,0.23373,0.24119,0.24642,0.25166,0.25468,0.2577,0.2595,0.2613,0.26019,0.25907,0.25502,0.25097,0.25124,0.25152,0.25071,0.2499,0.24839,0.24688,0.25257,0.25826,0.26055,0.26284,0.2699,0.27695,0.28305,0.28916,0.29411,0.29906,0.30146,0.30387,0.30224,0.30061,0.29534,0.29007,0.28082,0.27158,0.26086,0.25014,0.23886,0.22758,0.21567,0.20376,0.19272,0.18168,0.15773,0.14662,0.13621,0.12579,0.11547,0.10515,0.095832,0.08651,0.082158,0.077807,0.071934,0.066061,0.058751,0.051442,0.046187,0.040932,0.036807,0.032682,0.029457,0.026232,0.022447,0.018662,0.016995,0.015328,0.013629,0.01193,0.01091,0.0098901,0.0091783,0.0084666
0.0074983,0.0080429,0.0085876,0.0093368,0.010086,0.011167,0.012247,0.013639,0.015031,0.017207,0.019383,0.020535,0.021688,0.024852,0.028016,0.030964,0.033912,0.035077,0.036241,0.041065,0.045889,0.051508,0.057128,0.058188,0.059249,0.064148,0.069046,0.074176,0.079305,0.095213,0.12651,0.13826,0.15001,0.16009,0.17017,0.17708,0.18399,0.18841,0.19282,0.1993,0.20579,0.20914,0.2125,0.21202,0.21155,0.2171,0.22264,0.21607,0.2095,0.21019,0.21089,0.20815,0.20541,0.19985,0.19429,0.20388,0.21348,0.21181,0.21014,0.21571,0.22129,0.22826,0.23523,0.23532,0.23542,0.23641,0.2374,0.23746,0.23753,0.23229,0.22705,0.22082,0.21459,0.20698,0.19938,0.19119,0.18301,0.17352,0.16403,0.15707,0.1501,0.12933,0.12092,0.11262,0.10432,0.096365,0.088412,0.081207,0.074003,0.075185,0.076366,0.065254,0.054142,0.051381,0.048621,0.043779,0.038938,0.035111,0.031284,0.027302,0.023319,0.0198,0.016282,0.015559,0.014835,0.013219,0.011602,0.010628,0.0096538,0.0089737,0.0082936
0.0073513,0.0078671,0.008383,0.0091063,0.0098296,0.01085,0.01187,0.013181,0.014492,0.016041,0.01759,0.019146,0.020702,0.022983,0.025264,0.027402,0.029541,0.032229,0.034918,0.038131,0.041344,0.044807,0.048269,0.052024,0.055779,0.06028,0.064782,0.069479,0.074176,0.084147,0.10889,0.11382,0.11875,0.12865,0.13854,0.14067,0.1428,0.15123,0.15965,0.16403,0.16841,0.17257,0.17674,0.17889,0.18103,0.17891,0.17679,0.17701,0.17723,0.17986,0.1825,0.17991,0.17731,0.17534,0.17337,0.17727,0.18118,0.18317,0.18516,0.18886,0.19257,0.19579,0.199,0.20039,0.20178,0.20235,0.20292,0.20147,0.20002,0.1965,0.19299,0.18789,0.18279,0.17663,0.17046,0.16368,0.15689,0.1494,0.14191,0.13547,0.12903,0.11076,0.10392,0.097129,0.090343,0.083758,0.077173,0.07481,0.072447,0.068274,0.064101,0.056887,0.049673,0.04587,0.042068,0.038105,0.034143,0.030957,0.027771,0.02511,0.022449,0.019436,0.016423,0.015106,0.013789,0.012344,0.010899,0.010026,0.0091524,0.0085357,0.007919
0.0072043,0.0076914,0.0081784,0.0088758,0.0095731,0.010533,0.011492,0.012723,0.013953,0.014876,0.015798,0.017757,0.019717,0.021115,0.022512,0.023841,0.025169,0.029382,0.033595,0.035198,0.0368,0.038105,0.039411,0.04586,0.052309,0.056413,0.060517,0.064782,0.069046,0.073081,0.09127,0.08938,0.08749,0.097201,0.10691,0.10426,0.10161,0.11404,0.12648,0.12876,0.13104,0.13601,0.14097,0.14575,0.15052,0.14073,0.13095,0.13795,0.14495,0.14953,0.15412,0.15167,0.14922,0.15083,0.15244,0.15066,0.14888,0.15453,0.16018,0.16202,0.16385,0.16331,0.16278,0.16546,0.16815,0.1683,0.16845,0.16548,0.16251,0.16072,0.15893,0.15497,0.151,0.14628,0.14155,0.13616,0.13077,0.12528,0.11979,0.11387,0.10796,0.092187,0.086913,0.08164,0.076366,0.07115,0.065934,0.068412,0.070891,0.061364,0.051837,0.04852,0.045203,0.040359,0.035515,0.032431,0.029348,0.026803,0.024258,0.022918,0.021578,0.019071,0.016564,0.014654,0.012743,0.011469,0.010196,0.0094233,0.008651,0.0080977,0.0075444
0.0068931,0.0073297,0.0077663,0.0083758,0.0089853,0.009857,0.010729,0.011804,0.012878,0.01403,0.015181,0.016488,0.017795,0.019227,0.020659,0.022259,0.023858,0.026351,0.028843,0.031179,0.033515,0.035415,0.037316,0.040735,0.044154,0.04738,0.050606,0.053896,0.057185,0.060293,0.07636,0.079278,0.082196,0.086252,0.090308,0.091966,0.093625,0.098952,0.10428,0.10725,0.11022,0.11669,0.12316,0.12571,0.12825,0.12549,0.12273,0.12599,0.12926,0.13208,0.13489,0.135,0.13511,0.13669,0.13826,0.13559,0.13291,0.13513,0.13734,0.13883,0.14032,0.14138,0.14245,0.14296,0.14348,0.14338,0.14329,0.14166,0.14003,0.13796,0.13589,0.13266,0.12942,0.1256,0.12178,0.11739,0.11301,0.10845,0.10389,0.099166,0.09444,0.084046,0.08383,0.079349,0.074868,0.069796,0.064724,0.062071,0.059419,0.054087,0.048756,0.044532,0.040307,0.03701,0.033713,0.030855,0.027996,0.025619,0.023241,0.021426,0.01961,0.017772,0.015933,0.014133,0.012334,0.011125,0.0099161,0.0091855,0.008455,0.0079262,0.0073974
0.0065819,0.006968,0.0073542,0.0078758,0.0083974,0.0091812,0.0099651,0.010884,0.011804,0.013184,0.014564,0.015218,0.015873,0.017339,0.018806,0.020676,0.022547,0.023319,0.024091,0.02716,0.030229,0.032725,0.035221,0.03561,0.035999,0.038347,0.040696,0.04301,0.045324,0.047505,0.06145,0.069176,0.076902,0.075303,0.073703,0.079671,0.08564,0.083859,0.082078,0.085735,0.089392,0.097365,0.10534,0.10566,0.10599,0.11025,0.11451,0.11404,0.11356,0.11462,0.11567,0.11834,0.12101,0.12254,0.12407,0.12051,0.11695,0.11572,0.1145,0.11564,0.11679,0.11945,0.12212,0.12046,0.1188,0.11846,0.11812,0.11783,0.11755,0.1152,0.11286,0.11035,0.10784,0.10493,0.10201,0.098628,0.095241,0.091619,0.087997,0.084461,0.080925,0.075905,0.080746,0.077058,0.073369,0.068441,0.063514,0.05573,0.047946,0.046811,0.045676,0.040543,0.035411,0.033662,0.031912,0.029278,0.026645,0.024434,0.022224,0.019933,0.017642,0.016472,0.015302,0.013613,0.011925,0.010781,0.0096365,0.0089478,0.0082591,0.0077548,0.0072505
0.0064753,0.0068398,0.0072043,0.0076986,0.0081928,0.0089449,0.0096971,0.01056,0.011423,0.012373,0.013322,0.014265,0.015207,0.016328,0.017449,0.018757,0.020066,0.021437,0.022809,0.024829,0.026849,0.028564,0.030278,0.032414,0.034549,0.036509,0.038468,0.040592,0.042716,0.044726,0.058073,0.061456,0.064839,0.066715,0.068591,0.070763,0.072934,0.074255,0.075577,0.078827,0.082078,0.085047,0.088017,0.089688,0.09136,0.093593,0.095826,0.097532,0.099238,0.10089,0.10254,0.10432,0.10611,0.1074,0.10868,0.10897,0.10926,0.11035,0.11144,0.10984,0.10825,0.10677,0.1053,0.10484,0.10439,0.10388,0.10337,0.1025,0.10163,0.10018,0.09872,0.09658,0.09444,0.096175,0.09791,0.092782,0.087654,0.086876,0.086098,0.082494,0.078891,0.068568,0.067456,0.064212,0.060969,0.057115,0.05326,0.049134,0.045007,0.042007,0.039007,0.035487,0.031967,0.029888,0.027809,0.025642,0.023475,0.02111,0.018746,0.017806,0.016867,0.015455,0.014043,0.012572,0.0111,0.010085,0.0090688,0.0084536,0.0078383,0.0073917,0.006945
0.0063686,0.0067116,0.0070545,0.0075213,0.0079882,0.0087086,0.0094291,0.010236,0.011043,0.011562,0.01208,0.013311,0.014541,0.015316,0.016092,0.016838,0.017584,0.019555,0.021527,0.022498,0.023469,0.024403,0.025336,0.029218,0.0331,0.03467,0.036241,0.038174,0.040108,0.041947,0.054695,0.053736,0.052776,0.058128,0.063479,0.061854,0.060228,0.064652,0.069075,0.07192,0.074764,0.072729,0.070695,0.073712,0.076729,0.076937,0.077144,0.081029,0.084913,0.087158,0.089403,0.090308,0.091213,0.092256,0.093299,0.097434,0.10157,0.10497,0.10838,0.10404,0.099708,0.094095,0.088481,0.08923,0.089979,0.089302,0.088625,0.087173,0.08572,0.08515,0.084579,0.08281,0.08104,0.087423,0.093806,0.086936,0.080066,0.082132,0.084199,0.080527,0.076856,0.061231,0.054165,0.051367,0.048569,0.045788,0.043007,0.042537,0.042068,0.037203,0.032339,0.030431,0.028523,0.026114,0.023705,0.022005,0.020305,0.017786,0.015267,0.01568,0.016092,0.014438,0.012783,0.01153,0.010276,0.0093887,0.0085011,0.0079594,0.0074176,0.0070286,0.0066395
0.0061295,0.0064306,0.0067317,0.0071496,0.0075674,0.0082058,0.0088441,0.00954,0.010236,0.010936,0.011636,0.012425,0.013213,0.014129,0.015046,0.015897,0.016749,0.01791,0.019071,0.020244,0.021417,0.022642,0.023867,0.025943,0.028019,0.029401,0.030783,0.031443,0.032103,0.034847,0.047655,0.048785,0.049915,0.052635,0.055355,0.05609,0.056825,0.058256,0.059687,0.061287,0.062888,0.06478,0.066672,0.068271,0.069871,0.071268,0.072666,0.074456,0.076245,0.078039,0.079833,0.080964,0.082095,0.083278,0.084461,0.084769,0.085078,0.087605,0.090132,0.09016,0.090187,0.088049,0.08591,0.085977,0.086043,0.08556,0.085078,0.084318,0.083559,0.082599,0.08164,0.080046,0.078452,0.078718,0.078983,0.076545,0.074107,0.072303,0.070499,0.067721,0.064943,0.053593,0.050563,0.047995,0.045428,0.04288,0.040333,0.038084,0.035834,0.033198,0.030561,0.02824,0.025918,0.02425,0.022581,0.020174,0.017766,0.016728,0.015691,0.015158,0.014625,0.013463,0.012302,0.011128,0.0099535,0.0091178,0.0082821,0.0077692,0.0072562,0.0068859,0.0065156
0.0058903,0.0061496,0.006409,0.0067779,0.0071467,0.0077029,0.0082591,0.0088441,0.0094291,0.010311,0.011193,0.011538,0.011884,0.012942,0.013999,0.014956,0.015913,0.016265,0.016616,0.017991,0.019365,0.020881,0.022397,0.022668,0.022939,0.024132,0.025325,0.024711,0.024097,0.027748,0.040615,0.043834,0.047053,0.047142,0.047232,0.050327,0.053422,0.05186,0.050298,0.050655,0.051013,0.056831,0.062649,0.062831,0.063012,0.0656,0.068188,0.067882,0.067577,0.06892,0.070263,0.07162,0.072977,0.0743,0.075623,0.072104,0.068585,0.070237,0.071888,0.076277,0.080666,0.082003,0.08334,0.082723,0.082107,0.081818,0.08153,0.081464,0.081398,0.080049,0.0787,0.077282,0.075865,0.070012,0.064159,0.066153,0.068147,0.062473,0.056799,0.054914,0.05303,0.045955,0.046961,0.044624,0.042287,0.039973,0.037659,0.03363,0.029601,0.029192,0.028783,0.026048,0.023313,0.022385,0.021457,0.018342,0.015227,0.015671,0.016115,0.014636,0.013158,0.012489,0.011821,0.010726,0.0096308,0.0088469,0.0080631,0.007579,0.0070948,0.0067433,0.0063917
0.0057934,0.0060465,0.0062995,0.0066467,0.006994,0.007517,0.0080401,0.008589,0.009138,0.0097172,0.010296,0.010861,0.011426,0.012527,0.013628,0.013959,0.014291,0.015048,0.015806,0.016747,0.017688,0.018677,0.019665,0.020642,0.021619,0.022695,0.023771,0.023934,0.024097,0.026222,0.037252,0.03888,0.040509,0.040602,0.040696,0.04236,0.044024,0.04601,0.047995,0.04855,0.049105,0.051743,0.054381,0.053916,0.053451,0.054799,0.056148,0.057102,0.058056,0.058956,0.059857,0.061646,0.063436,0.064535,0.065635,0.064812,0.063989,0.065609,0.067228,0.068271,0.069314,0.069679,0.070044,0.069934,0.069825,0.069476,0.069127,0.068634,0.068142,0.067315,0.066487,0.065312,0.064136,0.062073,0.060009,0.058911,0.057813,0.055534,0.053255,0.0514,0.049546,0.04069,0.039428,0.037579,0.035731,0.033882,0.032033,0.029986,0.027938,0.026405,0.024872,0.022512,0.020152,0.019633,0.019115,0.017063,0.015011,0.014789,0.014567,0.013587,0.012608,0.011753,0.010899,0.0099478,0.0089968,0.0083052,0.0076136,0.0071885,0.0067634,0.0064508,0.0061381
0.0056966,0.0059433,0.00619,0.0065156,0.0068412,0.0073311,0.007821,0.008334,0.0088469,0.0091236,0.0094002,0.010184,0.010968,0.012112,0.013256,0.012962,0.012668,0.013832,0.014997,0.015504,0.016011,0.016472,0.016933,0.018616,0.020299,0.021259,0.022218,0.023158,0.024097,0.024697,0.033889,0.033927,0.033964,0.034062,0.03416,0.034394,0.034627,0.04016,0.045693,0.046445,0.047197,0.046655,0.046114,0.045001,0.043889,0.043998,0.044108,0.046321,0.048534,0.048992,0.049451,0.051672,0.053894,0.05477,0.055646,0.05752,0.059393,0.06098,0.062568,0.060266,0.057963,0.057355,0.056747,0.057145,0.057543,0.057133,0.056724,0.055805,0.054886,0.05458,0.054275,0.053341,0.052407,0.054133,0.05586,0.05167,0.04748,0.048595,0.04971,0.047886,0.046062,0.035425,0.031895,0.030535,0.029175,0.027791,0.026408,0.026342,0.026276,0.023619,0.020962,0.018976,0.016991,0.016881,0.016772,0.015783,0.014795,0.013907,0.01302,0.012538,0.012057,0.011017,0.0099766,0.0091697,0.0083628,0.0077634,0.007164,0.006798,0.006432,0.0061583,0.0058845
0.0055108,0.0057352,0.0059597,0.0062492,0.0065387,0.0069536,0.0073686,0.0078153,0.0082619,0.0086769,0.0090919,0.0095775,0.010063,0.011217,0.012371,0.01225,0.012129,0.012789,0.013449,0.014095,0.01474,0.015393,0.016046,0.01693,0.017815,0.018606,0.019397,0.020181,0.020965,0.021528,0.030103,0.03109,0.032077,0.032061,0.032045,0.033095,0.034146,0.036669,0.039192,0.040179,0.041166,0.041844,0.042523,0.042091,0.041658,0.041581,0.041503,0.042739,0.043975,0.045105,0.046235,0.047673,0.049111,0.04984,0.050569,0.05134,0.05211,0.0527,0.053289,0.053227,0.053165,0.053171,0.053177,0.053097,0.053018,0.052688,0.052358,0.051891,0.051425,0.050873,0.050321,0.049507,0.048693,0.048065,0.047436,0.04589,0.044344,0.043422,0.0425,0.041133,0.039765,0.031404,0.029961,0.028717,0.027472,0.026202,0.024933,0.023803,0.022674,0.020479,0.018285,0.017319,0.016354,0.016132,0.01591,0.014999,0.014089,0.01327,0.012452,0.011752,0.011051,0.010341,0.0096308,0.0088758,0.0081207,0.0075574,0.006994,0.0066482,0.0063024,0.0060465,0.0057906
0.0053249,0.0055272,0.0057295,0.0059828,0.0062361,0.0065761,0.0069162,0.0072966,0.007677,0.0082302,0.0087835,0.0089709,0.0091582,0.010322,0.011487,0.011538,0.01159,0.011746,0.011902,0.012685,0.013469,0.014314,0.015158,0.015244,0.015331,0.015953,0.016576,0.017204,0.017832,0.01836,0.026316,0.028253,0.030189,0.030059,0.02993,0.031797,0.033664,0.033177,0.03269,0.033912,0.035134,0.037033,0.038932,0.03918,0.039428,0.039163,0.038898,0.039157,0.039416,0.041218,0.043019,0.043673,0.044327,0.044909,0.045491,0.04516,0.044828,0.044419,0.04401,0.046189,0.048367,0.048987,0.049606,0.04905,0.048494,0.048243,0.047992,0.047978,0.047964,0.047165,0.046367,0.045673,0.044978,0.041996,0.039013,0.040111,0.041209,0.038249,0.03529,0.034379,0.033469,0.027382,0.028028,0.026898,0.025769,0.024613,0.023457,0.021264,0.019071,0.017339,0.015608,0.015662,0.015717,0.015383,0.015048,0.014216,0.013383,0.012634,0.011884,0.010965,0.010046,0.0096654,0.009285,0.0085818,0.0078787,0.0073513,0.006824,0.0064983,0.0061727,0.0059347,0.0056966
0.00526,0.0054494,0.0056387,0.0058769,0.0061151,0.0064335,0.0067519,0.0071179,0.0074839,0.0078282,0.0081726,0.0085112,0.0088498,0.009612,0.010374,0.010464,0.010553,0.010974,0.011394,0.011919,0.012443,0.012982,0.013521,0.014037,0.014553,0.01512,0.015688,0.016306,0.016924,0.017407,0.0251,0.025915,0.026731,0.027343,0.027956,0.028803,0.02965,0.030271,0.030892,0.031693,0.032494,0.033293,0.034091,0.034709,0.035327,0.035252,0.035177,0.03587,0.036564,0.037213,0.037863,0.038288,0.038713,0.039589,0.040465,0.040754,0.041042,0.041254,0.041465,0.041899,0.042333,0.042405,0.042477,0.042301,0.042125,0.04184,0.041555,0.041274,0.040993,0.040535,0.040076,0.039471,0.038866,0.037831,0.036797,0.036255,0.035713,0.034555,0.033396,0.032456,0.031515,0.024522,0.023913,0.022472,0.021031,0.020139,0.019247,0.01792,0.016593,0.015852,0.015112,0.014868,0.014625,0.014069,0.013512,0.012814,0.012115,0.011481,0.010847,0.01026,0.009674,0.0091611,0.0086481,0.0080357,0.0074234,0.0069594,0.0064954,0.0062093,0.0059231,0.0057109,0.0054986
0.0051952,0.0053716,0.0055479,0.005771,0.005994,0.0062908,0.0065877,0.0069392,0.0072908,0.0074262,0.0075617,0.0080516,0.0085415,0.0089017,0.0092619,0.0093887,0.0095155,0.010201,0.010887,0.011152,0.011417,0.011651,0.011884,0.01283,0.013775,0.014288,0.014801,0.015409,0.016017,0.016455,0.023884,0.023578,0.023273,0.024627,0.025982,0.025809,0.025636,0.027365,0.029094,0.029474,0.029855,0.029552,0.02925,0.030238,0.031227,0.031342,0.031457,0.032584,0.033711,0.033209,0.032708,0.032904,0.0331,0.03427,0.03544,0.036347,0.037255,0.038088,0.038921,0.03761,0.036298,0.035823,0.035347,0.035552,0.035757,0.035437,0.035117,0.034569,0.034022,0.033904,0.033786,0.03327,0.032754,0.033667,0.034581,0.032399,0.030218,0.030861,0.031503,0.030532,0.029561,0.021662,0.019798,0.018045,0.016293,0.015665,0.015037,0.014576,0.014115,0.014365,0.014616,0.014074,0.013533,0.012755,0.011977,0.011412,0.010847,0.010328,0.0098094,0.0095558,0.0093023,0.0086567,0.0080112,0.0074896,0.006968,0.0065675,0.0061669,0.0059202,0.0056736,0.0054871,0.0053007
0.0053266,0.0055185,0.0057105,0.0059617,0.006213,0.0065171,0.0068211,0.0071006,0.0073801,0.0075703,0.0077605,0.0082533,0.0087461,0.009102,0.0094579,0.0095847,0.0097115,0.010387,0.011063,0.011324,0.011585,0.011887,0.01219,0.012533,0.012876,0.013314,0.013752,0.014164,0.014576,0.014942,0.02187,0.021996,0.022123,0.023753,0.025382,0.024843,0.024305,0.025937,0.02757,0.028081,0.028593,0.028044,0.027495,0.028032,0.02857,0.029015,0.02946,0.029972,0.030483,0.030575,0.030667,0.030876,0.031085,0.031002,0.030918,0.031767,0.032616,0.03258,0.032543,0.032999,0.033454,0.033545,0.033636,0.033699,0.033762,0.033407,0.033051,0.032663,0.032275,0.032064,0.031852,0.031356,0.030861,0.030502,0.030143,0.029338,0.028532,0.027535,0.026538,0.025862,0.025186,0.018159,0.017164,0.016826,0.016489,0.01588,0.01527,0.014492,0.013714,0.013779,0.013844,0.012861,0.011879,0.011651,0.011423,0.01068,0.0099362,0.009687,0.0094377,0.0090299,0.0086222,0.0081971,0.0077721,0.0072865,0.0068009,0.0064234,0.0060459,0.005812,0.0055782,0.0054012,0.0052243
0.005458,0.0056655,0.005873,0.0061525,0.006432,0.0067433,0.0070545,0.007262,0.0074695,0.0077144,0.0079594,0.008455,0.0089507,0.0093023,0.0096538,0.0097806,0.0099074,0.010573,0.011239,0.011495,0.011752,0.012123,0.012495,0.012236,0.011977,0.01234,0.012703,0.012919,0.013135,0.013429,0.019855,0.020414,0.020973,0.022878,0.024783,0.023878,0.022973,0.024509,0.026045,0.026688,0.02733,0.026535,0.02574,0.025826,0.025913,0.026688,0.027463,0.027359,0.027255,0.027941,0.028627,0.028849,0.029071,0.027734,0.026397,0.027186,0.027976,0.027071,0.026166,0.028388,0.03061,0.031267,0.031924,0.031846,0.031768,0.031376,0.030984,0.030757,0.030529,0.030224,0.029918,0.029443,0.028967,0.027336,0.025705,0.026276,0.026846,0.024209,0.021573,0.021192,0.020812,0.014657,0.01453,0.015608,0.016685,0.016095,0.015504,0.014409,0.013314,0.013193,0.013072,0.011648,0.010224,0.010547,0.01087,0.0099478,0.0090256,0.0090458,0.009066,0.008504,0.0079421,0.0077375,0.0075329,0.0070833,0.0066338,0.0062793,0.0059249,0.0057038,0.0054828,0.0053154,0.0051479
