0.022186,0.025311,0.028436,0.030771,0.033106,0.033954,0.034802,0.037563,0.040323,0.041316,0.042308,0.045423,0.048537,0.049659,0.050781,0.054228,0.057674,0.058879,0.060085,0.063704,0.067324,0.068551,0.069778,0.073285,0.076793,0.077911,0.07903,0.081989,0.084948,0.085815,0.086681,0.08881,0.090939,0.091372,0.091805,0.092599,0.093393,0.093393,0.093393,0.092851,0.09231,0.091841,0.091372,0.089495,0.087619,0.086717,0.085815,0.082747,0.07968,0.078525,0.07737,0.073751,0.070131,0.068893,0.067656,0.063946,0.060236,0.059013,0.057789,0.054199,0.050608,0.049468,0.048328,0.045098,0.041868,0.040872,0.039876,0.037213,0.03455,0.033568,0.032586,0.030436,0.028285,0.027444,0.026603,0.024853,0.023103,0.022424,0.021746,0.020894,0.020043
0.026224,0.028214,0.030205,0.032774,0.035343,0.036293,0.037242,0.040277,0.043311,0.044417,0.045524,0.049037,0.05255,0.053811,0.055072,0.059034,0.062997,0.064388,0.065779,0.069983,0.074187,0.075577,0.076966,0.081029,0.085093,0.08641,0.087727,0.091318,0.094908,0.095919,0.096929,0.099437,0.10195,0.10225,0.10256,0.10352,0.10447,0.10469,0.1049,0.10444,0.10397,0.10288,0.1018,0.10039,0.098986,0.096821,0.094656,0.0924,0.090145,0.087294,0.084443,0.081858,0.079272,0.076163,0.073054,0.070369,0.067684,0.064633,0.061582,0.05902,0.056458,0.053735,0.051012,0.048726,0.04644,0.044064,0.041688,0.03982,0.037953,0.035968,0.033983,0.032364,0.030746,0.029151,0.027556,0.026239,0.024922,0.023664,0.022406,0.021531,0.020656
0.030262,0.031118,0.031973,0.034777,0.037581,0.038631,0.039681,0.04299,0.046299,0.047519,0.048739,0.052651,0.056563,0.057963,0.059363,0.063841,0.06832,0.069897,0.071474,0.076262,0.081051,0.082603,0.084155,0.088774,0.093393,0.094908,0.096424,0.10065,0.10487,0.10602,0.10718,0.11006,0.11295,0.11313,0.11331,0.11443,0.11555,0.11598,0.11642,0.11602,0.11562,0.11393,0.11223,0.11129,0.11035,0.10693,0.1035,0.10205,0.10061,0.096063,0.091516,0.089964,0.088413,0.083433,0.078453,0.076793,0.075133,0.070254,0.065375,0.063841,0.062308,0.058002,0.053697,0.052355,0.051012,0.047256,0.043499,0.042427,0.041356,0.038368,0.03538,0.034293,0.033207,0.030858,0.028509,0.027624,0.02674,0.024904,0.023067,0.022168,0.02127
0.032125,0.033072,0.034019,0.037072,0.040125,0.04128,0.042435,0.046148,0.049861,0.051247,0.052633,0.057041,0.061449,0.063049,0.06465,0.069794,0.074938,0.076719,0.0785,0.084088,0.089676,0.091534,0.093393,0.098643,0.10389,0.10519,0.10649,0.11066,0.11483,0.11728,0.11974,0.12275,0.12576,0.12706,0.12836,0.12966,0.13096,0.13146,0.13197,0.13166,0.13136,0.12998,0.12861,0.12713,0.12565,0.12262,0.11959,0.11717,0.11476,0.10969,0.10462,0.10048,0.096352,0.092725,0.089098,0.08493,0.080762,0.077258,0.073754,0.069987,0.066219,0.063118,0.060016,0.056754,0.053492,0.050861,0.04823,0.045616,0.043001,0.040895,0.03879,0.036619,0.034449,0.032693,0.030937,0.029252,0.027567,0.026186,0.024806,0.024821,0.024835
0.033987,0.035026,0.036065,0.039367,0.042669,0.043929,0.045188,0.049305,0.053423,0.054975,0.056526,0.061431,0.066335,0.068136,0.069936,0.075746,0.081556,0.083541,0.085526,0.091913,0.098301,0.10047,0.10263,0.10851,0.1144,0.11548,0.11656,0.12067,0.12479,0.12854,0.13229,0.13543,0.13857,0.14099,0.14341,0.14489,0.14637,0.14695,0.14752,0.14731,0.14709,0.14604,0.145,0.14298,0.14096,0.13832,0.13569,0.13229,0.1289,0.12331,0.11772,0.111,0.10429,0.10202,0.099744,0.093068,0.086392,0.084263,0.082134,0.076132,0.070131,0.068233,0.066335,0.061153,0.055971,0.054466,0.052961,0.048804,0.044647,0.043423,0.0422,0.038945,0.03569,0.034528,0.033366,0.03088,0.028393,0.027469,0.026545,0.027473,0.0284
0.035105,0.037381,0.039656,0.041998,0.04434,0.047203,0.050067,0.052975,0.055884,0.059466,0.063047,0.066584,0.07012,0.074395,0.078669,0.082873,0.087078,0.092166,0.097254,0.10083,0.1044,0.10846,0.11252,0.11838,0.12425,0.12775,0.13125,0.13619,0.14114,0.14565,0.15016,0.15405,0.15795,0.161,0.16405,0.16596,0.16788,0.16869,0.1695,0.16925,0.16899,0.1677,0.1664,0.16401,0.16163,0.15835,0.15507,0.15097,0.14687,0.14115,0.13543,0.12897,0.12251,0.11705,0.11158,0.10366,0.095738,0.093266,0.090794,0.08377,0.076746,0.074588,0.07243,0.066474,0.060518,0.058811,0.057104,0.052447,0.04779,0.04644,0.045091,0.041476,0.037862,0.036985,0.036108,0.033027,0.029945,0.028018,0.026091,0.02798,0.029869
0.036224,0.039735,0.043246,0.044629,0.046011,0.050478,0.054946,0.056646,0.058345,0.063957,0.069568,0.071737,0.073906,0.080654,0.087402,0.090001,0.092599,0.10079,0.10898,0.10974,0.1105,0.11645,0.12241,0.12825,0.1341,0.14002,0.14594,0.15171,0.15748,0.16275,0.16802,0.17268,0.17733,0.18101,0.18469,0.18704,0.18938,0.19043,0.19148,0.19119,0.1909,0.18935,0.1878,0.18505,0.18231,0.17838,0.17444,0.16964,0.16484,0.159,0.15315,0.14695,0.14074,0.13208,0.12342,0.11425,0.10508,0.10227,0.099455,0.091408,0.083361,0.080943,0.078525,0.071795,0.065065,0.063156,0.061247,0.05609,0.050933,0.049457,0.047981,0.044008,0.040035,0.039443,0.038851,0.035174,0.031497,0.028566,0.025636,0.028487,0.031338
0.038331,0.04218,0.046029,0.047543,0.049056,0.054026,0.058995,0.060933,0.06287,0.069126,0.075382,0.077838,0.080293,0.088124,0.095955,0.097705,0.099455,0.10709,0.11472,0.11894,0.12316,0.13018,0.1372,0.14442,0.15164,0.15896,0.16629,0.17342,0.18054,0.18713,0.19371,0.19961,0.20551,0.21015,0.21479,0.21798,0.22118,0.22267,0.22417,0.22405,0.22392,0.22211,0.22031,0.2169,0.21349,0.2086,0.20371,0.19743,0.19115,0.18384,0.17654,0.16871,0.16088,0.15176,0.14265,0.13361,0.12457,0.11559,0.1066,0.10079,0.094981,0.088882,0.082783,0.078029,0.073274,0.068551,0.063827,0.060213,0.056599,0.053113,0.049627,0.046837,0.044048,0.041659,0.03927,0.036836,0.034402,0.031309,0.028216,0.030089,0.031962
0.040439,0.044625,0.048811,0.050457,0.052102,0.057573,0.063044,0.06522,0.067396,0.074296,0.081195,0.083938,0.086681,0.095594,0.10451,0.10541,0.10631,0.11338,0.12046,0.12814,0.13583,0.14391,0.152,0.16059,0.16918,0.17791,0.18664,0.19512,0.2036,0.2115,0.21941,0.22655,0.2337,0.23929,0.24489,0.24893,0.25297,0.25492,0.25687,0.2569,0.25694,0.25488,0.25282,0.24875,0.24467,0.23882,0.23298,0.22522,0.21746,0.20869,0.19992,0.19047,0.18101,0.17145,0.16189,0.15297,0.14406,0.1289,0.11375,0.11017,0.1066,0.096821,0.087041,0.084263,0.081484,0.073946,0.066407,0.064336,0.062264,0.056768,0.051272,0.049666,0.04806,0.043874,0.039688,0.038497,0.037307,0.034052,0.030797,0.031691,0.032586
0.044275,0.047216,0.050157,0.053879,0.057602,0.061499,0.065397,0.070297,0.075198,0.080181,0.085165,0.091588,0.098012,0.10297,0.10794,0.11246,0.11699,0.12524,0.13349,0.1426,0.15171,0.16178,0.17185,0.18256,0.19328,0.20422,0.21515,0.22596,0.23677,0.24667,0.25658,0.26578,0.27498,0.2826,0.29021,0.29564,0.30107,0.30405,0.30703,0.30748,0.30793,0.30564,0.30335,0.29853,0.29371,0.28617,0.27863,0.2687,0.25878,0.2473,0.23583,0.22341,0.211,0.19886,0.18671,0.17535,0.16398,0.15007,0.13616,0.12787,0.11959,0.10942,0.099239,0.092274,0.085309,0.080042,0.074776,0.069702,0.064628,0.060758,0.056887,0.053174,0.049461,0.046548,0.043636,0.040843,0.03805,0.035809,0.033568,0.034449,0.035329
0.048111,0.049807,0.051503,0.057302,0.063101,0.065425,0.067749,0.075375,0.083,0.086067,0.089135,0.099239,0.10934,0.11035,0.11136,0.11952,0.12768,0.13709,0.14651,0.15705,0.16759,0.17964,0.19169,0.20454,0.21739,0.23052,0.24366,0.25679,0.26993,0.28184,0.29375,0.30501,0.31627,0.3259,0.33554,0.34236,0.34918,0.35318,0.35719,0.35805,0.35892,0.35639,0.35387,0.34831,0.34275,0.33351,0.32428,0.31219,0.3001,0.28592,0.27173,0.25636,0.24099,0.22626,0.21154,0.19772,0.1839,0.17123,0.15857,0.14557,0.13258,0.12201,0.11144,0.10029,0.089135,0.086139,0.083144,0.075068,0.066992,0.064747,0.062502,0.056682,0.050861,0.049222,0.047584,0.043189,0.038793,0.037566,0.036339,0.037206,0.038072
0.049147,0.052929,0.05671,0.06081,0.064909,0.070052,0.075194,0.080667,0.086139,0.093321,0.1005,0.1061,0.11169,0.11687,0.12205,0.13152,0.14099,0.15207,0.16315,0.17582,0.18848,0.20308,0.21768,0.23363,0.24958,0.26643,0.28328,0.30008,0.31688,0.33265,0.34842,0.36314,0.37787,0.39037,0.40287,0.41208,0.42128,0.42673,0.43218,0.43369,0.43521,0.4323,0.4294,0.42204,0.41467,0.40266,0.39064,0.37501,0.35939,0.34163,0.32388,0.30455,0.28523,0.26643,0.24763,0.22973,0.21183,0.19577,0.17971,0.16513,0.15055,0.13726,0.12396,0.11266,0.10137,0.093862,0.086356,0.08073,0.075104,0.069725,0.064346,0.060278,0.056209,0.052378,0.048548,0.04552,0.042492,0.039668,0.036845,0.037774,0.038703
0.050182,0.05605,0.061918,0.064318,0.066717,0.074678,0.082639,0.085959,0.089279,0.10057,0.11187,0.11295,0.11403,0.12338,0.13273,0.14352,0.15431,0.16705,0.17978,0.19458,0.20938,0.22652,0.24366,0.26271,0.28177,0.30234,0.32291,0.34337,0.36383,0.38346,0.40309,0.42128,0.43947,0.45484,0.47021,0.4818,0.49338,0.50027,0.50716,0.50933,0.51149,0.50821,0.50493,0.49576,0.48659,0.4718,0.457,0.43784,0.41868,0.39735,0.37602,0.35275,0.32947,0.30659,0.28371,0.26174,0.23976,0.22031,0.20086,0.18469,0.16853,0.1525,0.13648,0.12504,0.1136,0.10158,0.089568,0.086392,0.083216,0.074703,0.06619,0.063874,0.061557,0.055534,0.049511,0.047851,0.046191,0.041771,0.03735,0.038342,0.039335
0.054939,0.059063,0.063188,0.068518,0.073848,0.079561,0.085273,0.092851,0.10043,0.10669,0.11295,0.1186,0.12425,0.13495,0.14565,0.15829,0.17094,0.18603,0.20111,0.21795,0.23478,0.25654,0.2783,0.30248,0.32666,0.35255,0.37844,0.4039,0.42936,0.4537,0.47804,0.50054,0.52304,0.54242,0.5618,0.57669,0.59157,0.60052,0.60947,0.61256,0.61564,0.61205,0.60846,0.59697,0.58547,0.56674,0.54801,0.52376,0.49951,0.47265,0.44578,0.41767,0.38956,0.34956,0.30955,0.29441,0.27928,0.25472,0.23016,0.2099,0.18964,0.17219,0.15474,0.14031,0.12587,0.11373,0.10158,0.093699,0.085815,0.079862,0.073909,0.068435,0.062961,0.058796,0.054632,0.050745,0.046859,0.043836,0.040814,0.041715,0.042615
0.059695,0.062077,0.064458,0.072719,0.080979,0.084443,0.087908,0.099744,0.11158,0.11281,0.11403,0.12425,0.13446,0.14651,0.15857,0.17307,0.18758,0.20501,0.22244,0.24131,0.26019,0.28657,0.31295,0.34225,0.37155,0.40277,0.43398,0.46444,0.49489,0.52394,0.55299,0.57981,0.60662,0.63,0.65339,0.67158,0.68976,0.70077,0.71178,0.71578,0.71979,0.71589,0.71199,0.69817,0.68435,0.66169,0.63903,0.60969,0.58035,0.54794,0.51554,0.48259,0.44964,0.39252,0.33539,0.32709,0.31879,0.28913,0.25946,0.23511,0.21075,0.19187,0.173,0.15557,0.13814,0.12587,0.1136,0.10101,0.088413,0.085021,0.081628,0.072996,0.064364,0.062059,0.059753,0.053639,0.047526,0.045902,0.044279,0.045087,0.045895
0.060528,0.06583,0.071131,0.076957,0.082783,0.09047,0.098156,0.10467,0.11118,0.11708,0.12298,0.13453,0.14608,0.16006,0.17405,0.19104,0.20804,0.22843,0.24882,0.2732,0.29757,0.32935,0.36112,0.39668,0.43225,0.46933,0.50641,0.5426,0.5788,0.61422,0.64964,0.68217,0.7147,0.74407,0.77345,0.79662,0.81978,0.83395,0.84811,0.85282,0.85753,0.85107,0.84461,0.82633,0.80806,0.78049,0.75292,0.71822,0.68352,0.64431,0.6051,0.5648,0.52449,0.47322,0.42196,0.39555,0.36913,0.33443,0.29974,0.26975,0.23976,0.21645,0.19314,0.17417,0.15521,0.13991,0.12461,0.11212,0.099636,0.09157,0.083505,0.077511,0.071517,0.066053,0.06059,0.05638,0.052171,0.048367,0.044564,0.045554,0.046545
0.061362,0.069583,0.077803,0.081195,0.084588,0.096496,0.1084,0.1096,0.11079,0.12136,0.13193,0.14482,0.1577,0.17361,0.18953,0.20901,0.2285,0.25185,0.2752,0.30508,0.33496,0.37213,0.4093,0.45112,0.49295,0.53589,0.57883,0.62077,0.6627,0.70449,0.74628,0.78453,0.82278,0.85815,0.89351,0.92166,0.94981,0.96713,0.98445,0.98986,0.99528,0.98625,0.97723,0.9545,0.93176,0.89928,0.86681,0.82675,0.78669,0.74068,0.69467,0.647,0.59933,0.55393,0.50854,0.464,0.41947,0.37974,0.34001,0.30439,0.26877,0.24102,0.21327,0.19278,0.17228,0.15395,0.13561,0.12324,0.11086,0.09812,0.085381,0.082025,0.078669,0.070048,0.061427,0.059121,0.056815,0.050832,0.044849,0.046022,0.047194
0.067345,0.073079,0.078814,0.086374,0.093934,0.10054,0.10714,0.11301,0.11887,0.13058,0.14229,0.15705,0.17181,0.19011,0.2084,0.23076,0.25311,0.28191,0.31071,0.34737,0.38404,0.42844,0.47285,0.52207,0.57129,0.62143,0.67158,0.72213,0.77269,0.82209,0.8715,0.91805,0.9646,1.0068,1.049,1.0815,1.114,1.132,1.1501,1.1517,1.1533,1.1382,1.123,1.0951,1.0671,1.0296,0.99203,0.94656,0.90109,0.84975,0.79842,0.74463,0.69085,0.6378,0.58475,0.53381,0.48288,0.43627,0.38967,0.34815,0.30663,0.27309,0.23954,0.21519,0.19083,0.17145,0.15207,0.13592,0.11977,0.10543,0.091083,0.08742,0.083758,0.074265,0.064772,0.062302,0.059832,0.053376,0.04692,0.0481,0.04928
0.073328,0.076576,0.079824,0.091552,0.10328,0.10458,0.10588,0.11642,0.12695,0.1398,0.15265,0.16928,0.18592,0.2066,0.22727,0.2525,0.27772,0.31197,0.34622,0.38967,0.43311,0.48475,0.53639,0.59302,0.64964,0.70698,0.76432,0.8235,0.88268,0.9397,0.99672,1.0516,1.1064,1.1555,1.2046,1.2414,1.2782,1.297,1.3157,1.3136,1.3114,1.2901,1.2688,1.2356,1.2024,1.1598,1.1172,1.0664,1.0155,0.95883,0.90217,0.84227,0.78236,0.72166,0.66097,0.60362,0.54628,0.4928,0.43932,0.3919,0.34449,0.30515,0.26582,0.2376,0.20938,0.18895,0.16853,0.14861,0.12869,0.11274,0.096785,0.092815,0.088846,0.078482,0.068118,0.065483,0.062849,0.05592,0.048991,0.050179,0.051366
0.077118,0.080654,0.084191,0.096316,0.10844,0.11048,0.11252,0.12414,0.13576,0.15032,0.16488,0.18356,0.20223,0.22536,0.24849,0.27877,0.30905,0.34984,0.39064,0.44282,0.495,0.55664,0.61828,0.68428,0.75028,0.81702,0.88377,0.95215,1.0205,1.0873,1.1541,1.2167,1.2793,1.333,1.3868,1.4236,1.4604,1.4718,1.4832,1.4707,1.4583,1.4292,1.4002,1.3623,1.3244,1.2796,1.2349,1.1818,1.1288,1.0685,1.0083,0.94421,0.88016,0.81462,0.74909,0.68516,0.62124,0.56023,0.49923,0.44463,0.39003,0.34423,0.29844,0.26446,0.23049,0.2068,0.1831,0.16347,0.14384,0.12623,0.10862,0.098968,0.089315,0.082202,0.07509,0.06896,0.062831,0.05814,0.053448,0.054309,0.05517
0.080907,0.084732,0.088557,0.10108,0.1136,0.11638,0.11916,0.13186,0.14456,0.16084,0.17711,0.19783,0.21854,0.24413,0.26971,0.30504,0.34037,0.38772,0.43506,0.49598,0.55689,0.62852,0.70016,0.77554,0.85093,0.92707,1.0032,1.0808,1.1584,1.2349,1.3114,1.3818,1.4521,1.5106,1.5691,1.6059,1.6427,1.6466,1.6506,1.6279,1.6051,1.5683,1.5315,1.4889,1.4464,1.3994,1.3525,1.2973,1.2421,1.1782,1.1144,1.0462,0.97795,0.90758,0.83721,0.7667,0.69619,0.62766,0.55913,0.49735,0.43557,0.38331,0.33106,0.29133,0.2516,0.22464,0.19768,0.17834,0.159,0.13973,0.12046,0.10512,0.089784,0.085923,0.082061,0.072437,0.062813,0.060359,0.057905,0.058439,0.058973
0.081051,0.089333,0.097615,0.10456,0.11151,0.11892,0.12634,0.14018,0.15402,0.17199,0.18996,0.21279,0.23561,0.26544,0.29526,0.33714,0.37902,0.43559,0.49215,0.56378,0.63542,0.71775,0.80008,0.88703,0.97398,1.0619,1.1497,1.2371,1.3244,1.4096,1.4947,1.5712,1.6477,1.7082,1.7686,1.8006,1.8325,1.8258,1.8191,1.7854,1.7517,1.7078,1.664,1.6174,1.5709,1.5212,1.4716,1.4146,1.3576,1.2908,1.2241,1.153,1.0819,1.0074,0.93284,0.85645,0.78005,0.70497,0.6299,0.56043,0.49096,0.4111,0.33124,0.30546,0.27967,0.24784,0.21602,0.19368,0.17134,0.15247,0.13359,0.11412,0.094656,0.090578,0.0865,0.076197,0.065895,0.063329,0.060763,0.060353,0.059944
0.081195,0.093934,0.10667,0.10804,0.10942,0.12147,0.13352,0.1485,0.16347,0.18314,0.20281,0.22774,0.25268,0.28675,0.32081,0.36924,0.41767,0.48346,0.54924,0.63159,0.71394,0.80697,0.90001,0.99852,1.097,1.1966,1.2962,1.3933,1.4904,1.5842,1.678,1.7607,1.8433,1.9057,1.9682,1.9952,2.0223,2.005,1.9877,1.9429,1.8982,1.8473,1.7964,1.7459,1.6954,1.643,1.5907,1.5319,1.4731,1.4034,1.3338,1.2598,1.1858,1.1071,1.0285,0.9462,0.86392,0.78229,0.70066,0.62351,0.54635,0.43889,0.33142,0.31959,0.30775,0.27105,0.23435,0.20901,0.18368,0.16521,0.14673,0.12313,0.099528,0.095233,0.090939,0.079958,0.068976,0.066299,0.063621,0.062268,0.060915
0.084624,0.097525,0.11043,0.11259,0.11476,0.12764,0.14052,0.15687,0.17322,0.19507,0.21692,0.24443,0.27195,0.31125,0.35055,0.40567,0.46079,0.53717,0.61355,0.70918,0.80481,0.91231,1.0198,1.1326,1.2454,1.3554,1.4655,1.5725,1.6795,1.7805,1.8816,1.9684,2.0551,2.1138,2.1724,2.1908,2.2092,2.1845,2.1598,2.1077,2.0555,1.9989,1.9422,1.8855,1.8289,1.7724,1.7159,1.654,1.5922,1.5207,1.4492,1.3715,1.2937,1.2111,1.1284,1.0407,0.95305,0.86515,0.77724,0.6942,0.61117,0.51646,0.42175,0.36265,0.30356,0.27975,0.25593,0.22686,0.19779,0.17713,0.15647,0.13374,0.111,0.10077,0.090542,0.083066,0.075591,0.069229,0.062867,0.062825,0.062784
0.088052,0.10112,0.11418,0.11714,0.1201,0.13381,0.14752,0.16524,0.18296,0.20699,0.23103,0.26112,0.29122,0.33575,0.38028,0.4421,0.50392,0.59089,0.67786,0.78677,0.89568,1.0176,1.1396,1.2666,1.3937,1.5142,1.6347,1.7517,1.8686,1.9768,2.0851,2.176,2.267,2.3218,2.3767,2.3864,2.3962,2.364,2.3319,2.2724,2.2128,2.1504,2.088,2.0252,1.9624,1.9018,1.8412,1.7762,1.7112,1.638,1.5647,1.4832,1.4016,1.315,1.2284,1.1353,1.0422,0.948,0.85381,0.7649,0.67598,0.59403,0.51207,0.40572,0.29938,0.28844,0.27751,0.2447,0.2119,0.18906,0.16622,0.14435,0.12248,0.10631,0.090145,0.086175,0.082206,0.072159,0.062113,0.063383,0.064653
0.096063,0.10328,0.1105,0.11797,0.12544,0.14013,0.15481,0.17414,0.19346,0.2189,0.24434,0.27868,0.31302,0.36253,0.41204,0.48308,0.55411,0.65312,0.75212,0.87604,0.99997,1.1358,1.2717,1.4148,1.5579,1.6927,1.8274,1.9541,2.0808,2.1946,2.3085,2.3963,2.4842,2.53,2.5759,2.5761,2.5762,2.5391,2.5019,2.4416,2.3814,2.3146,2.2478,2.1778,2.1078,2.0396,1.9714,1.902,1.8325,1.7574,1.6824,1.5977,1.5131,1.4218,1.3305,1.2324,1.1342,1.0339,0.93357,0.83841,0.74324,0.65429,0.56534,0.4705,0.37566,0.33851,0.30136,0.26437,0.22738,0.20191,0.17643,0.15557,0.13471,0.11438,0.094042,0.089856,0.08567,0.074999,0.064328,0.065554,0.066779
0.10407,0.10545,0.10682,0.1188,0.13078,0.14644,0.1621,0.18303,0.20396,0.23081,0.25766,0.29624,0.33481,0.3893,0.4438,0.52405,0.60431,0.71535,0.82639,0.96532,1.1043,1.254,1.4038,1.5629,1.7221,1.8711,2.0201,2.1565,2.293,2.4124,2.5319,2.6167,2.7015,2.7383,2.7751,2.7657,2.7563,2.7141,2.6719,2.6109,2.5499,2.4788,2.4077,2.3305,2.2533,2.1775,2.1017,2.0277,1.9537,1.8769,1.8,1.7123,1.6246,1.5286,1.4326,1.3294,1.2262,1.1198,1.0133,0.91191,0.81051,0.71456,0.6186,0.53528,0.45195,0.38858,0.32521,0.28404,0.24286,0.21475,0.18664,0.16679,0.14695,0.12244,0.09794,0.093537,0.089135,0.077839,0.066544,0.067724,0.068904
0.10783,0.10929,0.11075,0.1234,0.13605,0.15268,0.16932,0.19149,0.21367,0.24317,0.27267,0.3152,0.35773,0.41899,0.48024,0.56934,0.65844,0.78211,0.90578,1.0588,1.2118,1.3812,1.5507,1.725,1.8993,2.0658,2.2323,2.3812,2.53,2.6522,2.7744,2.8514,2.9284,2.9561,2.9837,2.9653,2.9469,2.9019,2.857,2.7978,2.7386,2.663,2.5874,2.5008,2.4142,2.3299,2.2457,2.1661,2.0865,2.007,1.9274,1.8365,1.7455,1.6445,1.5434,1.4319,1.3204,1.2069,1.0934,0.98499,0.87655,0.77321,0.66988,0.58028,0.49067,0.40114,0.31161,0.28537,0.25914,0.22809,0.19703,0.17553,0.15402,0.13094,0.10786,0.097723,0.087583,0.079968,0.072354,0.072583,0.072812
0.11158,0.11313,0.11468,0.128,0.14132,0.15893,0.17654,0.19996,0.22338,0.25553,0.28768,0.33416,0.38064,0.44867,0.51669,0.61463,0.71257,0.84887,0.98517,1.1523,1.3193,1.5084,1.6975,1.887,2.0764,2.2605,2.4445,2.6058,2.7671,2.892,3.0169,3.0861,3.1554,3.1738,3.1922,3.1648,3.1374,3.0898,3.0421,2.9847,2.9274,2.8473,2.7671,2.6711,2.5752,2.4824,2.3897,2.3045,2.2193,2.1371,2.0548,1.9606,1.8664,1.7603,1.6542,1.5344,1.4146,1.2941,1.1735,1.0581,0.94259,0.83187,0.72116,0.62528,0.52939,0.4137,0.29801,0.28671,0.27541,0.24142,0.20743,0.18426,0.16109,0.13944,0.11779,0.10191,0.086031,0.082098,0.078164,0.077442,0.076721
0.10552,0.112,0.11847,0.13251,0.14655,0.1651,0.18365,0.20741,0.23117,0.26628,0.3014,0.35165,0.4019,0.47638,0.55087,0.65963,0.7684,0.9181,1.0678,1.2504,1.433,1.6391,1.8451,2.0557,2.2663,2.4712,2.6762,2.8552,3.0342,3.1587,3.2832,3.3458,3.4084,3.4171,3.4257,3.3896,3.3536,3.301,3.2485,3.1854,3.1222,3.0382,2.9541,2.8545,2.7549,2.6542,2.5535,2.4618,2.3702,2.2832,2.1962,2.0995,2.0028,1.8864,1.7701,1.6392,1.5084,1.3803,1.2522,1.1281,1.0039,0.88849,0.77305,0.67001,0.56696,0.44201,0.31706,0.30436,0.29165,0.25495,0.21825,0.19314,0.16802,0.1452,0.12237,0.10555,0.088738,0.084678,0.080618,0.079608,0.078597
0.1275,0.13957,0.15163,0.16746,0.18329,0.20615,0.229,0.25356,0.27813,0.31971,0.3613,0.41663,0.47195,0.55713,0.6423,0.76342,0.88455,1.0526,1.2206,1.4204,1.6202,1.8485,2.0769,2.3104,2.544,2.7753,3.0067,3.2052,3.4038,3.5332,3.6625,3.722,3.7814,3.7833,3.7853,3.7425,3.6997,3.6436,3.5875,3.5193,3.4511,3.363,3.2749,3.1711,3.0673,2.9574,2.8474,2.7475,2.6475,2.5535,2.4594,2.3575,2.2556,2.128,2.0005,1.8543,1.708,1.5706,1.4332,1.2952,1.1572,1.0352,0.91329,0.79774,0.68219,0.54621,0.41024,0.39102,0.3718,0.33079,0.28978,0.25835,0.22692,0.20153,0.17614,0.15466,0.13319,0.12782,0.12245,0.11801,0.11357
0.12826,0.14235,0.15644,0.17284,0.18925,0.21328,0.23731,0.2641,0.29088,0.33471,0.37855,0.43792,0.49729,0.5886,0.67991,0.80801,0.93611,1.1163,1.2965,1.5145,1.7326,1.9811,2.2297,2.4853,2.7409,2.9987,3.2564,3.4706,3.6848,3.8133,3.9417,4.0004,4.0591,4.0556,4.0522,4.0007,3.9492,3.8807,3.8123,3.7339,3.6555,3.5646,3.4738,3.3692,3.2645,3.1508,3.0371,2.9314,2.8258,2.724,2.6221,2.5143,2.4064,2.2677,2.129,1.9727,1.8165,1.6667,1.5169,1.3735,1.2301,1.0977,0.96532,0.84535,0.72538,0.60595,0.48652,0.44102,0.39553,0.3495,0.30347,0.27138,0.2393,0.21067,0.18205,0.16082,0.13958,0.13262,0.12565,0.12197,0.11829
0.12901,0.14513,0.16124,0.17822,0.1952,0.22041,0.24563,0.27463,0.30363,0.34971,0.3958,0.45922,0.52263,0.62007,0.71751,0.85259,0.98767,1.18,1.3723,1.6086,1.845,2.1138,2.3825,2.6602,2.9379,3.222,3.5061,3.736,3.9659,4.0934,4.2209,4.2788,4.3368,4.3279,4.319,4.2589,4.1987,4.1178,4.037,3.9484,3.8598,3.7663,3.6728,3.5673,3.4617,3.3442,3.2267,3.1154,3.004,2.8945,2.7849,2.6711,2.5573,2.4074,2.2574,2.0912,1.925,1.7628,1.6006,1.4518,1.303,1.1602,1.0174,0.89297,0.76858,0.66569,0.56281,0.49103,0.41926,0.3682,0.31715,0.28441,0.25168,0.21982,0.18795,0.16697,0.14598,0.13741,0.12884,0.12593,0.12301
0.13478,0.14977,0.16477,0.18367,0.20257,0.22739,0.25222,0.28415,0.31607,0.36312,0.41016,0.47912,0.54808,0.64819,0.7483,0.89397,1.0396,1.2411,1.4426,1.6943,1.946,2.2318,2.5177,2.821,3.1244,3.4273,3.7303,3.9701,4.2099,4.3454,4.4809,4.5427,4.6045,4.5941,4.5837,4.513,4.4424,4.3516,4.2608,4.1636,4.0663,3.9687,3.871,3.7651,3.6592,3.5403,3.4214,3.3023,3.1831,3.0684,2.9537,2.8312,2.7088,2.5494,2.3899,2.2115,2.033,1.8602,1.6874,1.528,1.3687,1.2182,1.0678,0.93822,0.80867,0.69927,0.58988,0.49542,0.40096,0.36632,0.33168,0.29716,0.26264,0.23202,0.2014,0.17638,0.15136,0.14231,0.13325,0.12991,0.12656
0.14055,0.15442,0.16829,0.18911,0.20993,0.23437,0.25881,0.29366,0.32851,0.37652,0.42453,0.49903,0.57354,0.67631,0.77908,0.93535,1.0916,1.3023,1.513,1.78,2.0471,2.3499,2.6528,2.9818,3.3108,3.6327,3.9546,4.2043,4.4539,4.5975,4.741,4.8066,4.8722,4.8603,4.8483,4.7672,4.686,4.5853,4.4847,4.3787,4.2728,4.171,4.0692,3.963,3.8567,3.7364,3.616,3.4892,3.3623,3.2424,3.1225,2.9914,2.8603,2.6914,2.5224,2.3317,2.141,1.9576,1.7742,1.6043,1.4343,1.2762,1.1182,0.98347,0.84876,0.73285,0.61694,0.4998,0.38266,0.36444,0.34622,0.30991,0.27361,0.24423,0.21485,0.1858,0.15675,0.14721,0.13766,0.13389,0.13011
0.14387,0.158,0.17212,0.19356,0.21501,0.24014,0.26527,0.30222,0.33917,0.38942,0.43967,0.51743,0.5952,0.70171,0.80822,0.96975,1.1313,1.3474,1.5636,1.844,2.1244,2.4421,2.7598,3.1056,3.4513,3.7881,4.1249,4.3875,4.6501,4.8064,4.9627,5.0357,5.1086,5.0993,5.0901,5.0078,4.9254,4.8142,4.7031,4.5922,4.4813,4.3771,4.2729,4.1612,4.0495,3.9254,3.8012,3.6728,3.5443,3.4184,3.2924,3.1497,3.0071,2.8252,2.6434,2.4396,2.2358,2.0446,1.8533,1.6747,1.4961,1.3283,1.1605,1.018,0.87547,0.75831,0.64115,0.52043,0.3997,0.37974,0.35979,0.32173,0.28368,0.25287,0.22206,0.19205,0.16204,0.1519,0.14175,0.13768,0.13361
0.1472,0.16157,0.17594,0.19801,0.22008,0.2459,0.27173,0.31078,0.34983,0.40232,0.45481,0.53584,0.61687,0.72711,0.83736,1.0042,1.1709,1.3926,1.6142,1.908,2.2018,2.5343,2.8668,3.2293,3.5918,3.9435,4.2951,4.5707,4.8462,5.0153,5.1845,5.2647,5.345,5.3384,5.3318,5.2483,5.1648,5.0431,4.9215,4.8056,4.6898,4.5832,4.4766,4.3594,4.2422,4.1143,3.9864,3.8564,3.7263,3.5943,3.4623,3.3081,3.1538,2.9591,2.7643,2.5474,2.3305,2.1315,1.9325,1.7452,1.5579,1.3804,1.2028,1.0525,0.90217,0.78377,0.66537,0.54105,0.41673,0.39504,0.37335,0.33355,0.29375,0.26151,0.22928,0.19831,0.16734,0.15659,0.14583,0.14147,0.13711
0.15015,0.16485,0.17955,0.20208,0.22461,0.25103,0.27745,0.31748,0.35751,0.412,0.46649,0.55113,0.63578,0.7497,0.86363,1.0333,1.2029,1.4324,1.6619,1.9552,2.2485,2.5895,2.9305,3.3029,3.6752,4.0388,4.4024,4.6967,4.991,5.1718,5.3526,5.4404,5.5282,5.5337,5.5393,5.4656,5.3918,5.2691,5.1463,5.0235,4.9008,4.7884,4.676,4.5533,4.4305,4.298,4.1655,4.0321,3.8988,3.7584,3.6179,3.448,3.2781,3.0689,2.8596,2.6359,2.4123,2.2036,1.995,1.8028,1.6106,1.4276,1.2446,1.0869,0.92916,0.80696,0.68475,0.55505,0.42536,0.40733,0.3893,0.34495,0.3006,0.26985,0.2391,0.20472,0.17034,0.1612,0.15205,0.14489,0.13773
0.15309,0.16813,0.18316,0.20615,0.22914,0.25616,0.28318,0.32418,0.36518,0.42168,0.47817,0.56643,0.65469,0.77229,0.8899,1.0624,1.2349,1.4722,1.7096,2.0024,2.2953,2.6448,2.9943,3.3765,3.7587,4.1342,4.5097,4.8227,5.1357,5.3282,5.5207,5.6161,5.7115,5.7291,5.7467,5.6828,5.6189,5.495,5.3711,5.2414,5.1118,4.9936,4.8754,4.7471,4.6188,4.4817,4.3445,4.2079,4.0713,3.9224,3.7735,3.5879,3.4024,3.1786,2.9549,2.7244,2.494,2.2757,2.0575,1.8604,1.6634,1.4749,1.2864,1.1213,0.95616,0.83014,0.70413,0.56905,0.43398,0.41962,0.40526,0.35636,0.30746,0.27819,0.24893,0.21113,0.17334,0.1658,0.15827,0.14831,0.13836
0.1553,0.17138,0.18745,0.20924,0.23102,0.26094,0.29086,0.3305,0.37014,0.43034,0.49054,0.57649,0.66245,0.78585,0.90924,1.085,1.2608,1.4975,1.7342,2.0274,2.3206,2.6735,3.0265,3.4133,3.8002,4.1814,4.5626,4.8861,5.2096,5.4198,5.6299,5.7424,5.855,5.894,5.933,5.89,5.8471,5.7329,5.6187,5.4839,5.349,5.22,5.0909,4.9552,4.8194,4.6766,4.5338,4.3872,4.2406,4.0755,3.9104,3.7088,3.5072,3.2698,3.0323,2.7942,2.556,2.3353,2.1145,1.9115,1.7085,1.5142,1.3199,1.1506,0.98138,0.85356,0.72574,0.58665,0.44755,0.42853,0.40951,0.36477,0.32002,0.28629,0.25257,0.21689,0.18122,0.17079,0.16037,0.1519,0.14344
0.1575,0.17462,0.19174,0.21233,0.23291,0.26573,0.29854,0.33681,0.37509,0.439,0.50291,0.58656,0.6702,0.7994,0.92859,1.1076,1.2867,1.5228,1.7589,2.0524,2.3459,2.7023,3.0586,3.4502,3.8417,4.2285,4.6154,4.9495,5.2836,5.5113,5.739,5.8688,5.9986,6.0589,6.1192,6.0973,6.0753,5.9708,5.8663,5.7263,5.5863,5.4464,5.3064,5.1632,5.02,4.8715,4.723,4.5665,4.41,4.2287,4.0474,3.8298,3.6121,3.3609,3.1098,2.8639,2.618,2.3948,2.1716,1.9626,1.7535,1.5534,1.3533,1.18,1.0066,0.87698,0.74736,0.60424,0.46112,0.43744,0.41377,0.37317,0.33258,0.2944,0.25622,0.22266,0.1891,0.17578,0.16246,0.15549,0.14852
0.16004,0.17623,0.19243,0.21532,0.23821,0.26858,0.29895,0.34018,0.3814,0.44329,0.50518,0.59421,0.68323,0.81349,0.94374,1.1227,1.3016,1.5379,1.7741,2.0665,2.3589,2.7126,3.0663,3.4592,3.8521,4.2391,4.6262,4.9695,5.3127,5.5589,5.8051,5.965,6.1249,6.2132,6.3015,6.3049,6.3083,6.2211,6.1338,5.9968,5.8599,5.7098,5.5596,5.4047,5.2498,5.0894,4.9289,4.7545,4.5801,4.3763,4.1724,3.9331,3.6937,3.4306,3.1675,2.9165,2.6655,2.4371,2.2087,1.9955,1.7824,1.5807,1.3791,1.2037,1.0283,0.89577,0.76327,0.61802,0.47277,0.44807,0.42337,0.37814,0.3329,0.29956,0.26621,0.22866,0.19112,0.18015,0.16918,0.1592,0.14922
0.16257,0.17784,0.19311,0.21831,0.24351,0.27144,0.29937,0.34354,0.38772,0.44759,0.50745,0.60186,0.69626,0.82758,0.9589,1.1377,1.3165,1.553,1.7894,2.0807,2.372,2.723,3.074,3.4683,3.8625,4.2497,4.6369,4.9894,5.3419,5.6066,5.8713,6.0613,6.2513,6.3676,6.4838,6.5126,6.5414,6.4714,6.4014,6.2674,6.1334,5.9731,5.8129,5.6462,5.4796,5.3072,5.1348,4.9425,4.7503,4.5238,4.2974,4.0364,3.7754,3.5003,3.2252,2.9692,2.7131,2.4794,2.2458,2.0285,1.8112,1.608,1.4049,1.2274,1.0499,0.91455,0.77919,0.63181,0.48443,0.4587,0.43297,0.3831,0.33323,0.30472,0.27621,0.23467,0.19314,0.18451,0.17589,0.1629,0.14992
0.16399,0.18046,0.19694,0.21982,0.24271,0.27351,0.30432,0.34553,0.38674,0.44975,0.51276,0.607,0.70124,0.83532,0.9694,1.1479,1.3263,1.5606,1.795,2.0866,2.3782,2.7301,3.0819,3.4688,3.8556,4.2429,4.6301,4.9875,5.3449,5.6331,5.9213,6.1461,6.371,6.5175,6.664,6.7143,6.7646,6.7127,6.6607,6.5333,6.4058,6.2407,6.0756,5.897,5.7184,5.529,5.3396,5.1256,4.9117,4.6604,4.4092,4.1298,3.8504,3.567,3.2836,3.0213,2.7591,2.5209,2.2827,2.0594,1.8362,1.6286,1.421,1.2419,1.0628,0.92761,0.79239,0.64357,0.49475,0.46801,0.44127,0.39006,0.33886,0.30672,0.27458,0.2381,0.20162,0.18915,0.17668,0.16645,0.15623
0.1654,0.18309,0.20078,0.22134,0.2419,0.27558,0.30926,0.34752,0.38577,0.45192,0.51806,0.61214,0.70622,0.84306,0.9799,1.158,1.3361,1.5683,1.8006,2.0925,2.3845,2.7372,3.0898,3.4693,3.8487,4.236,4.6233,4.9856,5.3479,5.6596,5.9713,6.2309,6.4906,6.6674,6.8442,6.916,6.9879,6.9539,6.92,6.7991,6.6782,6.5083,6.3383,6.1478,5.9572,5.7508,5.5444,5.3087,5.0731,4.797,4.521,4.2232,3.9255,3.6337,3.3419,3.0735,2.805,2.5623,2.3197,2.0904,1.8611,1.6491,1.4371,1.2564,1.0757,0.94068,0.8056,0.65534,0.50507,0.47732,0.44957,0.39703,0.34449,0.30872,0.27296,0.24153,0.2101,0.19379,0.17748,0.17001,0.16254
0.16663,0.18303,0.19944,0.22277,0.2461,0.2766,0.3071,0.3486,0.3901,0.45136,0.51261,0.61007,0.70752,0.8445,0.98149,1.16,1.3385,1.5726,1.8068,2.0852,2.3635,2.7255,3.0876,3.4674,3.8472,4.2353,4.6234,4.9987,5.374,5.7057,6.0375,6.3232,6.6089,6.811,7.0131,7.101,7.1889,7.1685,7.1481,7.0351,6.9222,6.7526,6.583,6.3859,6.1889,5.9664,5.7439,5.4859,5.2279,4.9318,4.6357,4.33,4.0244,3.724,3.4237,3.1439,2.8642,2.6109,2.3576,2.1232,1.8888,1.6714,1.454,1.2726,1.0912,0.95224,0.81325,0.66373,0.5142,0.48429,0.45437,0.40203,0.34968,0.31359,0.27751,0.24402,0.21053,0.19756,0.18458,0.1734,0.16221
0.16786,0.18298,0.1981,0.2242,0.2503,0.27762,0.30493,0.34968,0.39443,0.4508,0.50716,0.60799,0.70882,0.84595,0.98308,1.162,1.3408,1.5769,1.813,2.0778,2.3426,2.7139,3.0853,3.4655,3.8457,4.2346,4.6236,5.0118,5.4,5.7519,6.1037,6.4155,6.7273,6.9547,7.182,7.2859,7.3899,7.383,7.3762,7.2711,7.1661,6.9969,6.8276,6.6241,6.4206,6.182,5.9435,5.6631,5.3827,5.0666,4.7505,4.4369,4.1233,3.8144,3.5055,3.2144,2.9233,2.6595,2.3956,2.156,1.9164,1.6937,1.471,1.2888,1.1067,0.96381,0.8209,0.67212,0.52333,0.49125,0.45917,0.40702,0.35488,0.31847,0.28205,0.24651,0.21096,0.20133,0.19169,0.17679,0.16189
0.16848,0.18473,0.20098,0.22417,0.24736,0.27806,0.30876,0.34871,0.38866,0.45172,0.51478,0.60992,0.70506,0.84041,0.97575,1.1576,1.3395,1.5616,1.7837,2.0779,2.3722,2.7286,3.085,3.4624,3.8398,4.2353,4.6307,5.0296,5.4285,5.7997,6.1709,6.5001,6.8294,7.0727,7.3159,7.4353,7.5548,7.5577,7.5606,7.4676,7.3747,7.2127,7.0506,6.8408,6.631,6.3809,6.1308,5.8347,5.5386,5.2104,4.8822,4.5579,4.2337,3.9154,3.5971,3.2961,2.995,2.7218,2.4486,2.1969,1.9453,1.7155,1.4856,1.3018,1.1179,0.97326,0.82859,0.67943,0.53026,0.49679,0.46332,0.41152,0.35971,0.32278,0.28584,0.24862,0.2114,0.20346,0.19552,0.17964,0.16376
0.16909,0.18648,0.20387,0.22415,0.24442,0.2785,0.31258,0.34773,0.38288,0.45264,0.52239,0.61185,0.70131,0.83487,0.96843,1.1533,1.3381,1.5462,1.7544,2.0781,2.4017,2.7432,3.0848,3.4593,3.8339,4.2359,4.6379,5.0475,5.4571,5.8475,6.238,6.5848,6.9316,7.1907,7.4498,7.5847,7.7197,7.7323,7.745,7.6641,7.5833,7.4285,7.2737,7.0575,6.8413,6.5797,6.3181,6.0063,5.6945,5.3542,5.0139,4.679,4.3441,4.0165,3.6888,3.3777,3.0667,2.7841,2.5015,2.2379,1.9742,1.7372,1.5003,1.3147,1.1292,0.98272,0.83628,0.68673,0.53719,0.50233,0.46747,0.41601,0.36455,0.32709,0.28963,0.25073,0.21183,0.20559,0.19934,0.18249,0.16564
0.16938,0.18669,0.204,0.22375,0.2435,0.2779,0.3123,0.3464,0.3805,0.44962,0.51875,0.6057,0.69265,0.82467,0.9567,1.1398,1.3229,1.5482,1.7736,2.0832,2.3929,2.7316,3.0703,3.4429,3.8155,4.2186,4.6216,5.0424,5.4632,5.8632,6.2632,6.6156,6.968,7.2383,7.5086,7.6587,7.8088,7.8391,7.8695,7.8059,7.7424,7.5972,7.4519,7.2372,7.0225,6.7544,6.4862,6.1678,5.8493,5.5056,5.1619,4.8152,4.4686,4.1242,3.7797,3.4631,3.1464,2.8528,2.5593,2.2849,2.0105,1.7672,1.5239,1.3309,1.1378,0.98836,0.83895,0.70923,0.57952,0.52598,0.47245,0.42061,0.36877,0.33097,0.29317,0.25425,0.21533,0.20849,0.20165,0.18462,0.16759
0.16968,0.1869,0.20412,0.22335,0.24258,0.27729,0.31201,0.34506,0.37812,0.44661,0.5151,0.59955,0.68399,0.81448,0.94497,1.1263,1.3076,1.5502,1.7927,2.0884,2.3841,2.72,3.0558,3.4264,3.7971,4.2012,4.6054,5.0374,5.4693,5.8789,6.2885,6.6465,7.0045,7.2859,7.5674,7.7327,7.898,7.946,7.994,7.9478,7.9016,7.7659,7.6302,7.4169,7.2037,6.929,6.6544,6.3293,6.0041,5.657,5.3098,4.9515,4.5931,4.2319,3.8707,3.5484,3.2262,2.9216,2.617,2.3319,2.0468,1.7972,1.5476,1.347,1.1464,0.99401,0.84162,0.73173,0.62185,0.54964,0.47743,0.42521,0.37299,0.33485,0.29671,0.25777,0.21883,0.2114,0.20396,0.18675,0.16954
0.16945,0.18657,0.20368,0.22253,0.24138,0.27569,0.30999,0.34683,0.38368,0.44748,0.51128,0.59347,0.67565,0.8014,0.92714,1.0887,1.2503,1.5094,1.7685,2.0627,2.357,2.6951,3.0331,3.4024,3.7718,4.1738,4.5758,5.0015,5.4271,5.8374,6.2477,6.6172,6.9868,7.2793,7.5717,7.7542,7.9366,8.0028,8.069,8.0429,8.0167,7.8967,7.7767,7.5694,7.3621,7.0811,6.8002,6.4758,6.1514,5.8006,5.4498,5.0827,4.7155,4.3499,3.9843,3.6487,3.3131,2.9985,2.6838,2.3879,2.092,1.8318,1.5717,1.3638,1.1559,1.0008,0.84573,0.73612,0.6265,0.55381,0.48111,0.42859,0.37606,0.33622,0.29638,0.26206,0.22774,0.21118,0.19462,0.18485,0.17509
0.16923,0.18623,0.20324,0.22172,0.24019,0.27408,0.30797,0.3486,0.38923,0.44834,0.50745,0.58739,0.66732,0.78832,0.90932,1.0511,1.1929,1.4686,1.7442,2.0371,2.3299,2.6701,3.0104,3.3785,3.7465,4.1464,4.5462,4.9655,5.3849,5.7959,6.2069,6.588,6.9691,7.2726,7.5761,7.7756,7.9752,8.0596,8.1441,8.1379,8.1318,8.0275,7.9232,7.7219,7.5205,7.2332,6.946,6.6223,6.2986,5.9442,5.5899,5.2138,4.8378,4.4679,4.098,3.7491,3.4001,3.0753,2.7505,2.4438,2.1371,1.8664,1.5958,1.3806,1.1655,1.0077,0.84985,0.7405,0.63116,0.55797,0.48479,0.43196,0.37913,0.33759,0.29606,0.26636,0.23666,0.21096,0.18527,0.18296,0.18065
0.1769,0.18742,0.19794,0.22047,0.24301,0.27132,0.29963,0.34537,0.39111,0.44703,0.50294,0.58174,0.66053,0.77801,0.8955,1.0513,1.207,1.4623,1.7176,2.0077,2.2977,2.6369,2.9761,3.3481,3.7202,4.1134,4.5065,4.9179,5.3293,5.7347,6.1402,6.5204,6.9005,7.2172,7.5339,7.7533,7.9727,8.0824,8.1921,8.2027,8.2134,8.1273,8.0412,7.8502,7.6591,7.3763,7.0936,6.7665,6.4393,6.0794,5.7194,5.3372,4.9551,4.5847,4.2142,3.8543,3.4943,3.1491,2.8039,2.4867,2.1695,1.8938,1.6181,1.3973,1.1765,0.99605,0.81556,0.72625,0.63693,0.56227,0.48761,0.43526,0.38292,0.33662,0.29032,0.26455,0.23879,0.21302,0.18725,0.18487,0.18249
0.18458,0.1886,0.19263,0.21923,0.24582,0.26856,0.29129,0.34214,0.39299,0.44571,0.49843,0.57609,0.65375,0.76771,0.88167,1.0514,1.2212,1.4561,1.691,1.9783,2.2655,2.6037,2.9418,3.3178,3.6938,4.0803,4.4668,4.8703,5.2737,5.6736,6.0734,6.4527,6.832,7.1618,7.4916,7.7309,7.9701,8.1051,8.2401,8.2675,8.2949,8.2271,8.1592,7.9784,7.7976,7.5194,7.2412,6.9106,6.5801,6.2145,5.849,5.4607,5.0724,4.7014,4.3304,3.9594,3.5885,3.2229,2.8574,2.5297,2.202,1.9213,1.6405,1.4141,1.1876,0.98445,0.78128,0.71199,0.64271,0.56656,0.49042,0.43856,0.38671,0.33564,0.28458,0.26275,0.24092,0.21508,0.18924,0.18679,0.18433
0.18445,0.18769,0.19094,0.21715,0.24337,0.26565,0.28794,0.33889,0.38985,0.44214,0.49443,0.57133,0.64823,0.73985,0.83148,1.0179,1.2044,1.4351,1.6658,1.9498,2.2338,2.5667,2.8996,3.2704,3.6412,4.0199,4.3986,4.7858,5.173,5.5671,5.9612,6.3336,6.706,7.0362,7.3664,7.6251,7.8839,8.0418,8.1997,8.2473,8.2949,8.2473,8.1997,8.0418,7.8839,7.6251,7.3664,7.0362,6.706,6.3336,5.9612,5.5671,5.173,4.7858,4.3986,4.0199,3.6412,3.2704,2.8996,2.5667,2.2338,1.9498,1.6658,1.4351,1.2044,1.0179,0.83148,0.73985,0.64823,0.57133,0.49443,0.44214,0.38985,0.33889,0.28794,0.26565,0.24337,0.21715,0.19094,0.18769,0.18445
0.18433,0.18679,0.18924,0.21508,0.24092,0.26275,0.28458,0.33564,0.38671,0.43856,0.49042,0.56656,0.64271,0.71199,0.78128,0.98445,1.1876,1.4141,1.6405,1.9213,2.202,2.5297,2.8574,3.2229,3.5885,3.9594,4.3304,4.7014,5.0724,5.4607,5.849,6.2145,6.5801,6.9106,7.2412,7.5194,7.7976,7.9784,8.1592,8.2271,8.2949,8.2675,8.2401,8.1051,7.9701,7.7309,7.4916,7.1618,6.832,6.4527,6.0734,5.6736,5.2737,4.8703,4.4668,4.0803,3.6938,3.3178,2.9418,2.6037,2.2655,1.9783,1.691,1.4561,1.2212,1.0514,0.88167,0.76771,0.65375,0.57609,0.49843,0.44571,0.39299,0.34214,0.29129,0.26856,0.24582,0.21923,0.19263,0.1886,0.18458
0.18249,0.18487,0.18725,0.21302,0.23879,0.26455,0.29032,0.33662,0.38292,0.43526,0.48761,0.56227,0.63693,0.72625,0.81556,0.99605,1.1765,1.3973,1.6181,1.8938,2.1695,2.4867,2.8039,3.1491,3.4943,3.8543,4.2142,4.5847,4.9551,5.3372,5.7194,6.0794,6.4393,6.7665,7.0936,7.3763,7.6591,7.8502,8.0412,8.1273,8.2134,8.2027,8.1921,8.0824,7.9727,7.7533,7.5339,7.2172,6.9005,6.5204,6.1402,5.7347,5.3293,4.9179,4.5065,4.1134,3.7202,3.3481,2.9761,2.6369,2.2977,2.0077,1.7176,1.4623,1.207,1.0513,0.8955,0.77801,0.66053,0.58174,0.50294,0.44703,0.39111,0.34537,0.29963,0.27132,0.24301,0.22047,0.19794,0.18742,0.1769
0.18065,0.18296,0.18527,0.21096,0.23666,0.26636,0.29606,0.33759,0.37913,0.43196,0.48479,0.55797,0.63116,0.7405,0.84985,1.0077,1.1655,1.3806,1.5958,1.8664,2.1371,2.4438,2.7505,3.0753,3.4001,3.7491,4.098,4.4679,4.8378,5.2138,5.5899,5.9442,6.2986,6.6223,6.946,7.2332,7.5205,7.7219,7.9232,8.0275,8.1318,8.1379,8.1441,8.0596,7.9752,7.7756,7.5761,7.2726,6.9691,6.588,6.2069,5.7959,5.3849,4.9655,4.5462,4.1464,3.7465,3.3785,3.0104,2.6701,2.3299,2.0371,1.7442,1.4686,1.1929,1.0511,0.90932,0.78832,0.66732,0.58739,0.50745,0.44834,0.38923,0.3486,0.30797,0.27408,0.24019,0.22172,0.20324,0.18623,0.16923
0.17509,0.18485,0.19462,0.21118,0.22774,0.26206,0.29638,0.33622,0.37606,0.42859,0.48111,0.55381,0.6265,0.73612,0.84573,1.0008,1.1559,1.3638,1.5717,1.8318,2.092,2.3879,2.6838,2.9985,3.3131,3.6487,3.9843,4.3499,4.7155,5.0827,5.4498,5.8006,6.1514,6.4758,6.8002,7.0811,7.3621,7.5694,7.7767,7.8967,8.0167,8.0429,8.069,8.0028,7.9366,7.7542,7.5717,7.2793,6.9868,6.6172,6.2477,5.8374,5.4271,5.0015,4.5758,4.1738,3.7718,3.4024,3.0331,2.6951,2.357,2.0627,1.7685,1.5094,1.2503,1.0887,0.92714,0.8014,0.67565,0.59347,0.51128,0.44748,0.38368,0.34683,0.30999,0.27569,0.24138,0.22253,0.20368,0.18657,0.16945
0.16954,0.18675,0.20396,0.2114,0.21883,0.25777,0.29671,0.33485,0.37299,0.42521,0.47743,0.54964,0.62185,0.73173,0.84162,0.99401,1.1464,1.347,1.5476,1.7972,2.0468,2.3319,2.617,2.9216,3.2262,3.5484,3.8707,4.2319,4.5931,4.9515,5.3098,5.657,6.0041,6.3293,6.6544,6.929,7.2037,7.4169,7.6302,7.7659,7.9016,7.9478,7.994,7.946,7.898,7.7327,7.5674,7.2859,7.0045,6.6465,6.2885,5.8789,5.4693,5.0374,4.6054,4.2012,3.7971,3.4264,3.0558,2.72,2.3841,2.0884,1.7927,1.5502,1.3076,1.1263,0.94497,0.81448,0.68399,0.59955,0.5151,0.44661,0.37812,0.34506,0.31201,0.27729,0.24258,0.22335,0.20412,0.1869,0.16968
0.16759,0.18462,0.20165,0.20849,0.21533,0.25425,0.29317,0.33097,0.36877,0.42061,0.47245,0.52598,0.57952,0.70923,0.83895,0.98836,1.1378,1.3309,1.5239,1.7672,2.0105,2.2849,2.5593,2.8528,3.1464,3.4631,3.7797,4.1242,4.4686,4.8152,5.1619,5.5056,5.8493,6.1678,6.4862,6.7544,7.0225,7.2372,7.4519,7.5972,7.7424,7.8059,7.8695,7.8391,7.8088,7.6587,7.5086,7.2383,6.968,6.6156,6.2632,5.8632,5.4632,5.0424,4.6216,4.2186,3.8155,3.4429,3.0703,2.7316,2.3929,2.0832,1.7736,1.5482,1.3229,1.1398,0.9567,0.82467,0.69265,0.6057,0.51875,0.44962,0.3805,0.3464,0.3123,0.2779,0.2435,0.22375,0.204,0.18669,0.16938
0.16564,0.18249,0.19934,0.20559,0.21183,0.25073,0.28963,0.32709,0.36455,0.41601,0.46747,0.50233,0.53719,0.68673,0.83628,0.98272,1.1292,1.3147,1.5003,1.7372,1.9742,2.2379,2.5015,2.7841,3.0667,3.3777,3.6888,4.0165,4.3441,4.679,5.0139,5.3542,5.6945,6.0063,6.3181,6.5797,6.8413,7.0575,7.2737,7.4285,7.5833,7.6641,7.745,7.7323,7.7197,7.5847,7.4498,7.1907,6.9316,6.5848,6.238,5.8475,5.4571,5.0475,4.6379,4.2359,3.8339,3.4593,3.0848,2.7432,2.4017,2.0781,1.7544,1.5462,1.3381,1.1533,0.96843,0.83487,0.70131,0.61185,0.52239,0.45264,0.38288,0.34773,0.31258,0.2785,0.24442,0.22415,0.20387,0.18648,0.16909
0.16376,0.17964,0.19552,0.20346,0.2114,0.24862,0.28584,0.32278,0.35971,0.41152,0.46332,0.49679,0.53026,0.67943,0.82859,0.97326,1.1179,1.3018,1.4856,1.7155,1.9453,2.1969,2.4486,2.7218,2.995,3.2961,3.5971,3.9154,4.2337,4.5579,4.8822,5.2104,5.5386,5.8347,6.1308,6.3809,6.631,6.8408,7.0506,7.2127,7.3747,7.4676,7.5606,7.5577,7.5548,7.4353,7.3159,7.0727,6.8294,6.5001,6.1709,5.7997,5.4285,5.0296,4.6307,4.2353,3.8398,3.4624,3.085,2.7286,2.3722,2.0779,1.7837,1.5616,1.3395,1.1576,0.97575,0.84041,0.70506,0.60992,0.51478,0.45172,0.38866,0.34871,0.30876,0.27806,0.24736,0.22417,0.20098,0.18473,0.16848
0.16189,0.17679,0.19169,0.20133,0.21096,0.24651,0.28205,0.31847,0.35488,0.40702,0.45917,0.49125,0.52333,0.67212,0.8209,0.96381,1.1067,1.2888,1.471,1.6937,1.9164,2.156,2.3956,2.6595,2.9233,3.2144,3.5055,3.8144,4.1233,4.4369,4.7505,5.0666,5.3827,5.6631,5.9435,6.182,6.4206,6.6241,6.8276,6.9969,7.1661,7.2711,7.3762,7.383,7.3899,7.2859,7.182,6.9547,6.7273,6.4155,6.1037,5.7519,5.4,5.0118,4.6236,4.2346,3.8457,3.4655,3.0853,2.7139,2.3426,2.0778,1.813,1.5769,1.3408,1.162,0.98308,0.84595,0.70882,0.60799,0.50716,0.4508,0.39443,0.34968,0.30493,0.27762,0.2503,0.2242,0.1981,0.18298,0.16786
0.16221,0.1734,0.18458,0.19756,0.21053,0.24402,0.27751,0.31359,0.34968,0.40203,0.45437,0.48429,0.5142,0.66373,0.81325,0.95224,1.0912,1.2726,1.454,1.6714,1.8888,2.1232,2.3576,2.6109,2.8642,3.1439,3.4237,3.724,4.0244,4.33,4.6357,4.9318,5.2279,5.4859,5.7439,5.9664,6.1889,6.3859,6.583,6.7526,6.9222,7.0351,7.1481,7.1685,7.1889,7.101,7.0131,6.811,6.6089,6.3232,6.0375,5.7057,5.374,4.9987,4.6234,4.2353,3.8472,3.4674,3.0876,2.7255,2.3635,2.0852,1.8068,1.5726,1.3385,1.16,0.98149,0.8445,0.70752,0.61007,0.51261,0.45136,0.3901,0.3486,0.3071,0.2766,0.2461,0.22277,0.19944,0.18303,0.16663
0.16254,0.17001,0.17748,0.19379,0.2101,0.24153,0.27296,0.30872,0.34449,0.39703,0.44957,0.47732,0.50507,0.65534,0.8056,0.94068,1.0757,1.2564,1.4371,1.6491,1.8611,2.0904,2.3197,2.5623,2.805,3.0735,3.3419,3.6337,3.9255,4.2232,4.521,4.797,5.0731,5.3087,5.5444,5.7508,5.9572,6.1478,6.3383,6.5083,6.6782,6.7991,6.92,6.9539,6.9879,6.916,6.8442,6.6674,6.4906,6.2309,5.9713,5.6596,5.3479,4.9856,4.6233,4.236,3.8487,3.4693,3.0898,2.7372,2.3845,2.0925,1.8006,1.5683,1.3361,1.158,0.9799,0.84306,0.70622,0.61214,0.51806,0.45192,0.38577,0.34752,0.30926,0.27558,0.2419,0.22134,0.20078,0.18309,0.1654
0.15623,0.16645,0.17668,0.18915,0.20162,0.2381,0.27458,0.30672,0.33886,0.39006,0.44127,0.46801,0.49475,0.64357,0.79239,0.92761,1.0628,1.2419,1.421,1.6286,1.8362,2.0594,2.2827,2.5209,2.7591,3.0213,3.2836,3.567,3.8504,4.1298,4.4092,4.6604,4.9117,5.1256,5.3396,5.529,5.7184,5.897,6.0756,6.2407,6.4058,6.5333,6.6607,6.7127,6.7646,6.7143,6.664,6.5175,6.371,6.1461,5.9213,5.6331,5.3449,4.9875,4.6301,4.2429,3.8556,3.4688,3.0819,2.7301,2.3782,2.0866,1.795,1.5606,1.3263,1.1479,0.9694,0.83532,0.70124,0.607,0.51276,0.44975,0.38674,0.34553,0.30432,0.27351,0.24271,0.21982,0.19694,0.18046,0.16399
0.14992,0.1629,0.17589,0.18451,0.19314,0.23467,0.27621,0.30472,0.33323,0.3831,0.43297,0.4587,0.48443,0.63181,0.77919,0.91455,1.0499,1.2274,1.4049,1.608,1.8112,2.0285,2.2458,2.4794,2.7131,2.9692,3.2252,3.5003,3.7754,4.0364,4.2974,4.5238,4.7503,4.9425,5.1348,5.3072,5.4796,5.6462,5.8129,5.9731,6.1334,6.2674,6.4014,6.4714,6.5414,6.5126,6.4838,6.3676,6.2513,6.0613,5.8713,5.6066,5.3419,4.9894,4.6369,4.2497,3.8625,3.4683,3.074,2.723,2.372,2.0807,1.7894,1.553,1.3165,1.1377,0.9589,0.82758,0.69626,0.60186,0.50745,0.44759,0.38772,0.34354,0.29937,0.27144,0.24351,0.21831,0.19311,0.17784,0.16257
0.14922,0.1592,0.16918,0.18015,0.19112,0.22866,0.26621,0.29956,0.3329,0.37814,0.42337,0.44807,0.47277,0.61802,0.76327,0.89577,1.0283,1.2037,1.3791,1.5807,1.7824,1.9955,2.2087,2.4371,2.6655,2.9165,3.1675,3.4306,3.6937,3.9331,4.1724,4.3763,4.5801,4.7545,4.9289,5.0894,5.2498,5.4047,5.5596,5.7098,5.8599,5.9968,6.1338,6.2211,6.3083,6.3049,6.3015,6.2132,6.1249,5.965,5.8051,5.5589,5.3127,4.9695,4.6262,4.2391,3.8521,3.4592,3.0663,2.7126,2.3589,2.0665,1.7741,1.5379,1.3016,1.1227,0.94374,0.81349,0.68323,0.59421,0.50518,0.44329,0.3814,0.34018,0.29895,0.26858,0.23821,0.21532,0.19243,0.17623,0.16004
0.14852,0.15549,0.16246,0.17578,0.1891,0.22266,0.25622,0.2944,0.33258,0.37317,0.41377,0.43744,0.46112,0.60424,0.74736,0.87698,1.0066,1.18,1.3533,1.5534,1.7535,1.9626,2.1716,2.3948,2.618,2.8639,3.1098,3.3609,3.6121,3.8298,4.0474,4.2287,4.41,4.5665,4.723,4.8715,5.02,5.1632,5.3064,5.4464,5.5863,5.7263,5.8663,5.9708,6.0753,6.0973,6.1192,6.0589,5.9986,5.8688,5.739,5.5113,5.2836,4.9495,4.6154,4.2285,3.8417,3.4502,3.0586,2.7023,2.3459,2.0524,1.7589,1.5228,1.2867,1.1076,0.92859,0.7994,0.6702,0.58656,0.50291,0.439,0.37509,0.33681,0.29854,0.26573,0.23291,0.21233,0.19174,0.17462,0.1575
0.14344,0.1519,0.16037,0.17079,0.18122,0.21689,0.25257,0.28629,0.32002,0.36477,0.40951,0.42853,0.44755,0.58665,0.72574,0.85356,0.98138,1.1506,1.3199,1.5142,1.7085,1.9115,2.1145,2.3353,2.556,2.7942,3.0323,3.2698,3.5072,3.7088,3.9104,4.0755,4.2406,4.3872,4.5338,4.6766,4.8194,4.9552,5.0909,5.22,5.349,5.4839,5.6187,5.7329,5.8471,5.89,5.933,5.894,5.855,5.7424,5.6299,5.4198,5.2096,4.8861,4.5626,4.1814,3.8002,3.4133,3.0265,2.6735,2.3206,2.0274,1.7342,1.4975,1.2608,1.085,0.90924,0.78585,0.66245,0.57649,0.49054,0.43034,0.37014,0.3305,0.29086,0.26094,0.23102,0.20924,0.18745,0.17138,0.1553
0.13836,0.14831,0.15827,0.1658,0.17334,0.21113,0.24893,0.27819,0.30746,0.35636,0.40526,0.41962,0.43398,0.56905,0.70413,0.83014,0.95616,1.1213,1.2864,1.4749,1.6634,1.8604,2.0575,2.2757,2.494,2.7244,2.9549,3.1786,3.4024,3.5879,3.7735,3.9224,4.0713,4.2079,4.3445,4.4817,4.6188,4.7471,4.8754,4.9936,5.1118,5.2414,5.3711,5.495,5.6189,5.6828,5.7467,5.7291,5.7115,5.6161,5.5207,5.3282,5.1357,4.8227,4.5097,4.1342,3.7587,3.3765,2.9943,2.6448,2.2953,2.0024,1.7096,1.4722,1.2349,1.0624,0.8899,0.77229,0.65469,0.56643,0.47817,0.42168,0.36518,0.32418,0.28318,0.25616,0.22914,0.20615,0.18316,0.16813,0.15309
0.13773,0.14489,0.15205,0.1612,0.17034,0.20472,0.2391,0.26985,0.3006,0.34495,0.3893,0.40733,0.42536,0.55505,0.68475,0.80696,0.92916,1.0869,1.2446,1.4276,1.6106,1.8028,1.995,2.2036,2.4123,2.6359,2.8596,3.0689,3.2781,3.448,3.6179,3.7584,3.8988,4.0321,4.1655,4.298,4.4305,4.5533,4.676,4.7884,4.9008,5.0235,5.1463,5.2691,5.3918,5.4656,5.5393,5.5337,5.5282,5.4404,5.3526,5.1718,4.991,4.6967,4.4024,4.0388,3.6752,3.3029,2.9305,2.5895,2.2485,1.9552,1.6619,1.4324,1.2029,1.0333,0.86363,0.7497,0.63578,0.55113,0.46649,0.412,0.35751,0.31748,0.27745,0.25103,0.22461,0.20208,0.17955,0.16485,0.15015
0.13711,0.14147,0.14583,0.15659,0.16734,0.19831,0.22928,0.26151,0.29375,0.33355,0.37335,0.39504,0.41673,0.54105,0.66537,0.78377,0.90217,1.0525,1.2028,1.3804,1.5579,1.7452,1.9325,2.1315,2.3305,2.5474,2.7643,2.9591,3.1538,3.3081,3.4623,3.5943,3.7263,3.8564,3.9864,4.1143,4.2422,4.3594,4.4766,4.5832,4.6898,4.8056,4.9215,5.0431,5.1648,5.2483,5.3318,5.3384,5.345,5.2647,5.1845,5.0153,4.8462,4.5707,4.2951,3.9435,3.5918,3.2293,2.8668,2.5343,2.2018,1.908,1.6142,1.3926,1.1709,1.0042,0.83736,0.72711,0.61687,0.53584,0.45481,0.40232,0.34983,0.31078,0.27173,0.2459,0.22008,0.19801,0.17594,0.16157,0.1472
0.13361,0.13768,0.14175,0.1519,0.16204,0.19205,0.22206,0.25287,0.28368,0.32173,0.35979,0.37974,0.3997,0.52043,0.64115,0.75831,0.87547,1.018,1.1605,1.3283,1.4961,1.6747,1.8533,2.0446,2.2358,2.4396,2.6434,2.8252,3.0071,3.1497,3.2924,3.4184,3.5443,3.6728,3.8012,3.9254,4.0495,4.1612,4.2729,4.3771,4.4813,4.5922,4.7031,4.8142,4.9254,5.0078,5.0901,5.0993,5.1086,5.0357,4.9627,4.8064,4.6501,4.3875,4.1249,3.7881,3.4513,3.1056,2.7598,2.4421,2.1244,1.844,1.5636,1.3474,1.1313,0.96975,0.80822,0.70171,0.5952,0.51743,0.43967,0.38942,0.33917,0.30222,0.26527,0.24014,0.21501,0.19356,0.17212,0.158,0.14387
0.13011,0.13389,0.13766,0.14721,0.15675,0.1858,0.21485,0.24423,0.27361,0.30991,0.34622,0.36444,0.38266,0.4998,0.61694,0.73285,0.84876,0.98347,1.1182,1.2762,1.4343,1.6043,1.7742,1.9576,2.141,2.3317,2.5224,2.6914,2.8603,2.9914,3.1225,3.2424,3.3623,3.4892,3.616,3.7364,3.8567,3.963,4.0692,4.171,4.2728,4.3787,4.4847,4.5853,4.686,4.7672,4.8483,4.8603,4.8722,4.8066,4.741,4.5975,4.4539,4.2043,3.9546,3.6327,3.3108,2.9818,2.6528,2.3499,2.0471,1.78,1.513,1.3023,1.0916,0.93535,0.77908,0.67631,0.57354,0.49903,0.42453,0.37652,0.32851,0.29366,0.25881,0.23437,0.20993,0.18911,0.16829,0.15442,0.14055
0.12656,0.12991,0.13325,0.14231,0.15136,0.17638,0.2014,0.23202,0.26264,0.29716,0.33168,0.36632,0.40096,0.49542,0.58988,0.69927,0.80867,0.93822,1.0678,1.2182,1.3687,1.528,1.6874,1.8602,2.033,2.2115,2.3899,2.5494,2.7088,2.8312,2.9537,3.0684,3.1831,3.3023,3.4214,3.5403,3.6592,3.7651,3.871,3.9687,4.0663,4.1636,4.2608,4.3516,4.4424,4.513,4.5837,4.5941,4.6045,4.5427,4.4809,4.3454,4.2099,3.9701,3.7303,3.4273,3.1244,2.821,2.5177,2.2318,1.946,1.6943,1.4426,1.2411,1.0396,0.89397,0.7483,0.64819,0.54808,0.47912,0.41016,0.36312,0.31607,0.28415,0.25222,0.22739,0.20257,0.18367,0.16477,0.14977,0.13478
0.12301,0.12593,0.12884,0.13741,0.14598,0.16697,0.18795,0.21982,0.25168,0.28441,0.31715,0.3682,0.41926,0.49103,0.56281,0.66569,0.76858,0.89297,1.0174,1.1602,1.303,1.4518,1.6006,1.7628,1.925,2.0912,2.2574,2.4074,2.5573,2.6711,2.7849,2.8945,3.004,3.1154,3.2267,3.3442,3.4617,3.5673,3.6728,3.7663,3.8598,3.9484,4.037,4.1178,4.1987,4.2589,4.319,4.3279,4.3368,4.2788,4.2209,4.0934,3.9659,3.736,3.5061,3.222,2.9379,2.6602,2.3825,2.1138,1.845,1.6086,1.3723,1.18,0.98767,0.85259,0.71751,0.62007,0.52263,0.45922,0.3958,0.34971,0.30363,0.27463,0.24563,0.22041,0.1952,0.17822,0.16124,0.14513,0.12901
0.11829,0.12197,0.12565,0.13262,0.13958,0.16082,0.18205,0.21067,0.2393,0.27138,0.30347,0.3495,0.39553,0.44102,0.48652,0.60595,0.72538,0.84535,0.96532,1.0977,1.2301,1.3735,1.5169,1.6667,1.8165,1.9727,2.129,2.2677,2.4064,2.5143,2.6221,2.724,2.8258,2.9314,3.0371,3.1508,3.2645,3.3692,3.4738,3.5646,3.6555,3.7339,3.8123,3.8807,3.9492,4.0007,4.0522,4.0556,4.0591,4.0004,3.9417,3.8133,3.6848,3.4706,3.2564,2.9987,2.7409,2.4853,2.2297,1.9811,1.7326,1.5145,1.2965,1.1163,0.93611,0.80801,0.67991,0.5886,0.49729,0.43792,0.37855,0.33471,0.29088,0.2641,0.23731,0.21328,0.18925,0.17284,0.15644,0.14235,0.12826
0.11357,0.11801,0.12245,0.12782,0.13319,0.15466,0.17614,0.20153,0.22692,0.25835,0.28978,0.33079,0.3718,0.39102,0.41024,0.54621,0.68219,0.79774,0.91329,1.0352,1.1572,1.2952,1.4332,1.5706,1.708,1.8543,2.0005,2.128,2.2556,2.3575,2.4594,2.5535,2.6475,2.7475,2.8474,2.9574,3.0673,3.1711,3.2749,3.363,3.4511,3.5193,3.5875,3.6436,3.6997,3.7425,3.7853,3.7833,3.7814,3.722,3.6625,3.5332,3.4038,3.2052,3.0067,2.7753,2.544,2.3104,2.0769,1.8485,1.6202,1.4204,1.2206,1.0526,0.88455,0.76342,0.6423,0.55713,0.47195,0.41663,0.3613,0.31971,0.27813,0.25356,0.229,0.20615,0.18329,0.16746,0.15163,0.13957,0.1275
0.078597,0.079608,0.080618,0.084678,0.088738,0.10555,0.12237,0.1452,0.16802,0.19314,0.21825,0.25495,0.29165,0.30436,0.31706,0.44201,0.56696,0.67001,0.77305,0.88849,1.0039,1.1281,1.2522,1.3803,1.5084,1.6392,1.7701,1.8864,2.0028,2.0995,2.1962,2.2832,2.3702,2.4618,2.5535,2.6542,2.7549,2.8545,2.9541,3.0382,3.1222,3.1854,3.2485,3.301,3.3536,3.3896,3.4257,3.4171,3.4084,3.3458,3.2832,3.1587,3.0342,2.8552,2.6762,2.4712,2.2663,2.0557,1.8451,1.6391,1.433,1.2504,1.0678,0.9181,0.7684,0.65963,0.55087,0.47638,0.4019,0.35165,0.3014,0.26628,0.23117,0.20741,0.18365,0.1651,0.14655,0.13251,0.11847,0.112,0.10552
0.076721,0.077442,0.078164,0.082098,0.086031,0.10191,0.11779,0.13944,0.16109,0.18426,0.20743,0.24142,0.27541,0.28671,0.29801,0.4137,0.52939,0.62528,0.72116,0.83187,0.94259,1.0581,1.1735,1.2941,1.4146,1.5344,1.6542,1.7603,1.8664,1.9606,2.0548,2.1371,2.2193,2.3045,2.3897,2.4824,2.5752,2.6711,2.7671,2.8473,2.9274,2.9847,3.0421,3.0898,3.1374,3.1648,3.1922,3.1738,3.1554,3.0861,3.0169,2.892,2.7671,2.6058,2.4445,2.2605,2.0764,1.887,1.6975,1.5084,1.3193,1.1523,0.98517,0.84887,0.71257,0.61463,0.51669,0.44867,0.38064,0.33416,0.28768,0.25553,0.22338,0.19996,0.17654,0.15893,0.14132,0.128,0.11468,0.11313,0.11158
0.072812,0.072583,0.072354,0.079968,0.087583,0.097723,0.10786,0.13094,0.15402,0.17553,0.19703,0.22809,0.25914,0.28537,0.31161,0.40114,0.49067,0.58028,0.66988,0.77321,0.87655,0.98499,1.0934,1.2069,1.3204,1.4319,1.5434,1.6445,1.7455,1.8365,1.9274,2.007,2.0865,2.1661,2.2457,2.3299,2.4142,2.5008,2.5874,2.663,2.7386,2.7978,2.857,2.9019,2.9469,2.9653,2.9837,2.9561,2.9284,2.8514,2.7744,2.6522,2.53,2.3812,2.2323,2.0658,1.8993,1.725,1.5507,1.3812,1.2118,1.0588,0.90578,0.78211,0.65844,0.56934,0.48024,0.41899,0.35773,0.3152,0.27267,0.24317,0.21367,0.19149,0.16932,0.15268,0.13605,0.1234,0.11075,0.10929,0.10783
0.068904,0.067724,0.066544,0.077839,0.089135,0.093537,0.09794,0.12244,0.14695,0.16679,0.18664,0.21475,0.24286,0.28404,0.32521,0.38858,0.45195,0.53528,0.6186,0.71456,0.81051,0.91191,1.0133,1.1198,1.2262,1.3294,1.4326,1.5286,1.6246,1.7123,1.8,1.8769,1.9537,2.0277,2.1017,2.1775,2.2533,2.3305,2.4077,2.4788,2.5499,2.6109,2.6719,2.7141,2.7563,2.7657,2.7751,2.7383,2.7015,2.6167,2.5319,2.4124,2.293,2.1565,2.0201,1.8711,1.7221,1.5629,1.4038,1.254,1.1043,0.96532,0.82639,0.71535,0.60431,0.52405,0.4438,0.3893,0.33481,0.29624,0.25766,0.23081,0.20396,0.18303,0.1621,0.14644,0.13078,0.1188,0.10682,0.10545,0.10407
0.066779,0.065554,0.064328,0.074999,0.08567,0.089856,0.094042,0.11438,0.13471,0.15557,0.17643,0.20191,0.22738,0.26437,0.30136,0.33851,0.37566,0.4705,0.56534,0.65429,0.74324,0.83841,0.93357,1.0339,1.1342,1.2324,1.3305,1.4218,1.5131,1.5977,1.6824,1.7574,1.8325,1.902,1.9714,2.0396,2.1078,2.1778,2.2478,2.3146,2.3814,2.4416,2.5019,2.5391,2.5762,2.5761,2.5759,2.53,2.4842,2.3963,2.3085,2.1946,2.0808,1.9541,1.8274,1.6927,1.5579,1.4148,1.2717,1.1358,0.99997,0.87604,0.75212,0.65312,0.55411,0.48308,0.41204,0.36253,0.31302,0.27868,0.24434,0.2189,0.19346,0.17414,0.15481,0.14013,0.12544,0.11797,0.1105,0.10328,0.096063
0.064653,0.063383,0.062113,0.072159,0.082206,0.086175,0.090145,0.10631,0.12248,0.14435,0.16622,0.18906,0.2119,0.2447,0.27751,0.28844,0.29938,0.40572,0.51207,0.59403,0.67598,0.7649,0.85381,0.948,1.0422,1.1353,1.2284,1.315,1.4016,1.4832,1.5647,1.638,1.7112,1.7762,1.8412,1.9018,1.9624,2.0252,2.088,2.1504,2.2128,2.2724,2.3319,2.364,2.3962,2.3864,2.3767,2.3218,2.267,2.176,2.0851,1.9768,1.8686,1.7517,1.6347,1.5142,1.3937,1.2666,1.1396,1.0176,0.89568,0.78677,0.67786,0.59089,0.50392,0.4421,0.38028,0.33575,0.29122,0.26112,0.23103,0.20699,0.18296,0.16524,0.14752,0.13381,0.1201,0.11714,0.11418,0.10112,0.088052
0.062784,0.062825,0.062867,0.069229,0.075591,0.083066,0.090542,0.10077,0.111,0.13374,0.15647,0.17713,0.19779,0.22686,0.25593,0.27975,0.30356,0.36265,0.42175,0.51646,0.61117,0.6942,0.77724,0.86515,0.95305,1.0407,1.1284,1.2111,1.2937,1.3715,1.4492,1.5207,1.5922,1.654,1.7159,1.7724,1.8289,1.8855,1.9422,1.9989,2.0555,2.1077,2.1598,2.1845,2.2092,2.1908,2.1724,2.1138,2.0551,1.9684,1.8816,1.7805,1.6795,1.5725,1.4655,1.3554,1.2454,1.1326,1.0198,0.91231,0.80481,0.70918,0.61355,0.53717,0.46079,0.40567,0.35055,0.31125,0.27195,0.24443,0.21692,0.19507,0.17322,0.15687,0.14052,0.12764,0.11476,0.11259,0.11043,0.097525,0.084624
0.060915,0.062268,0.063621,0.066299,0.068976,0.079958,0.090939,0.095233,0.099528,0.12313,0.14673,0.16521,0.18368,0.20901,0.23435,0.27105,0.30775,0.31959,0.33142,0.43889,0.54635,0.62351,0.70066,0.78229,0.86392,0.9462,1.0285,1.1071,1.1858,1.2598,1.3338,1.4034,1.4731,1.5319,1.5907,1.643,1.6954,1.7459,1.7964,1.8473,1.8982,1.9429,1.9877,2.005,2.0223,1.9952,1.9682,1.9057,1.8433,1.7607,1.678,1.5842,1.4904,1.3933,1.2962,1.1966,1.097,0.99852,0.90001,0.80697,0.71394,0.63159,0.54924,0.48346,0.41767,0.36924,0.32081,0.28675,0.25268,0.22774,0.20281,0.18314,0.16347,0.1485,0.13352,0.12147,0.10942,0.10804,0.10667,0.093934,0.081195
0.059944,0.060353,0.060763,0.063329,0.065895,0.076197,0.0865,0.090578,0.094656,0.11412,0.13359,0.15247,0.17134,0.19368,0.21602,0.24784,0.27967,0.30546,0.33124,0.4111,0.49096,0.56043,0.6299,0.70497,0.78005,0.85645,0.93284,1.0074,1.0819,1.153,1.2241,1.2908,1.3576,1.4146,1.4716,1.5212,1.5709,1.6174,1.664,1.7078,1.7517,1.7854,1.8191,1.8258,1.8325,1.8006,1.7686,1.7082,1.6477,1.5712,1.4947,1.4096,1.3244,1.2371,1.1497,1.0619,0.97398,0.88703,0.80008,0.71775,0.63542,0.56378,0.49215,0.43559,0.37902,0.33714,0.29526,0.26544,0.23561,0.21279,0.18996,0.17199,0.15402,0.14018,0.12634,0.11892,0.11151,0.10456,0.097615,0.089333,0.081051
0.058973,0.058439,0.057905,0.060359,0.062813,0.072437,0.082061,0.085923,0.089784,0.10512,0.12046,0.13973,0.159,0.17834,0.19768,0.22464,0.2516,0.29133,0.33106,0.38331,0.43557,0.49735,0.55913,0.62766,0.69619,0.7667,0.83721,0.90758,0.97795,1.0462,1.1144,1.1782,1.2421,1.2973,1.3525,1.3994,1.4464,1.4889,1.5315,1.5683,1.6051,1.6279,1.6506,1.6466,1.6427,1.6059,1.5691,1.5106,1.4521,1.3818,1.3114,1.2349,1.1584,1.0808,1.0032,0.92707,0.85093,0.77554,0.70016,0.62852,0.55689,0.49598,0.43506,0.38772,0.34037,0.30504,0.26971,0.24413,0.21854,0.19783,0.17711,0.16084,0.14456,0.13186,0.11916,0.11638,0.1136,0.10108,0.088557,0.084732,0.080907
0.05517,0.054309,0.053448,0.05814,0.062831,0.06896,0.07509,0.082202,0.089315,0.098968,0.10862,0.12623,0.14384,0.16347,0.1831,0.2068,0.23049,0.26446,0.29844,0.34423,0.39003,0.44463,0.49923,0.56023,0.62124,0.68516,0.74909,0.81462,0.88016,0.94421,1.0083,1.0685,1.1288,1.1818,1.2349,1.2796,1.3244,1.3623,1.4002,1.4292,1.4583,1.4707,1.4832,1.4718,1.4604,1.4236,1.3868,1.333,1.2793,1.2167,1.1541,1.0873,1.0205,0.95215,0.88377,0.81702,0.75028,0.68428,0.61828,0.55664,0.495,0.44282,0.39064,0.34984,0.30905,0.27877,0.24849,0.22536,0.20223,0.18356,0.16488,0.15032,0.13576,0.12414,0.11252,0.11048,0.10844,0.096316,0.084191,0.080654,0.077118
0.051366,0.050179,0.048991,0.05592,0.062849,0.065483,0.068118,0.078482,0.088846,0.092815,0.096785,0.11274,0.12869,0.14861,0.16853,0.18895,0.20938,0.2376,0.26582,0.30515,0.34449,0.3919,0.43932,0.4928,0.54628,0.60362,0.66097,0.72166,0.78236,0.84227,0.90217,0.95883,1.0155,1.0664,1.1172,1.1598,1.2024,1.2356,1.2688,1.2901,1.3114,1.3136,1.3157,1.297,1.2782,1.2414,1.2046,1.1555,1.1064,1.0516,0.99672,0.9397,0.88268,0.8235,0.76432,0.70698,0.64964,0.59302,0.53639,0.48475,0.43311,0.38967,0.34622,0.31197,0.27772,0.2525,0.22727,0.2066,0.18592,0.16928,0.15265,0.1398,0.12695,0.11642,0.10588,0.10458,0.10328,0.091552,0.079824,0.076576,0.073328
0.04928,0.0481,0.04692,0.053376,0.059832,0.062302,0.064772,0.074265,0.083758,0.08742,0.091083,0.10543,0.11977,0.13592,0.15207,0.17145,0.19083,0.21519,0.23954,0.27309,0.30663,0.34815,0.38967,0.43627,0.48288,0.53381,0.58475,0.6378,0.69085,0.74463,0.79842,0.84975,0.90109,0.94656,0.99203,1.0296,1.0671,1.0951,1.123,1.1382,1.1533,1.1517,1.1501,1.132,1.114,1.0815,1.049,1.0068,0.9646,0.91805,0.8715,0.82209,0.77269,0.72213,0.67158,0.62143,0.57129,0.52207,0.47285,0.42844,0.38404,0.34737,0.31071,0.28191,0.25311,0.23076,0.2084,0.19011,0.17181,0.15705,0.14229,0.13058,0.11887,0.11301,0.10714,0.10054,0.093934,0.086374,0.078814,0.073079,0.067345
0.047194,0.046022,0.044849,0.050832,0.056815,0.059121,0.061427,0.070048,0.078669,0.082025,0.085381,0.09812,0.11086,0.12324,0.13561,0.15395,0.17228,0.19278,0.21327,0.24102,0.26877,0.30439,0.34001,0.37974,0.41947,0.464,0.50854,0.55393,0.59933,0.647,0.69467,0.74068,0.78669,0.82675,0.86681,0.89928,0.93176,0.9545,0.97723,0.98625,0.99528,0.98986,0.98445,0.96713,0.94981,0.92166,0.89351,0.85815,0.82278,0.78453,0.74628,0.70449,0.6627,0.62077,0.57883,0.53589,0.49295,0.45112,0.4093,0.37213,0.33496,0.30508,0.2752,0.25185,0.2285,0.20901,0.18953,0.17361,0.1577,0.14482,0.13193,0.12136,0.11079,0.1096,0.1084,0.096496,0.084588,0.081195,0.077803,0.069583,0.061362
0.046545,0.045554,0.044564,0.048367,0.052171,0.05638,0.06059,0.066053,0.071517,0.077511,0.083505,0.09157,0.099636,0.11212,0.12461,0.13991,0.15521,0.17417,0.19314,0.21645,0.23976,0.26975,0.29974,0.33443,0.36913,0.39555,0.42196,0.47322,0.52449,0.5648,0.6051,0.64431,0.68352,0.71822,0.75292,0.78049,0.80806,0.82633,0.84461,0.85107,0.85753,0.85282,0.84811,0.83395,0.81978,0.79662,0.77345,0.74407,0.7147,0.68217,0.64964,0.61422,0.5788,0.5426,0.50641,0.46933,0.43225,0.39668,0.36112,0.32935,0.29757,0.2732,0.24882,0.22843,0.20804,0.19104,0.17405,0.16006,0.14608,0.13453,0.12298,0.11708,0.11118,0.10467,0.098156,0.09047,0.082783,0.076957,0.071131,0.06583,0.060528
0.045895,0.045087,0.044279,0.045902,0.047526,0.053639,0.059753,0.062059,0.064364,0.072996,0.081628,0.085021,0.088413,0.10101,0.1136,0.12587,0.13814,0.15557,0.173,0.19187,0.21075,0.23511,0.25946,0.28913,0.31879,0.32709,0.33539,0.39252,0.44964,0.48259,0.51554,0.54794,0.58035,0.60969,0.63903,0.66169,0.68435,0.69817,0.71199,0.71589,0.71979,0.71578,0.71178,0.70077,0.68976,0.67158,0.65339,0.63,0.60662,0.57981,0.55299,0.52394,0.49489,0.46444,0.43398,0.40277,0.37155,0.34225,0.31295,0.28657,0.26019,0.24131,0.22244,0.20501,0.18758,0.17307,0.15857,0.14651,0.13446,0.12425,0.11403,0.11281,0.11158,0.099744,0.087908,0.084443,0.080979,0.072719,0.064458,0.062077,0.059695
0.042615,0.041715,0.040814,0.043836,0.046859,0.050745,0.054632,0.058796,0.062961,0.068435,0.073909,0.079862,0.085815,0.093699,0.10158,0.11373,0.12587,0.14031,0.15474,0.17219,0.18964,0.2099,0.23016,0.25472,0.27928,0.29441,0.30955,0.34956,0.38956,0.41767,0.44578,0.47265,0.49951,0.52376,0.54801,0.56674,0.58547,0.59697,0.60846,0.61205,0.61564,0.61256,0.60947,0.60052,0.59157,0.57669,0.5618,0.54242,0.52304,0.50054,0.47804,0.4537,0.42936,0.4039,0.37844,0.35255,0.32666,0.30248,0.2783,0.25654,0.23478,0.21795,0.20111,0.18603,0.17094,0.15829,0.14565,0.13495,0.12425,0.1186,0.11295,0.10669,0.10043,0.092851,0.085273,0.079561,0.073848,0.068518,0.063188,0.059063,0.054939
0.039335,0.038342,0.03735,0.041771,0.046191,0.047851,0.049511,0.055534,0.061557,0.063874,0.06619,0.074703,0.083216,0.086392,0.089568,0.10158,0.1136,0.12504,0.13648,0.1525,0.16853,0.18469,0.20086,0.22031,0.23976,0.26174,0.28371,0.30659,0.32947,0.35275,0.37602,0.39735,0.41868,0.43784,0.457,0.4718,0.48659,0.49576,0.50493,0.50821,0.51149,0.50933,0.50716,0.50027,0.49338,0.4818,0.47021,0.45484,0.43947,0.42128,0.40309,0.38346,0.36383,0.34337,0.32291,0.30234,0.28177,0.26271,0.24366,0.22652,0.20938,0.19458,0.17978,0.16705,0.15431,0.14352,0.13273,0.12338,0.11403,0.11295,0.11187,0.10057,0.089279,0.085959,0.082639,0.074678,0.066717,0.064318,0.061918,0.05605,0.050182
0.038703,0.037774,0.036845,0.039668,0.042492,0.04552,0.048548,0.052378,0.056209,0.060278,0.064346,0.069725,0.075104,0.08073,0.086356,0.093862,0.10137,0.11266,0.12396,0.13726,0.15055,0.16513,0.17971,0.19577,0.21183,0.22973,0.24763,0.26643,0.28523,0.30455,0.32388,0.34163,0.35939,0.37501,0.39064,0.40266,0.41467,0.42204,0.4294,0.4323,0.43521,0.43369,0.43218,0.42673,0.42128,0.41208,0.40287,0.39037,0.37787,0.36314,0.34842,0.33265,0.31688,0.30008,0.28328,0.26643,0.24958,0.23363,0.21768,0.20308,0.18848,0.17582,0.16315,0.15207,0.14099,0.13152,0.12205,0.11687,0.11169,0.1061,0.1005,0.093321,0.086139,0.080667,0.075194,0.070052,0.064909,0.06081,0.05671,0.052929,0.049147
0.038072,0.037206,0.036339,0.037566,0.038793,0.043189,0.047584,0.049222,0.050861,0.056682,0.062502,0.064747,0.066992,0.075068,0.083144,0.086139,0.089135,0.10029,0.11144,0.12201,0.13258,0.14557,0.15857,0.17123,0.1839,0.19772,0.21154,0.22626,0.24099,0.25636,0.27173,0.28592,0.3001,0.31219,0.32428,0.33351,0.34275,0.34831,0.35387,0.35639,0.35892,0.35805,0.35719,0.35318,0.34918,0.34236,0.33554,0.3259,0.31627,0.30501,0.29375,0.28184,0.26993,0.25679,0.24366,0.23052,0.21739,0.20454,0.19169,0.17964,0.16759,0.15705,0.14651,0.13709,0.12768,0.11952,0.11136,0.11035,0.10934,0.099239,0.089135,0.086067,0.083,0.075375,0.067749,0.065425,0.063101,0.057302,0.051503,0.049807,0.048111
0.035329,0.034449,0.033568,0.035809,0.03805,0.040843,0.043636,0.046548,0.049461,0.053174,0.056887,0.060758,0.064628,0.069702,0.074776,0.080042,0.085309,0.092274,0.099239,0.10942,0.11959,0.12787,0.13616,0.15007,0.16398,0.17535,0.18671,0.19886,0.211,0.22341,0.23583,0.2473,0.25878,0.2687,0.27863,0.28617,0.29371,0.29853,0.30335,0.30564,0.30793,0.30748,0.30703,0.30405,0.30107,0.29564,0.29021,0.2826,0.27498,0.26578,0.25658,0.24667,0.23677,0.22596,0.21515,0.20422,0.19328,0.18256,0.17185,0.16178,0.15171,0.1426,0.13349,0.12524,0.11699,0.11246,0.10794,0.10297,0.098012,0.091588,0.085165,0.080181,0.075198,0.070297,0.065397,0.061499,0.057602,0.053879,0.050157,0.047216,0.044275
0.032586,0.031691,0.030797,0.034052,0.037307,0.038497,0.039688,0.043874,0.04806,0.049666,0.051272,0.056768,0.062264,0.064336,0.066407,0.073946,0.081484,0.084263,0.087041,0.096821,0.1066,0.11017,0.11375,0.1289,0.14406,0.15297,0.16189,0.17145,0.18101,0.19047,0.19992,0.20869,0.21746,0.22522,0.23298,0.23882,0.24467,0.24875,0.25282,0.25488,0.25694,0.2569,0.25687,0.25492,0.25297,0.24893,0.24489,0.23929,0.2337,0.22655,0.21941,0.2115,0.2036,0.19512,0.18664,0.17791,0.16918,0.16059,0.152,0.14391,0.13583,0.12814,0.12046,0.11338,0.10631,0.10541,0.10451,0.095594,0.086681,0.083938,0.081195,0.074296,0.067396,0.06522,0.063044,0.057573,0.052102,0.050457,0.048811,0.044625,0.040439
0.031962,0.030089,0.028216,0.031309,0.034402,0.036836,0.03927,0.041659,0.044048,0.046837,0.049627,0.053113,0.056599,0.060213,0.063827,0.068551,0.073274,0.078029,0.082783,0.088882,0.094981,0.10079,0.1066,0.11559,0.12457,0.13361,0.14265,0.15176,0.16088,0.16871,0.17654,0.18384,0.19115,0.19743,0.20371,0.2086,0.21349,0.2169,0.22031,0.22211,0.22392,0.22405,0.22417,0.22267,0.22118,0.21798,0.21479,0.21015,0.20551,0.19961,0.19371,0.18713,0.18054,0.17342,0.16629,0.15896,0.15164,0.14442,0.1372,0.13018,0.12316,0.11894,0.11472,0.10709,0.099455,0.097705,0.095955,0.088124,0.080293,0.077838,0.075382,0.069126,0.06287,0.060933,0.058995,0.054026,0.049056,0.047543,0.046029,0.04218,0.038331
0.031338,0.028487,0.025636,0.028566,0.031497,0.035174,0.038851,0.039443,0.040035,0.044008,0.047981,0.049457,0.050933,0.05609,0.061247,0.063156,0.065065,0.071795,0.078525,0.080943,0.083361,0.091408,0.099455,0.10227,0.10508,0.11425,0.12342,0.13208,0.14074,0.14695,0.15315,0.159,0.16484,0.16964,0.17444,0.17838,0.18231,0.18505,0.1878,0.18935,0.1909,0.19119,0.19148,0.19043,0.18938,0.18704,0.18469,0.18101,0.17733,0.17268,0.16802,0.16275,0.15748,0.15171,0.14594,0.14002,0.1341,0.12825,0.12241,0.11645,0.1105,0.10974,0.10898,0.10079,0.092599,0.090001,0.087402,0.080654,0.073906,0.071737,0.069568,0.063957,0.058345,0.056646,0.054946,0.050478,0.046011,0.044629,0.043246,0.039735,0.036224
0.029869,0.02798,0.026091,0.028018,0.029945,0.033027,0.036108,0.036985,0.037862,0.041476,0.045091,0.04644,0.04779,0.052447,0.057104,0.058811,0.060518,0.066474,0.07243,0.074588,0.076746,0.08377,0.090794,0.093266,0.095738,0.10366,0.11158,0.11705,0.12251,0.12897,0.13543,0.14115,0.14687,0.15097,0.15507,0.15835,0.16163,0.16401,0.1664,0.1677,0.16899,0.16925,0.1695,0.16869,0.16788,0.16596,0.16405,0.161,0.15795,0.15405,0.15016,0.14565,0.14114,0.13619,0.13125,0.12775,0.12425,0.11838,0.11252,0.10846,0.1044,0.10083,0.097254,0.092166,0.087078,0.082873,0.078669,0.074395,0.07012,0.066584,0.063047,0.059466,0.055884,0.052975,0.050067,0.047203,0.04434,0.041998,0.039656,0.037381,0.035105
0.0284,0.027473,0.026545,0.027469,0.028393,0.03088,0.033366,0.034528,0.03569,0.038945,0.0422,0.043423,0.044647,0.048804,0.052961,0.054466,0.055971,0.061153,0.066335,0.068233,0.070131,0.076132,0.082134,0.084263,0.086392,0.093068,0.099744,0.10202,0.10429,0.111,0.11772,0.12331,0.1289,0.13229,0.13569,0.13832,0.14096,0.14298,0.145,0.14604,0.14709,0.14731,0.14752,0.14695,0.14637,0.14489,0.14341,0.14099,0.13857,0.13543,0.13229,0.12854,0.12479,0.12067,0.11656,0.11548,0.1144,0.10851,0.10263,0.10047,0.098301,0.091913,0.085526,0.083541,0.081556,0.075746,0.069936,0.068136,0.066335,0.061431,0.056526,0.054975,0.053423,0.049305,0.045188,0.043929,0.042669,0.039367,0.036065,0.035026,0.033987
0.024835,0.024821,0.024806,0.026186,0.027567,0.029252,0.030937,0.032693,0.034449,0.036619,0.03879,0.040895,0.043001,0.045616,0.04823,0.050861,0.053492,0.056754,0.060016,0.063118,0.066219,0.069987,0.073754,0.077258,0.080762,0.08493,0.089098,0.092725,0.096352,0.10048,0.10462,0.10969,0.11476,0.11717,0.11959,0.12262,0.12565,0.12713,0.12861,0.12998,0.13136,0.13166,0.13197,0.13146,0.13096,0.12966,0.12836,0.12706,0.12576,0.12275,0.11974,0.11728,0.11483,0.11066,0.10649,0.10519,0.10389,0.098643,0.093393,0.091534,0.089676,0.084088,0.0785,0.076719,0.074938,0.069794,0.06465,0.063049,0.061449,0.057041,0.052633,0.051247,0.049861,0.046148,0.042435,0.04128,0.040125,0.037072,0.034019,0.033072,0.032125
0.02127,0.022168,0.023067,0.024904,0.02674,0.027624,0.028509,0.030858,0.033207,0.034293,0.03538,0.038368,0.041356,0.042427,0.043499,0.047256,0.051012,0.052355,0.053697,0.058002,0.062308,0.063841,0.065375,0.070254,0.075133,0.076793,0.078453,0.083433,0.088413,0.089964,0.091516,0.096063,0.10061,0.10205,0.1035,0.10693,0.11035,0.11129,0.11223,0.11393,0.11562,0.11602,0.11642,0.11598,0.11555,0.11443,0.11331,0.11313,0.11295,0.11006,0.10718,0.10602,0.10487,0.10065,0.096424,0.094908,0.093393,0.088774,0.084155,0.082603,0.081051,0.076262,0.071474,0.069897,0.06832,0.063841,0.059363,0.057963,0.056563,0.052651,0.048739,0.047519,0.046299,0.04299,0.039681,0.038631,0.037581,0.034777,0.031973,0.031118,0.030262
0.020656,0.021531,0.022406,0.023664,0.024922,0.026239,0.027556,0.029151,0.030746,0.032364,0.033983,0.035968,0.037953,0.03982,0.041688,0.044064,0.04644,0.048726,0.051012,0.053735,0.056458,0.05902,0.061582,0.064633,0.067684,0.070369,0.073054,0.076163,0.079272,0.081858,0.084443,0.087294,0.090145,0.0924,0.094656,0.096821,0.098986,0.10039,0.1018,0.10288,0.10397,0.10444,0.1049,0.10469,0.10447,0.10352,0.10256,0.10225,0.10195,0.099437,0.096929,0.095919,0.094908,0.091318,0.087727,0.08641,0.085093,0.081029,0.076966,0.075577,0.074187,0.069983,0.065779,0.064388,0.062997,0.059034,0.055072,0.053811,0.05255,0.049037,0.045524,0.044417,0.043311,0.040277,0.037242,0.036293,0.035343,0.032774,0.030205,0.028214,0.026224
0.020043,0.020894,0.021746,0.022424,0.023103,0.024853,0.026603,0.027444,0.028285,0.030436,0.032586,0.033568,0.03455,0.037213,0.039876,0.040872,0.041868,0.045098,0.048328,0.049468,0.050608,0.054199,0.057789,0.059013,0.060236,0.063946,0.067656,0.068893,0.070131,0.073751,0.07737,0.078525,0.07968,0.082747,0.085815,0.086717,0.087619,0.089495,0.091372,0.091841,0.09231,0.092851,0.093393,0.093393,0.093393,0.092599,0.091805,0.091372,0.090939,0.08881,0.086681,0.085815,0.084948,0.081989,0.07903,0.077911,0.076793,0.073285,0.069778,0.068551,0.067324,0.063704,0.060085,0.058879,0.057674,0.054228,0.050781,0.049659,0.048537,0.045423,0.042308,0.041316,0.040323,0.037563,0.034802,0.033954,0.033106,0.030771,0.028436,0.025311,0.022186
