0.033628,0.034521,0.035414,0.038246,0.041077,0.042127,0.043176,0.046478,0.049779,0.050989,0.052199,0.056022,0.059845,0.061204,0.062563,0.06682,0.071076,0.072563,0.07405,0.078423,0.082796,0.084144,0.085492,0.089793,0.094093,0.095441,0.096789,0.10054,0.1043,0.10532,0.10634,0.10889,0.11144,0.11191,0.11239,0.11322,0.11406,0.11399,0.11392,0.11315,0.11239,0.11184,0.11129,0.10896,0.10663,0.10561,0.10459,0.10098,0.097372,0.095951,0.09453,0.090193,0.085857,0.084326,0.082796,0.078168,0.07354,0.07202,0.0705,0.066087,0.061674,0.060311,0.058948,0.055027,0.051106,0.049907,0.048708,0.045355,0.042003,0.041012,0.04002,0.037265,0.03451,0.033512,0.032513,0.030378,0.028242,0.027488,0.026734,0.025367,0.024001
0.0347,0.03667,0.038639,0.040625,0.042611,0.044993,0.047374,0.049712,0.05205,0.054869,0.057687,0.060417,0.063146,0.066401,0.069655,0.072712,0.07577,0.079356,0.082942,0.086094,0.089246,0.092835,0.096425,0.099541,0.10266,0.10455,0.10645,0.11011,0.11377,0.1159,0.11803,0.12064,0.12325,0.1245,0.12576,0.12682,0.12787,0.12804,0.1282,0.12771,0.12722,0.12645,0.12569,0.12365,0.12161,0.11991,0.11822,0.11496,0.11169,0.10851,0.10532,0.10014,0.094967,0.093163,0.09136,0.086057,0.080755,0.079011,0.077268,0.072193,0.067118,0.065568,0.064017,0.059542,0.055067,0.053719,0.05237,0.048626,0.044882,0.043787,0.042692,0.040219,0.037746,0.036083,0.034419,0.032082,0.029744,0.027944,0.026143,0.026925,0.027707
0.035771,0.038818,0.041864,0.043005,0.044146,0.047859,0.051572,0.052946,0.05432,0.058748,0.063175,0.064812,0.066448,0.071597,0.076746,0.078605,0.080463,0.086148,0.091833,0.093765,0.095696,0.10153,0.10736,0.10929,0.11122,0.11366,0.1161,0.11967,0.12325,0.12649,0.12973,0.13239,0.13505,0.13709,0.13913,0.14041,0.14169,0.14209,0.14249,0.14227,0.14205,0.14107,0.14008,0.13833,0.13658,0.13422,0.13185,0.12893,0.12602,0.12106,0.1161,0.11009,0.10408,0.102,0.099923,0.093947,0.08797,0.086003,0.084035,0.078299,0.072563,0.070825,0.069086,0.064057,0.059028,0.057531,0.056033,0.051897,0.047761,0.046562,0.045363,0.043173,0.040982,0.038654,0.036325,0.033785,0.031245,0.028399,0.025553,0.028483,0.031413
0.037838,0.041187,0.044536,0.045798,0.047061,0.051181,0.0553,0.05686,0.05842,0.06337,0.068321,0.070214,0.072107,0.077925,0.083743,0.085893,0.088043,0.094712,0.10138,0.10269,0.104,0.10951,0.11501,0.11867,0.12234,0.12616,0.12999,0.13427,0.13855,0.1424,0.14624,0.14952,0.1528,0.15531,0.15783,0.15945,0.16107,0.16171,0.16235,0.16209,0.16184,0.16069,0.15954,0.15745,0.15535,0.15249,0.14963,0.14606,0.14249,0.13751,0.13254,0.12678,0.12102,0.11614,0.11126,0.10415,0.097044,0.094749,0.092453,0.085868,0.079283,0.077266,0.075249,0.069494,0.06374,0.062031,0.060322,0.055712,0.051102,0.049761,0.04842,0.045314,0.042207,0.040456,0.038705,0.035826,0.032947,0.031067,0.029186,0.031143,0.0331
0.039904,0.043555,0.047207,0.048591,0.049976,0.054502,0.059028,0.060774,0.06252,0.067993,0.073467,0.075617,0.077767,0.084253,0.09074,0.093182,0.095623,0.10328,0.11093,0.11162,0.11231,0.11749,0.12266,0.12806,0.13345,0.13866,0.14387,0.14886,0.15386,0.1583,0.16275,0.16665,0.17055,0.17354,0.17652,0.17849,0.18046,0.18133,0.18221,0.18192,0.18163,0.18031,0.179,0.17656,0.17412,0.17077,0.16741,0.16319,0.15896,0.15397,0.14897,0.14347,0.13797,0.13028,0.12259,0.11435,0.10612,0.10349,0.10087,0.093437,0.086003,0.083707,0.081411,0.074932,0.068452,0.066532,0.064611,0.059528,0.054444,0.052961,0.051478,0.047454,0.043431,0.042258,0.041084,0.037867,0.034649,0.033734,0.032819,0.033803,0.034787
0.042229,0.046221,0.050213,0.051738,0.053263,0.058278,0.063292,0.065216,0.06714,0.07331,0.07948,0.081903,0.084326,0.09187,0.099413,0.10105,0.10269,0.10973,0.11676,0.1206,0.12445,0.13066,0.13688,0.14342,0.14996,0.15634,0.16271,0.16882,0.17492,0.18039,0.18585,0.19074,0.19562,0.19952,0.20342,0.20602,0.20863,0.2099,0.21118,0.211,0.21082,0.2093,0.20779,0.2048,0.20181,0.1977,0.19358,0.18831,0.18305,0.17678,0.17051,0.16359,0.15666,0.14874,0.14081,0.13276,0.1247,0.11827,0.11184,0.10298,0.094129,0.091487,0.088845,0.081487,0.07413,0.071967,0.069804,0.064096,0.058387,0.056754,0.055122,0.05064,0.046157,0.044876,0.043595,0.040097,0.036598,0.035633,0.034667,0.035214,0.03576
0.044554,0.048887,0.05322,0.054885,0.05655,0.062053,0.067556,0.069658,0.071761,0.078627,0.085492,0.088189,0.090886,0.099486,0.10809,0.10892,0.10976,0.11618,0.12259,0.12959,0.13658,0.14384,0.15109,0.15878,0.16647,0.17401,0.18155,0.18877,0.19598,0.20247,0.20896,0.21482,0.22069,0.2255,0.23031,0.23356,0.2368,0.23848,0.24015,0.24008,0.24001,0.23829,0.23658,0.23305,0.22951,0.22463,0.21974,0.21344,0.20714,0.19959,0.19205,0.1837,0.17536,0.16719,0.15903,0.15116,0.14329,0.13305,0.12281,0.11253,0.10226,0.099267,0.096279,0.088043,0.079808,0.077402,0.074997,0.068664,0.06233,0.060548,0.058766,0.053825,0.048883,0.047495,0.046106,0.042327,0.038548,0.037531,0.036515,0.036624,0.036733
0.047389,0.052115,0.056842,0.058666,0.06049,0.066594,0.072698,0.075025,0.077351,0.085103,0.092854,0.095915,0.098976,0.10546,0.11195,0.11629,0.12062,0.12824,0.13585,0.14415,0.15244,0.1614,0.17037,0.1798,0.18924,0.19859,0.20794,0.21705,0.22616,0.23439,0.24263,0.25015,0.25768,0.26391,0.27014,0.2745,0.27885,0.28113,0.28341,0.28361,0.28381,0.28184,0.27987,0.27565,0.27142,0.26524,0.25906,0.25103,0.24299,0.23343,0.22386,0.21331,0.20276,0.1923,0.18184,0.17184,0.16184,0.15116,0.14048,0.12913,0.11778,0.11155,0.10532,0.095878,0.08644,0.08378,0.081119,0.073975,0.066831,0.064839,0.062848,0.057379,0.051911,0.050375,0.048839,0.044723,0.040607,0.039472,0.038337,0.03896,0.039583
0.050224,0.055344,0.060464,0.062447,0.064429,0.071134,0.07784,0.080391,0.082942,0.091578,0.10021,0.10364,0.10707,0.11144,0.11581,0.12365,0.13148,0.1403,0.14912,0.1587,0.16829,0.17897,0.18964,0.20083,0.21202,0.22317,0.23432,0.24533,0.25633,0.26632,0.2763,0.28548,0.29467,0.30232,0.30997,0.31544,0.32091,0.32379,0.32666,0.32714,0.32761,0.32539,0.32317,0.31825,0.31333,0.30586,0.29839,0.28862,0.27885,0.26726,0.25568,0.24292,0.23017,0.21741,0.20466,0.19252,0.18039,0.16927,0.15816,0.14573,0.1333,0.12383,0.11435,0.10371,0.093072,0.090157,0.087242,0.079286,0.071331,0.06913,0.066929,0.060934,0.05494,0.053256,0.051572,0.047119,0.042666,0.041412,0.040159,0.041296,0.042433
0.053063,0.05864,0.064218,0.066422,0.068627,0.076039,0.083452,0.086367,0.089282,0.098648,0.10801,0.11078,0.11355,0.12022,0.12689,0.13591,0.14493,0.15528,0.16563,0.17718,0.18873,0.20176,0.21479,0.22871,0.24263,0.2564,0.27018,0.28394,0.29769,0.31059,0.32349,0.33536,0.34722,0.35693,0.36664,0.3736,0.38056,0.38442,0.38829,0.38907,0.38985,0.38736,0.38486,0.37876,0.37265,0.36332,0.354,0.3417,0.3294,0.31519,0.30097,0.28547,0.26996,0.25394,0.23793,0.22268,0.20743,0.19332,0.17922,0.16554,0.15185,0.14092,0.12999,0.11568,0.10138,0.098028,0.094676,0.085724,0.076772,0.074305,0.071838,0.065187,0.058536,0.056682,0.054827,0.049965,0.045104,0.043785,0.042466,0.042981,0.043497
0.055902,0.061936,0.067971,0.070398,0.072825,0.080945,0.089064,0.092343,0.095623,0.10572,0.11581,0.11793,0.12004,0.129,0.13797,0.14817,0.15838,0.17026,0.18214,0.19566,0.20918,0.22455,0.23993,0.25659,0.27324,0.28964,0.30604,0.32255,0.33905,0.35487,0.37069,0.38523,0.39977,0.41154,0.42331,0.43176,0.44022,0.44506,0.44991,0.451,0.4521,0.44933,0.44656,0.43927,0.43198,0.42079,0.40961,0.39477,0.37994,0.36311,0.34627,0.32801,0.30976,0.29048,0.2712,0.25283,0.23447,0.21738,0.20028,0.18534,0.1704,0.15801,0.14562,0.12766,0.10969,0.1059,0.10211,0.092161,0.082213,0.07948,0.076746,0.06944,0.062133,0.060107,0.058081,0.052811,0.047542,0.046157,0.044772,0.044667,0.044561
0.059025,0.065601,0.072177,0.074811,0.077446,0.086553,0.09566,0.097828,0.099996,0.10922,0.11844,0.12445,0.13046,0.14085,0.15123,0.16328,0.17532,0.18926,0.2032,0.21949,0.23578,0.25438,0.27299,0.29321,0.31344,0.3341,0.35476,0.37541,0.39605,0.41545,0.43486,0.45239,0.46992,0.4846,0.49929,0.5098,0.52032,0.5262,0.53209,0.53365,0.53522,0.53196,0.5287,0.51971,0.51073,0.49707,0.4834,0.46494,0.44648,0.42553,0.40458,0.38237,0.36015,0.33751,0.31486,0.2929,0.27094,0.25006,0.22918,0.21065,0.19212,0.17683,0.16155,0.14544,0.12933,0.12002,0.11071,0.099486,0.088262,0.085292,0.082322,0.07423,0.066138,0.063919,0.0617,0.05586,0.05002,0.048457,0.046893,0.047398,0.047903
0.062148,0.069265,0.076382,0.079224,0.082067,0.092161,0.10226,0.10331,0.10437,0.11271,0.12106,0.13097,0.14088,0.15269,0.1645,0.17838,0.19227,0.20826,0.22426,0.24332,0.26238,0.28421,0.30604,0.32983,0.35363,0.37856,0.40348,0.42826,0.45304,0.47604,0.49903,0.51955,0.54007,0.55767,0.57527,0.58784,0.60041,0.60734,0.61426,0.6163,0.61834,0.61459,0.61084,0.60016,0.58948,0.57334,0.55719,0.53511,0.51303,0.48796,0.46288,0.43672,0.41055,0.38453,0.35851,0.33297,0.30742,0.28275,0.25808,0.23596,0.21384,0.19566,0.17747,0.16322,0.14897,0.13414,0.11931,0.10681,0.094311,0.091104,0.087898,0.07902,0.070143,0.067731,0.065318,0.058908,0.052498,0.050756,0.049014,0.050129,0.051244
0.0655,0.073255,0.08101,0.084199,0.087387,0.097974,0.10856,0.11025,0.11195,0.12142,0.1309,0.14232,0.15375,0.16723,0.18071,0.19689,0.21308,0.23193,0.25079,0.27402,0.29726,0.32366,0.35006,0.37899,0.40793,0.43756,0.46718,0.49648,0.52578,0.55333,0.58088,0.60564,0.63041,0.65234,0.67428,0.68968,0.70508,0.71382,0.72257,0.72486,0.72716,0.72182,0.71648,0.70276,0.68904,0.66931,0.64957,0.62374,0.5979,0.56809,0.53828,0.50725,0.47622,0.44506,0.41391,0.38371,0.35352,0.32462,0.29573,0.26952,0.24332,0.22126,0.19919,0.18194,0.16468,0.14952,0.13436,0.12042,0.10648,0.098393,0.090303,0.084133,0.077964,0.07224,0.066517,0.062111,0.057706,0.053642,0.049579,0.050813,0.052046
0.068853,0.077246,0.085638,0.089173,0.092708,0.10379,0.11486,0.1172,0.11953,0.13013,0.14074,0.15368,0.16661,0.18177,0.19693,0.21541,0.23388,0.2556,0.27732,0.30473,0.33213,0.36311,0.39408,0.42815,0.46223,0.49656,0.53088,0.5647,0.59852,0.63063,0.66273,0.69174,0.72075,0.74702,0.77329,0.79152,0.80974,0.8203,0.83087,0.83342,0.83597,0.82905,0.82213,0.80536,0.7886,0.76528,0.74195,0.71236,0.68277,0.64823,0.61368,0.57778,0.54189,0.50559,0.4693,0.43446,0.39962,0.3665,0.33337,0.30309,0.2728,0.24686,0.22091,0.20065,0.18039,0.1649,0.14941,0.13403,0.11865,0.10568,0.092708,0.089246,0.085784,0.07675,0.067716,0.065315,0.062913,0.056529,0.050144,0.051496,0.052848
0.075241,0.081169,0.087096,0.095022,0.10295,0.10907,0.11519,0.12172,0.12824,0.14005,0.15185,0.16656,0.18126,0.19901,0.21676,0.23798,0.25921,0.28581,0.31242,0.34468,0.37695,0.41372,0.45049,0.49043,0.53037,0.57028,0.61018,0.6506,0.69101,0.72874,0.76648,0.80103,0.83557,0.86566,0.89574,0.91669,0.93765,0.94858,0.95951,0.95988,0.96024,0.94967,0.9391,0.91888,0.89865,0.87187,0.84509,0.81225,0.77942,0.74083,0.70223,0.66151,0.62079,0.57882,0.53686,0.49575,0.45465,0.41657,0.37848,0.34368,0.30888,0.27847,0.24806,0.2239,0.19974,0.18159,0.16344,0.14671,0.12999,0.11696,0.10393,0.095641,0.087351,0.081121,0.074892,0.069223,0.063554,0.059212,0.05487,0.055987,0.057104
0.08163,0.085092,0.088554,0.10087,0.11319,0.11435,0.11552,0.12623,0.13695,0.14996,0.16297,0.17944,0.19591,0.21625,0.23658,0.26056,0.28454,0.31602,0.34751,0.38464,0.42178,0.46434,0.50691,0.55271,0.59852,0.644,0.68948,0.73649,0.7835,0.82686,0.87023,0.91032,0.9504,0.98429,1.0182,1.0419,1.0656,1.0769,1.0882,1.0863,1.0845,1.0703,1.0561,1.0324,1.0087,0.97846,0.94822,0.91214,0.87606,0.83342,0.79079,0.74523,0.69968,0.65205,0.60442,0.55705,0.50967,0.46664,0.4236,0.38428,0.34496,0.31008,0.27521,0.24715,0.21909,0.19828,0.17747,0.1594,0.14132,0.12824,0.11516,0.10204,0.088918,0.085492,0.082067,0.073131,0.064196,0.061896,0.059597,0.060479,0.061361
0.082504,0.090175,0.097846,0.10466,0.11148,0.11725,0.12303,0.13485,0.14668,0.16131,0.17594,0.19453,0.21311,0.2362,0.25928,0.28825,0.31723,0.35427,0.39131,0.43541,0.4795,0.52946,0.57942,0.63175,0.68409,0.73744,0.79079,0.84472,0.89865,0.94858,0.99851,1.0435,1.0885,1.1255,1.1625,1.1853,1.208,1.2152,1.2223,1.2141,1.2059,1.1864,1.1669,1.1399,1.1129,1.0803,1.0477,1.0102,0.97263,0.92817,0.88371,0.83452,0.78532,0.73363,0.68194,0.6297,0.57746,0.52842,0.47939,0.43437,0.38934,0.34906,0.30877,0.27637,0.24398,0.21942,0.19485,0.17561,0.15637,0.13975,0.12314,0.10865,0.094166,0.090485,0.086804,0.07712,0.067436,0.064947,0.062458,0.062899,0.063339
0.083379,0.095259,0.10714,0.10845,0.10976,0.12015,0.13053,0.14347,0.15641,0.17266,0.18891,0.20961,0.23031,0.25615,0.28199,0.31595,0.34991,0.39251,0.43511,0.48617,0.53722,0.59458,0.65194,0.7108,0.76965,0.83087,0.8921,0.95295,1.0138,1.0703,1.1268,1.1767,1.2266,1.2667,1.3068,1.3287,1.3505,1.3534,1.3564,1.3418,1.3272,1.3024,1.2776,1.2474,1.2172,1.1822,1.1472,1.1082,1.0692,1.0229,0.97664,0.9238,0.87096,0.8152,0.75945,0.70234,0.64524,0.59021,0.53518,0.48446,0.43373,0.38803,0.34233,0.3056,0.26887,0.24055,0.21224,0.19183,0.17142,0.15127,0.13112,0.11527,0.099413,0.095477,0.091542,0.081108,0.070675,0.067997,0.065318,0.065318,0.065318
0.091578,0.098138,0.1047,0.1104,0.1161,0.12755,0.13899,0.1532,0.16741,0.18558,0.20375,0.22696,0.25017,0.28018,0.31019,0.35033,0.39047,0.441,0.49153,0.55053,0.60953,0.6751,0.74068,0.80782,0.87497,0.94421,1.0134,1.081,1.1486,1.2111,1.2736,1.3272,1.3808,1.4214,1.462,1.4804,1.4989,1.4943,1.4897,1.4679,1.446,1.4154,1.3848,1.3505,1.3163,1.2795,1.2427,1.2017,1.1607,1.1129,1.0652,1.0103,0.9555,0.89774,0.83998,0.77918,0.71838,0.65838,0.59837,0.54167,0.48497,0.4345,0.38402,0.34113,0.29824,0.26555,0.23286,0.20927,0.18567,0.16585,0.14602,0.12842,0.11082,0.10136,0.091906,0.084795,0.077683,0.071455,0.065227,0.065969,0.06671
0.099778,0.10102,0.10226,0.11235,0.12244,0.13494,0.14744,0.16293,0.17842,0.1985,0.21858,0.24431,0.27003,0.30422,0.3384,0.38472,0.43103,0.48949,0.54794,0.61488,0.68183,0.75562,0.82942,0.90485,0.98028,1.0575,1.1348,1.2091,1.2835,1.352,1.4205,1.4777,1.5349,1.5761,1.6173,1.6322,1.6472,1.6351,1.6231,1.594,1.5648,1.5284,1.4919,1.4537,1.4154,1.3768,1.3381,1.2951,1.2521,1.2029,1.1537,1.0969,1.04,0.98028,0.92052,0.85602,0.79152,0.72654,0.66156,0.59888,0.5362,0.48096,0.42571,0.37666,0.32761,0.29055,0.25349,0.2267,0.19992,0.18042,0.16093,0.14158,0.12223,0.10725,0.092271,0.088481,0.084691,0.074913,0.065136,0.066619,0.068102
0.10452,0.10581,0.1071,0.11791,0.12871,0.14231,0.1559,0.17326,0.19063,0.21162,0.23261,0.26307,0.29354,0.33313,0.37273,0.42615,0.47957,0.54601,0.61244,0.69004,0.76765,0.85064,0.93364,1.0191,1.1046,1.1893,1.274,1.3545,1.4351,1.5071,1.579,1.6384,1.6978,1.7372,1.7765,1.786,1.7955,1.7773,1.759,1.7233,1.6876,1.6472,1.6067,1.565,1.5233,1.4819,1.4405,1.3948,1.3491,1.297,1.2449,1.1865,1.1282,1.0667,1.0051,0.9371,0.86914,0.79911,0.72909,0.66169,0.59429,0.53325,0.47221,0.39958,0.32696,0.3027,0.27845,0.24749,0.21654,0.19431,0.17208,0.15196,0.13185,0.11701,0.10218,0.093346,0.084509,0.077907,0.071306,0.072193,0.07308
0.10925,0.1106,0.11195,0.12346,0.13498,0.14967,0.16435,0.18359,0.20284,0.22474,0.24664,0.28184,0.31704,0.36205,0.40705,0.46758,0.52811,0.60253,0.67694,0.7652,0.85347,0.94566,1.0379,1.1333,1.2288,1.321,1.4132,1.4999,1.5867,1.6621,1.7375,1.7991,1.8607,1.8983,1.9358,1.9398,1.9438,1.9194,1.895,1.8527,1.8104,1.766,1.7215,1.6763,1.6311,1.587,1.5429,1.4945,1.446,1.391,1.336,1.2762,1.2164,1.153,1.0896,1.0182,0.94676,0.87169,0.79662,0.7245,0.65238,0.58555,0.51871,0.42251,0.3263,0.31486,0.30341,0.26828,0.23315,0.20819,0.18323,0.16235,0.14147,0.12678,0.11209,0.098211,0.084326,0.080901,0.077475,0.077767,0.078058
0.10524,0.11107,0.11691,0.1292,0.1415,0.15757,0.17365,0.1942,0.21475,0.24019,0.26562,0.30391,0.34219,0.39355,0.44492,0.51379,0.58267,0.66774,0.75281,0.85033,0.94785,1.0523,1.1567,1.2629,1.3691,1.4677,1.5663,1.6583,1.7503,1.8294,1.9085,1.9688,2.0291,2.0606,2.0921,2.0907,2.0892,2.0613,2.0335,1.9892,1.9449,1.8962,1.8476,1.7979,1.7481,1.6986,1.649,1.5967,1.5444,1.4879,1.4314,1.3688,1.3061,1.2397,1.1734,1.1005,1.0277,0.9484,0.86914,0.79172,0.7143,0.6419,0.56951,0.48695,0.40439,0.36855,0.33271,0.29241,0.2521,0.22423,0.19635,0.17472,0.15309,0.13533,0.11756,0.10277,0.08797,0.084326,0.080682,0.080864,0.081047
0.10124,0.11155,0.12186,0.13494,0.14803,0.16548,0.18294,0.2048,0.22667,0.25564,0.28461,0.32597,0.36733,0.42506,0.48278,0.56,0.63722,0.73295,0.82869,0.93546,1.0422,1.1588,1.2755,1.3924,1.5094,1.6144,1.7193,1.8166,1.9139,1.9966,2.0794,2.1384,2.1974,2.2229,2.2485,2.2415,2.2346,2.2033,2.1719,2.1256,2.0794,2.0265,1.9737,1.9194,1.8651,1.8101,1.755,1.6989,1.6428,1.5849,1.5269,1.4613,1.3957,1.3265,1.2572,1.1829,1.1086,1.0251,0.94166,0.85893,0.77621,0.69826,0.62031,0.5514,0.48249,0.42225,0.36201,0.31653,0.27105,0.24026,0.20947,0.18709,0.16472,0.14387,0.12303,0.10732,0.091615,0.087752,0.083889,0.083962,0.084035
0.10506,0.11596,0.12685,0.14077,0.1547,0.17326,0.19183,0.2143,0.23676,0.26983,0.3029,0.34882,0.39474,0.45913,0.52352,0.61002,0.69651,0.80323,0.90995,1.0291,1.1483,1.2771,1.4059,1.5324,1.6588,1.7733,1.8877,1.9912,2.0947,2.1783,2.2619,2.3161,2.3702,2.3884,2.4066,2.393,2.3793,2.3469,2.3144,2.2692,2.224,2.1696,2.1151,2.0546,1.9941,1.932,1.8698,1.8093,1.7488,1.6874,1.626,1.5586,1.4912,1.42,1.3487,1.2704,1.192,1.1042,1.0164,0.92744,0.83853,0.75626,0.67399,0.59932,0.52465,0.43783,0.35101,0.32184,0.29266,0.25795,0.22324,0.19868,0.17412,0.15149,0.12886,0.11199,0.095113,0.091032,0.08695,0.086804,0.086659
0.10889,0.12037,0.13185,0.14661,0.16136,0.18104,0.20072,0.22379,0.24686,0.28403,0.3212,0.37167,0.42214,0.4932,0.56426,0.66003,0.7558,0.87351,0.99122,1.1228,1.2543,1.3954,1.5364,1.6723,1.8082,1.9321,2.056,2.1657,2.2754,2.36,2.4445,2.4937,2.5429,2.5538,2.5648,2.5444,2.524,2.4904,2.4569,2.4128,2.3687,2.3126,2.2565,2.1898,2.1231,2.0539,1.9846,1.9198,1.8549,1.79,1.7252,1.6559,1.5867,1.5134,1.4402,1.3578,1.2755,1.1833,1.0911,0.99595,0.90084,0.81426,0.72767,0.64724,0.56682,0.45341,0.34,0.32714,0.31427,0.27565,0.23702,0.21027,0.18352,0.1591,0.13469,0.11665,0.098611,0.094311,0.090011,0.089647,0.089282
0.11235,0.12443,0.13651,0.15227,0.16803,0.18893,0.20983,0.23556,0.26129,0.30132,0.34135,0.39616,0.45097,0.52901,0.60705,0.71295,0.81885,0.94749,1.0761,1.2212,1.3662,1.5211,1.676,1.8252,1.9744,2.1105,2.2466,2.3625,2.4784,2.5602,2.642,2.685,2.728,2.7319,2.7357,2.7093,2.6828,2.6469,2.6111,2.5664,2.5218,2.4633,2.4048,2.3336,2.2623,2.1876,2.1129,2.0429,1.973,1.9041,1.8352,1.7643,1.6935,1.616,1.5386,1.4498,1.3611,1.2629,1.1647,1.0643,0.96389,0.87085,0.77781,0.69194,0.60606,0.50975,0.41343,0.3748,0.33618,0.29383,0.25148,0.22242,0.19336,0.17009,0.14682,0.12449,0.10215,0.097555,0.092963,0.091833,0.090704
0.11581,0.12849,0.14118,0.15794,0.1747,0.19682,0.21894,0.24733,0.27572,0.31861,0.3615,0.42065,0.47979,0.56481,0.64983,0.76586,0.88189,1.0215,1.161,1.3196,1.4781,1.6468,1.8155,1.9781,2.1406,2.2889,2.4372,2.5593,2.6814,2.7605,2.8395,2.8764,2.9132,2.9099,2.9066,2.8742,2.8417,2.8035,2.7652,2.72,2.6748,2.614,2.5531,2.4773,2.4015,2.3213,2.2412,2.1661,2.091,2.0181,1.9453,1.8727,1.8002,1.7186,1.637,1.5419,1.4467,1.3425,1.2383,1.1326,1.0269,0.92744,0.82796,0.73663,0.64531,0.56609,0.48686,0.42247,0.35808,0.31201,0.26595,0.23458,0.2032,0.18108,0.15896,0.13232,0.10568,0.1008,0.095915,0.09402,0.092125
0.11906,0.13236,0.14566,0.1633,0.18093,0.20435,0.22776,0.25828,0.2888,0.33413,0.37947,0.44455,0.50964,0.60076,0.69188,0.81622,0.94056,1.0936,1.2467,1.42,1.5932,1.7762,1.9591,2.1388,2.3184,2.4804,2.6424,2.7683,2.8942,2.9713,3.0484,3.0801,3.1118,3.101,3.0903,3.0507,3.0112,2.9664,2.9215,2.8711,2.8206,2.7577,2.6949,2.6191,2.5433,2.4604,2.3775,2.2973,2.2171,2.1397,2.0622,1.9863,1.9103,1.8252,1.7401,1.6375,1.5349,1.4238,1.3126,1.2009,1.0892,0.98356,0.87788,0.78159,0.68529,0.60082,0.51634,0.42699,0.33763,0.30868,0.27973,0.24605,0.21238,0.18882,0.16526,0.14054,0.11581,0.10477,0.093728,0.093419,0.093109
0.1574,0.17133,0.18526,0.20708,0.22889,0.25476,0.28062,0.31717,0.35371,0.40297,0.45223,0.52794,0.60364,0.70256,0.80147,0.93978,1.0781,1.2466,1.4151,1.6094,1.8037,2.0031,2.2024,2.4059,2.6095,2.7903,2.9712,3.1062,3.2412,3.3202,3.3993,3.4294,3.4596,3.4444,3.4292,3.385,3.3408,3.291,3.2412,3.1862,3.1312,3.0664,3.0015,2.925,2.8485,2.7615,2.6745,2.5871,2.4996,2.4147,2.3297,2.2471,2.1644,2.0721,1.9798,1.8657,1.7516,1.6294,1.5072,1.3852,1.2632,1.1508,1.0384,0.93047,0.82256,0.73069,0.63882,0.51842,0.39802,0.38417,0.37032,0.32886,0.28739,0.26069,0.23399,0.2065,0.17902,0.16037,0.14171,0.13915,0.13658
0.16069,0.17661,0.19253,0.21401,0.23549,0.26266,0.28983,0.32832,0.36681,0.4216,0.47638,0.55352,0.63066,0.73914,0.84762,0.99334,1.1391,1.3216,1.5042,1.7098,1.9155,2.1339,2.3523,2.5726,2.7929,2.9886,3.1842,3.3236,3.463,3.5417,3.6204,3.6483,3.6762,3.6557,3.6353,3.5836,3.5319,3.473,3.4141,3.3525,3.2909,3.2238,3.1568,3.0808,3.0049,2.9179,2.831,2.7403,2.6496,2.5591,2.4687,2.3818,2.2949,2.1952,2.0955,1.9752,1.8549,1.7242,1.5935,1.4643,1.335,1.2139,1.0927,0.97872,0.86476,0.7695,0.67425,0.57,0.46576,0.4281,0.39044,0.34598,0.30153,0.27276,0.244,0.21502,0.18604,0.16653,0.14702,0.144,0.14098
0.16399,0.18189,0.1998,0.22095,0.2421,0.27057,0.29903,0.33947,0.37991,0.44022,0.50053,0.5791,0.65767,0.77572,0.89377,1.0469,1.2,1.3967,1.5933,1.8103,2.0273,2.2647,2.5022,2.7393,2.9764,3.1868,3.3972,3.541,3.6848,3.7632,3.8415,3.8671,3.8928,3.867,3.8413,3.7822,3.7231,3.655,3.587,3.5187,3.4505,3.3813,3.312,3.2367,3.1613,3.0744,2.9874,2.8935,2.7995,2.7036,2.6077,2.5165,2.4253,2.3183,2.2113,2.0848,1.9582,1.819,1.6798,1.5433,1.4069,1.2769,1.147,1.027,0.90696,0.80832,0.70967,0.62159,0.53351,0.47203,0.41055,0.36311,0.31566,0.28483,0.254,0.22353,0.19307,0.1727,0.15233,0.14885,0.14537
0.16854,0.18697,0.20541,0.22737,0.24932,0.28005,0.31078,0.35265,0.39452,0.4573,0.52008,0.60259,0.68509,0.80831,0.93153,1.0919,1.2522,1.459,1.6658,1.8997,2.1336,2.3828,2.6319,2.8881,3.1443,3.364,3.5837,3.7342,3.8846,3.9691,4.0536,4.079,4.1043,4.074,4.0437,3.9774,3.9112,3.8374,3.7635,3.6893,3.6151,3.5437,3.4722,3.395,3.3178,3.2293,3.1408,3.0444,2.948,2.849,2.7501,2.6531,2.5561,2.4436,2.3312,2.195,2.0589,1.9106,1.7624,1.6202,1.478,1.3412,1.2045,1.0784,0.95226,0.84518,0.73809,0.64945,0.5608,0.49342,0.42604,0.37874,0.33144,0.29669,0.26194,0.23484,0.20774,0.18175,0.15576,0.15354,0.15132
0.17308,0.19206,0.21103,0.23379,0.25654,0.28953,0.32252,0.36582,0.40912,0.47437,0.53963,0.62607,0.71251,0.84089,0.96928,1.1368,1.3043,1.5213,1.7383,1.9891,2.2399,2.5008,2.7617,3.0369,3.3121,3.5412,3.7703,3.9273,4.0843,4.1751,4.2658,4.2908,4.3158,4.281,4.2461,4.1727,4.0993,4.0197,3.9401,3.8599,3.7797,3.7061,3.6324,3.5533,3.4742,3.3842,3.2943,3.1954,3.0965,2.9945,2.8925,2.7897,2.6869,2.569,2.4511,2.3053,2.1595,2.0023,1.845,1.697,1.5491,1.4056,1.2621,1.1298,0.99756,0.88204,0.76652,0.67731,0.5881,0.51481,0.44153,0.39437,0.34722,0.30855,0.26989,0.24615,0.22241,0.19081,0.1592,0.15823,0.15727
0.17764,0.19606,0.21449,0.23941,0.26434,0.2968,0.32927,0.37686,0.42445,0.48991,0.55537,0.6477,0.74002,0.86957,0.99912,1.1754,1.3516,1.5751,1.7986,2.0561,2.3137,2.5918,2.8699,3.1551,3.4403,3.6823,3.9243,4.0934,4.2625,4.3574,4.4523,4.4811,4.5099,4.4763,4.4427,4.3675,4.2922,4.2045,4.1168,4.0317,3.9465,3.8701,3.7936,3.7113,3.629,3.5363,3.4437,3.341,3.2383,3.1353,3.0322,2.9252,2.8182,2.6915,2.5648,2.4082,2.2516,2.0871,1.9226,1.7666,1.6107,1.4617,1.3128,1.175,1.0371,0.91558,0.79407,0.69895,0.60384,0.53005,0.45625,0.40846,0.36066,0.31981,0.27896,0.25452,0.23008,0.1971,0.16412,0.16289,0.16166
0.1822,0.20007,0.21794,0.24504,0.27213,0.30407,0.33601,0.38789,0.43978,0.50545,0.57112,0.66933,0.76754,0.89825,1.029,1.2139,1.3989,1.6289,1.8589,2.1231,2.3874,2.6827,2.9781,3.2733,3.5685,3.8234,4.0784,4.2595,4.4406,4.5397,4.6388,4.6714,4.7041,4.6717,4.6393,4.5623,4.4852,4.3893,4.2935,4.2034,4.1133,4.0341,3.9549,3.8693,3.7838,3.6884,3.5931,3.4866,3.3801,3.2761,3.172,3.0608,2.9495,2.814,2.6785,2.511,2.3436,2.1719,2.0001,1.8362,1.6722,1.5179,1.3636,1.2201,1.0766,0.94913,0.82162,0.7206,0.61958,0.54528,0.47097,0.42254,0.37411,0.33107,0.28804,0.26289,0.23775,0.20339,0.16903,0.16754,0.16605
0.18483,0.20425,0.22367,0.24988,0.27609,0.31095,0.3458,0.39678,0.44776,0.5191,0.59043,0.68757,0.7847,0.92218,1.0597,1.2473,1.4349,1.6691,1.9032,2.1722,2.4412,2.7448,3.0484,3.3517,3.655,3.9232,4.1914,4.3846,4.5779,4.6855,4.7932,4.8348,4.8764,4.8554,4.8344,4.7595,4.6845,4.5842,4.4839,4.3877,4.2916,4.2076,4.1236,4.0335,3.9435,3.8445,3.7456,3.6375,3.5294,3.4204,3.3114,3.1929,3.0744,2.9256,2.7768,2.6008,2.4247,2.2449,2.065,1.8966,1.7283,1.569,1.4098,1.2604,1.1109,0.97919,0.84745,0.74352,0.63959,0.54324,0.44689,0.41325,0.37961,0.34022,0.30083,0.27125,0.24168,0.20907,0.17646,0.17231,0.16816
0.18745,0.20842,0.22939,0.25472,0.28006,0.31782,0.35559,0.40567,0.45574,0.53274,0.60974,0.7058,0.80187,0.9461,1.0903,1.2806,1.4708,1.7092,1.9476,2.2213,2.495,2.8069,3.1188,3.4301,3.7415,4.0229,4.3043,4.5097,4.7151,4.8314,4.9476,4.9982,5.0488,5.0392,5.0296,4.9567,4.8838,4.779,4.6742,4.5721,4.4699,4.3811,4.2923,4.1978,4.1033,4.0007,3.898,3.7883,3.6787,3.5647,3.4507,3.3249,3.1992,3.0372,2.8751,2.6905,2.5059,2.3179,2.1299,1.9571,1.7843,1.6202,1.4561,1.3006,1.1452,1.0093,0.87329,0.76644,0.6596,0.5412,0.4228,0.40396,0.38512,0.34937,0.31362,0.27962,0.24562,0.21475,0.18389,0.17707,0.17026
0.19066,0.21186,0.23306,0.25856,0.28405,0.32332,0.36259,0.41334,0.46409,0.5426,0.62111,0.72,0.81888,0.96656,1.1142,1.3039,1.4936,1.731,1.9684,2.247,2.5256,2.84,3.1543,3.4779,3.8015,4.0909,4.3804,4.5975,4.8145,4.9452,5.0758,5.1432,5.2107,5.2177,5.2247,5.1647,5.1048,5.0035,4.9021,4.796,4.6899,4.5927,4.4955,4.395,4.2944,4.1856,4.0769,3.9615,3.8461,3.7224,3.5987,3.4577,3.3167,3.1403,2.9638,2.769,2.5742,2.381,2.1878,2.0108,1.8338,1.6649,1.496,1.3361,1.1762,1.0359,0.89563,0.78658,0.67753,0.55643,0.43533,0.41502,0.3947,0.35469,0.31467,0.28503,0.25538,0.2208,0.18622,0.18145,0.17667
0.19387,0.2153,0.23673,0.26239,0.28805,0.32882,0.36959,0.42101,0.47243,0.55246,0.63248,0.73419,0.8359,0.98703,1.1382,1.3272,1.5163,1.7528,1.9892,2.2728,2.5563,2.8731,3.1899,3.5257,3.8614,4.159,4.4565,4.6852,4.914,5.059,5.204,5.2883,5.3725,5.3962,5.4199,5.3728,5.3257,5.2279,5.1301,5.02,4.9099,4.8043,4.6988,4.5921,4.4855,4.3706,4.2557,4.1347,4.0136,3.8801,3.7467,3.5905,3.4343,3.2434,3.0525,2.8475,2.6425,2.4441,2.2457,2.0645,1.8832,1.7096,1.5359,1.3715,1.2072,1.0626,0.91797,0.80671,0.69546,0.57166,0.44787,0.42608,0.40429,0.36001,0.31573,0.29044,0.26515,0.22685,0.18855,0.18582,0.18308
0.19638,0.21821,0.24004,0.26603,0.29202,0.33295,0.37389,0.42533,0.47677,0.559,0.64123,0.74808,0.85492,1.0036,1.1523,1.3413,1.5303,1.769,2.0077,2.2927,2.5777,2.8978,3.218,3.5519,3.8858,4.1918,4.4978,4.7396,4.9813,5.1498,5.3183,5.4264,5.5345,5.5804,5.6264,5.5994,5.5724,5.4848,5.3973,5.2859,5.1746,5.0621,4.9495,4.8335,4.7175,4.5934,4.4693,4.3375,4.2057,4.0545,3.9034,3.7269,3.5505,3.345,3.1395,2.9228,2.7061,2.5023,2.2985,2.1124,1.9264,1.7471,1.5678,1.3974,1.227,1.0812,0.93553,0.82318,0.71083,0.58509,0.45935,0.43652,0.41369,0.36852,0.32335,0.29574,0.26814,0.23246,0.19679,0.19041,0.18403
0.1989,0.22112,0.24334,0.26966,0.29598,0.33709,0.37819,0.42965,0.4811,0.56554,0.64998,0.76196,0.87395,1.0202,1.1664,1.3554,1.5443,1.7852,2.0262,2.3126,2.599,2.9226,3.2461,3.5781,3.9101,4.2246,4.539,4.7939,5.0487,5.2407,5.4326,5.5645,5.6964,5.7647,5.8329,5.8259,5.819,5.7418,5.6645,5.5519,5.4393,5.3198,5.2002,5.0749,4.9495,4.8161,4.6828,4.5403,4.3978,4.2289,4.0601,3.8633,3.6666,3.4466,3.2265,2.998,2.7696,2.5604,2.3512,2.1604,1.9695,1.7846,1.5996,1.4232,1.2467,1.0999,0.9531,0.83966,0.72621,0.59852,0.47083,0.44696,0.42309,0.37703,0.33096,0.30105,0.27113,0.23807,0.20502,0.195,0.18498
0.20128,0.22359,0.24591,0.27178,0.29766,0.33944,0.38122,0.43275,0.48427,0.57157,0.65887,0.77136,0.88386,1.0317,1.1795,1.3696,1.5596,1.7984,2.0373,2.3106,2.5839,2.9203,3.2567,3.5931,3.9294,4.2467,4.564,4.8329,5.1019,5.3203,5.5387,5.6994,5.8601,5.9524,6.0446,6.0583,6.0719,6.0107,5.9495,5.8416,5.7338,5.6075,5.4812,5.3446,5.2079,5.0636,4.9193,4.7578,4.5964,4.4076,4.2187,4.0012,3.7837,3.5494,3.3151,3.0772,2.8393,2.6227,2.4061,2.2067,2.0072,1.8153,1.6235,1.4454,1.2673,1.1177,0.968,0.85389,0.73977,0.61102,0.48227,0.45687,0.43147,0.38432,0.33716,0.305,0.27284,0.24148,0.21012,0.19919,0.18826
0.20366,0.22607,0.24847,0.2739,0.29933,0.34179,0.38424,0.43584,0.48745,0.5776,0.66776,0.78077,0.89377,1.0432,1.1927,1.3837,1.5748,1.8116,2.0485,2.3087,2.5689,2.9181,3.2674,3.608,3.9486,4.2688,4.5889,4.872,5.1551,5.3999,5.6448,5.8343,6.0238,6.1401,6.2563,6.2906,6.3248,6.2796,6.2345,6.1313,6.0282,5.8952,5.7622,5.6142,5.4663,5.311,5.1558,4.9754,4.795,4.5862,4.3774,4.1391,3.9007,3.6522,3.4037,3.1563,2.909,2.685,2.4611,2.253,2.0449,1.8461,1.6473,1.4676,1.2879,1.1354,0.98291,0.86812,0.75332,0.62352,0.49371,0.46678,0.43985,0.3916,0.34335,0.30895,0.27455,0.24489,0.21523,0.20338,0.19154
0.20492,0.227,0.24909,0.2747,0.30032,0.34274,0.38515,0.43573,0.48632,0.57698,0.66765,0.78118,0.89472,1.0448,1.1949,1.3872,1.5795,1.8043,2.0292,2.3206,2.612,2.9463,3.2805,3.6225,3.9644,4.2905,4.6165,4.918,5.2196,5.4852,5.7509,5.9632,6.1754,6.3106,6.4458,6.4978,6.5497,6.5194,6.4892,6.3944,6.2997,6.1645,6.0293,5.8728,5.7163,5.5475,5.3788,5.1835,4.9882,4.7597,4.5312,4.2772,4.0232,3.7641,3.505,3.249,2.9931,2.7583,2.5234,2.3061,2.0888,1.8818,1.6747,1.4907,1.3068,1.1527,0.99869,0.87916,0.75963,0.63104,0.50246,0.4742,0.44594,0.39705,0.34816,0.31358,0.279,0.24547,0.21195,0.2052,0.19846
0.20617,0.22794,0.2497,0.2755,0.3013,0.34368,0.38606,0.43563,0.48519,0.57636,0.66754,0.7816,0.89567,1.0464,1.1972,1.3907,1.5841,1.797,2.0099,2.3326,2.6552,2.9745,3.2937,3.637,3.9802,4.3122,4.6441,4.9641,5.2841,5.5705,5.8569,6.092,6.327,6.4812,6.6353,6.7049,6.7745,6.7592,6.7439,6.6576,6.5712,6.4338,6.2964,6.1313,5.9662,5.784,5.6018,5.3916,5.1813,4.9331,4.685,4.4153,4.1456,3.8759,3.6063,3.3417,3.0771,2.8315,2.5858,2.3593,2.1328,1.9174,1.7021,1.5139,1.3258,1.1701,1.0145,0.8902,0.76593,0.63857,0.51121,0.48161,0.45202,0.4025,0.35298,0.31821,0.28344,0.24605,0.20867,0.20703,0.20539
0.20685,0.22881,0.25076,0.27603,0.3013,0.3439,0.3865,0.44042,0.49433,0.57964,0.66495,0.77878,0.89261,1.0447,1.1968,1.3936,1.5905,1.8201,2.0497,2.3545,2.6594,2.9791,3.2987,3.6429,3.9871,4.3291,4.6711,5.0062,5.3413,5.643,5.9447,6.1942,6.4436,6.6133,6.7829,6.8669,6.9509,6.9498,6.9487,6.8729,6.7971,6.6648,6.5326,6.3646,6.1966,6.0034,5.8103,5.5851,5.3599,5.0977,4.8355,4.558,4.2805,4.0004,3.7203,3.4437,3.1672,2.9113,2.6555,2.4187,2.1819,1.9577,1.7335,1.5382,1.3428,1.1841,1.0254,0.90086,0.77632,0.6649,0.55348,0.50465,0.45581,0.40669,0.35757,0.32227,0.28698,0.24963,0.21227,0.21045,0.20863
0.20754,0.22967,0.25181,0.27656,0.3013,0.34412,0.38694,0.44521,0.50348,0.58292,0.66237,0.77596,0.88954,1.043,1.1965,1.3966,1.5968,1.8431,2.0894,2.3765,2.6635,2.9837,3.3038,3.6489,3.994,4.346,4.6981,5.0483,5.3985,5.7155,6.0326,6.2964,6.5603,6.7454,6.9305,7.0289,7.1273,7.1404,7.1535,7.0883,7.0231,6.8959,6.7687,6.5978,6.4269,6.2228,6.0187,5.7786,5.5384,5.2622,4.986,4.7006,4.4153,4.1248,3.8344,3.5458,3.2572,2.9911,2.7251,2.478,2.231,1.998,1.7649,1.5624,1.3599,1.1981,1.0363,0.91152,0.78671,0.69123,0.59575,0.52768,0.4596,0.41088,0.36216,0.32634,0.29051,0.2532,0.21588,0.21388,0.21187
0.20883,0.2283,0.24777,0.27657,0.30538,0.34232,0.37925,0.44062,0.50199,0.58012,0.65825,0.77069,0.88313,1.0376,1.1922,1.3927,1.5932,1.84,2.0868,2.3739,2.6609,2.9835,3.306,3.6535,4.0009,4.3575,4.7141,5.0703,5.4265,5.7523,6.0781,6.3529,6.6277,6.8252,7.0227,7.1348,7.2468,7.2736,7.3004,7.2495,7.1987,7.0845,6.9702,6.8035,6.6368,6.4258,6.2148,5.9622,5.7097,5.4262,5.1427,4.8477,4.5527,4.2528,3.9528,3.6524,3.3519,3.0731,2.7944,2.5389,2.2834,2.0418,1.8001,1.5922,1.3842,1.2171,1.05,0.92121,0.79243,0.69651,0.6006,0.53227,0.46394,0.41524,0.36653,0.33042,0.2943,0.25688,0.21945,0.21648,0.21351
0.21012,0.22692,0.24372,0.27659,0.30946,0.34051,0.37156,0.43603,0.50049,0.57731,0.65413,0.76542,0.87672,1.0323,1.1879,1.3887,1.5896,1.8368,2.0841,2.3712,2.6584,2.9833,3.3082,3.658,4.0079,4.369,4.7301,5.0924,5.4546,5.7891,6.1237,6.4094,6.6951,6.905,7.1149,7.2406,7.3663,7.4068,7.4472,7.4108,7.3744,7.2731,7.1717,7.0092,6.8467,6.6288,6.4108,6.1459,5.881,5.5902,5.2994,4.9947,4.6901,4.3807,4.0713,3.759,3.4467,3.1551,2.8636,2.5998,2.3359,2.0856,1.8352,1.6219,1.4085,1.2361,1.0637,0.93091,0.79815,0.7018,0.60544,0.53686,0.46828,0.41959,0.3709,0.3345,0.29809,0.26056,0.22302,0.21909,0.21515
0.20983,0.22614,0.24245,0.27523,0.30801,0.34363,0.37925,0.43883,0.49841,0.57374,0.64906,0.75832,0.86757,1.0049,1.1422,1.36,1.5778,1.8242,2.0706,2.3584,2.6462,2.969,3.2918,3.6414,3.9911,4.3526,4.7141,5.0785,5.4429,5.7817,6.1204,6.4152,6.71,6.9303,7.1506,7.2896,7.4287,7.4851,7.5416,7.5223,7.503,7.4124,7.3219,7.1659,7.0099,6.7911,6.5723,6.3017,6.0311,5.7374,5.4437,5.1301,4.8165,4.4967,4.177,3.8568,3.5367,3.2375,2.9383,2.6632,2.388,2.1302,1.8724,1.6512,1.4299,1.2518,1.0736,0.91724,0.76087,0.68463,0.6084,0.54034,0.47229,0.42314,0.374,0.33567,0.29733,0.26444,0.23155,0.22042,0.20929
0.20954,0.22536,0.24117,0.27386,0.30655,0.34674,0.38694,0.44164,0.49634,0.57017,0.644,0.75121,0.85842,0.97748,1.0965,1.3313,1.566,1.8116,2.0571,2.3456,2.634,2.9547,3.2754,3.6249,3.9743,4.3362,4.6981,5.0647,5.4313,5.7742,6.1171,6.421,6.725,6.9556,7.1863,7.3386,7.491,7.5635,7.636,7.6338,7.6316,7.5518,7.472,7.3226,7.1732,6.9535,6.7337,6.4575,6.1813,5.8846,5.588,5.2655,4.943,4.6128,4.2826,3.9547,3.6267,3.3198,3.013,2.7266,2.4401,2.1748,1.9095,1.6804,1.4513,1.2674,1.0836,0.90357,0.72359,0.66747,0.61135,0.54382,0.47629,0.4267,0.3771,0.33683,0.29656,0.26832,0.24008,0.22175,0.20342
0.20925,0.22672,0.2442,0.27176,0.29933,0.34365,0.38796,0.44053,0.49309,0.5659,0.63872,0.74349,0.84826,0.98291,1.1176,1.3338,1.5501,1.7955,2.0409,2.3293,2.6176,2.9359,3.2543,3.5961,3.9379,4.2925,4.6471,5.0098,5.3726,5.7157,6.0588,6.366,6.6732,6.917,7.1608,7.3312,7.5015,7.5912,7.6808,7.693,7.7053,7.6387,7.5722,7.4296,7.2869,7.0713,6.8558,6.5814,6.307,6.002,5.6969,5.3688,5.0406,4.7068,4.373,4.041,3.709,3.3947,3.0804,2.7849,2.4893,2.2155,1.9416,1.7069,1.4722,1.2838,1.0953,0.91549,0.73565,0.6764,0.61714,0.54816,0.47917,0.42961,0.38005,0.33556,0.29106,0.26664,0.24223,0.2237,0.20517
0.20896,0.22809,0.24722,0.26967,0.29212,0.34055,0.38898,0.43942,0.48985,0.56164,0.63343,0.73576,0.83809,0.98834,1.1386,1.3364,1.5342,1.7795,2.0247,2.313,2.6012,2.9172,3.2331,3.5673,3.9015,4.2487,4.596,4.955,5.3139,5.6572,6.0005,6.311,6.6215,6.8784,7.1353,7.3237,7.5121,7.6189,7.7257,7.7523,7.7789,7.7257,7.6725,7.5365,7.4006,7.1892,6.9779,6.7053,6.4327,6.1193,5.8059,5.4721,5.1383,4.8008,4.4634,4.1274,3.7914,3.4696,3.1478,2.8432,2.5385,2.2561,1.9737,1.7334,1.4931,1.3001,1.1071,0.92741,0.74771,0.68532,0.62294,0.55249,0.48205,0.43253,0.383,0.33428,0.28556,0.26497,0.24438,0.22565,0.20692
0.20794,0.22687,0.2458,0.26732,0.28884,0.33741,0.38599,0.43597,0.48595,0.55707,0.62818,0.71054,0.7929,0.95787,1.1228,1.3182,1.5136,1.7564,1.9992,2.2845,2.5699,2.8802,3.1905,3.5185,3.8464,4.1881,4.5297,4.8779,5.2261,5.5647,5.9032,6.2151,6.5271,6.7918,7.0566,7.2565,7.4564,7.5777,7.6991,7.739,7.7789,7.739,7.6991,7.5777,7.4564,7.2565,7.0566,6.7918,6.5271,6.2151,5.9032,5.5647,5.2261,4.8779,4.5297,4.1881,3.8464,3.5185,3.1905,2.8802,2.5699,2.2845,1.9992,1.7564,1.5136,1.3182,1.1228,0.95787,0.7929,0.71054,0.62818,0.55707,0.48595,0.43597,0.38599,0.33741,0.28884,0.26732,0.2458,0.22687,0.20794
0.20692,0.22565,0.24438,0.26497,0.28556,0.33428,0.383,0.43253,0.48205,0.55249,0.62294,0.68532,0.74771,0.92741,1.1071,1.3001,1.4931,1.7334,1.9737,2.2561,2.5385,2.8432,3.1478,3.4696,3.7914,4.1274,4.4634,4.8008,5.1383,5.4721,5.8059,6.1193,6.4327,6.7053,6.9779,7.1892,7.4006,7.5365,7.6725,7.7257,7.7789,7.7523,7.7257,7.6189,7.5121,7.3237,7.1353,6.8784,6.6215,6.311,6.0005,5.6572,5.3139,4.955,4.596,4.2487,3.9015,3.5673,3.2331,2.9172,2.6012,2.313,2.0247,1.7795,1.5342,1.3364,1.1386,0.98834,0.83809,0.73576,0.63343,0.56164,0.48985,0.43942,0.38898,0.34055,0.29212,0.26967,0.24722,0.22809,0.20896
0.20517,0.2237,0.24223,0.26664,0.29106,0.33556,0.38005,0.42961,0.47917,0.54816,0.61714,0.6764,0.73565,0.91549,1.0953,1.2838,1.4722,1.7069,1.9416,2.2155,2.4893,2.7849,3.0804,3.3947,3.709,4.041,4.373,4.7068,5.0406,5.3688,5.6969,6.002,6.307,6.5814,6.8558,7.0713,7.2869,7.4296,7.5722,7.6387,7.7053,7.693,7.6808,7.5912,7.5015,7.3312,7.1608,6.917,6.6732,6.366,6.0588,5.7157,5.3726,5.0098,4.6471,4.2925,3.9379,3.5961,3.2543,2.9359,2.6176,2.3293,2.0409,1.7955,1.5501,1.3338,1.1176,0.98291,0.84826,0.74349,0.63872,0.5659,0.49309,0.44053,0.38796,0.34365,0.29933,0.27176,0.2442,0.22672,0.20925
0.20342,0.22175,0.24008,0.26832,0.29656,0.33683,0.3771,0.4267,0.47629,0.54382,0.61135,0.66747,0.72359,0.90357,1.0836,1.2674,1.4513,1.6804,1.9095,2.1748,2.4401,2.7266,3.013,3.3198,3.6267,3.9547,4.2826,4.6128,4.943,5.2655,5.588,5.8846,6.1813,6.4575,6.7337,6.9535,7.1732,7.3226,7.472,7.5518,7.6316,7.6338,7.636,7.5635,7.491,7.3386,7.1863,6.9556,6.725,6.421,6.1171,5.7742,5.4313,5.0647,4.6981,4.3362,3.9743,3.6249,3.2754,2.9547,2.634,2.3456,2.0571,1.8116,1.566,1.3313,1.0965,0.97748,0.85842,0.75121,0.644,0.57017,0.49634,0.44164,0.38694,0.34674,0.30655,0.27386,0.24117,0.22536,0.20954
0.20929,0.22042,0.23155,0.26444,0.29733,0.33567,0.374,0.42314,0.47229,0.54034,0.6084,0.68463,0.76087,0.91724,1.0736,1.2518,1.4299,1.6512,1.8724,2.1302,2.388,2.6632,2.9383,3.2375,3.5367,3.8568,4.177,4.4967,4.8165,5.1301,5.4437,5.7374,6.0311,6.3017,6.5723,6.7911,7.0099,7.1659,7.3219,7.4124,7.503,7.5223,7.5416,7.4851,7.4287,7.2896,7.1506,6.9303,6.71,6.4152,6.1204,5.7817,5.4429,5.0785,4.7141,4.3526,3.9911,3.6414,3.2918,2.969,2.6462,2.3584,2.0706,1.8242,1.5778,1.36,1.1422,1.0049,0.86757,0.75832,0.64906,0.57374,0.49841,0.43883,0.37925,0.34363,0.30801,0.27523,0.24245,0.22614,0.20983
0.21515,0.21909,0.22302,0.26056,0.29809,0.3345,0.3709,0.41959,0.46828,0.53686,0.60544,0.7018,0.79815,0.93091,1.0637,1.2361,1.4085,1.6219,1.8352,2.0856,2.3359,2.5998,2.8636,3.1551,3.4467,3.759,4.0713,4.3807,4.6901,4.9947,5.2994,5.5902,5.881,6.1459,6.4108,6.6288,6.8467,7.0092,7.1717,7.2731,7.3744,7.4108,7.4472,7.4068,7.3663,7.2406,7.1149,6.905,6.6951,6.4094,6.1237,5.7891,5.4546,5.0924,4.7301,4.369,4.0079,3.658,3.3082,2.9833,2.6584,2.3712,2.0841,1.8368,1.5896,1.3887,1.1879,1.0323,0.87672,0.76542,0.65413,0.57731,0.50049,0.43603,0.37156,0.34051,0.30946,0.27659,0.24372,0.22692,0.21012
0.21351,0.21648,0.21945,0.25688,0.2943,0.33042,0.36653,0.41524,0.46394,0.53227,0.6006,0.69651,0.79243,0.92121,1.05,1.2171,1.3842,1.5922,1.8001,2.0418,2.2834,2.5389,2.7944,3.0731,3.3519,3.6524,3.9528,4.2528,4.5527,4.8477,5.1427,5.4262,5.7097,5.9622,6.2148,6.4258,6.6368,6.8035,6.9702,7.0845,7.1987,7.2495,7.3004,7.2736,7.2468,7.1348,7.0227,6.8252,6.6277,6.3529,6.0781,5.7523,5.4265,5.0703,4.7141,4.3575,4.0009,3.6535,3.306,2.9835,2.6609,2.3739,2.0868,1.84,1.5932,1.3927,1.1922,1.0376,0.88313,0.77069,0.65825,0.58012,0.50199,0.44062,0.37925,0.34232,0.30538,0.27657,0.24777,0.2283,0.20883
0.21187,0.21388,0.21588,0.2532,0.29051,0.32634,0.36216,0.41088,0.4596,0.52768,0.59575,0.69123,0.78671,0.91152,1.0363,1.1981,1.3599,1.5624,1.7649,1.998,2.231,2.478,2.7251,2.9911,3.2572,3.5458,3.8344,4.1248,4.4153,4.7006,4.986,5.2622,5.5384,5.7786,6.0187,6.2228,6.4269,6.5978,6.7687,6.8959,7.0231,7.0883,7.1535,7.1404,7.1273,7.0289,6.9305,6.7454,6.5603,6.2964,6.0326,5.7155,5.3985,5.0483,4.6981,4.346,3.994,3.6489,3.3038,2.9837,2.6635,2.3765,2.0894,1.8431,1.5968,1.3966,1.1965,1.043,0.88954,0.77596,0.66237,0.58292,0.50348,0.44521,0.38694,0.34412,0.3013,0.27656,0.25181,0.22967,0.20754
0.20863,0.21045,0.21227,0.24963,0.28698,0.32227,0.35757,0.40669,0.45581,0.50465,0.55348,0.6649,0.77632,0.90086,1.0254,1.1841,1.3428,1.5382,1.7335,1.9577,2.1819,2.4187,2.6555,2.9113,3.1672,3.4437,3.7203,4.0004,4.2805,4.558,4.8355,5.0977,5.3599,5.5851,5.8103,6.0034,6.1966,6.3646,6.5326,6.6648,6.7971,6.8729,6.9487,6.9498,6.9509,6.8669,6.7829,6.6133,6.4436,6.1942,5.9447,5.643,5.3413,5.0062,4.6711,4.3291,3.9871,3.6429,3.2987,2.9791,2.6594,2.3545,2.0497,1.8201,1.5905,1.3936,1.1968,1.0447,0.89261,0.77878,0.66495,0.57964,0.49433,0.44042,0.3865,0.3439,0.3013,0.27603,0.25076,0.22881,0.20685
0.20539,0.20703,0.20867,0.24605,0.28344,0.31821,0.35298,0.4025,0.45202,0.48161,0.51121,0.63857,0.76593,0.8902,1.0145,1.1701,1.3258,1.5139,1.7021,1.9174,2.1328,2.3593,2.5858,2.8315,3.0771,3.3417,3.6063,3.8759,4.1456,4.4153,4.685,4.9331,5.1813,5.3916,5.6018,5.784,5.9662,6.1313,6.2964,6.4338,6.5712,6.6576,6.7439,6.7592,6.7745,6.7049,6.6353,6.4812,6.327,6.092,5.8569,5.5705,5.2841,4.9641,4.6441,4.3122,3.9802,3.637,3.2937,2.9745,2.6552,2.3326,2.0099,1.797,1.5841,1.3907,1.1972,1.0464,0.89567,0.7816,0.66754,0.57636,0.48519,0.43563,0.38606,0.34368,0.3013,0.2755,0.2497,0.22794,0.20617
0.19846,0.2052,0.21195,0.24547,0.279,0.31358,0.34816,0.39705,0.44594,0.4742,0.50246,0.63104,0.75963,0.87916,0.99869,1.1527,1.3068,1.4907,1.6747,1.8818,2.0888,2.3061,2.5234,2.7583,2.9931,3.249,3.505,3.7641,4.0232,4.2772,4.5312,4.7597,4.9882,5.1835,5.3788,5.5475,5.7163,5.8728,6.0293,6.1645,6.2997,6.3944,6.4892,6.5194,6.5497,6.4978,6.4458,6.3106,6.1754,5.9632,5.7509,5.4852,5.2196,4.918,4.6165,4.2905,3.9644,3.6225,3.2805,2.9463,2.612,2.3206,2.0292,1.8043,1.5795,1.3872,1.1949,1.0448,0.89472,0.78118,0.66765,0.57698,0.48632,0.43573,0.38515,0.34274,0.30032,0.2747,0.24909,0.227,0.20492
0.19154,0.20338,0.21523,0.24489,0.27455,0.30895,0.34335,0.3916,0.43985,0.46678,0.49371,0.62352,0.75332,0.86812,0.98291,1.1354,1.2879,1.4676,1.6473,1.8461,2.0449,2.253,2.4611,2.685,2.909,3.1563,3.4037,3.6522,3.9007,4.1391,4.3774,4.5862,4.795,4.9754,5.1558,5.311,5.4663,5.6142,5.7622,5.8952,6.0282,6.1313,6.2345,6.2796,6.3248,6.2906,6.2563,6.1401,6.0238,5.8343,5.6448,5.3999,5.1551,4.872,4.5889,4.2688,3.9486,3.608,3.2674,2.9181,2.5689,2.3087,2.0485,1.8116,1.5748,1.3837,1.1927,1.0432,0.89377,0.78077,0.66776,0.5776,0.48745,0.43584,0.38424,0.34179,0.29933,0.2739,0.24847,0.22607,0.20366
0.18826,0.19919,0.21012,0.24148,0.27284,0.305,0.33716,0.38432,0.43147,0.45687,0.48227,0.61102,0.73977,0.85389,0.968,1.1177,1.2673,1.4454,1.6235,1.8153,2.0072,2.2067,2.4061,2.6227,2.8393,3.0772,3.3151,3.5494,3.7837,4.0012,4.2187,4.4076,4.5964,4.7578,4.9193,5.0636,5.2079,5.3446,5.4812,5.6075,5.7338,5.8416,5.9495,6.0107,6.0719,6.0583,6.0446,5.9524,5.8601,5.6994,5.5387,5.3203,5.1019,4.8329,4.564,4.2467,3.9294,3.5931,3.2567,2.9203,2.5839,2.3106,2.0373,1.7984,1.5596,1.3696,1.1795,1.0317,0.88386,0.77136,0.65887,0.57157,0.48427,0.43275,0.38122,0.33944,0.29766,0.27178,0.24591,0.22359,0.20128
0.18498,0.195,0.20502,0.23807,0.27113,0.30105,0.33096,0.37703,0.42309,0.44696,0.47083,0.59852,0.72621,0.83966,0.9531,1.0999,1.2467,1.4232,1.5996,1.7846,1.9695,2.1604,2.3512,2.5604,2.7696,2.998,3.2265,3.4466,3.6666,3.8633,4.0601,4.2289,4.3978,4.5403,4.6828,4.8161,4.9495,5.0749,5.2002,5.3198,5.4393,5.5519,5.6645,5.7418,5.819,5.8259,5.8329,5.7647,5.6964,5.5645,5.4326,5.2407,5.0487,4.7939,4.539,4.2246,3.9101,3.5781,3.2461,2.9226,2.599,2.3126,2.0262,1.7852,1.5443,1.3554,1.1664,1.0202,0.87395,0.76196,0.64998,0.56554,0.4811,0.42965,0.37819,0.33709,0.29598,0.26966,0.24334,0.22112,0.1989
0.18403,0.19041,0.19679,0.23246,0.26814,0.29574,0.32335,0.36852,0.41369,0.43652,0.45935,0.58509,0.71083,0.82318,0.93553,1.0812,1.227,1.3974,1.5678,1.7471,1.9264,2.1124,2.2985,2.5023,2.7061,2.9228,3.1395,3.345,3.5505,3.7269,3.9034,4.0545,4.2057,4.3375,4.4693,4.5934,4.7175,4.8335,4.9495,5.0621,5.1746,5.2859,5.3973,5.4848,5.5724,5.5994,5.6264,5.5804,5.5345,5.4264,5.3183,5.1498,4.9813,4.7396,4.4978,4.1918,3.8858,3.5519,3.218,2.8978,2.5777,2.2927,2.0077,1.769,1.5303,1.3413,1.1523,1.0036,0.85492,0.74808,0.64123,0.559,0.47677,0.42533,0.37389,0.33295,0.29202,0.26603,0.24004,0.21821,0.19638
0.18308,0.18582,0.18855,0.22685,0.26515,0.29044,0.31573,0.36001,0.40429,0.42608,0.44787,0.57166,0.69546,0.80671,0.91797,1.0626,1.2072,1.3715,1.5359,1.7096,1.8832,2.0645,2.2457,2.4441,2.6425,2.8475,3.0525,3.2434,3.4343,3.5905,3.7467,3.8801,4.0136,4.1347,4.2557,4.3706,4.4855,4.5921,4.6988,4.8043,4.9099,5.02,5.1301,5.2279,5.3257,5.3728,5.4199,5.3962,5.3725,5.2883,5.204,5.059,4.914,4.6852,4.4565,4.159,3.8614,3.5257,3.1899,2.8731,2.5563,2.2728,1.9892,1.7528,1.5163,1.3272,1.1382,0.98703,0.8359,0.73419,0.63248,0.55246,0.47243,0.42101,0.36959,0.32882,0.28805,0.26239,0.23673,0.2153,0.19387
0.17667,0.18145,0.18622,0.2208,0.25538,0.28503,0.31467,0.35469,0.3947,0.41502,0.43533,0.55643,0.67753,0.78658,0.89563,1.0359,1.1762,1.3361,1.496,1.6649,1.8338,2.0108,2.1878,2.381,2.5742,2.769,2.9638,3.1403,3.3167,3.4577,3.5987,3.7224,3.8461,3.9615,4.0769,4.1856,4.2944,4.395,4.4955,4.5927,4.6899,4.796,4.9021,5.0035,5.1048,5.1647,5.2247,5.2177,5.2107,5.1432,5.0758,4.9452,4.8145,4.5975,4.3804,4.0909,3.8015,3.4779,3.1543,2.84,2.5256,2.247,1.9684,1.731,1.4936,1.3039,1.1142,0.96656,0.81888,0.72,0.62111,0.5426,0.46409,0.41334,0.36259,0.32332,0.28405,0.25856,0.23306,0.21186,0.19066
0.17026,0.17707,0.18389,0.21475,0.24562,0.27962,0.31362,0.34937,0.38512,0.40396,0.4228,0.5412,0.6596,0.76644,0.87329,1.0093,1.1452,1.3006,1.4561,1.6202,1.7843,1.9571,2.1299,2.3179,2.5059,2.6905,2.8751,3.0372,3.1992,3.3249,3.4507,3.5647,3.6787,3.7883,3.898,4.0007,4.1033,4.1978,4.2923,4.3811,4.4699,4.5721,4.6742,4.779,4.8838,4.9567,5.0296,5.0392,5.0488,4.9982,4.9476,4.8314,4.7151,4.5097,4.3043,4.0229,3.7415,3.4301,3.1188,2.8069,2.495,2.2213,1.9476,1.7092,1.4708,1.2806,1.0903,0.9461,0.80187,0.7058,0.60974,0.53274,0.45574,0.40567,0.35559,0.31782,0.28006,0.25472,0.22939,0.20842,0.18745
0.16816,0.17231,0.17646,0.20907,0.24168,0.27125,0.30083,0.34022,0.37961,0.41325,0.44689,0.54324,0.63959,0.74352,0.84745,0.97919,1.1109,1.2604,1.4098,1.569,1.7283,1.8966,2.065,2.2449,2.4247,2.6008,2.7768,2.9256,3.0744,3.1929,3.3114,3.4204,3.5294,3.6375,3.7456,3.8445,3.9435,4.0335,4.1236,4.2076,4.2916,4.3877,4.4839,4.5842,4.6845,4.7595,4.8344,4.8554,4.8764,4.8348,4.7932,4.6855,4.5779,4.3846,4.1914,3.9232,3.655,3.3517,3.0484,2.7448,2.4412,2.1722,1.9032,1.6691,1.4349,1.2473,1.0597,0.92218,0.7847,0.68757,0.59043,0.5191,0.44776,0.39678,0.3458,0.31095,0.27609,0.24988,0.22367,0.20425,0.18483
0.16605,0.16754,0.16903,0.20339,0.23775,0.26289,0.28804,0.33107,0.37411,0.42254,0.47097,0.54528,0.61958,0.7206,0.82162,0.94913,1.0766,1.2201,1.3636,1.5179,1.6722,1.8362,2.0001,2.1719,2.3436,2.511,2.6785,2.814,2.9495,3.0608,3.172,3.2761,3.3801,3.4866,3.5931,3.6884,3.7838,3.8693,3.9549,4.0341,4.1133,4.2034,4.2935,4.3893,4.4852,4.5623,4.6393,4.6717,4.7041,4.6714,4.6388,4.5397,4.4406,4.2595,4.0784,3.8234,3.5685,3.2733,2.9781,2.6827,2.3874,2.1231,1.8589,1.6289,1.3989,1.2139,1.029,0.89825,0.76754,0.66933,0.57112,0.50545,0.43978,0.38789,0.33601,0.30407,0.27213,0.24504,0.21794,0.20007,0.1822
0.16166,0.16289,0.16412,0.1971,0.23008,0.25452,0.27896,0.31981,0.36066,0.40846,0.45625,0.53005,0.60384,0.69895,0.79407,0.91558,1.0371,1.175,1.3128,1.4617,1.6107,1.7666,1.9226,2.0871,2.2516,2.4082,2.5648,2.6915,2.8182,2.9252,3.0322,3.1353,3.2383,3.341,3.4437,3.5363,3.629,3.7113,3.7936,3.8701,3.9465,4.0317,4.1168,4.2045,4.2922,4.3675,4.4427,4.4763,4.5099,4.4811,4.4523,4.3574,4.2625,4.0934,3.9243,3.6823,3.4403,3.1551,2.8699,2.5918,2.3137,2.0561,1.7986,1.5751,1.3516,1.1754,0.99912,0.86957,0.74002,0.6477,0.55537,0.48991,0.42445,0.37686,0.32927,0.2968,0.26434,0.23941,0.21449,0.19606,0.17764
0.15727,0.15823,0.1592,0.19081,0.22241,0.24615,0.26989,0.30855,0.34722,0.39437,0.44153,0.51481,0.5881,0.67731,0.76652,0.88204,0.99756,1.1298,1.2621,1.4056,1.5491,1.697,1.845,2.0023,2.1595,2.3053,2.4511,2.569,2.6869,2.7897,2.8925,2.9945,3.0965,3.1954,3.2943,3.3842,3.4742,3.5533,3.6324,3.7061,3.7797,3.8599,3.9401,4.0197,4.0993,4.1727,4.2461,4.281,4.3158,4.2908,4.2658,4.1751,4.0843,3.9273,3.7703,3.5412,3.3121,3.0369,2.7617,2.5008,2.2399,1.9891,1.7383,1.5213,1.3043,1.1368,0.96928,0.84089,0.71251,0.62607,0.53963,0.47437,0.40912,0.36582,0.32252,0.28953,0.25654,0.23379,0.21103,0.19206,0.17308
0.15132,0.15354,0.15576,0.18175,0.20774,0.23484,0.26194,0.29669,0.33144,0.37874,0.42604,0.49342,0.5608,0.64945,0.73809,0.84518,0.95226,1.0784,1.2045,1.3412,1.478,1.6202,1.7624,1.9106,2.0589,2.195,2.3312,2.4436,2.5561,2.6531,2.7501,2.849,2.948,3.0444,3.1408,3.2293,3.3178,3.395,3.4722,3.5437,3.6151,3.6893,3.7635,3.8374,3.9112,3.9774,4.0437,4.074,4.1043,4.079,4.0536,3.9691,3.8846,3.7342,3.5837,3.364,3.1443,2.8881,2.6319,2.3828,2.1336,1.8997,1.6658,1.459,1.2522,1.0919,0.93153,0.80831,0.68509,0.60259,0.52008,0.4573,0.39452,0.35265,0.31078,0.28005,0.24932,0.22737,0.20541,0.18697,0.16854
0.14537,0.14885,0.15233,0.1727,0.19307,0.22353,0.254,0.28483,0.31566,0.36311,0.41055,0.47203,0.53351,0.62159,0.70967,0.80832,0.90696,1.027,1.147,1.2769,1.4069,1.5433,1.6798,1.819,1.9582,2.0848,2.2113,2.3183,2.4253,2.5165,2.6077,2.7036,2.7995,2.8935,2.9874,3.0744,3.1613,3.2367,3.312,3.3813,3.4505,3.5187,3.587,3.655,3.7231,3.7822,3.8413,3.867,3.8928,3.8671,3.8415,3.7632,3.6848,3.541,3.3972,3.1868,2.9764,2.7393,2.5022,2.2647,2.0273,1.8103,1.5933,1.3967,1.2,1.0469,0.89377,0.77572,0.65767,0.5791,0.50053,0.44022,0.37991,0.33947,0.29903,0.27057,0.2421,0.22095,0.1998,0.18189,0.16399
0.14098,0.144,0.14702,0.16653,0.18604,0.21502,0.244,0.27276,0.30153,0.34598,0.39044,0.4281,0.46576,0.57,0.67425,0.7695,0.86476,0.97872,1.0927,1.2139,1.335,1.4643,1.5935,1.7242,1.8549,1.9752,2.0955,2.1952,2.2949,2.3818,2.4687,2.5591,2.6496,2.7403,2.831,2.9179,3.0049,3.0808,3.1568,3.2238,3.2909,3.3525,3.4141,3.473,3.5319,3.5836,3.6353,3.6557,3.6762,3.6483,3.6204,3.5417,3.463,3.3236,3.1842,2.9886,2.7929,2.5726,2.3523,2.1339,1.9155,1.7098,1.5042,1.3216,1.1391,0.99334,0.84762,0.73914,0.63066,0.55352,0.47638,0.4216,0.36681,0.32832,0.28983,0.26266,0.23549,0.21401,0.19253,0.17661,0.16069
0.13658,0.13915,0.14171,0.16037,0.17902,0.2065,0.23399,0.26069,0.28739,0.32886,0.37032,0.38417,0.39802,0.51842,0.63882,0.73069,0.82256,0.93047,1.0384,1.1508,1.2632,1.3852,1.5072,1.6294,1.7516,1.8657,1.9798,2.0721,2.1644,2.2471,2.3297,2.4147,2.4996,2.5871,2.6745,2.7615,2.8485,2.925,3.0015,3.0664,3.1312,3.1862,3.2412,3.291,3.3408,3.385,3.4292,3.4444,3.4596,3.4294,3.3993,3.3202,3.2412,3.1062,2.9712,2.7903,2.6095,2.4059,2.2024,2.0031,1.8037,1.6094,1.4151,1.2466,1.0781,0.93978,0.80147,0.70256,0.60364,0.52794,0.45223,0.40297,0.35371,0.31717,0.28062,0.25476,0.22889,0.20708,0.18526,0.17133,0.1574
0.093109,0.093419,0.093728,0.10477,0.11581,0.14054,0.16526,0.18882,0.21238,0.24605,0.27973,0.30868,0.33763,0.42699,0.51634,0.60082,0.68529,0.78159,0.87788,0.98356,1.0892,1.2009,1.3126,1.4238,1.5349,1.6375,1.7401,1.8252,1.9103,1.9863,2.0622,2.1397,2.2171,2.2973,2.3775,2.4604,2.5433,2.6191,2.6949,2.7577,2.8206,2.8711,2.9215,2.9664,3.0112,3.0507,3.0903,3.101,3.1118,3.0801,3.0484,2.9713,2.8942,2.7683,2.6424,2.4804,2.3184,2.1388,1.9591,1.7762,1.5932,1.42,1.2467,1.0936,0.94056,0.81622,0.69188,0.60076,0.50964,0.44455,0.37947,0.33413,0.2888,0.25828,0.22776,0.20435,0.18093,0.1633,0.14566,0.13236,0.11906
0.092125,0.09402,0.095915,0.1008,0.10568,0.13232,0.15896,0.18108,0.2032,0.23458,0.26595,0.31201,0.35808,0.42247,0.48686,0.56609,0.64531,0.73663,0.82796,0.92744,1.0269,1.1326,1.2383,1.3425,1.4467,1.5419,1.637,1.7186,1.8002,1.8727,1.9453,2.0181,2.091,2.1661,2.2412,2.3213,2.4015,2.4773,2.5531,2.614,2.6748,2.72,2.7652,2.8035,2.8417,2.8742,2.9066,2.9099,2.9132,2.8764,2.8395,2.7605,2.6814,2.5593,2.4372,2.2889,2.1406,1.9781,1.8155,1.6468,1.4781,1.3196,1.161,1.0215,0.88189,0.76586,0.64983,0.56481,0.47979,0.42065,0.3615,0.31861,0.27572,0.24733,0.21894,0.19682,0.1747,0.15794,0.14118,0.12849,0.11581
0.090704,0.091833,0.092963,0.097555,0.10215,0.12449,0.14682,0.17009,0.19336,0.22242,0.25148,0.29383,0.33618,0.3748,0.41343,0.50975,0.60606,0.69194,0.77781,0.87085,0.96389,1.0643,1.1647,1.2629,1.3611,1.4498,1.5386,1.616,1.6935,1.7643,1.8352,1.9041,1.973,2.0429,2.1129,2.1876,2.2623,2.3336,2.4048,2.4633,2.5218,2.5664,2.6111,2.6469,2.6828,2.7093,2.7357,2.7319,2.728,2.685,2.642,2.5602,2.4784,2.3625,2.2466,2.1105,1.9744,1.8252,1.676,1.5211,1.3662,1.2212,1.0761,0.94749,0.81885,0.71295,0.60705,0.52901,0.45097,0.39616,0.34135,0.30132,0.26129,0.23556,0.20983,0.18893,0.16803,0.15227,0.13651,0.12443,0.11235
0.089282,0.089647,0.090011,0.094311,0.098611,0.11665,0.13469,0.1591,0.18352,0.21027,0.23702,0.27565,0.31427,0.32714,0.34,0.45341,0.56682,0.64724,0.72767,0.81426,0.90084,0.99595,1.0911,1.1833,1.2755,1.3578,1.4402,1.5134,1.5867,1.6559,1.7252,1.79,1.8549,1.9198,1.9846,2.0539,2.1231,2.1898,2.2565,2.3126,2.3687,2.4128,2.4569,2.4904,2.524,2.5444,2.5648,2.5538,2.5429,2.4937,2.4445,2.36,2.2754,2.1657,2.056,1.9321,1.8082,1.6723,1.5364,1.3954,1.2543,1.1228,0.99122,0.87351,0.7558,0.66003,0.56426,0.4932,0.42214,0.37167,0.3212,0.28403,0.24686,0.22379,0.20072,0.18104,0.16136,0.14661,0.13185,0.12037,0.10889
0.086659,0.086804,0.08695,0.091032,0.095113,0.11199,0.12886,0.15149,0.17412,0.19868,0.22324,0.25795,0.29266,0.32184,0.35101,0.43783,0.52465,0.59932,0.67399,0.75626,0.83853,0.92744,1.0164,1.1042,1.192,1.2704,1.3487,1.42,1.4912,1.5586,1.626,1.6874,1.7488,1.8093,1.8698,1.932,1.9941,2.0546,2.1151,2.1696,2.224,2.2692,2.3144,2.3469,2.3793,2.393,2.4066,2.3884,2.3702,2.3161,2.2619,2.1783,2.0947,1.9912,1.8877,1.7733,1.6588,1.5324,1.4059,1.2771,1.1483,1.0291,0.90995,0.80323,0.69651,0.61002,0.52352,0.45913,0.39474,0.34882,0.3029,0.26983,0.23676,0.2143,0.19183,0.17326,0.1547,0.14077,0.12685,0.11596,0.10506
0.084035,0.083962,0.083889,0.087752,0.091615,0.10732,0.12303,0.14387,0.16472,0.18709,0.20947,0.24026,0.27105,0.31653,0.36201,0.42225,0.48249,0.5514,0.62031,0.69826,0.77621,0.85893,0.94166,1.0251,1.1086,1.1829,1.2572,1.3265,1.3957,1.4613,1.5269,1.5849,1.6428,1.6989,1.755,1.8101,1.8651,1.9194,1.9737,2.0265,2.0794,2.1256,2.1719,2.2033,2.2346,2.2415,2.2485,2.2229,2.1974,2.1384,2.0794,1.9966,1.9139,1.8166,1.7193,1.6144,1.5094,1.3924,1.2755,1.1588,1.0422,0.93546,0.82869,0.73295,0.63722,0.56,0.48278,0.42506,0.36733,0.32597,0.28461,0.25564,0.22667,0.2048,0.18294,0.16548,0.14803,0.13494,0.12186,0.11155,0.10124
0.081047,0.080864,0.080682,0.084326,0.08797,0.10277,0.11756,0.13533,0.15309,0.17472,0.19635,0.22423,0.2521,0.29241,0.33271,0.36855,0.40439,0.48695,0.56951,0.6419,0.7143,0.79172,0.86914,0.9484,1.0277,1.1005,1.1734,1.2397,1.3061,1.3688,1.4314,1.4879,1.5444,1.5967,1.649,1.6986,1.7481,1.7979,1.8476,1.8962,1.9449,1.9892,2.0335,2.0613,2.0892,2.0907,2.0921,2.0606,2.0291,1.9688,1.9085,1.8294,1.7503,1.6583,1.5663,1.4677,1.3691,1.2629,1.1567,1.0523,0.94785,0.85033,0.75281,0.66774,0.58267,0.51379,0.44492,0.39355,0.34219,0.30391,0.26562,0.24019,0.21475,0.1942,0.17365,0.15757,0.1415,0.1292,0.11691,0.11107,0.10524
0.078058,0.077767,0.077475,0.080901,0.084326,0.098211,0.11209,0.12678,0.14147,0.16235,0.18323,0.20819,0.23315,0.26828,0.30341,0.31486,0.3263,0.42251,0.51871,0.58555,0.65238,0.7245,0.79662,0.87169,0.94676,1.0182,1.0896,1.153,1.2164,1.2762,1.336,1.391,1.446,1.4945,1.5429,1.587,1.6311,1.6763,1.7215,1.766,1.8104,1.8527,1.895,1.9194,1.9438,1.9398,1.9358,1.8983,1.8607,1.7991,1.7375,1.6621,1.5867,1.4999,1.4132,1.321,1.2288,1.1333,1.0379,0.94566,0.85347,0.7652,0.67694,0.60253,0.52811,0.46758,0.40705,0.36205,0.31704,0.28184,0.24664,0.22474,0.20284,0.18359,0.16435,0.14967,0.13498,0.12346,0.11195,0.1106,0.10925
0.07308,0.072193,0.071306,0.077907,0.084509,0.093346,0.10218,0.11701,0.13185,0.15196,0.17208,0.19431,0.21654,0.24749,0.27845,0.3027,0.32696,0.39958,0.47221,0.53325,0.59429,0.66169,0.72909,0.79911,0.86914,0.9371,1.0051,1.0667,1.1282,1.1865,1.2449,1.297,1.3491,1.3948,1.4405,1.4819,1.5233,1.565,1.6067,1.6472,1.6876,1.7233,1.759,1.7773,1.7955,1.786,1.7765,1.7372,1.6978,1.6384,1.579,1.5071,1.4351,1.3545,1.274,1.1893,1.1046,1.0191,0.93364,0.85064,0.76765,0.69004,0.61244,0.54601,0.47957,0.42615,0.37273,0.33313,0.29354,0.26307,0.23261,0.21162,0.19063,0.17326,0.1559,0.14231,0.12871,0.11791,0.1071,0.10581,0.10452
0.068102,0.066619,0.065136,0.074913,0.084691,0.088481,0.092271,0.10725,0.12223,0.14158,0.16093,0.18042,0.19992,0.2267,0.25349,0.29055,0.32761,0.37666,0.42571,0.48096,0.5362,0.59888,0.66156,0.72654,0.79152,0.85602,0.92052,0.98028,1.04,1.0969,1.1537,1.2029,1.2521,1.2951,1.3381,1.3768,1.4154,1.4537,1.4919,1.5284,1.5648,1.594,1.6231,1.6351,1.6472,1.6322,1.6173,1.5761,1.5349,1.4777,1.4205,1.352,1.2835,1.2091,1.1348,1.0575,0.98028,0.90485,0.82942,0.75562,0.68183,0.61488,0.54794,0.48949,0.43103,0.38472,0.3384,0.30422,0.27003,0.24431,0.21858,0.1985,0.17842,0.16293,0.14744,0.13494,0.12244,0.11235,0.10226,0.10102,0.099778
0.06671,0.065969,0.065227,0.071455,0.077683,0.084795,0.091906,0.10136,0.11082,0.12842,0.14602,0.16585,0.18567,0.20927,0.23286,0.26555,0.29824,0.34113,0.38402,0.4345,0.48497,0.54167,0.59837,0.65838,0.71838,0.77918,0.83998,0.89774,0.9555,1.0103,1.0652,1.1129,1.1607,1.2017,1.2427,1.2795,1.3163,1.3505,1.3848,1.4154,1.446,1.4679,1.4897,1.4943,1.4989,1.4804,1.462,1.4214,1.3808,1.3272,1.2736,1.2111,1.1486,1.081,1.0134,0.94421,0.87497,0.80782,0.74068,0.6751,0.60953,0.55053,0.49153,0.441,0.39047,0.35033,0.31019,0.28018,0.25017,0.22696,0.20375,0.18558,0.16741,0.1532,0.13899,0.12755,0.1161,0.1104,0.1047,0.098138,0.091578
0.065318,0.065318,0.065318,0.067997,0.070675,0.081108,0.091542,0.095477,0.099413,0.11527,0.13112,0.15127,0.17142,0.19183,0.21224,0.24055,0.26887,0.3056,0.34233,0.38803,0.43373,0.48446,0.53518,0.59021,0.64524,0.70234,0.75945,0.8152,0.87096,0.9238,0.97664,1.0229,1.0692,1.1082,1.1472,1.1822,1.2172,1.2474,1.2776,1.3024,1.3272,1.3418,1.3564,1.3534,1.3505,1.3287,1.3068,1.2667,1.2266,1.1767,1.1268,1.0703,1.0138,0.95295,0.8921,0.83087,0.76965,0.7108,0.65194,0.59458,0.53722,0.48617,0.43511,0.39251,0.34991,0.31595,0.28199,0.25615,0.23031,0.20961,0.18891,0.17266,0.15641,0.14347,0.13053,0.12015,0.10976,0.10845,0.10714,0.095259,0.083379
0.063339,0.062899,0.062458,0.064947,0.067436,0.07712,0.086804,0.090485,0.094166,0.10865,0.12314,0.13975,0.15637,0.17561,0.19485,0.21942,0.24398,0.27637,0.30877,0.34906,0.38934,0.43437,0.47939,0.52842,0.57746,0.6297,0.68194,0.73363,0.78532,0.83452,0.88371,0.92817,0.97263,1.0102,1.0477,1.0803,1.1129,1.1399,1.1669,1.1864,1.2059,1.2141,1.2223,1.2152,1.208,1.1853,1.1625,1.1255,1.0885,1.0435,0.99851,0.94858,0.89865,0.84472,0.79079,0.73744,0.68409,0.63175,0.57942,0.52946,0.4795,0.43541,0.39131,0.35427,0.31723,0.28825,0.25928,0.2362,0.21311,0.19453,0.17594,0.16131,0.14668,0.13485,0.12303,0.11725,0.11148,0.10466,0.097846,0.090175,0.082504
0.061361,0.060479,0.059597,0.061896,0.064196,0.073131,0.082067,0.085492,0.088918,0.10204,0.11516,0.12824,0.14132,0.1594,0.17747,0.19828,0.21909,0.24715,0.27521,0.31008,0.34496,0.38428,0.4236,0.46664,0.50967,0.55705,0.60442,0.65205,0.69968,0.74523,0.79079,0.83342,0.87606,0.91214,0.94822,0.97846,1.0087,1.0324,1.0561,1.0703,1.0845,1.0863,1.0882,1.0769,1.0656,1.0419,1.0182,0.98429,0.9504,0.91032,0.87023,0.82686,0.7835,0.73649,0.68948,0.644,0.59852,0.55271,0.50691,0.46434,0.42178,0.38464,0.34751,0.31602,0.28454,0.26056,0.23658,0.21625,0.19591,0.17944,0.16297,0.14996,0.13695,0.12623,0.11552,0.11435,0.11319,0.10087,0.088554,0.085092,0.08163
0.057104,0.055987,0.05487,0.059212,0.063554,0.069223,0.074892,0.081121,0.087351,0.095641,0.10393,0.11696,0.12999,0.14671,0.16344,0.18159,0.19974,0.2239,0.24806,0.27847,0.30888,0.34368,0.37848,0.41657,0.45465,0.49575,0.53686,0.57882,0.62079,0.66151,0.70223,0.74083,0.77942,0.81225,0.84509,0.87187,0.89865,0.91888,0.9391,0.94967,0.96024,0.95988,0.95951,0.94858,0.93765,0.91669,0.89574,0.86566,0.83557,0.80103,0.76648,0.72874,0.69101,0.6506,0.61018,0.57028,0.53037,0.49043,0.45049,0.41372,0.37695,0.34468,0.31242,0.28581,0.25921,0.23798,0.21676,0.19901,0.18126,0.16656,0.15185,0.14005,0.12824,0.12172,0.11519,0.10907,0.10295,0.095022,0.087096,0.081169,0.075241
0.052848,0.051496,0.050144,0.056529,0.062913,0.065315,0.067716,0.07675,0.085784,0.089246,0.092708,0.10568,0.11865,0.13403,0.14941,0.1649,0.18039,0.20065,0.22091,0.24686,0.2728,0.30309,0.33337,0.3665,0.39962,0.43446,0.4693,0.50559,0.54189,0.57778,0.61368,0.64823,0.68277,0.71236,0.74195,0.76528,0.7886,0.80536,0.82213,0.82905,0.83597,0.83342,0.83087,0.8203,0.80974,0.79152,0.77329,0.74702,0.72075,0.69174,0.66273,0.63063,0.59852,0.5647,0.53088,0.49656,0.46223,0.42815,0.39408,0.36311,0.33213,0.30473,0.27732,0.2556,0.23388,0.21541,0.19693,0.18177,0.16661,0.15368,0.14074,0.13013,0.11953,0.1172,0.11486,0.10379,0.092708,0.089173,0.085638,0.077246,0.068853
0.052046,0.050813,0.049579,0.053642,0.057706,0.062111,0.066517,0.07224,0.077964,0.084133,0.090303,0.098393,0.10648,0.12042,0.13436,0.14952,0.16468,0.18194,0.19919,0.22126,0.24332,0.26952,0.29573,0.32462,0.35352,0.38371,0.41391,0.44506,0.47622,0.50725,0.53828,0.56809,0.5979,0.62374,0.64957,0.66931,0.68904,0.70276,0.71648,0.72182,0.72716,0.72486,0.72257,0.71382,0.70508,0.68968,0.67428,0.65234,0.63041,0.60564,0.58088,0.55333,0.52578,0.49648,0.46718,0.43756,0.40793,0.37899,0.35006,0.32366,0.29726,0.27402,0.25079,0.23193,0.21308,0.19689,0.18071,0.16723,0.15375,0.14232,0.1309,0.12142,0.11195,0.11025,0.10856,0.097974,0.087387,0.084199,0.08101,0.073255,0.0655
0.051244,0.050129,0.049014,0.050756,0.052498,0.058908,0.065318,0.067731,0.070143,0.07902,0.087898,0.091104,0.094311,0.10681,0.11931,0.13414,0.14897,0.16322,0.17747,0.19566,0.21384,0.23596,0.25808,0.28275,0.30742,0.33297,0.35851,0.38453,0.41055,0.43672,0.46288,0.48796,0.51303,0.53511,0.55719,0.57334,0.58948,0.60016,0.61084,0.61459,0.61834,0.6163,0.61426,0.60734,0.60041,0.58784,0.57527,0.55767,0.54007,0.51955,0.49903,0.47604,0.45304,0.42826,0.40348,0.37856,0.35363,0.32983,0.30604,0.28421,0.26238,0.24332,0.22426,0.20826,0.19227,0.17838,0.1645,0.15269,0.14088,0.13097,0.12106,0.11271,0.10437,0.10331,0.10226,0.092161,0.082067,0.079224,0.076382,0.069265,0.062148
0.047903,0.047398,0.046893,0.048457,0.05002,0.05586,0.0617,0.063919,0.066138,0.07423,0.082322,0.085292,0.088262,0.099486,0.11071,0.12002,0.12933,0.14544,0.16155,0.17683,0.19212,0.21065,0.22918,0.25006,0.27094,0.2929,0.31486,0.33751,0.36015,0.38237,0.40458,0.42553,0.44648,0.46494,0.4834,0.49707,0.51073,0.51971,0.5287,0.53196,0.53522,0.53365,0.53209,0.5262,0.52032,0.5098,0.49929,0.4846,0.46992,0.45239,0.43486,0.41545,0.39605,0.37541,0.35476,0.3341,0.31344,0.29321,0.27299,0.25438,0.23578,0.21949,0.2032,0.18926,0.17532,0.16328,0.15123,0.14085,0.13046,0.12445,0.11844,0.10922,0.099996,0.097828,0.09566,0.086553,0.077446,0.074811,0.072177,0.065601,0.059025
0.044561,0.044667,0.044772,0.046157,0.047542,0.052811,0.058081,0.060107,0.062133,0.06944,0.076746,0.07948,0.082213,0.092161,0.10211,0.1059,0.10969,0.12766,0.14562,0.15801,0.1704,0.18534,0.20028,0.21738,0.23447,0.25283,0.2712,0.29048,0.30976,0.32801,0.34627,0.36311,0.37994,0.39477,0.40961,0.42079,0.43198,0.43927,0.44656,0.44933,0.4521,0.451,0.44991,0.44506,0.44022,0.43176,0.42331,0.41154,0.39977,0.38523,0.37069,0.35487,0.33905,0.32255,0.30604,0.28964,0.27324,0.25659,0.23993,0.22455,0.20918,0.19566,0.18214,0.17026,0.15838,0.14817,0.13797,0.129,0.12004,0.11793,0.11581,0.10572,0.095623,0.092343,0.089064,0.080945,0.072825,0.070398,0.067971,0.061936,0.055902
0.043497,0.042981,0.042466,0.043785,0.045104,0.049965,0.054827,0.056682,0.058536,0.065187,0.071838,0.074305,0.076772,0.085724,0.094676,0.098028,0.10138,0.11568,0.12999,0.14092,0.15185,0.16554,0.17922,0.19332,0.20743,0.22268,0.23793,0.25394,0.26996,0.28547,0.30097,0.31519,0.3294,0.3417,0.354,0.36332,0.37265,0.37876,0.38486,0.38736,0.38985,0.38907,0.38829,0.38442,0.38056,0.3736,0.36664,0.35693,0.34722,0.33536,0.32349,0.31059,0.29769,0.28394,0.27018,0.2564,0.24263,0.22871,0.21479,0.20176,0.18873,0.17718,0.16563,0.15528,0.14493,0.13591,0.12689,0.12022,0.11355,0.11078,0.10801,0.098648,0.089282,0.086367,0.083452,0.076039,0.068627,0.066422,0.064218,0.05864,0.053063
0.042433,0.041296,0.040159,0.041412,0.042666,0.047119,0.051572,0.053256,0.05494,0.060934,0.066929,0.06913,0.071331,0.079286,0.087242,0.090157,0.093072,0.10371,0.11435,0.12383,0.1333,0.14573,0.15816,0.16927,0.18039,0.19252,0.20466,0.21741,0.23017,0.24292,0.25568,0.26726,0.27885,0.28862,0.29839,0.30586,0.31333,0.31825,0.32317,0.32539,0.32761,0.32714,0.32666,0.32379,0.32091,0.31544,0.30997,0.30232,0.29467,0.28548,0.2763,0.26632,0.25633,0.24533,0.23432,0.22317,0.21202,0.20083,0.18964,0.17897,0.16829,0.1587,0.14912,0.1403,0.13148,0.12365,0.11581,0.11144,0.10707,0.10364,0.10021,0.091578,0.082942,0.080391,0.07784,0.071134,0.064429,0.062447,0.060464,0.055344,0.050224
0.039583,0.03896,0.038337,0.039472,0.040607,0.044723,0.048839,0.050375,0.051911,0.057379,0.062848,0.064839,0.066831,0.073975,0.081119,0.08378,0.08644,0.095878,0.10532,0.11155,0.11778,0.12913,0.14048,0.15116,0.16184,0.17184,0.18184,0.1923,0.20276,0.21331,0.22386,0.23343,0.24299,0.25103,0.25906,0.26524,0.27142,0.27565,0.27987,0.28184,0.28381,0.28361,0.28341,0.28113,0.27885,0.2745,0.27014,0.26391,0.25768,0.25015,0.24263,0.23439,0.22616,0.21705,0.20794,0.19859,0.18924,0.1798,0.17037,0.1614,0.15244,0.14415,0.13585,0.12824,0.12062,0.11629,0.11195,0.10546,0.098976,0.095915,0.092854,0.085103,0.077351,0.075025,0.072698,0.066594,0.06049,0.058666,0.056842,0.052115,0.047389
0.036733,0.036624,0.036515,0.037531,0.038548,0.042327,0.046106,0.047495,0.048883,0.053825,0.058766,0.060548,0.06233,0.068664,0.074997,0.077402,0.079808,0.088043,0.096279,0.099267,0.10226,0.11253,0.12281,0.13305,0.14329,0.15116,0.15903,0.16719,0.17536,0.1837,0.19205,0.19959,0.20714,0.21344,0.21974,0.22463,0.22951,0.23305,0.23658,0.23829,0.24001,0.24008,0.24015,0.23848,0.2368,0.23356,0.23031,0.2255,0.22069,0.21482,0.20896,0.20247,0.19598,0.18877,0.18155,0.17401,0.16647,0.15878,0.15109,0.14384,0.13658,0.12959,0.12259,0.11618,0.10976,0.10892,0.10809,0.099486,0.090886,0.088189,0.085492,0.078627,0.071761,0.069658,0.067556,0.062053,0.05655,0.054885,0.05322,0.048887,0.044554
0.03576,0.035214,0.034667,0.035633,0.036598,0.040097,0.043595,0.044876,0.046157,0.05064,0.055122,0.056754,0.058387,0.064096,0.069804,0.071967,0.07413,0.081487,0.088845,0.091487,0.094129,0.10298,0.11184,0.11827,0.1247,0.13276,0.14081,0.14874,0.15666,0.16359,0.17051,0.17678,0.18305,0.18831,0.19358,0.1977,0.20181,0.2048,0.20779,0.2093,0.21082,0.211,0.21118,0.2099,0.20863,0.20602,0.20342,0.19952,0.19562,0.19074,0.18585,0.18039,0.17492,0.16882,0.16271,0.15634,0.14996,0.14342,0.13688,0.13066,0.12445,0.1206,0.11676,0.10973,0.10269,0.10105,0.099413,0.09187,0.084326,0.081903,0.07948,0.07331,0.06714,0.065216,0.063292,0.058278,0.053263,0.051738,0.050213,0.046221,0.042229
0.034787,0.033803,0.032819,0.033734,0.034649,0.037867,0.041084,0.042258,0.043431,0.047454,0.051478,0.052961,0.054444,0.059528,0.064611,0.066532,0.068452,0.074932,0.081411,0.083707,0.086003,0.093437,0.10087,0.10349,0.10612,0.11435,0.12259,0.13028,0.13797,0.14347,0.14897,0.15397,0.15896,0.16319,0.16741,0.17077,0.17412,0.17656,0.179,0.18031,0.18163,0.18192,0.18221,0.18133,0.18046,0.17849,0.17652,0.17354,0.17055,0.16665,0.16275,0.1583,0.15386,0.14886,0.14387,0.13866,0.13345,0.12806,0.12266,0.11749,0.11231,0.11162,0.11093,0.10328,0.095623,0.093182,0.09074,0.084253,0.077767,0.075617,0.073467,0.067993,0.06252,0.060774,0.059028,0.054502,0.049976,0.048591,0.047207,0.043555,0.039904
0.0331,0.031143,0.029186,0.031067,0.032947,0.035826,0.038705,0.040456,0.042207,0.045314,0.04842,0.049761,0.051102,0.055712,0.060322,0.062031,0.06374,0.069494,0.075249,0.077266,0.079283,0.085868,0.092453,0.094749,0.097044,0.10415,0.11126,0.11614,0.12102,0.12678,0.13254,0.13751,0.14249,0.14606,0.14963,0.15249,0.15535,0.15745,0.15954,0.16069,0.16184,0.16209,0.16235,0.16171,0.16107,0.15945,0.15783,0.15531,0.1528,0.14952,0.14624,0.1424,0.13855,0.13427,0.12999,0.12616,0.12234,0.11867,0.11501,0.10951,0.104,0.10269,0.10138,0.094712,0.088043,0.085893,0.083743,0.077925,0.072107,0.070214,0.068321,0.06337,0.05842,0.05686,0.0553,0.051181,0.047061,0.045798,0.044536,0.041187,0.037838
0.031413,0.028483,0.025553,0.028399,0.031245,0.033785,0.036325,0.038654,0.040982,0.043173,0.045363,0.046562,0.047761,0.051897,0.056033,0.057531,0.059028,0.064057,0.069086,0.070825,0.072563,0.078299,0.084035,0.086003,0.08797,0.093947,0.099923,0.102,0.10408,0.11009,0.1161,0.12106,0.12602,0.12893,0.13185,0.13422,0.13658,0.13833,0.14008,0.14107,0.14205,0.14227,0.14249,0.14209,0.14169,0.14041,0.13913,0.13709,0.13505,0.13239,0.12973,0.12649,0.12325,0.11967,0.1161,0.11366,0.11122,0.10929,0.10736,0.10153,0.095696,0.093765,0.091833,0.086148,0.080463,0.078605,0.076746,0.071597,0.066448,0.064812,0.063175,0.058748,0.05432,0.052946,0.051572,0.047859,0.044146,0.043005,0.041864,0.038818,0.035771
0.027707,0.026925,0.026143,0.027944,0.029744,0.032082,0.034419,0.036083,0.037746,0.040219,0.042692,0.043787,0.044882,0.048626,0.05237,0.053719,0.055067,0.059542,0.064017,0.065568,0.067118,0.072193,0.077268,0.079011,0.080755,0.086057,0.09136,0.093163,0.094967,0.10014,0.10532,0.10851,0.11169,0.11496,0.11822,0.11991,0.12161,0.12365,0.12569,0.12645,0.12722,0.12771,0.1282,0.12804,0.12787,0.12682,0.12576,0.1245,0.12325,0.12064,0.11803,0.1159,0.11377,0.11011,0.10645,0.10455,0.10266,0.099541,0.096425,0.092835,0.089246,0.086094,0.082942,0.079356,0.07577,0.072712,0.069655,0.066401,0.063146,0.060417,0.057687,0.054869,0.05205,0.049712,0.047374,0.044993,0.042611,0.040625,0.038639,0.03667,0.0347
0.024001,0.025367,0.026734,0.027488,0.028242,0.030378,0.032513,0.033512,0.03451,0.037265,0.04002,0.041012,0.042003,0.045355,0.048708,0.049907,0.051106,0.055027,0.058948,0.060311,0.061674,0.066087,0.0705,0.07202,0.07354,0.078168,0.082796,0.084326,0.085857,0.090193,0.09453,0.095951,0.097372,0.10098,0.10459,0.10561,0.10663,0.10896,0.11129,0.11184,0.11239,0.11315,0.11392,0.11399,0.11406,0.11322,0.11239,0.11191,0.11144,0.10889,0.10634,0.10532,0.1043,0.10054,0.096789,0.095441,0.094093,0.089793,0.085492,0.084144,0.082796,0.078423,0.07405,0.072563,0.071076,0.06682,0.062563,0.061204,0.059845,0.056022,0.052199,0.050989,0.049779,0.046478,0.043176,0.042127,0.041077,0.038246,0.035414,0.034521,0.033628
