0.018948,0.02086,0.022772,0.023503,0.024235,0.026589,0.028943,0.029819,0.030695,0.033416,0.036138,0.037095,0.038052,0.039264,0.040477,0.042431,0.044385,0.046392,0.0484,0.050381,0.052361,0.054288,0.056215,0.058034,0.059853,0.061457,0.06306,0.064434,0.065809,0.066994,0.06818,0.06911,0.07004,0.070619,0.071198,0.07136,0.071522,0.071279,0.071037,0.07039,0.069743,0.068692,0.067641,0.066294,0.064946,0.063356,0.061766,0.05992,0.058074,0.056121,0.054167,0.052186,0.050205,0.048238,0.046271,0.042795,0.039318,0.038429,0.03754,0.034979,0.032419,0.031665,0.03091,0.028682,0.026453,0.025791,0.02513,0.023299,0.021467,0.020922,0.020376,0.018855,0.017333,0.016887,0.016441,0.015199,0.013957,0.013605,0.013253,0.013565,0.013876
0.020891,0.022248,0.023604,0.025292,0.02698,0.028662,0.030344,0.032419,0.034494,0.036003,0.037513,0.039183,0.040854,0.042687,0.044519,0.046776,0.049033,0.051358,0.053682,0.055979,0.058277,0.06052,0.062764,0.064892,0.067021,0.068928,0.070835,0.072499,0.074163,0.075578,0.076992,0.078118,0.079243,0.07993,0.080617,0.080853,0.081089,0.080826,0.080563,0.079788,0.079014,0.07774,0.076467,0.074857,0.073247,0.071333,0.06942,0.067237,0.065054,0.06275,0.060446,0.058135,0.055824,0.053547,0.05127,0.048279,0.045287,0.043643,0.042,0.03919,0.036381,0.034481,0.032581,0.031029,0.029476,0.027879,0.026282,0.025,0.023719,0.022426,0.021133,0.020077,0.01902,0.017971,0.016921,0.016063,0.015206,0.014379,0.013553,0.013906,0.014259
0.022834,0.023635,0.024437,0.027081,0.029724,0.030735,0.031746,0.03502,0.038294,0.038591,0.038887,0.041272,0.043657,0.046109,0.048562,0.051122,0.053682,0.056323,0.058964,0.061578,0.064192,0.066752,0.069312,0.071751,0.07419,0.0764,0.078609,0.080563,0.082517,0.084161,0.085805,0.087125,0.088446,0.089241,0.090036,0.090346,0.090655,0.090372,0.09009,0.089187,0.088284,0.086788,0.085293,0.08342,0.081547,0.07931,0.077073,0.074554,0.072034,0.069379,0.066725,0.064084,0.061443,0.058856,0.056269,0.053763,0.051256,0.048858,0.04646,0.043401,0.040342,0.037297,0.034252,0.033376,0.0325,0.029967,0.027434,0.026702,0.02597,0.02393,0.02189,0.021299,0.020707,0.019054,0.017401,0.016928,0.016455,0.015153,0.013852,0.014246,0.014641
0.024352,0.025238,0.026124,0.02911,0.032096,0.033241,0.034387,0.036873,0.039359,0.040942,0.042525,0.045233,0.047942,0.050792,0.053641,0.056619,0.059597,0.062649,0.065701,0.06876,0.071818,0.07483,0.077841,0.080752,0.083662,0.08631,0.088958,0.091316,0.093674,0.095681,0.097689,0.099306,0.10092,0.10199,0.10307,0.10354,0.10402,0.10374,0.10346,0.1023,0.10114,0.099319,0.0975,0.09521,0.092919,0.090191,0.087462,0.084403,0.081345,0.078171,0.074998,0.071879,0.06876,0.065714,0.062669,0.059732,0.056794,0.054025,0.051256,0.048245,0.045233,0.041865,0.038496,0.03628,0.034063,0.032285,0.030506,0.028759,0.027012,0.02559,0.024168,0.02276,0.021351,0.020205,0.019059,0.017975,0.01689,0.016008,0.015126,0.015336,0.015545
0.025871,0.026841,0.027811,0.031139,0.034467,0.035747,0.037028,0.038725,0.040423,0.043293,0.046163,0.049195,0.052227,0.055474,0.058721,0.062117,0.065512,0.068975,0.072438,0.075941,0.079445,0.082908,0.086371,0.089753,0.093135,0.09622,0.099306,0.10207,0.10483,0.1072,0.10957,0.11149,0.1134,0.11475,0.1161,0.11674,0.11739,0.11711,0.11682,0.11541,0.11399,0.11185,0.10971,0.107,0.10429,0.10107,0.097851,0.094253,0.090655,0.086963,0.083272,0.079674,0.076076,0.072573,0.06907,0.065701,0.062332,0.059193,0.056053,0.053089,0.050125,0.046433,0.042741,0.039183,0.035626,0.034602,0.033578,0.030816,0.028054,0.027249,0.026445,0.02422,0.021996,0.021357,0.020718,0.019022,0.017325,0.016863,0.016401,0.016425,0.016449
0.026504,0.028714,0.030924,0.033302,0.03568,0.037263,0.038847,0.041386,0.043926,0.047248,0.050569,0.054086,0.057603,0.061369,0.065135,0.06909,0.073044,0.0771,0.081156,0.085185,0.089214,0.09333,0.097447,0.1015,0.10554,0.10932,0.1131,0.11649,0.11988,0.12279,0.1257,0.12804,0.13038,0.13199,0.13361,0.13437,0.13512,0.1348,0.13449,0.13289,0.13129,0.12871,0.12613,0.12282,0.1195,0.11566,0.11181,0.10749,0.10317,0.098774,0.094374,0.09009,0.085805,0.081655,0.077504,0.073536,0.069568,0.065849,0.06213,0.058667,0.055204,0.051546,0.047888,0.044169,0.04045,0.038361,0.036273,0.033174,0.030075,0.029181,0.028287,0.025831,0.023375,0.022676,0.021977,0.020106,0.018235,0.01772,0.017205,0.017449,0.017692
0.027137,0.030587,0.034036,0.035464,0.036893,0.038779,0.040666,0.044048,0.04743,0.051203,0.054975,0.058977,0.062979,0.067264,0.071549,0.076063,0.080577,0.085225,0.089874,0.094428,0.098983,0.10375,0.10852,0.11324,0.11795,0.12243,0.1269,0.13092,0.13493,0.13838,0.14183,0.14459,0.14736,0.14924,0.15113,0.15199,0.15285,0.1525,0.15215,0.15037,0.1486,0.14558,0.14256,0.13864,0.13472,0.13024,0.12577,0.12073,0.11569,0.11058,0.10548,0.10051,0.095533,0.090736,0.085939,0.081372,0.076804,0.072505,0.068207,0.064246,0.060284,0.05666,0.053035,0.049154,0.045274,0.042121,0.038968,0.035532,0.032096,0.031112,0.030129,0.027442,0.024755,0.023995,0.023235,0.02119,0.019144,0.018577,0.01801,0.018472,0.018934
0.028727,0.032547,0.036367,0.037297,0.038227,0.040996,0.043765,0.047625,0.051486,0.055844,0.060203,0.064913,0.069622,0.074715,0.079809,0.084996,0.090184,0.095702,0.10122,0.10678,0.11235,0.11813,0.12391,0.12964,0.13536,0.14081,0.14626,0.15125,0.15624,0.16051,0.16479,0.16826,0.17173,0.17416,0.17658,0.17771,0.17883,0.17841,0.17798,0.17581,0.17363,0.16989,0.16615,0.1613,0.15645,0.15091,0.14536,0.13926,0.13317,0.12699,0.12081,0.1148,0.10879,0.10302,0.097258,0.091774,0.08629,0.081176,0.076063,0.071387,0.066712,0.062474,0.058236,0.05418,0.050125,0.046352,0.042579,0.03915,0.035721,0.033376,0.031031,0.029169,0.027307,0.025535,0.023763,0.022351,0.020938,0.019611,0.018283,0.018768,0.019252
0.030317,0.034508,0.038698,0.03913,0.039561,0.043212,0.046864,0.051203,0.055541,0.060486,0.065431,0.070848,0.076265,0.082167,0.088068,0.09393,0.099791,0.10618,0.11256,0.11914,0.12572,0.13251,0.1393,0.14604,0.15277,0.1592,0.16563,0.17158,0.17754,0.18264,0.18775,0.19193,0.19611,0.19907,0.20203,0.20342,0.20481,0.20431,0.20381,0.20124,0.19867,0.19421,0.18975,0.18397,0.17818,0.17157,0.16495,0.1578,0.15064,0.14339,0.13614,0.1291,0.12205,0.11531,0.10858,0.10218,0.095776,0.089847,0.083918,0.078529,0.073139,0.068288,0.063437,0.059206,0.054975,0.050583,0.04619,0.042768,0.039345,0.03564,0.031934,0.030897,0.029859,0.027075,0.024292,0.023511,0.022731,0.020644,0.018557,0.019064,0.01957
0.033484,0.035788,0.038092,0.0401,0.042107,0.04617,0.050232,0.055137,0.060042,0.065789,0.071535,0.077504,0.083474,0.090783,0.098093,0.10534,0.11258,0.12027,0.12797,0.13596,0.14395,0.1522,0.16045,0.1688,0.17715,0.18513,0.19311,0.20055,0.20799,0.21454,0.22109,0.2266,0.23211,0.23623,0.24034,0.24245,0.24456,0.24438,0.2442,0.24109,0.23798,0.23227,0.22656,0.21907,0.21157,0.20309,0.19461,0.18553,0.17645,0.16732,0.1582,0.1494,0.1406,0.13228,0.12395,0.11622,0.1085,0.10134,0.094186,0.087758,0.081331,0.075625,0.069918,0.064994,0.060069,0.055487,0.050906,0.046837,0.042768,0.039103,0.035438,0.032992,0.030546,0.028622,0.026698,0.024907,0.023117,0.021694,0.020272,0.020651,0.021031
0.03665,0.037068,0.037486,0.04107,0.044654,0.049127,0.053601,0.059072,0.064542,0.071091,0.077639,0.084161,0.090682,0.0994,0.10812,0.11674,0.12537,0.13437,0.14337,0.15277,0.16218,0.17189,0.18161,0.19156,0.20152,0.21106,0.2206,0.22952,0.23844,0.24643,0.25442,0.26127,0.26811,0.27338,0.27865,0.28148,0.28431,0.28444,0.28458,0.28094,0.2773,0.27034,0.26337,0.25417,0.24496,0.23462,0.22427,0.21326,0.20225,0.19125,0.18026,0.16971,0.15916,0.14924,0.13932,0.13027,0.12122,0.11283,0.10445,0.096988,0.089524,0.082962,0.0764,0.070781,0.065162,0.060392,0.055622,0.050906,0.04619,0.042565,0.038941,0.035087,0.031234,0.030169,0.029105,0.026303,0.023502,0.022745,0.021987,0.022239,0.022491
0.038213,0.038907,0.039601,0.043495,0.047389,0.052294,0.057199,0.063309,0.06942,0.07648,0.083541,0.092104,0.10067,0.1107,0.12073,0.13109,0.14145,0.15248,0.1635,0.17518,0.18686,0.199,0.21113,0.22359,0.23604,0.24816,0.26027,0.27187,0.28347,0.29434,0.30521,0.31496,0.32472,0.33281,0.3409,0.34622,0.35155,0.35316,0.35478,0.3506,0.34643,0.33695,0.32747,0.31458,0.30169,0.28729,0.27288,0.25788,0.24288,0.22821,0.21354,0.19984,0.18613,0.17358,0.16103,0.14975,0.13848,0.12423,0.10998,0.10497,0.099966,0.092158,0.084349,0.077794,0.071239,0.065755,0.060271,0.055427,0.050583,0.046082,0.041582,0.037331,0.03308,0.031941,0.030802,0.027798,0.024794,0.024,0.023206,0.023199,0.023192
0.039776,0.040746,0.041717,0.045921,0.050125,0.05546,0.060796,0.067547,0.074298,0.08187,0.089443,0.10005,0.11065,0.122,0.13334,0.14544,0.15754,0.17059,0.18363,0.19759,0.21155,0.2261,0.24065,0.25561,0.27057,0.28525,0.29994,0.31422,0.3285,0.34225,0.35599,0.36866,0.38132,0.39224,0.40315,0.41097,0.41878,0.42188,0.42498,0.42027,0.41555,0.40356,0.39156,0.37499,0.35842,0.33996,0.3215,0.3025,0.2835,0.26516,0.24682,0.22997,0.21311,0.19792,0.18274,0.16924,0.15574,0.13562,0.1155,0.11296,0.11041,0.10135,0.092299,0.084808,0.077316,0.071118,0.064919,0.059947,0.054975,0.049599,0.044223,0.039574,0.034926,0.033713,0.0325,0.029293,0.026086,0.025255,0.024424,0.024158,0.023893
0.0389,0.041326,0.043751,0.048333,0.052914,0.058728,0.064542,0.072,0.079458,0.088365,0.097271,0.10919,0.12111,0.13454,0.14798,0.1627,0.17742,0.19348,0.20954,0.22698,0.24442,0.26288,0.28134,0.30055,0.31975,0.33915,0.35855,0.37856,0.39857,0.41865,0.43872,0.45873,0.47874,0.49673,0.51472,0.52725,0.53978,0.5447,0.54962,0.54403,0.53844,0.52267,0.50691,0.48454,0.46217,0.4365,0.41083,0.38388,0.35694,0.33045,0.30397,0.28011,0.25626,0.23557,0.21488,0.19737,0.17986,0.16067,0.14149,0.1278,0.1141,0.10806,0.10203,0.093276,0.084525,0.077457,0.07039,0.064758,0.059125,0.053918,0.04871,0.04367,0.038631,0.035741,0.03285,0.030661,0.028471,0.02646,0.024448,0.024618,0.024789
0.038025,0.041905,0.045786,0.050744,0.055703,0.061996,0.068288,0.076453,0.084619,0.094859,0.1051,0.11833,0.13156,0.14709,0.16261,0.17995,0.19729,0.21637,0.23545,0.25638,0.2773,0.29967,0.32204,0.34548,0.36893,0.39305,0.41717,0.4429,0.46864,0.49505,0.52146,0.54881,0.57616,0.60123,0.62629,0.64354,0.66078,0.66752,0.67426,0.66779,0.66132,0.64178,0.62225,0.59408,0.56592,0.53305,0.50017,0.46527,0.43037,0.39574,0.36111,0.33026,0.2994,0.27321,0.24701,0.22549,0.20397,0.18573,0.16749,0.14264,0.11779,0.11477,0.11176,0.10174,0.091733,0.083797,0.075861,0.069568,0.063276,0.058236,0.053197,0.047767,0.042336,0.037769,0.033201,0.032029,0.030856,0.027664,0.024472,0.025078,0.025685
0.039695,0.043825,0.047955,0.053217,0.058479,0.06531,0.072142,0.080853,0.089564,0.10109,0.11262,0.12751,0.14241,0.16065,0.1789,0.19969,0.22048,0.24382,0.26716,0.29325,0.31934,0.34777,0.3762,0.40706,0.43792,0.47133,0.50475,0.54302,0.58128,0.62238,0.66348,0.7035,0.74351,0.77498,0.80644,0.82375,0.84107,0.84471,0.84835,0.83979,0.83123,0.80961,0.78798,0.75645,0.72492,0.68692,0.64892,0.60432,0.55972,0.51169,0.46365,0.41905,0.37445,0.33683,0.29921,0.26945,0.2397,0.21584,0.19198,0.16807,0.14415,0.12875,0.11336,0.10684,0.10032,0.091215,0.082113,0.074998,0.067884,0.062285,0.056687,0.051519,0.046352,0.040639,0.034926,0.033659,0.032392,0.028974,0.025555,0.026165,0.026775
0.041366,0.045745,0.050125,0.05569,0.061254,0.068625,0.075995,0.085252,0.094509,0.10732,0.12014,0.1367,0.15326,0.17422,0.19519,0.21943,0.24367,0.27127,0.29886,0.33012,0.36138,0.39588,0.43037,0.46864,0.50691,0.54962,0.59233,0.64313,0.69393,0.74971,0.8055,0.85818,0.91087,0.94873,0.98659,1.004,1.0214,1.0219,1.0224,1.0118,1.0011,0.97743,0.95371,0.91882,0.88392,0.8408,0.79768,0.74338,0.68908,0.62764,0.56619,0.50785,0.4495,0.40046,0.35141,0.31341,0.27542,0.24595,0.21648,0.19349,0.1705,0.14273,0.11496,0.11193,0.1089,0.098632,0.088365,0.080428,0.072492,0.066334,0.060176,0.055272,0.050367,0.043509,0.03665,0.035289,0.033928,0.030284,0.026639,0.027252,0.027865
0.04301,0.047659,0.052307,0.058283,0.064259,0.072101,0.079943,0.089914,0.099885,0.11383,0.12778,0.1463,0.16482,0.18872,0.21261,0.24133,0.27005,0.30339,0.33672,0.37566,0.41461,0.45914,0.50367,0.55575,0.60783,0.66968,0.73152,0.80556,0.87961,0.95479,1.03,1.0914,1.1529,1.1883,1.2237,1.2351,1.2464,1.2444,1.2425,1.2287,1.215,1.1876,1.1603,1.1221,1.084,1.037,0.98996,0.92879,0.86761,0.79425,0.72088,0.6465,0.57212,0.50522,0.43832,0.38503,0.33174,0.29167,0.25161,0.22225,0.1929,0.16644,0.13997,0.12434,0.10871,0.10208,0.095452,0.086559,0.077666,0.070841,0.064017,0.058607,0.053197,0.046763,0.040329,0.037162,0.033996,0.03154,0.029084,0.029351,0.029617
0.044654,0.049572,0.05449,0.060877,0.067264,0.075578,0.083891,0.094576,0.10526,0.12034,0.13542,0.1559,0.17638,0.20321,0.23003,0.26323,0.29644,0.33551,0.37459,0.42121,0.46783,0.5224,0.57697,0.64286,0.70875,0.78973,0.87071,0.968,1.0653,1.1599,1.2545,1.3247,1.3949,1.4279,1.4609,1.4661,1.4714,1.467,1.4625,1.4457,1.4288,1.3978,1.3668,1.3255,1.2841,1.2332,1.1822,1.1142,1.0461,0.96086,0.87556,0.78515,0.69474,0.60998,0.52523,0.45665,0.38806,0.3374,0.28673,0.25101,0.21529,0.19014,0.16498,0.13675,0.10852,0.10553,0.10254,0.09269,0.08284,0.075349,0.067857,0.061942,0.056026,0.050017,0.044007,0.039035,0.034063,0.032797,0.03153,0.031449,0.031368
0.046325,0.051506,0.056687,0.06341,0.070134,0.078845,0.087556,0.099151,0.11075,0.127,0.14326,0.16558,0.1879,0.2182,0.24851,0.28689,0.32527,0.37216,0.41905,0.47679,0.53453,0.60702,0.67951,0.77289,0.86627,0.97972,1.0932,1.2167,1.3403,1.4453,1.5504,1.617,1.6836,1.7063,1.7289,1.7271,1.7254,1.7153,1.7052,1.6838,1.6623,1.6281,1.5939,1.5473,1.5008,1.442,1.3833,1.3077,1.2321,1.138,1.044,0.94125,0.83851,0.7386,0.63868,0.554,0.46931,0.40403,0.33875,0.29232,0.24589,0.2144,0.1829,0.15659,0.13027,0.12038,0.11049,0.099542,0.088594,0.080348,0.072101,0.065661,0.05922,0.05352,0.04782,0.041676,0.035532,0.034178,0.032824,0.032709,0.032594
0.047996,0.053439,0.058883,0.065943,0.073004,0.082113,0.091221,0.10373,0.11623,0.13367,0.1511,0.17526,0.19942,0.2332,0.26698,0.31054,0.35411,0.40881,0.46352,0.53237,0.60123,0.69164,0.78205,0.90292,1.0238,1.1697,1.3156,1.4655,1.6153,1.7308,1.8463,1.9093,1.9724,1.9846,1.9969,1.9881,1.9794,1.9636,1.9479,1.9218,1.8958,1.8584,1.8209,1.7692,1.7174,1.6509,1.5843,1.5012,1.418,1.3152,1.2124,1.0974,0.98228,0.86721,0.75214,0.65135,0.55056,0.47066,0.39076,0.33363,0.27649,0.23866,0.20082,0.17642,0.15202,0.13523,0.11844,0.10639,0.094347,0.085347,0.076346,0.069379,0.062413,0.057023,0.051634,0.044317,0.037001,0.035559,0.034117,0.033969,0.033821
0.049545,0.055218,0.060891,0.068288,0.075685,0.085306,0.094927,0.10817,0.1214,0.13998,0.15855,0.18473,0.2109,0.24799,0.28508,0.33495,0.38483,0.45018,0.51553,0.60298,0.69043,0.81298,0.93552,1.0993,1.2631,1.4482,1.6334,1.8022,1.971,2.0805,2.19,2.2431,2.2962,2.2988,2.3014,2.2826,2.2638,2.2423,2.2208,2.1915,2.1622,2.1199,2.0775,2.0143,1.9512,1.8682,1.7851,1.6841,1.5831,1.4718,1.3605,1.2386,1.1168,0.99225,0.86775,0.75456,0.64138,0.54908,0.45678,0.38759,0.3184,0.27154,0.22468,0.19522,0.16575,0.14081,0.11588,0.10821,0.10053,0.090655,0.080779,0.073226,0.065674,0.05988,0.054086,0.047288,0.04049,0.037189,0.033888,0.034144,0.0344
0.051095,0.056997,0.062898,0.070633,0.078367,0.0885,0.098632,0.11261,0.12658,0.14629,0.166,0.19419,0.22238,0.26278,0.30317,0.35936,0.41555,0.49154,0.56754,0.67358,0.77963,0.93431,1.089,1.2957,1.5024,1.7267,1.9511,2.1389,2.3268,2.4302,2.5337,2.5768,2.62,2.6129,2.6059,2.5771,2.5483,2.5211,2.4938,2.4612,2.4286,2.3813,2.334,2.2595,2.185,2.0854,1.9859,1.867,1.7482,1.6284,1.5086,1.3799,1.2512,1.1173,0.98336,0.85778,0.7322,0.6275,0.5228,0.44155,0.3603,0.30443,0.24855,0.21401,0.17948,0.1464,0.11332,0.11002,0.10672,0.095964,0.085212,0.077073,0.068935,0.062737,0.056538,0.050259,0.04398,0.03882,0.033659,0.034319,0.034979
0.052429,0.058593,0.064758,0.072829,0.0809,0.091457,0.10201,0.11667,0.13132,0.15215,0.17298,0.20327,0.23356,0.27746,0.32136,0.38436,0.44735,0.5385,0.62966,0.76514,0.90063,1.0974,1.2941,1.5467,1.7992,2.053,2.3067,2.5078,2.7089,2.8118,2.9148,2.9451,2.9754,2.9524,2.9293,2.8913,2.8533,2.8283,2.8032,2.7687,2.7342,2.6755,2.6169,2.5291,2.4413,2.3235,2.2056,2.0661,1.9266,1.7839,1.6413,1.4988,1.3563,1.2164,1.0765,0.94455,0.81264,0.7006,0.58856,0.49882,0.40908,0.34368,0.27829,0.23722,0.19616,0.1655,0.13484,0.12417,0.11351,0.10181,0.090103,0.081331,0.072559,0.065917,0.059274,0.053379,0.047484,0.041171,0.034858,0.035512,0.036165
0.053763,0.06019,0.066617,0.075025,0.083433,0.094415,0.1054,0.12073,0.13606,0.15801,0.17996,0.21236,0.24475,0.29215,0.33955,0.40935,0.47915,0.58546,0.69177,0.8567,1.0216,1.2604,1.4992,1.7976,2.0961,2.3792,2.6623,2.8766,3.091,3.1934,3.2958,3.3133,3.3309,3.2918,3.2527,3.2055,3.1584,3.1355,3.1126,3.0762,3.0398,2.9697,2.8997,2.7986,2.6976,2.5615,2.4254,2.2652,2.105,1.9395,1.774,1.6177,1.4614,1.3155,1.1696,1.0313,0.89308,0.7737,0.65431,0.55609,0.45786,0.38294,0.30802,0.26043,0.21284,0.1846,0.15636,0.13833,0.1203,0.10765,0.094994,0.085589,0.076184,0.069096,0.062009,0.056498,0.050987,0.043522,0.036057,0.036704,0.037351
0.054975,0.061578,0.06818,0.076453,0.084727,0.096591,0.10846,0.12447,0.14048,0.16368,0.18688,0.22098,0.25508,0.30635,0.35761,0.4363,0.51499,0.64205,0.76912,0.962,1.1549,1.4256,1.6963,2.0236,2.351,2.659,2.9669,3.1806,3.3942,3.4966,3.599,3.6125,3.6259,3.5795,3.533,3.4872,3.4414,3.4292,3.4171,3.3854,3.3538,3.2857,3.2177,3.1153,3.0129,2.8572,2.7016,2.5033,2.3051,2.1062,1.9074,1.7277,1.5479,1.3882,1.2285,1.0863,0.94415,0.82463,0.70511,0.60473,0.50435,0.42289,0.34144,0.28673,0.23203,0.19963,0.16723,0.14151,0.1158,0.10782,0.099831,0.08978,0.079728,0.072202,0.064677,0.058829,0.052981,0.045105,0.03723,0.037661,0.038092
0.056188,0.062966,0.069743,0.077882,0.08602,0.098767,0.11151,0.12821,0.1449,0.16935,0.19379,0.2296,0.26542,0.32054,0.37566,0.46325,0.55083,0.69865,0.84646,1.0673,1.2881,1.5908,1.8934,2.2497,2.6059,2.9388,3.2716,3.4845,3.6974,3.7998,3.9022,3.9116,3.921,3.8671,3.8132,3.7688,3.7243,3.723,3.7216,3.6947,3.6677,3.6017,3.5357,3.4319,3.3282,3.153,2.9778,2.7415,2.5052,2.273,2.0408,1.8376,1.6344,1.4609,1.2873,1.1413,0.99522,0.87556,0.75591,0.65337,0.55083,0.46284,0.37486,0.31304,0.25122,0.21466,0.1781,0.1447,0.1113,0.10798,0.10467,0.09397,0.083272,0.075308,0.067345,0.06116,0.054975,0.046689,0.038402,0.038617,0.038833
0.057023,0.064077,0.071131,0.079842,0.088553,0.10143,0.11432,0.13162,0.14892,0.17431,0.1997,0.23749,0.27527,0.33443,0.39359,0.49154,0.5895,0.75322,0.91693,1.1557,1.3945,1.7096,2.0248,2.3922,2.7595,3.0991,3.4387,3.6515,3.8644,3.9743,4.0841,4.1056,4.1272,4.0821,4.0369,4.0079,3.979,3.9972,4.0154,4.0005,3.9857,3.9332,3.8806,3.7782,3.6758,3.4791,3.2824,3.0072,2.7321,2.4676,2.2032,1.9736,1.744,1.5518,1.3597,1.1973,1.0348,0.91087,0.7869,0.68618,0.58546,0.49579,0.40612,0.33862,0.27113,0.23023,0.18933,0.15964,0.12995,0.1197,0.10945,0.098046,0.08664,0.078286,0.069932,0.063437,0.056943,0.050104,0.043266,0.041589,0.039911
0.057859,0.065189,0.072519,0.081803,0.091087,0.1041,0.11712,0.13503,0.15293,0.17928,0.20562,0.24537,0.28512,0.34831,0.41151,0.51984,0.62817,0.80779,0.9874,1.2441,1.5008,1.8285,2.1562,2.5347,2.9132,3.2594,3.6057,3.8186,4.0315,4.1488,4.266,4.2997,4.3334,4.297,4.2606,4.2471,4.2336,4.2714,4.3091,4.3064,4.3037,4.2646,4.2256,4.1245,4.0234,3.8052,3.5869,3.2729,2.959,2.6623,2.3656,2.1095,1.8535,1.6428,1.4321,1.2532,1.0744,0.94617,0.81789,0.71899,0.62009,0.52873,0.43738,0.36421,0.29105,0.2458,0.20055,0.17457,0.1486,0.13142,0.11424,0.10212,0.090009,0.081264,0.072519,0.065714,0.05891,0.05352,0.04813,0.04456,0.040989
0.058586,0.066078,0.07357,0.083123,0.092677,0.10606,0.11945,0.13796,0.15648,0.1839,0.21133,0.2526,0.29388,0.36098,0.42808,0.54484,0.66159,0.84949,1.0374,1.2943,1.5513,1.8744,2.1974,2.5714,2.9455,3.2931,3.6408,3.8624,4.0841,4.2121,4.3401,4.3953,4.4506,4.4492,4.4479,4.4715,4.495,4.5631,4.6311,4.6419,4.6527,4.6109,4.5692,4.4513,4.3334,4.0955,3.8577,3.5262,3.1948,2.8665,2.5383,2.2606,1.9829,1.7511,1.5194,1.3234,1.1274,0.98747,0.84754,0.74634,0.64515,0.55366,0.46217,0.38584,0.30951,0.26049,0.21147,0.18319,0.15491,0.13673,0.11855,0.10587,0.093202,0.084053,0.074904,0.067803,0.060702,0.055049,0.049397,0.045698,0.042
0.075672,0.083837,0.092003,0.10235,0.1127,0.12835,0.144,0.16381,0.18363,0.21454,0.24545,0.28912,0.33279,0.40679,0.48079,0.60705,0.7333,0.93393,1.1346,1.3944,1.6542,1.9752,2.2963,2.6686,3.041,3.3926,3.7442,3.9771,4.21,4.3509,4.4919,4.5705,4.6492,4.6843,4.7194,4.7811,4.8428,4.9418,5.0408,5.0651,5.0895,5.0446,4.9997,4.8641,4.7284,4.4698,4.2111,3.8604,3.5097,3.1479,2.7861,2.4845,2.1828,1.9276,1.6724,1.4567,1.241,1.0869,0.9328,0.8268,0.7208,0.62669,0.53259,0.45077,0.36895,0.31561,0.26226,0.22878,0.1953,0.17513,0.15496,0.13916,0.12337,0.11303,0.10268,0.09319,0.083697,0.077137,0.070576,0.065073,0.05957
0.076716,0.085346,0.093976,0.10452,0.11506,0.1312,0.14734,0.16775,0.18816,0.21987,0.25158,0.2967,0.34182,0.41968,0.49754,0.62955,0.76156,0.96044,1.1593,1.4132,1.6671,1.9752,2.2834,2.6338,2.9842,3.3268,3.6693,3.9127,4.1561,4.3231,4.49,4.6121,4.7341,4.8362,4.9382,5.0526,5.1671,5.2985,5.4299,5.4705,5.5111,5.4439,5.3768,5.2066,5.0365,4.7547,4.4729,4.1091,3.7454,3.3624,2.9794,2.6526,2.3258,2.0543,1.7829,1.5495,1.3162,1.1492,0.98208,0.86865,0.75522,0.65706,0.55889,0.47294,0.38698,0.32983,0.27267,0.23786,0.20306,0.17669,0.15032,0.13925,0.12818,0.11724,0.10629,0.09635,0.08641,0.079666,0.072923,0.06715,0.061377
0.07776,0.086854,0.095948,0.10668,0.11741,0.13404,0.15068,0.17168,0.19269,0.2252,0.25771,0.30428,0.35085,0.43257,0.51429,0.65205,0.78981,0.98694,1.1841,1.4321,1.6801,1.9752,2.2704,2.5989,2.9274,3.261,3.5945,3.8484,4.1023,4.2952,4.4881,4.6536,4.8191,4.988,5.157,5.3242,5.4913,5.6552,5.8191,5.8759,5.9327,5.8432,5.7538,5.5491,5.3445,5.0396,4.7346,4.3578,3.9811,3.5769,3.1727,2.8207,2.4687,2.181,1.8934,1.6424,1.3915,1.2114,1.0314,0.9105,0.78965,0.68742,0.58519,0.4951,0.40501,0.34404,0.28307,0.24694,0.21082,0.17825,0.14568,0.13934,0.13299,0.12144,0.1099,0.099509,0.089122,0.082196,0.07527,0.069227,0.063184
0.079321,0.088578,0.097835,0.10873,0.11962,0.13656,0.1535,0.17495,0.19639,0.22975,0.26311,0.311,0.35889,0.44359,0.52829,0.66635,0.80442,0.99869,1.193,1.4349,1.6768,1.9579,2.2391,2.5437,2.8483,3.1662,3.4842,3.7555,4.0268,4.2532,4.4796,4.7021,4.9246,5.1606,5.3967,5.6248,5.8529,6.0465,6.2402,6.3098,6.3794,6.2778,6.1762,5.9296,5.683,5.3319,4.9808,4.5827,4.1846,3.7685,3.3524,2.9864,2.6203,2.3132,2.0061,1.7432,1.4803,1.2873,1.0943,0.96067,0.82708,0.71721,0.60733,0.51345,0.41956,0.35656,0.29355,0.25626,0.21897,0.18398,0.14899,0.14393,0.13887,0.12571,0.11255,0.10265,0.092745,0.084761,0.076777,0.071236,0.065696
0.080881,0.090301,0.099721,0.11077,0.12182,0.13908,0.15633,0.17821,0.20009,0.23431,0.26852,0.31773,0.36693,0.45461,0.54229,0.68066,0.81903,1.0104,1.2019,1.4377,1.6735,1.9406,2.2077,2.4884,2.7691,3.0715,3.3739,3.6625,3.9512,4.2112,4.4712,4.7506,5.0301,5.3332,5.6364,5.9254,6.2144,6.4378,6.6613,6.7438,6.8262,6.7124,6.5985,6.31,6.0214,5.6242,5.227,4.8076,4.3882,3.9602,3.5321,3.152,2.7719,2.4454,2.1189,1.844,1.5691,1.3631,1.1572,1.0108,0.86451,0.74699,0.62947,0.53179,0.43412,0.36908,0.30404,0.26558,0.22712,0.18971,0.15229,0.14851,0.14474,0.12997,0.11521,0.10579,0.096369,0.087326,0.078283,0.073245,0.068207
0.082018,0.091607,0.1012,0.11242,0.12364,0.14123,0.15882,0.1808,0.20278,0.23758,0.27238,0.32362,0.37486,0.462,0.54913,0.68792,0.82671,1.0168,1.207,1.4428,1.6785,1.9406,2.2027,2.4744,2.7462,3.0383,3.3305,3.6264,3.9222,4.2058,4.4895,4.7986,5.1078,5.4567,5.8056,6.155,6.5044,6.7503,6.9963,7.0896,7.1829,7.0629,6.9428,6.6196,6.2964,5.863,5.4296,4.9867,4.5439,4.1043,3.6648,3.2752,2.8856,2.5504,2.2152,1.9337,1.6522,1.4365,1.2208,1.0614,0.90205,0.77579,0.64953,0.54788,0.44623,0.37986,0.31348,0.27396,0.23444,0.19592,0.15739,0.15215,0.14691,0.1334,0.11989,0.10902,0.098147,0.089786,0.081424,0.075301,0.069179
0.083156,0.092914,0.10267,0.11407,0.12547,0.14339,0.16131,0.18339,0.20546,0.24085,0.27625,0.32952,0.38278,0.46938,0.55598,0.69518,0.83439,1.0233,1.2121,1.4478,1.6835,1.9405,2.1976,2.4604,2.7232,3.0052,3.2872,3.5902,3.8932,4.2005,4.5077,4.8466,5.1855,5.5801,5.9747,6.3846,6.7944,7.0629,7.3313,7.4354,7.5396,7.4134,7.2872,6.9293,6.5714,6.1018,5.6322,5.1658,4.6995,4.2484,3.7974,3.3983,2.9992,2.6554,2.3116,2.0234,1.7353,1.5098,1.2844,1.112,0.93959,0.80459,0.66959,0.56397,0.45834,0.39063,0.32293,0.28234,0.24176,0.20213,0.1625,0.15579,0.14908,0.13683,0.12458,0.11225,0.099926,0.092245,0.084565,0.077358,0.07015
0.08434,0.094116,0.10389,0.11529,0.12668,0.14485,0.16301,0.18516,0.2073,0.24373,0.28016,0.3329,0.38565,0.47245,0.55925,0.69821,0.83716,1.0298,1.2224,1.4615,1.7007,1.958,2.2152,2.4764,2.7376,3.0097,3.2819,3.5785,3.8751,4.1971,4.519,4.8812,5.2434,5.6504,6.0574,6.4828,6.9082,7.2027,7.4972,7.6041,7.7111,7.582,7.4528,7.0958,6.7388,6.2652,5.7915,5.3106,4.8298,4.3641,3.8985,3.488,3.0776,2.7359,2.3943,2.1059,1.8174,1.5811,1.3447,1.1605,0.97634,0.83322,0.6901,0.58063,0.47116,0.40164,0.33213,0.2905,0.24887,0.2148,0.18073,0.16703,0.15332,0.13951,0.1257,0.11481,0.10391,0.094799,0.085683,0.079216,0.072749
0.085524,0.095318,0.10511,0.1165,0.1279,0.1463,0.16471,0.18693,0.20915,0.24661,0.28407,0.33629,0.38852,0.47552,0.56253,0.70123,0.83994,1.0363,1.2326,1.4753,1.718,1.9754,2.2328,2.4924,2.752,3.0143,3.2766,3.5668,3.8571,4.1937,4.5303,4.9157,5.3012,5.7206,6.1401,6.581,7.022,7.3425,7.6631,7.7728,7.8826,7.7505,7.6185,7.2624,6.9062,6.4285,5.9508,5.4555,4.9601,4.4798,3.9996,3.5778,3.1559,2.8164,2.477,2.1883,1.8996,1.6523,1.4049,1.209,1.0131,0.86185,0.71061,0.59729,0.48397,0.41265,0.34133,0.29866,0.25599,0.22747,0.19896,0.17827,0.15757,0.14219,0.12682,0.11736,0.1079,0.097352,0.086802,0.081075,0.075349
0.086288,0.096209,0.10613,0.11749,0.12884,0.14732,0.1658,0.18928,0.21276,0.2493,0.28583,0.33789,0.38995,0.47554,0.56113,0.70145,0.84178,1.0433,1.2448,1.4884,1.732,1.9995,2.2671,2.5207,2.7743,3.0271,3.28,3.5702,3.8605,4.2011,4.5418,4.9265,5.3111,5.7255,6.1399,6.5645,6.9891,7.3091,7.6291,7.7533,7.8774,7.7578,7.6382,7.3021,6.966,6.5078,6.0496,5.5546,5.0596,4.5759,4.0923,3.671,3.2498,2.9028,2.5557,2.2654,1.9751,1.717,1.459,1.2526,1.0463,0.88816,0.73004,0.61417,0.4983,0.42491,0.35152,0.30736,0.26319,0.23377,0.20435,0.18301,0.16167,0.14587,0.13007,0.11909,0.1081,0.099158,0.090211,0.083117,0.076022
0.087052,0.0971,0.10715,0.11847,0.12978,0.14834,0.16689,0.19163,0.21637,0.25198,0.2876,0.33949,0.39138,0.47555,0.55972,0.70168,0.84363,1.0503,1.2569,1.5014,1.7459,2.0236,2.3014,2.549,2.7965,3.0399,3.2833,3.5736,3.8639,4.2086,4.5534,4.9372,5.321,5.7304,6.1397,6.548,6.9563,7.2757,7.5952,7.7337,7.8723,7.7651,7.658,7.3419,7.0258,6.5871,6.1483,5.6537,5.1591,4.672,4.185,3.7643,3.3436,2.9891,2.6345,2.3425,2.0505,1.7818,1.513,1.2962,1.0795,0.91446,0.74947,0.63104,0.51262,0.43716,0.36171,0.31605,0.2704,0.24007,0.20974,0.18775,0.16576,0.14954,0.13332,0.12081,0.10831,0.10096,0.09362,0.085158,0.076696
0.088,0.098045,0.10809,0.11931,0.13053,0.14931,0.16809,0.19324,0.21839,0.25345,0.2885,0.3402,0.3919,0.47632,0.56074,0.70311,0.84549,1.0496,1.2537,1.5108,1.7678,2.052,2.3361,2.5894,2.8427,3.0824,3.3222,3.6107,3.8992,4.2388,4.5784,4.9462,5.314,5.6994,6.0847,6.4617,6.8386,7.1463,7.454,7.5964,7.7389,7.6446,7.5504,7.2593,6.9683,6.5578,6.1473,5.6811,5.2148,4.7512,4.2876,3.8673,3.4471,3.0826,2.7181,2.4154,2.1128,1.8336,1.5544,1.3277,1.1009,0.93297,0.76501,0.64658,0.52815,0.45061,0.37306,0.32555,0.27804,0.2465,0.21496,0.19237,0.16979,0.15309,0.13639,0.1236,0.11081,0.10259,0.094361,0.086977,0.079593
0.088947,0.098991,0.10903,0.12015,0.13127,0.15028,0.16929,0.19485,0.22041,0.25491,0.2894,0.34091,0.39243,0.47709,0.56175,0.70455,0.84735,1.0489,1.2505,1.5202,1.7898,2.0803,2.3708,2.6298,2.8888,3.1249,3.361,3.6478,3.9345,4.2689,4.6034,4.9552,5.307,5.6684,6.0298,6.3754,6.721,7.0169,7.3128,7.4591,7.6055,7.5241,7.4427,7.1767,6.9107,6.5285,6.1462,5.7084,5.2706,4.8304,4.3902,3.9704,3.5505,3.1761,2.8016,2.4884,2.1751,1.8855,1.5958,1.3591,1.1224,0.95148,0.78054,0.66212,0.54369,0.46406,0.38442,0.33505,0.28568,0.25293,0.22017,0.197,0.17382,0.15664,0.13946,0.12639,0.11332,0.10421,0.095102,0.088796,0.08249
0.089666,0.098798,0.10793,0.12061,0.13329,0.15182,0.17034,0.19561,0.22089,0.25526,0.28964,0.34089,0.39214,0.47715,0.56215,0.70096,0.83978,1.0499,1.26,1.5299,1.7998,2.0983,2.3968,2.6647,2.9327,3.181,3.4294,3.7211,4.0128,4.3431,4.6734,5.0156,5.3578,5.6952,6.0326,6.347,6.6615,6.9311,7.2008,7.3355,7.4702,7.3965,7.3228,7.08,6.8373,6.4903,6.1432,5.7337,5.3241,4.8993,4.4744,4.0519,3.6295,3.246,2.8625,2.536,2.2094,1.9099,1.6103,1.3709,1.1316,0.96276,0.79396,0.67641,0.55886,0.47752,0.39617,0.34451,0.29285,0.25923,0.22561,0.20172,0.17782,0.16017,0.14252,0.1291,0.11568,0.10576,0.095843,0.090029,0.084215
0.090386,0.098605,0.10682,0.12107,0.13531,0.15335,0.17139,0.19638,0.22136,0.25562,0.28989,0.34087,0.39186,0.47721,0.56255,0.69738,0.8322,1.0508,1.2695,1.5396,1.8098,2.1163,2.4228,2.6996,2.9765,3.2371,3.4977,3.7944,4.0911,4.4173,4.7435,5.0761,5.4086,5.722,6.0354,6.3187,6.6019,6.8454,7.0889,7.2119,7.3349,7.2689,7.2029,6.9834,6.7639,6.4521,6.1403,5.7589,5.3776,4.9681,4.5586,4.1335,3.7084,3.3159,2.9234,2.5836,2.2437,1.9342,1.6247,1.3827,1.1407,0.97405,0.80738,0.69071,0.57403,0.49098,0.40792,0.35397,0.30002,0.26554,0.23106,0.20644,0.18182,0.1637,0.14558,0.13181,0.11804,0.10731,0.096584,0.091262,0.085939
0.090413,0.099508,0.1086,0.12113,0.13367,0.15316,0.17266,0.19712,0.22159,0.25565,0.28971,0.34075,0.39178,0.47664,0.56149,0.70032,0.83914,1.0524,1.2657,1.5365,1.8073,2.1173,2.4273,2.7119,2.9964,3.2745,3.5525,3.8659,4.1792,4.5194,4.8597,5.2056,5.5516,5.8639,6.1762,6.4413,6.7063,6.919,7.1317,7.2353,7.3388,7.2741,7.2095,7.0004,6.7913,6.4923,6.1932,5.8295,5.4659,5.0542,4.6426,4.2122,3.7817,3.373,2.9644,2.6107,2.2571,1.9425,1.628,1.3892,1.1505,0.98634,0.82223,0.70556,0.58888,0.50407,0.41925,0.36352,0.30779,0.27164,0.23549,0.2106,0.18572,0.1671,0.14847,0.13435,0.12023,0.10927,0.098309,0.092737,0.087166
0.09044,0.10041,0.11038,0.1212,0.13202,0.15297,0.17393,0.19787,0.22181,0.25568,0.28954,0.34062,0.3917,0.47606,0.56043,0.70325,0.84608,1.054,1.262,1.5334,1.8049,2.1184,2.4319,2.7241,3.0164,3.3119,3.6074,3.9373,4.2673,4.6216,4.9758,5.3352,5.6945,6.0058,6.317,6.5639,6.8107,6.9927,7.1746,7.2586,7.3427,7.2794,7.2161,7.0174,6.8188,6.5325,6.2462,5.9002,5.5541,5.1403,4.7265,4.2908,3.855,3.4302,3.0053,2.6379,2.2704,1.9508,1.6312,1.3957,1.1602,0.99864,0.83708,0.72041,0.60373,0.51716,0.43059,0.37308,0.31557,0.27775,0.23992,0.21477,0.18961,0.17049,0.15137,0.1369,0.12243,0.11123,0.10003,0.094213,0.088392
0.09075,0.10061,0.11046,0.12252,0.13457,0.15431,0.17405,0.19785,0.22165,0.25532,0.28898,0.33972,0.39046,0.47391,0.55737,0.69778,0.8382,1.043,1.2478,1.5199,1.792,2.109,2.4261,2.7311,3.0362,3.3501,3.6639,4.0126,4.3612,4.7469,5.1325,5.5183,5.9041,6.2274,6.5507,6.8055,7.0603,7.2286,7.3969,7.4566,7.5164,7.4432,7.3701,7.1744,6.9786,6.6917,6.4048,6.0499,5.6951,5.268,4.8409,4.3886,3.9363,3.4971,3.0579,2.6755,2.2932,1.9699,1.6466,1.4135,1.1805,1.0185,0.85643,0.7378,0.61917,0.53012,0.44107,0.38195,0.32283,0.28427,0.2457,0.21948,0.19325,0.17359,0.15393,0.13917,0.12441,0.113,0.1016,0.094354,0.087112
0.09106,0.1008,0.11054,0.12383,0.13712,0.15564,0.17417,0.19783,0.22149,0.25496,0.28843,0.33883,0.38922,0.47176,0.55431,0.69231,0.83032,1.032,1.2337,1.5064,1.7792,2.0997,2.4203,2.7381,3.056,3.3883,3.7205,4.0878,4.4552,4.8722,5.2892,5.7014,6.1136,6.449,6.7843,7.0471,7.3098,7.4645,7.6192,7.6546,7.6901,7.6071,7.5241,7.3313,7.1384,6.8509,6.5634,6.1997,5.836,5.3957,4.9553,4.4864,4.0175,3.564,3.1104,2.7132,2.316,1.9889,1.6619,1.4314,1.2008,1.0383,0.87578,0.7552,0.63462,0.54308,0.45155,0.39082,0.33009,0.29079,0.25149,0.22419,0.19689,0.17669,0.15649,0.14144,0.12639,0.11477,0.10316,0.094496,0.085832
0.091316,0.10099,0.11066,0.12446,0.13826,0.15609,0.17391,0.19751,0.2211,0.25426,0.28742,0.3318,0.37618,0.46167,0.54717,0.681,0.81483,1.0146,1.2143,1.4847,1.755,2.0834,2.4118,2.7495,3.0872,3.442,3.7968,4.1898,4.5828,5.0331,5.4834,5.9282,6.3731,6.7242,7.0754,7.3486,7.6219,7.793,7.9642,8.0036,8.043,7.9586,7.8741,7.6697,7.4653,7.1545,6.8436,6.4421,6.0406,5.5793,5.118,4.6328,4.1477,3.6795,3.2113,2.7934,2.3755,2.0418,1.7081,1.4711,1.2341,1.0661,0.89804,0.77365,0.64926,0.55518,0.46109,0.39809,0.33509,0.28867,0.24224,0.22089,0.19953,0.17918,0.15884,0.1435,0.12815,0.11634,0.10452,0.095675,0.086829
0.091572,0.10118,0.11079,0.1251,0.13941,0.15653,0.17366,0.19718,0.22071,0.25356,0.28641,0.32477,0.36313,0.45158,0.54003,0.66969,0.79935,0.99713,1.1949,1.4629,1.7309,2.0671,2.4033,2.7609,3.1185,3.4958,3.8731,4.2917,4.7104,5.194,5.6776,6.1551,6.6326,6.9995,7.3664,7.6502,7.934,8.1215,8.3091,8.3525,8.3959,8.31,8.2242,8.0082,7.7922,7.4581,7.1239,6.6845,6.2451,5.7628,5.2806,4.7792,4.2778,3.7951,3.3123,2.8737,2.4351,2.0947,1.7544,1.5109,1.2674,1.0938,0.9203,0.7921,0.66391,0.56727,0.47063,0.40536,0.34009,0.28655,0.233,0.21758,0.20217,0.18167,0.16118,0.14555,0.12992,0.1179,0.10588,0.096854,0.087826
0.091693,0.1009,0.1101,0.1246,0.1391,0.15607,0.17304,0.19635,0.21966,0.25217,0.28467,0.32135,0.35803,0.44451,0.53098,0.65537,0.77975,0.97244,1.1651,1.4332,1.7013,2.0435,2.3858,2.7636,3.1414,3.533,3.9247,4.366,4.8072,5.3124,5.8176,6.3247,6.8318,7.2389,7.646,7.9658,8.2855,8.506,8.7264,8.7838,8.8412,8.7444,8.6476,8.4109,8.1742,7.801,7.4277,6.9522,6.4766,5.978,5.4793,4.9606,4.4418,3.9432,3.4446,2.9961,2.5476,2.1918,1.836,1.5753,1.3146,1.1297,0.94482,0.81005,0.67528,0.57623,0.47718,0.41155,0.34591,0.29177,0.23763,0.22128,0.20493,0.1841,0.16327,0.14735,0.13143,0.11923,0.10704,0.097851,0.088661
0.091814,0.10061,0.10941,0.1241,0.13879,0.1556,0.17242,0.19551,0.21861,0.25077,0.28293,0.31793,0.35292,0.43743,0.52194,0.64104,0.76014,0.94775,1.1353,1.4035,1.6716,2.0199,2.3683,2.7663,3.1643,3.5703,3.9763,4.4402,4.9041,5.4308,5.9576,6.4942,7.0309,7.4783,7.9256,8.2813,8.6371,8.8904,9.1437,9.2151,9.2865,9.1787,9.0709,8.8136,8.5562,8.1439,7.7316,7.2198,6.7081,6.1931,5.6781,5.1419,4.6058,4.0914,3.5769,3.1185,2.6601,2.2889,1.9177,1.6397,1.3617,1.1655,0.96935,0.828,0.68665,0.58519,0.48373,0.41773,0.35173,0.297,0.24227,0.22498,0.20769,0.18653,0.16536,0.14915,0.13294,0.12057,0.1082,0.098848,0.089497
0.091895,0.10119,0.11048,0.12431,0.13814,0.15484,0.17154,0.19441,0.21729,0.24907,0.28085,0.32108,0.36131,0.43767,0.51402,0.6276,0.74118,0.92351,1.1058,1.3691,1.6324,1.9782,2.3241,2.7313,3.1386,3.564,3.9894,4.4663,4.9432,5.4822,6.0213,6.578,7.1347,7.6218,8.1089,8.4983,8.8877,9.1511,9.4145,9.4873,9.5601,9.4563,9.3525,9.0844,8.8163,8.3885,7.9606,7.4346,6.9086,6.3782,5.8479,5.2998,4.7517,4.2342,3.7168,3.2555,2.7943,2.4063,2.0182,1.7197,1.4211,1.2079,0.99468,0.8441,0.69352,0.59103,0.48853,0.42259,0.35665,0.30181,0.24696,0.22851,0.21007,0.1881,0.16613,0.15017,0.13422,0.12171,0.1092,0.099703,0.090211
0.091976,0.10176,0.11154,0.12452,0.13749,0.15408,0.17067,0.19332,0.21597,0.24736,0.27876,0.32423,0.36971,0.4379,0.5061,0.61416,0.72223,0.89928,1.0763,1.3348,1.5932,1.9365,2.2799,2.6964,3.1128,3.5576,4.0024,4.4923,4.9823,5.5336,6.085,6.6617,7.2384,7.7653,8.2921,8.7152,9.1383,9.4118,9.6854,9.7595,9.8336,9.7339,9.6342,9.3552,9.0763,8.633,8.1897,7.6494,7.1091,6.5634,6.0176,5.4577,4.8977,4.3771,3.8566,3.3926,2.9285,2.5236,2.1187,1.7996,1.4806,1.2503,1.02,0.8602,0.7004,0.59686,0.49332,0.42745,0.36157,0.30661,0.25165,0.23204,0.21244,0.18967,0.16689,0.1512,0.1355,0.12285,0.11019,0.10056,0.090925
0.09145,0.10116,0.11087,0.12368,0.1365,0.15264,0.16878,0.19149,0.2142,0.2397,0.2652,0.31542,0.36564,0.43267,0.49971,0.60551,0.71131,0.87974,1.0482,1.2925,1.5369,1.8681,2.1993,2.61,3.0207,3.4751,3.9295,4.4347,4.94,5.4957,6.0513,6.6125,7.1737,7.7073,8.2409,8.6741,9.1073,9.3835,9.6598,9.7467,9.8336,9.7467,9.6598,9.3835,9.1073,8.6741,8.2409,7.7073,7.1737,6.6125,6.0513,5.4957,4.94,4.4347,3.9295,3.4751,3.0207,2.61,2.1993,1.8681,1.5369,1.2925,1.0482,0.87974,0.71131,0.60551,0.49971,0.43267,0.36564,0.31542,0.2652,0.2397,0.2142,0.19149,0.16878,0.15264,0.1365,0.12368,0.11087,0.10116,0.09145
0.090925,0.10056,0.11019,0.12285,0.1355,0.1512,0.16689,0.18967,0.21244,0.23204,0.25165,0.30661,0.36157,0.42745,0.49332,0.59686,0.7004,0.8602,1.02,1.2503,1.4806,1.7996,2.1187,2.5236,2.9285,3.3926,3.8566,4.3771,4.8977,5.4577,6.0176,6.5634,7.1091,7.6494,8.1897,8.633,9.0763,9.3552,9.6342,9.7339,9.8336,9.7595,9.6854,9.4118,9.1383,8.7152,8.2921,7.7653,7.2384,6.6617,6.085,5.5336,4.9823,4.4923,4.0024,3.5576,3.1128,2.6964,2.2799,1.9365,1.5932,1.3348,1.0763,0.89928,0.72223,0.61416,0.5061,0.4379,0.36971,0.32423,0.27876,0.24736,0.21597,0.19332,0.17067,0.15408,0.13749,0.12452,0.11154,0.10176,0.091976
0.090211,0.099703,0.1092,0.12171,0.13422,0.15017,0.16613,0.1881,0.21007,0.22851,0.24696,0.30181,0.35665,0.42259,0.48853,0.59103,0.69352,0.8441,0.99468,1.2079,1.4211,1.7197,2.0182,2.4063,2.7943,3.2555,3.7168,4.2342,4.7517,5.2998,5.8479,6.3782,6.9086,7.4346,7.9606,8.3885,8.8163,9.0844,9.3525,9.4563,9.5601,9.4873,9.4145,9.1511,8.8877,8.4983,8.1089,7.6218,7.1347,6.578,6.0213,5.4822,4.9432,4.4663,3.9894,3.564,3.1386,2.7313,2.3241,1.9782,1.6324,1.3691,1.1058,0.92351,0.74118,0.6276,0.51402,0.43767,0.36131,0.32108,0.28085,0.24907,0.21729,0.19441,0.17154,0.15484,0.13814,0.12431,0.11048,0.10119,0.091895
0.089497,0.098848,0.1082,0.12057,0.13294,0.14915,0.16536,0.18653,0.20769,0.22498,0.24227,0.297,0.35173,0.41773,0.48373,0.58519,0.68665,0.828,0.96935,1.1655,1.3617,1.6397,1.9177,2.2889,2.6601,3.1185,3.5769,4.0914,4.6058,5.1419,5.6781,6.1931,6.7081,7.2198,7.7316,8.1439,8.5562,8.8136,9.0709,9.1787,9.2865,9.2151,9.1437,8.8904,8.6371,8.2813,7.9256,7.4783,7.0309,6.4942,5.9576,5.4308,4.9041,4.4402,3.9763,3.5703,3.1643,2.7663,2.3683,2.0199,1.6716,1.4035,1.1353,0.94775,0.76014,0.64104,0.52194,0.43743,0.35292,0.31793,0.28293,0.25077,0.21861,0.19551,0.17242,0.1556,0.13879,0.1241,0.10941,0.10061,0.091814
0.088661,0.097851,0.10704,0.11923,0.13143,0.14735,0.16327,0.1841,0.20493,0.22128,0.23763,0.29177,0.34591,0.41155,0.47718,0.57623,0.67528,0.81005,0.94482,1.1297,1.3146,1.5753,1.836,2.1918,2.5476,2.9961,3.4446,3.9432,4.4418,4.9606,5.4793,5.978,6.4766,6.9522,7.4277,7.801,8.1742,8.4109,8.6476,8.7444,8.8412,8.7838,8.7264,8.506,8.2855,7.9658,7.646,7.2389,6.8318,6.3247,5.8176,5.3124,4.8072,4.366,3.9247,3.533,3.1414,2.7636,2.3858,2.0435,1.7013,1.4332,1.1651,0.97244,0.77975,0.65537,0.53098,0.44451,0.35803,0.32135,0.28467,0.25217,0.21966,0.19635,0.17304,0.15607,0.1391,0.1246,0.1101,0.1009,0.091693
0.087826,0.096854,0.10588,0.1179,0.12992,0.14555,0.16118,0.18167,0.20217,0.21758,0.233,0.28655,0.34009,0.40536,0.47063,0.56727,0.66391,0.7921,0.9203,1.0938,1.2674,1.5109,1.7544,2.0947,2.4351,2.8737,3.3123,3.7951,4.2778,4.7792,5.2806,5.7628,6.2451,6.6845,7.1239,7.4581,7.7922,8.0082,8.2242,8.31,8.3959,8.3525,8.3091,8.1215,7.934,7.6502,7.3664,6.9995,6.6326,6.1551,5.6776,5.194,4.7104,4.2917,3.8731,3.4958,3.1185,2.7609,2.4033,2.0671,1.7309,1.4629,1.1949,0.99713,0.79935,0.66969,0.54003,0.45158,0.36313,0.32477,0.28641,0.25356,0.22071,0.19718,0.17366,0.15653,0.13941,0.1251,0.11079,0.10118,0.091572
0.086829,0.095675,0.10452,0.11634,0.12815,0.1435,0.15884,0.17918,0.19953,0.22089,0.24224,0.28867,0.33509,0.39809,0.46109,0.55518,0.64926,0.77365,0.89804,1.0661,1.2341,1.4711,1.7081,2.0418,2.3755,2.7934,3.2113,3.6795,4.1477,4.6328,5.118,5.5793,6.0406,6.4421,6.8436,7.1545,7.4653,7.6697,7.8741,7.9586,8.043,8.0036,7.9642,7.793,7.6219,7.3486,7.0754,6.7242,6.3731,5.9282,5.4834,5.0331,4.5828,4.1898,3.7968,3.442,3.0872,2.7495,2.4118,2.0834,1.755,1.4847,1.2143,1.0146,0.81483,0.681,0.54717,0.46167,0.37618,0.3318,0.28742,0.25426,0.2211,0.19751,0.17391,0.15609,0.13826,0.12446,0.11066,0.10099,0.091316
0.085832,0.094496,0.10316,0.11477,0.12639,0.14144,0.15649,0.17669,0.19689,0.22419,0.25149,0.29079,0.33009,0.39082,0.45155,0.54308,0.63462,0.7552,0.87578,1.0383,1.2008,1.4314,1.6619,1.9889,2.316,2.7132,3.1104,3.564,4.0175,4.4864,4.9553,5.3957,5.836,6.1997,6.5634,6.8509,7.1384,7.3313,7.5241,7.6071,7.6901,7.6546,7.6192,7.4645,7.3098,7.0471,6.7843,6.449,6.1136,5.7014,5.2892,4.8722,4.4552,4.0878,3.7205,3.3883,3.056,2.7381,2.4203,2.0997,1.7792,1.5064,1.2337,1.032,0.83032,0.69231,0.55431,0.47176,0.38922,0.33883,0.28843,0.25496,0.22149,0.19783,0.17417,0.15564,0.13712,0.12383,0.11054,0.1008,0.09106
0.087112,0.094354,0.1016,0.113,0.12441,0.13917,0.15393,0.17359,0.19325,0.21948,0.2457,0.28427,0.32283,0.38195,0.44107,0.53012,0.61917,0.7378,0.85643,1.0185,1.1805,1.4135,1.6466,1.9699,2.2932,2.6755,3.0579,3.4971,3.9363,4.3886,4.8409,5.268,5.6951,6.0499,6.4048,6.6917,6.9786,7.1744,7.3701,7.4432,7.5164,7.4566,7.3969,7.2286,7.0603,6.8055,6.5507,6.2274,5.9041,5.5183,5.1325,4.7469,4.3612,4.0126,3.6639,3.3501,3.0362,2.7311,2.4261,2.109,1.792,1.5199,1.2478,1.043,0.8382,0.69778,0.55737,0.47391,0.39046,0.33972,0.28898,0.25532,0.22165,0.19785,0.17405,0.15431,0.13457,0.12252,0.11046,0.10061,0.09075
0.088392,0.094213,0.10003,0.11123,0.12243,0.1369,0.15137,0.17049,0.18961,0.21477,0.23992,0.27775,0.31557,0.37308,0.43059,0.51716,0.60373,0.72041,0.83708,0.99864,1.1602,1.3957,1.6312,1.9508,2.2704,2.6379,3.0053,3.4302,3.855,4.2908,4.7265,5.1403,5.5541,5.9002,6.2462,6.5325,6.8188,7.0174,7.2161,7.2794,7.3427,7.2586,7.1746,6.9927,6.8107,6.5639,6.317,6.0058,5.6945,5.3352,4.9758,4.6216,4.2673,3.9373,3.6074,3.3119,3.0164,2.7241,2.4319,2.1184,1.8049,1.5334,1.262,1.054,0.84608,0.70325,0.56043,0.47606,0.3917,0.34062,0.28954,0.25568,0.22181,0.19787,0.17393,0.15297,0.13202,0.1212,0.11038,0.10041,0.09044
0.087166,0.092737,0.098309,0.10927,0.12023,0.13435,0.14847,0.1671,0.18572,0.2106,0.23549,0.27164,0.30779,0.36352,0.41925,0.50407,0.58888,0.70556,0.82223,0.98634,1.1505,1.3892,1.628,1.9425,2.2571,2.6107,2.9644,3.373,3.7817,4.2122,4.6426,5.0542,5.4659,5.8295,6.1932,6.4923,6.7913,7.0004,7.2095,7.2741,7.3388,7.2353,7.1317,6.919,6.7063,6.4413,6.1762,5.8639,5.5516,5.2056,4.8597,4.5194,4.1792,3.8659,3.5525,3.2745,2.9964,2.7119,2.4273,2.1173,1.8073,1.5365,1.2657,1.0524,0.83914,0.70032,0.56149,0.47664,0.39178,0.34075,0.28971,0.25565,0.22159,0.19712,0.17266,0.15316,0.13367,0.12113,0.1086,0.099508,0.090413
0.085939,0.091262,0.096584,0.10731,0.11804,0.13181,0.14558,0.1637,0.18182,0.20644,0.23106,0.26554,0.30002,0.35397,0.40792,0.49098,0.57403,0.69071,0.80738,0.97405,1.1407,1.3827,1.6247,1.9342,2.2437,2.5836,2.9234,3.3159,3.7084,4.1335,4.5586,4.9681,5.3776,5.7589,6.1403,6.4521,6.7639,6.9834,7.2029,7.2689,7.3349,7.2119,7.0889,6.8454,6.6019,6.3187,6.0354,5.722,5.4086,5.0761,4.7435,4.4173,4.0911,3.7944,3.4977,3.2371,2.9765,2.6996,2.4228,2.1163,1.8098,1.5396,1.2695,1.0508,0.8322,0.69738,0.56255,0.47721,0.39186,0.34087,0.28989,0.25562,0.22136,0.19638,0.17139,0.15335,0.13531,0.12107,0.10682,0.098605,0.090386
0.084215,0.090029,0.095843,0.10576,0.11568,0.1291,0.14252,0.16017,0.17782,0.20172,0.22561,0.25923,0.29285,0.34451,0.39617,0.47752,0.55886,0.67641,0.79396,0.96276,1.1316,1.3709,1.6103,1.9099,2.2094,2.536,2.8625,3.246,3.6295,4.0519,4.4744,4.8993,5.3241,5.7337,6.1432,6.4903,6.8373,7.08,7.3228,7.3965,7.4702,7.3355,7.2008,6.9311,6.6615,6.347,6.0326,5.6952,5.3578,5.0156,4.6734,4.3431,4.0128,3.7211,3.4294,3.181,2.9327,2.6647,2.3968,2.0983,1.7998,1.5299,1.26,1.0499,0.83978,0.70096,0.56215,0.47715,0.39214,0.34089,0.28964,0.25526,0.22089,0.19561,0.17034,0.15182,0.13329,0.12061,0.10793,0.098798,0.089666
0.08249,0.088796,0.095102,0.10421,0.11332,0.12639,0.13946,0.15664,0.17382,0.197,0.22017,0.25293,0.28568,0.33505,0.38442,0.46406,0.54369,0.66212,0.78054,0.95148,1.1224,1.3591,1.5958,1.8855,2.1751,2.4884,2.8016,3.1761,3.5505,3.9704,4.3902,4.8304,5.2706,5.7084,6.1462,6.5285,6.9107,7.1767,7.4427,7.5241,7.6055,7.4591,7.3128,7.0169,6.721,6.3754,6.0298,5.6684,5.307,4.9552,4.6034,4.2689,3.9345,3.6478,3.361,3.1249,2.8888,2.6298,2.3708,2.0803,1.7898,1.5202,1.2505,1.0489,0.84735,0.70455,0.56175,0.47709,0.39243,0.34091,0.2894,0.25491,0.22041,0.19485,0.16929,0.15028,0.13127,0.12015,0.10903,0.098991,0.088947
0.079593,0.086977,0.094361,0.10259,0.11081,0.1236,0.13639,0.15309,0.16979,0.19237,0.21496,0.2465,0.27804,0.32555,0.37306,0.45061,0.52815,0.64658,0.76501,0.93297,1.1009,1.3277,1.5544,1.8336,2.1128,2.4154,2.7181,3.0826,3.4471,3.8673,4.2876,4.7512,5.2148,5.6811,6.1473,6.5578,6.9683,7.2593,7.5504,7.6446,7.7389,7.5964,7.454,7.1463,6.8386,6.4617,6.0847,5.6994,5.314,4.9462,4.5784,4.2388,3.8992,3.6107,3.3222,3.0824,2.8427,2.5894,2.3361,2.052,1.7678,1.5108,1.2537,1.0496,0.84549,0.70311,0.56074,0.47632,0.3919,0.3402,0.2885,0.25345,0.21839,0.19324,0.16809,0.14931,0.13053,0.11931,0.10809,0.098045,0.088
0.076696,0.085158,0.09362,0.10096,0.10831,0.12081,0.13332,0.14954,0.16576,0.18775,0.20974,0.24007,0.2704,0.31605,0.36171,0.43716,0.51262,0.63104,0.74947,0.91446,1.0795,1.2962,1.513,1.7818,2.0505,2.3425,2.6345,2.9891,3.3436,3.7643,4.185,4.672,5.1591,5.6537,6.1483,6.5871,7.0258,7.3419,7.658,7.7651,7.8723,7.7337,7.5952,7.2757,6.9563,6.548,6.1397,5.7304,5.321,4.9372,4.5534,4.2086,3.8639,3.5736,3.2833,3.0399,2.7965,2.549,2.3014,2.0236,1.7459,1.5014,1.2569,1.0503,0.84363,0.70168,0.55972,0.47555,0.39138,0.33949,0.2876,0.25198,0.21637,0.19163,0.16689,0.14834,0.12978,0.11847,0.10715,0.0971,0.087052
0.076022,0.083117,0.090211,0.099158,0.1081,0.11909,0.13007,0.14587,0.16167,0.18301,0.20435,0.23377,0.26319,0.30736,0.35152,0.42491,0.4983,0.61417,0.73004,0.88816,1.0463,1.2526,1.459,1.717,1.9751,2.2654,2.5557,2.9028,3.2498,3.671,4.0923,4.5759,5.0596,5.5546,6.0496,6.5078,6.966,7.3021,7.6382,7.7578,7.8774,7.7533,7.6291,7.3091,6.9891,6.5645,6.1399,5.7255,5.3111,4.9265,4.5418,4.2011,3.8605,3.5702,3.28,3.0271,2.7743,2.5207,2.2671,1.9995,1.732,1.4884,1.2448,1.0433,0.84178,0.70145,0.56113,0.47554,0.38995,0.33789,0.28583,0.2493,0.21276,0.18928,0.1658,0.14732,0.12884,0.11749,0.10613,0.096209,0.086288
0.075349,0.081075,0.086802,0.097352,0.1079,0.11736,0.12682,0.14219,0.15757,0.17827,0.19896,0.22747,0.25599,0.29866,0.34133,0.41265,0.48397,0.59729,0.71061,0.86185,1.0131,1.209,1.4049,1.6523,1.8996,2.1883,2.477,2.8164,3.1559,3.5778,3.9996,4.4798,4.9601,5.4555,5.9508,6.4285,6.9062,7.2624,7.6185,7.7505,7.8826,7.7728,7.6631,7.3425,7.022,6.581,6.1401,5.7206,5.3012,4.9157,4.5303,4.1937,3.8571,3.5668,3.2766,3.0143,2.752,2.4924,2.2328,1.9754,1.718,1.4753,1.2326,1.0363,0.83994,0.70123,0.56253,0.47552,0.38852,0.33629,0.28407,0.24661,0.20915,0.18693,0.16471,0.1463,0.1279,0.1165,0.10511,0.095318,0.085524
0.072749,0.079216,0.085683,0.094799,0.10391,0.11481,0.1257,0.13951,0.15332,0.16703,0.18073,0.2148,0.24887,0.2905,0.33213,0.40164,0.47116,0.58063,0.6901,0.83322,0.97634,1.1605,1.3447,1.5811,1.8174,2.1059,2.3943,2.7359,3.0776,3.488,3.8985,4.3641,4.8298,5.3106,5.7915,6.2652,6.7388,7.0958,7.4528,7.582,7.7111,7.6041,7.4972,7.2027,6.9082,6.4828,6.0574,5.6504,5.2434,4.8812,4.519,4.1971,3.8751,3.5785,3.2819,3.0097,2.7376,2.4764,2.2152,1.958,1.7007,1.4615,1.2224,1.0298,0.83716,0.69821,0.55925,0.47245,0.38565,0.3329,0.28016,0.24373,0.2073,0.18516,0.16301,0.14485,0.12668,0.11529,0.10389,0.094116,0.08434
0.07015,0.077358,0.084565,0.092245,0.099926,0.11225,0.12458,0.13683,0.14908,0.15579,0.1625,0.20213,0.24176,0.28234,0.32293,0.39063,0.45834,0.56397,0.66959,0.80459,0.93959,1.112,1.2844,1.5098,1.7353,2.0234,2.3116,2.6554,2.9992,3.3983,3.7974,4.2484,4.6995,5.1658,5.6322,6.1018,6.5714,6.9293,7.2872,7.4134,7.5396,7.4354,7.3313,7.0629,6.7944,6.3846,5.9747,5.5801,5.1855,4.8466,4.5077,4.2005,3.8932,3.5902,3.2872,3.0052,2.7232,2.4604,2.1976,1.9405,1.6835,1.4478,1.2121,1.0233,0.83439,0.69518,0.55598,0.46938,0.38278,0.32952,0.27625,0.24085,0.20546,0.18339,0.16131,0.14339,0.12547,0.11407,0.10267,0.092914,0.083156
0.069179,0.075301,0.081424,0.089786,0.098147,0.10902,0.11989,0.1334,0.14691,0.15215,0.15739,0.19592,0.23444,0.27396,0.31348,0.37986,0.44623,0.54788,0.64953,0.77579,0.90205,1.0614,1.2208,1.4365,1.6522,1.9337,2.2152,2.5504,2.8856,3.2752,3.6648,4.1043,4.5439,4.9867,5.4296,5.863,6.2964,6.6196,6.9428,7.0629,7.1829,7.0896,6.9963,6.7503,6.5044,6.155,5.8056,5.4567,5.1078,4.7986,4.4895,4.2058,3.9222,3.6264,3.3305,3.0383,2.7462,2.4744,2.2027,1.9406,1.6785,1.4428,1.207,1.0168,0.82671,0.68792,0.54913,0.462,0.37486,0.32362,0.27238,0.23758,0.20278,0.1808,0.15882,0.14123,0.12364,0.11242,0.1012,0.091607,0.082018
0.068207,0.073245,0.078283,0.087326,0.096369,0.10579,0.11521,0.12997,0.14474,0.14851,0.15229,0.18971,0.22712,0.26558,0.30404,0.36908,0.43412,0.53179,0.62947,0.74699,0.86451,1.0108,1.1572,1.3631,1.5691,1.844,2.1189,2.4454,2.7719,3.152,3.5321,3.9602,4.3882,4.8076,5.227,5.6242,6.0214,6.31,6.5985,6.7124,6.8262,6.7438,6.6613,6.4378,6.2144,5.9254,5.6364,5.3332,5.0301,4.7506,4.4712,4.2112,3.9512,3.6625,3.3739,3.0715,2.7691,2.4884,2.2077,1.9406,1.6735,1.4377,1.2019,1.0104,0.81903,0.68066,0.54229,0.45461,0.36693,0.31773,0.26852,0.23431,0.20009,0.17821,0.15633,0.13908,0.12182,0.11077,0.099721,0.090301,0.080881
0.065696,0.071236,0.076777,0.084761,0.092745,0.10265,0.11255,0.12571,0.13887,0.14393,0.14899,0.18398,0.21897,0.25626,0.29355,0.35656,0.41956,0.51345,0.60733,0.71721,0.82708,0.96067,1.0943,1.2873,1.4803,1.7432,2.0061,2.3132,2.6203,2.9864,3.3524,3.7685,4.1846,4.5827,4.9808,5.3319,5.683,5.9296,6.1762,6.2778,6.3794,6.3098,6.2402,6.0465,5.8529,5.6248,5.3967,5.1606,4.9246,4.7021,4.4796,4.2532,4.0268,3.7555,3.4842,3.1662,2.8483,2.5437,2.2391,1.9579,1.6768,1.4349,1.193,0.99869,0.80442,0.66635,0.52829,0.44359,0.35889,0.311,0.26311,0.22975,0.19639,0.17495,0.1535,0.13656,0.11962,0.10873,0.097835,0.088578,0.079321
0.063184,0.069227,0.07527,0.082196,0.089122,0.099509,0.1099,0.12144,0.13299,0.13934,0.14568,0.17825,0.21082,0.24694,0.28307,0.34404,0.40501,0.4951,0.58519,0.68742,0.78965,0.9105,1.0314,1.2114,1.3915,1.6424,1.8934,2.181,2.4687,2.8207,3.1727,3.5769,3.9811,4.3578,4.7346,5.0396,5.3445,5.5491,5.7538,5.8432,5.9327,5.8759,5.8191,5.6552,5.4913,5.3242,5.157,4.988,4.8191,4.6536,4.4881,4.2952,4.1023,3.8484,3.5945,3.261,2.9274,2.5989,2.2704,1.9752,1.6801,1.4321,1.1841,0.98694,0.78981,0.65205,0.51429,0.43257,0.35085,0.30428,0.25771,0.2252,0.19269,0.17168,0.15068,0.13404,0.11741,0.10668,0.095948,0.086854,0.07776
0.061377,0.06715,0.072923,0.079666,0.08641,0.09635,0.10629,0.11724,0.12818,0.13925,0.15032,0.17669,0.20306,0.23786,0.27267,0.32983,0.38698,0.47294,0.55889,0.65706,0.75522,0.86865,0.98208,1.1492,1.3162,1.5495,1.7829,2.0543,2.3258,2.6526,2.9794,3.3624,3.7454,4.1091,4.4729,4.7547,5.0365,5.2066,5.3768,5.4439,5.5111,5.4705,5.4299,5.2985,5.1671,5.0526,4.9382,4.8362,4.7341,4.6121,4.49,4.3231,4.1561,3.9127,3.6693,3.3268,2.9842,2.6338,2.2834,1.9752,1.6671,1.4132,1.1593,0.96044,0.76156,0.62955,0.49754,0.41968,0.34182,0.2967,0.25158,0.21987,0.18816,0.16775,0.14734,0.1312,0.11506,0.10452,0.093976,0.085346,0.076716
0.05957,0.065073,0.070576,0.077137,0.083697,0.09319,0.10268,0.11303,0.12337,0.13916,0.15496,0.17513,0.1953,0.22878,0.26226,0.31561,0.36895,0.45077,0.53259,0.62669,0.7208,0.8268,0.9328,1.0869,1.241,1.4567,1.6724,1.9276,2.1828,2.4845,2.7861,3.1479,3.5097,3.8604,4.2111,4.4698,4.7284,4.8641,4.9997,5.0446,5.0895,5.0651,5.0408,4.9418,4.8428,4.7811,4.7194,4.6843,4.6492,4.5705,4.4919,4.3509,4.21,3.9771,3.7442,3.3926,3.041,2.6686,2.2963,1.9752,1.6542,1.3944,1.1346,0.93393,0.7333,0.60705,0.48079,0.40679,0.33279,0.28912,0.24545,0.21454,0.18363,0.16381,0.144,0.12835,0.1127,0.10235,0.092003,0.083837,0.075672
0.042,0.045698,0.049397,0.055049,0.060702,0.067803,0.074904,0.084053,0.093202,0.10587,0.11855,0.13673,0.15491,0.18319,0.21147,0.26049,0.30951,0.38584,0.46217,0.55366,0.64515,0.74634,0.84754,0.98747,1.1274,1.3234,1.5194,1.7511,1.9829,2.2606,2.5383,2.8665,3.1948,3.5262,3.8577,4.0955,4.3334,4.4513,4.5692,4.6109,4.6527,4.6419,4.6311,4.5631,4.495,4.4715,4.4479,4.4492,4.4506,4.3953,4.3401,4.2121,4.0841,3.8624,3.6408,3.2931,2.9455,2.5714,2.1974,1.8744,1.5513,1.2943,1.0374,0.84949,0.66159,0.54484,0.42808,0.36098,0.29388,0.2526,0.21133,0.1839,0.15648,0.13796,0.11945,0.10606,0.092677,0.083123,0.07357,0.066078,0.058586
0.040989,0.04456,0.04813,0.05352,0.05891,0.065714,0.072519,0.081264,0.090009,0.10212,0.11424,0.13142,0.1486,0.17457,0.20055,0.2458,0.29105,0.36421,0.43738,0.52873,0.62009,0.71899,0.81789,0.94617,1.0744,1.2532,1.4321,1.6428,1.8535,2.1095,2.3656,2.6623,2.959,3.2729,3.5869,3.8052,4.0234,4.1245,4.2256,4.2646,4.3037,4.3064,4.3091,4.2714,4.2336,4.2471,4.2606,4.297,4.3334,4.2997,4.266,4.1488,4.0315,3.8186,3.6057,3.2594,2.9132,2.5347,2.1562,1.8285,1.5008,1.2441,0.9874,0.80779,0.62817,0.51984,0.41151,0.34831,0.28512,0.24537,0.20562,0.17928,0.15293,0.13503,0.11712,0.1041,0.091087,0.081803,0.072519,0.065189,0.057859
0.039911,0.041589,0.043266,0.050104,0.056943,0.063437,0.069932,0.078286,0.08664,0.098046,0.10945,0.1197,0.12995,0.15964,0.18933,0.23023,0.27113,0.33862,0.40612,0.49579,0.58546,0.68618,0.7869,0.91087,1.0348,1.1973,1.3597,1.5518,1.744,1.9736,2.2032,2.4676,2.7321,3.0072,3.2824,3.4791,3.6758,3.7782,3.8806,3.9332,3.9857,4.0005,4.0154,3.9972,3.979,4.0079,4.0369,4.0821,4.1272,4.1056,4.0841,3.9743,3.8644,3.6515,3.4387,3.0991,2.7595,2.3922,2.0248,1.7096,1.3945,1.1557,0.91693,0.75322,0.5895,0.49154,0.39359,0.33443,0.27527,0.23749,0.1997,0.17431,0.14892,0.13162,0.11432,0.10143,0.088553,0.079842,0.071131,0.064077,0.057023
0.038833,0.038617,0.038402,0.046689,0.054975,0.06116,0.067345,0.075308,0.083272,0.09397,0.10467,0.10798,0.1113,0.1447,0.1781,0.21466,0.25122,0.31304,0.37486,0.46284,0.55083,0.65337,0.75591,0.87556,0.99522,1.1413,1.2873,1.4609,1.6344,1.8376,2.0408,2.273,2.5052,2.7415,2.9778,3.153,3.3282,3.4319,3.5357,3.6017,3.6677,3.6947,3.7216,3.723,3.7243,3.7688,3.8132,3.8671,3.921,3.9116,3.9022,3.7998,3.6974,3.4845,3.2716,2.9388,2.6059,2.2497,1.8934,1.5908,1.2881,1.0673,0.84646,0.69865,0.55083,0.46325,0.37566,0.32054,0.26542,0.2296,0.19379,0.16935,0.1449,0.12821,0.11151,0.098767,0.08602,0.077882,0.069743,0.062966,0.056188
0.038092,0.037661,0.03723,0.045105,0.052981,0.058829,0.064677,0.072202,0.079728,0.08978,0.099831,0.10782,0.1158,0.14151,0.16723,0.19963,0.23203,0.28673,0.34144,0.42289,0.50435,0.60473,0.70511,0.82463,0.94415,1.0863,1.2285,1.3882,1.5479,1.7277,1.9074,2.1062,2.3051,2.5033,2.7016,2.8572,3.0129,3.1153,3.2177,3.2857,3.3538,3.3854,3.4171,3.4292,3.4414,3.4872,3.533,3.5795,3.6259,3.6125,3.599,3.4966,3.3942,3.1806,2.9669,2.659,2.351,2.0236,1.6963,1.4256,1.1549,0.962,0.76912,0.64205,0.51499,0.4363,0.35761,0.30635,0.25508,0.22098,0.18688,0.16368,0.14048,0.12447,0.10846,0.096591,0.084727,0.076453,0.06818,0.061578,0.054975
0.037351,0.036704,0.036057,0.043522,0.050987,0.056498,0.062009,0.069096,0.076184,0.085589,0.094994,0.10765,0.1203,0.13833,0.15636,0.1846,0.21284,0.26043,0.30802,0.38294,0.45786,0.55609,0.65431,0.7737,0.89308,1.0313,1.1696,1.3155,1.4614,1.6177,1.774,1.9395,2.105,2.2652,2.4254,2.5615,2.6976,2.7986,2.8997,2.9697,3.0398,3.0762,3.1126,3.1355,3.1584,3.2055,3.2527,3.2918,3.3309,3.3133,3.2958,3.1934,3.091,2.8766,2.6623,2.3792,2.0961,1.7976,1.4992,1.2604,1.0216,0.8567,0.69177,0.58546,0.47915,0.40935,0.33955,0.29215,0.24475,0.21236,0.17996,0.15801,0.13606,0.12073,0.1054,0.094415,0.083433,0.075025,0.066617,0.06019,0.053763
0.036165,0.035512,0.034858,0.041171,0.047484,0.053379,0.059274,0.065917,0.072559,0.081331,0.090103,0.10181,0.11351,0.12417,0.13484,0.1655,0.19616,0.23722,0.27829,0.34368,0.40908,0.49882,0.58856,0.7006,0.81264,0.94455,1.0765,1.2164,1.3563,1.4988,1.6413,1.7839,1.9266,2.0661,2.2056,2.3235,2.4413,2.5291,2.6169,2.6755,2.7342,2.7687,2.8032,2.8283,2.8533,2.8913,2.9293,2.9524,2.9754,2.9451,2.9148,2.8118,2.7089,2.5078,2.3067,2.053,1.7992,1.5467,1.2941,1.0974,0.90063,0.76514,0.62966,0.5385,0.44735,0.38436,0.32136,0.27746,0.23356,0.20327,0.17298,0.15215,0.13132,0.11667,0.10201,0.091457,0.0809,0.072829,0.064758,0.058593,0.052429
0.034979,0.034319,0.033659,0.03882,0.04398,0.050259,0.056538,0.062737,0.068935,0.077073,0.085212,0.095964,0.10672,0.11002,0.11332,0.1464,0.17948,0.21401,0.24855,0.30443,0.3603,0.44155,0.5228,0.6275,0.7322,0.85778,0.98336,1.1173,1.2512,1.3799,1.5086,1.6284,1.7482,1.867,1.9859,2.0854,2.185,2.2595,2.334,2.3813,2.4286,2.4612,2.4938,2.5211,2.5483,2.5771,2.6059,2.6129,2.62,2.5768,2.5337,2.4302,2.3268,2.1389,1.9511,1.7267,1.5024,1.2957,1.089,0.93431,0.77963,0.67358,0.56754,0.49154,0.41555,0.35936,0.30317,0.26278,0.22238,0.19419,0.166,0.14629,0.12658,0.11261,0.098632,0.0885,0.078367,0.070633,0.062898,0.056997,0.051095
0.0344,0.034144,0.033888,0.037189,0.04049,0.047288,0.054086,0.05988,0.065674,0.073226,0.080779,0.090655,0.10053,0.10821,0.11588,0.14081,0.16575,0.19522,0.22468,0.27154,0.3184,0.38759,0.45678,0.54908,0.64138,0.75456,0.86775,0.99225,1.1168,1.2386,1.3605,1.4718,1.5831,1.6841,1.7851,1.8682,1.9512,2.0143,2.0775,2.1199,2.1622,2.1915,2.2208,2.2423,2.2638,2.2826,2.3014,2.2988,2.2962,2.2431,2.19,2.0805,1.971,1.8022,1.6334,1.4482,1.2631,1.0993,0.93552,0.81298,0.69043,0.60298,0.51553,0.45018,0.38483,0.33495,0.28508,0.24799,0.2109,0.18473,0.15855,0.13998,0.1214,0.10817,0.094927,0.085306,0.075685,0.068288,0.060891,0.055218,0.049545
0.033821,0.033969,0.034117,0.035559,0.037001,0.044317,0.051634,0.057023,0.062413,0.069379,0.076346,0.085347,0.094347,0.10639,0.11844,0.13523,0.15202,0.17642,0.20082,0.23866,0.27649,0.33363,0.39076,0.47066,0.55056,0.65135,0.75214,0.86721,0.98228,1.0974,1.2124,1.3152,1.418,1.5012,1.5843,1.6509,1.7174,1.7692,1.8209,1.8584,1.8958,1.9218,1.9479,1.9636,1.9794,1.9881,1.9969,1.9846,1.9724,1.9093,1.8463,1.7308,1.6153,1.4655,1.3156,1.1697,1.0238,0.90292,0.78205,0.69164,0.60123,0.53237,0.46352,0.40881,0.35411,0.31054,0.26698,0.2332,0.19942,0.17526,0.1511,0.13367,0.11623,0.10373,0.091221,0.082113,0.073004,0.065943,0.058883,0.053439,0.047996
0.032594,0.032709,0.032824,0.034178,0.035532,0.041676,0.04782,0.05352,0.05922,0.065661,0.072101,0.080348,0.088594,0.099542,0.11049,0.12038,0.13027,0.15659,0.1829,0.2144,0.24589,0.29232,0.33875,0.40403,0.46931,0.554,0.63868,0.7386,0.83851,0.94125,1.044,1.138,1.2321,1.3077,1.3833,1.442,1.5008,1.5473,1.5939,1.6281,1.6623,1.6838,1.7052,1.7153,1.7254,1.7271,1.7289,1.7063,1.6836,1.617,1.5504,1.4453,1.3403,1.2167,1.0932,0.97972,0.86627,0.77289,0.67951,0.60702,0.53453,0.47679,0.41905,0.37216,0.32527,0.28689,0.24851,0.2182,0.1879,0.16558,0.14326,0.127,0.11075,0.099151,0.087556,0.078845,0.070134,0.06341,0.056687,0.051506,0.046325
0.031368,0.031449,0.03153,0.032797,0.034063,0.039035,0.044007,0.050017,0.056026,0.061942,0.067857,0.075349,0.08284,0.09269,0.10254,0.10553,0.10852,0.13675,0.16498,0.19014,0.21529,0.25101,0.28673,0.3374,0.38806,0.45665,0.52523,0.60998,0.69474,0.78515,0.87556,0.96086,1.0461,1.1142,1.1822,1.2332,1.2841,1.3255,1.3668,1.3978,1.4288,1.4457,1.4625,1.467,1.4714,1.4661,1.4609,1.4279,1.3949,1.3247,1.2545,1.1599,1.0653,0.968,0.87071,0.78973,0.70875,0.64286,0.57697,0.5224,0.46783,0.42121,0.37459,0.33551,0.29644,0.26323,0.23003,0.20321,0.17638,0.1559,0.13542,0.12034,0.10526,0.094576,0.083891,0.075578,0.067264,0.060877,0.05449,0.049572,0.044654
0.029617,0.029351,0.029084,0.03154,0.033996,0.037162,0.040329,0.046763,0.053197,0.058607,0.064017,0.070841,0.077666,0.086559,0.095452,0.10208,0.10871,0.12434,0.13997,0.16644,0.1929,0.22225,0.25161,0.29167,0.33174,0.38503,0.43832,0.50522,0.57212,0.6465,0.72088,0.79425,0.86761,0.92879,0.98996,1.037,1.084,1.1221,1.1603,1.1876,1.215,1.2287,1.2425,1.2444,1.2464,1.2351,1.2237,1.1883,1.1529,1.0914,1.03,0.95479,0.87961,0.80556,0.73152,0.66968,0.60783,0.55575,0.50367,0.45914,0.41461,0.37566,0.33672,0.30339,0.27005,0.24133,0.21261,0.18872,0.16482,0.1463,0.12778,0.11383,0.099885,0.089914,0.079943,0.072101,0.064259,0.058283,0.052307,0.047659,0.04301
0.027865,0.027252,0.026639,0.030284,0.033928,0.035289,0.03665,0.043509,0.050367,0.055272,0.060176,0.066334,0.072492,0.080428,0.088365,0.098632,0.1089,0.11193,0.11496,0.14273,0.1705,0.19349,0.21648,0.24595,0.27542,0.31341,0.35141,0.40046,0.4495,0.50785,0.56619,0.62764,0.68908,0.74338,0.79768,0.8408,0.88392,0.91882,0.95371,0.97743,1.0011,1.0118,1.0224,1.0219,1.0214,1.004,0.98659,0.94873,0.91087,0.85818,0.8055,0.74971,0.69393,0.64313,0.59233,0.54962,0.50691,0.46864,0.43037,0.39588,0.36138,0.33012,0.29886,0.27127,0.24367,0.21943,0.19519,0.17422,0.15326,0.1367,0.12014,0.10732,0.094509,0.085252,0.075995,0.068625,0.061254,0.05569,0.050125,0.045745,0.041366
0.026775,0.026165,0.025555,0.028974,0.032392,0.033659,0.034926,0.040639,0.046352,0.051519,0.056687,0.062285,0.067884,0.074998,0.082113,0.091215,0.10032,0.10684,0.11336,0.12875,0.14415,0.16807,0.19198,0.21584,0.2397,0.26945,0.29921,0.33683,0.37445,0.41905,0.46365,0.51169,0.55972,0.60432,0.64892,0.68692,0.72492,0.75645,0.78798,0.80961,0.83123,0.83979,0.84835,0.84471,0.84107,0.82375,0.80644,0.77498,0.74351,0.7035,0.66348,0.62238,0.58128,0.54302,0.50475,0.47133,0.43792,0.40706,0.3762,0.34777,0.31934,0.29325,0.26716,0.24382,0.22048,0.19969,0.1789,0.16065,0.14241,0.12751,0.11262,0.10109,0.089564,0.080853,0.072142,0.06531,0.058479,0.053217,0.047955,0.043825,0.039695
0.025685,0.025078,0.024472,0.027664,0.030856,0.032029,0.033201,0.037769,0.042336,0.047767,0.053197,0.058236,0.063276,0.069568,0.075861,0.083797,0.091733,0.10174,0.11176,0.11477,0.11779,0.14264,0.16749,0.18573,0.20397,0.22549,0.24701,0.27321,0.2994,0.33026,0.36111,0.39574,0.43037,0.46527,0.50017,0.53305,0.56592,0.59408,0.62225,0.64178,0.66132,0.66779,0.67426,0.66752,0.66078,0.64354,0.62629,0.60123,0.57616,0.54881,0.52146,0.49505,0.46864,0.4429,0.41717,0.39305,0.36893,0.34548,0.32204,0.29967,0.2773,0.25638,0.23545,0.21637,0.19729,0.17995,0.16261,0.14709,0.13156,0.11833,0.1051,0.094859,0.084619,0.076453,0.068288,0.061996,0.055703,0.050744,0.045786,0.041905,0.038025
0.024789,0.024618,0.024448,0.02646,0.028471,0.030661,0.03285,0.035741,0.038631,0.04367,0.04871,0.053918,0.059125,0.064758,0.07039,0.077457,0.084525,0.093276,0.10203,0.10806,0.1141,0.1278,0.14149,0.16067,0.17986,0.19737,0.21488,0.23557,0.25626,0.28011,0.30397,0.33045,0.35694,0.38388,0.41083,0.4365,0.46217,0.48454,0.50691,0.52267,0.53844,0.54403,0.54962,0.5447,0.53978,0.52725,0.51472,0.49673,0.47874,0.45873,0.43872,0.41865,0.39857,0.37856,0.35855,0.33915,0.31975,0.30055,0.28134,0.26288,0.24442,0.22698,0.20954,0.19348,0.17742,0.1627,0.14798,0.13454,0.12111,0.10919,0.097271,0.088365,0.079458,0.072,0.064542,0.058728,0.052914,0.048333,0.043751,0.041326,0.0389
0.023893,0.024158,0.024424,0.025255,0.026086,0.029293,0.0325,0.033713,0.034926,0.039574,0.044223,0.049599,0.054975,0.059947,0.064919,0.071118,0.077316,0.084808,0.092299,0.10135,0.11041,0.11296,0.1155,0.13562,0.15574,0.16924,0.18274,0.19792,0.21311,0.22997,0.24682,0.26516,0.2835,0.3025,0.3215,0.33996,0.35842,0.37499,0.39156,0.40356,0.41555,0.42027,0.42498,0.42188,0.41878,0.41097,0.40315,0.39224,0.38132,0.36866,0.35599,0.34225,0.3285,0.31422,0.29994,0.28525,0.27057,0.25561,0.24065,0.2261,0.21155,0.19759,0.18363,0.17059,0.15754,0.14544,0.13334,0.122,0.11065,0.10005,0.089443,0.08187,0.074298,0.067547,0.060796,0.05546,0.050125,0.045921,0.041717,0.040746,0.039776
0.023192,0.023199,0.023206,0.024,0.024794,0.027798,0.030802,0.031941,0.03308,0.037331,0.041582,0.046082,0.050583,0.055427,0.060271,0.065755,0.071239,0.077794,0.084349,0.092158,0.099966,0.10497,0.10998,0.12423,0.13848,0.14975,0.16103,0.17358,0.18613,0.19984,0.21354,0.22821,0.24288,0.25788,0.27288,0.28729,0.30169,0.31458,0.32747,0.33695,0.34643,0.3506,0.35478,0.35316,0.35155,0.34622,0.3409,0.33281,0.32472,0.31496,0.30521,0.29434,0.28347,0.27187,0.26027,0.24816,0.23604,0.22359,0.21113,0.199,0.18686,0.17518,0.1635,0.15248,0.14145,0.13109,0.12073,0.1107,0.10067,0.092104,0.083541,0.07648,0.06942,0.063309,0.057199,0.052294,0.047389,0.043495,0.039601,0.038907,0.038213
0.022491,0.022239,0.021987,0.022745,0.023502,0.026303,0.029105,0.030169,0.031234,0.035087,0.038941,0.042565,0.04619,0.050906,0.055622,0.060392,0.065162,0.070781,0.0764,0.082962,0.089524,0.096988,0.10445,0.11283,0.12122,0.13027,0.13932,0.14924,0.15916,0.16971,0.18026,0.19125,0.20225,0.21326,0.22427,0.23462,0.24496,0.25417,0.26337,0.27034,0.2773,0.28094,0.28458,0.28444,0.28431,0.28148,0.27865,0.27338,0.26811,0.26127,0.25442,0.24643,0.23844,0.22952,0.2206,0.21106,0.20152,0.19156,0.18161,0.17189,0.16218,0.15277,0.14337,0.13437,0.12537,0.11674,0.10812,0.0994,0.090682,0.084161,0.077639,0.071091,0.064542,0.059072,0.053601,0.049127,0.044654,0.04107,0.037486,0.037068,0.03665
0.021031,0.020651,0.020272,0.021694,0.023117,0.024907,0.026698,0.028622,0.030546,0.032992,0.035438,0.039103,0.042768,0.046837,0.050906,0.055487,0.060069,0.064994,0.069918,0.075625,0.081331,0.087758,0.094186,0.10134,0.1085,0.11622,0.12395,0.13228,0.1406,0.1494,0.1582,0.16732,0.17645,0.18553,0.19461,0.20309,0.21157,0.21907,0.22656,0.23227,0.23798,0.24109,0.2442,0.24438,0.24456,0.24245,0.24034,0.23623,0.23211,0.2266,0.22109,0.21454,0.20799,0.20055,0.19311,0.18513,0.17715,0.1688,0.16045,0.1522,0.14395,0.13596,0.12797,0.12027,0.11258,0.10534,0.098093,0.090783,0.083474,0.077504,0.071535,0.065789,0.060042,0.055137,0.050232,0.04617,0.042107,0.0401,0.038092,0.035788,0.033484
0.01957,0.019064,0.018557,0.020644,0.022731,0.023511,0.024292,0.027075,0.029859,0.030897,0.031934,0.03564,0.039345,0.042768,0.04619,0.050583,0.054975,0.059206,0.063437,0.068288,0.073139,0.078529,0.083918,0.089847,0.095776,0.10218,0.10858,0.11531,0.12205,0.1291,0.13614,0.14339,0.15064,0.1578,0.16495,0.17157,0.17818,0.18397,0.18975,0.19421,0.19867,0.20124,0.20381,0.20431,0.20481,0.20342,0.20203,0.19907,0.19611,0.19193,0.18775,0.18264,0.17754,0.17158,0.16563,0.1592,0.15277,0.14604,0.1393,0.13251,0.12572,0.11914,0.11256,0.10618,0.099791,0.09393,0.088068,0.082167,0.076265,0.070848,0.065431,0.060486,0.055541,0.051203,0.046864,0.043212,0.039561,0.03913,0.038698,0.034508,0.030317
0.019252,0.018768,0.018283,0.019611,0.020938,0.022351,0.023763,0.025535,0.027307,0.029169,0.031031,0.033376,0.035721,0.03915,0.042579,0.046352,0.050125,0.05418,0.058236,0.062474,0.066712,0.071387,0.076063,0.081176,0.08629,0.091774,0.097258,0.10302,0.10879,0.1148,0.12081,0.12699,0.13317,0.13926,0.14536,0.15091,0.15645,0.1613,0.16615,0.16989,0.17363,0.17581,0.17798,0.17841,0.17883,0.17771,0.17658,0.17416,0.17173,0.16826,0.16479,0.16051,0.15624,0.15125,0.14626,0.14081,0.13536,0.12964,0.12391,0.11813,0.11235,0.10678,0.10122,0.095702,0.090184,0.084996,0.079809,0.074715,0.069622,0.064913,0.060203,0.055844,0.051486,0.047625,0.043765,0.040996,0.038227,0.037297,0.036367,0.032547,0.028727
0.018934,0.018472,0.01801,0.018577,0.019144,0.02119,0.023235,0.023995,0.024755,0.027442,0.030129,0.031112,0.032096,0.035532,0.038968,0.042121,0.045274,0.049154,0.053035,0.05666,0.060284,0.064246,0.068207,0.072505,0.076804,0.081372,0.085939,0.090736,0.095533,0.10051,0.10548,0.11058,0.11569,0.12073,0.12577,0.13024,0.13472,0.13864,0.14256,0.14558,0.1486,0.15037,0.15215,0.1525,0.15285,0.15199,0.15113,0.14924,0.14736,0.14459,0.14183,0.13838,0.13493,0.13092,0.1269,0.12243,0.11795,0.11324,0.10852,0.10375,0.098983,0.094428,0.089874,0.085225,0.080577,0.076063,0.071549,0.067264,0.062979,0.058977,0.054975,0.051203,0.04743,0.044048,0.040666,0.038779,0.036893,0.035464,0.034036,0.030587,0.027137
0.017692,0.017449,0.017205,0.01772,0.018235,0.020106,0.021977,0.022676,0.023375,0.025831,0.028287,0.029181,0.030075,0.033174,0.036273,0.038361,0.04045,0.044169,0.047888,0.051546,0.055204,0.058667,0.06213,0.065849,0.069568,0.073536,0.077504,0.081655,0.085805,0.09009,0.094374,0.098774,0.10317,0.10749,0.11181,0.11566,0.1195,0.12282,0.12613,0.12871,0.13129,0.13289,0.13449,0.1348,0.13512,0.13437,0.13361,0.13199,0.13038,0.12804,0.1257,0.12279,0.11988,0.11649,0.1131,0.10932,0.10554,0.1015,0.097447,0.09333,0.089214,0.085185,0.081156,0.0771,0.073044,0.06909,0.065135,0.061369,0.057603,0.054086,0.050569,0.047248,0.043926,0.041386,0.038847,0.037263,0.03568,0.033302,0.030924,0.028714,0.026504
0.016449,0.016425,0.016401,0.016863,0.017325,0.019022,0.020718,0.021357,0.021996,0.02422,0.026445,0.027249,0.028054,0.030816,0.033578,0.034602,0.035626,0.039183,0.042741,0.046433,0.050125,0.053089,0.056053,0.059193,0.062332,0.065701,0.06907,0.072573,0.076076,0.079674,0.083272,0.086963,0.090655,0.094253,0.097851,0.10107,0.10429,0.107,0.10971,0.11185,0.11399,0.11541,0.11682,0.11711,0.11739,0.11674,0.1161,0.11475,0.1134,0.11149,0.10957,0.1072,0.10483,0.10207,0.099306,0.09622,0.093135,0.089753,0.086371,0.082908,0.079445,0.075941,0.072438,0.068975,0.065512,0.062117,0.058721,0.055474,0.052227,0.049195,0.046163,0.043293,0.040423,0.038725,0.037028,0.035747,0.034467,0.031139,0.027811,0.026841,0.025871
0.015545,0.015336,0.015126,0.016008,0.01689,0.017975,0.019059,0.020205,0.021351,0.02276,0.024168,0.02559,0.027012,0.028759,0.030506,0.032285,0.034063,0.03628,0.038496,0.041865,0.045233,0.048245,0.051256,0.054025,0.056794,0.059732,0.062669,0.065714,0.06876,0.071879,0.074998,0.078171,0.081345,0.084403,0.087462,0.090191,0.092919,0.09521,0.0975,0.099319,0.10114,0.1023,0.10346,0.10374,0.10402,0.10354,0.10307,0.10199,0.10092,0.099306,0.097689,0.095681,0.093674,0.091316,0.088958,0.08631,0.083662,0.080752,0.077841,0.07483,0.071818,0.06876,0.065701,0.062649,0.059597,0.056619,0.053641,0.050792,0.047942,0.045233,0.042525,0.040942,0.039359,0.036873,0.034387,0.033241,0.032096,0.02911,0.026124,0.025238,0.024352
0.014641,0.014246,0.013852,0.015153,0.016455,0.016928,0.017401,0.019054,0.020707,0.021299,0.02189,0.02393,0.02597,0.026702,0.027434,0.029967,0.0325,0.033376,0.034252,0.037297,0.040342,0.043401,0.04646,0.048858,0.051256,0.053763,0.056269,0.058856,0.061443,0.064084,0.066725,0.069379,0.072034,0.074554,0.077073,0.07931,0.081547,0.08342,0.085293,0.086788,0.088284,0.089187,0.09009,0.090372,0.090655,0.090346,0.090036,0.089241,0.088446,0.087125,0.085805,0.084161,0.082517,0.080563,0.078609,0.0764,0.07419,0.071751,0.069312,0.066752,0.064192,0.061578,0.058964,0.056323,0.053682,0.051122,0.048562,0.046109,0.043657,0.041272,0.038887,0.038591,0.038294,0.03502,0.031746,0.030735,0.029724,0.027081,0.024437,0.023635,0.022834
0.014259,0.013906,0.013553,0.014379,0.015206,0.016063,0.016921,0.017971,0.01902,0.020077,0.021133,0.022426,0.023719,0.025,0.026282,0.027879,0.029476,0.031029,0.032581,0.034481,0.036381,0.03919,0.042,0.043643,0.045287,0.048279,0.05127,0.053547,0.055824,0.058135,0.060446,0.06275,0.065054,0.067237,0.06942,0.071333,0.073247,0.074857,0.076467,0.07774,0.079014,0.079788,0.080563,0.080826,0.081089,0.080853,0.080617,0.07993,0.079243,0.078118,0.076992,0.075578,0.074163,0.072499,0.070835,0.068928,0.067021,0.064892,0.062764,0.06052,0.058277,0.055979,0.053682,0.051358,0.049033,0.046776,0.044519,0.042687,0.040854,0.039183,0.037513,0.036003,0.034494,0.032419,0.030344,0.028662,0.02698,0.025292,0.023604,0.022248,0.020891
0.013876,0.013565,0.013253,0.013605,0.013957,0.015199,0.016441,0.016887,0.017333,0.018855,0.020376,0.020922,0.021467,0.023299,0.02513,0.025791,0.026453,0.028682,0.03091,0.031665,0.032419,0.034979,0.03754,0.038429,0.039318,0.042795,0.046271,0.048238,0.050205,0.052186,0.054167,0.056121,0.058074,0.05992,0.061766,0.063356,0.064946,0.066294,0.067641,0.068692,0.069743,0.07039,0.071037,0.071279,0.071522,0.07136,0.071198,0.070619,0.07004,0.06911,0.06818,0.066994,0.065809,0.064434,0.06306,0.061457,0.059853,0.058034,0.056215,0.054288,0.052361,0.050381,0.0484,0.046392,0.044385,0.042431,0.040477,0.039264,0.038052,0.037095,0.036138,0.033416,0.030695,0.029819,0.028943,0.026589,0.024235,0.023503,0.022772,0.02086,0.018948
