0.15284,0.15372,0.1546,0.16034,0.16608,0.17179,0.17749,0.18258,0.18766,0.1949,0.20213,0.20721,0.2123,0.22011,0.22792,0.2355,0.24308,0.24826,0.25344,0.26286,0.27227,0.27831,0.28434,0.28737,0.29041,0.29381,0.29722,0.30128,0.30534,0.30918,0.46587,0.4706,0.47533,0.48441,0.4935,0.50205,0.5106,0.5174,0.52421,0.53159,0.53898,0.5436,0.54822,0.55485,0.56149,0.56707,0.57266,0.57483,0.57699,0.58295,0.5889,0.59236,0.59582,0.59443,0.59304,0.59116,0.58929,0.5924,0.59551,0.59296,0.59041,0.58685,0.58329,0.5786,0.5739,0.56993,0.56597,0.56145,0.55692,0.54896,0.54099,0.53492,0.52885,0.52218,0.51551,0.50777,0.50004,0.49181,0.48359,0.47653,0.46947,0.31406,0.31149,0.30706,0.30263,0.29735,0.29207,0.29113,0.29018,0.28378,0.27738,0.26997,0.26257,0.25452,0.24648,0.23968,0.23287,0.22662,0.22038,0.21226,0.20414,0.19853,0.19292,0.18743,0.18194,0.1762,0.17046,0.16525,0.16004,0.15644,0.15284
0.15644,0.15803,0.15962,0.16631,0.173,0.17829,0.18357,0.19073,0.19789,0.20354,0.20918,0.21716,0.22514,0.23127,0.23741,0.24517,0.25292,0.261,0.26908,0.27677,0.28445,0.28971,0.29497,0.29851,0.30205,0.30784,0.31363,0.31894,0.32425,0.32859,0.48937,0.49721,0.50505,0.51561,0.52616,0.53485,0.54354,0.5522,0.56087,0.56656,0.57225,0.57976,0.58726,0.59143,0.59561,0.60074,0.60586,0.61043,0.615,0.61544,0.61587,0.61942,0.62297,0.62195,0.62092,0.62115,0.62138,0.62282,0.62425,0.62164,0.61903,0.6183,0.61758,0.61438,0.61118,0.60521,0.59925,0.59432,0.58939,0.58236,0.57533,0.56849,0.56166,0.55309,0.54453,0.53553,0.52653,0.51739,0.50826,0.4967,0.48514,0.32971,0.328,0.32343,0.31887,0.31331,0.30775,0.30388,0.3,0.29305,0.2861,0.27912,0.27214,0.26508,0.25802,0.24865,0.23927,0.23284,0.22641,0.21933,0.21226,0.2059,0.19954,0.19293,0.18633,0.17996,0.17359,0.16796,0.16234,0.15803,0.15372
0.16004,0.16234,0.16464,0.17228,0.17993,0.18478,0.18964,0.19888,0.20812,0.21218,0.21624,0.22711,0.23797,0.24244,0.24691,0.25483,0.26276,0.27374,0.28473,0.29068,0.29664,0.30112,0.30561,0.30965,0.31369,0.32187,0.33005,0.3366,0.34316,0.34799,0.51286,0.52382,0.53478,0.5468,0.55882,0.56765,0.57649,0.58701,0.59753,0.60153,0.60553,0.61591,0.6263,0.62802,0.62974,0.6344,0.63906,0.64604,0.65302,0.64793,0.64285,0.64648,0.65012,0.64946,0.6488,0.65114,0.65348,0.65323,0.65298,0.65031,0.64764,0.64975,0.65186,0.65015,0.64845,0.64049,0.63252,0.62719,0.62185,0.61576,0.60967,0.60207,0.59447,0.58401,0.57355,0.56328,0.55302,0.54297,0.53293,0.51687,0.50081,0.34536,0.34451,0.33981,0.33511,0.32927,0.32343,0.31663,0.30982,0.30232,0.29482,0.28826,0.28171,0.27564,0.26957,0.25762,0.24567,0.23906,0.23244,0.22641,0.22038,0.21326,0.20615,0.19843,0.19072,0.18372,0.17672,0.17068,0.16464,0.15962,0.1546
0.16525,0.16796,0.17068,0.17883,0.18699,0.19206,0.19714,0.20612,0.2151,0.22101,0.22691,0.23736,0.2478,0.25471,0.26162,0.27268,0.28374,0.28946,0.29519,0.30363,0.31207,0.32085,0.32964,0.33741,0.34519,0.35295,0.36071,0.36768,0.37465,0.38059,0.55177,0.56228,0.57279,0.58629,0.59979,0.60997,0.62015,0.63114,0.64213,0.64823,0.65433,0.6638,0.67326,0.67688,0.68049,0.68719,0.69389,0.6949,0.6959,0.69624,0.69658,0.70174,0.7069,0.70735,0.70779,0.70953,0.71127,0.70837,0.70547,0.70145,0.69743,0.69783,0.69822,0.69575,0.69327,0.69033,0.68739,0.68021,0.67303,0.6644,0.65576,0.64707,0.63838,0.62799,0.6176,0.60656,0.59553,0.58427,0.573,0.55893,0.54485,0.38089,0.37726,0.36993,0.36261,0.35658,0.35056,0.34069,0.33082,0.32086,0.31091,0.30351,0.29611,0.28829,0.28047,0.27243,0.26439,0.25519,0.246,0.23717,0.22835,0.22063,0.21292,0.20582,0.19872,0.19205,0.18538,0.17883,0.17228,0.16631,0.16034
0.17046,0.17359,0.17672,0.18538,0.19404,0.19934,0.20464,0.21336,0.22208,0.22983,0.23759,0.2476,0.25762,0.26698,0.27633,0.29053,0.30472,0.30518,0.30565,0.31657,0.32749,0.34058,0.35367,0.36518,0.37668,0.38403,0.39138,0.39876,0.40615,0.41319,0.59068,0.60074,0.61079,0.62577,0.64076,0.65228,0.66381,0.67527,0.68674,0.69493,0.70313,0.71168,0.72022,0.72574,0.73125,0.73998,0.74872,0.74376,0.73879,0.74455,0.75031,0.757,0.76369,0.76524,0.76678,0.76792,0.76906,0.76352,0.75797,0.75259,0.74722,0.7459,0.74459,0.74134,0.73809,0.74018,0.74227,0.73324,0.72421,0.71303,0.70186,0.69207,0.68229,0.67196,0.66164,0.64985,0.63805,0.62556,0.61307,0.60098,0.58889,0.41642,0.41002,0.40006,0.3901,0.38389,0.37769,0.36475,0.35182,0.3394,0.32699,0.31875,0.31052,0.30095,0.29138,0.28724,0.2831,0.27133,0.25955,0.24793,0.23631,0.228,0.21968,0.21321,0.20673,0.20039,0.19404,0.18699,0.17993,0.173,0.16608
0.1762,0.17996,0.18372,0.19205,0.20039,0.20724,0.2141,0.22411,0.23413,0.24254,0.25095,0.26322,0.27548,0.2837,0.29192,0.30495,0.31798,0.32686,0.33573,0.34873,0.36174,0.37526,0.38879,0.39978,0.41077,0.41945,0.42813,0.43664,0.44515,0.45292,0.63689,0.64926,0.66162,0.67734,0.69306,0.70759,0.72212,0.73667,0.75122,0.76033,0.76945,0.77943,0.7894,0.79227,0.79513,0.80088,0.80663,0.80882,0.811,0.81735,0.8237,0.82997,0.83623,0.83805,0.83987,0.84014,0.84041,0.83614,0.83186,0.82669,0.82152,0.81806,0.8146,0.80938,0.80416,0.80365,0.80313,0.79744,0.79174,0.78104,0.77034,0.75765,0.74495,0.73165,0.71835,0.70317,0.68799,0.67402,0.66005,0.6469,0.63376,0.45471,0.44745,0.43827,0.4291,0.42069,0.41228,0.3995,0.38672,0.37377,0.36083,0.34876,0.3367,0.32409,0.31149,0.3033,0.29511,0.28488,0.27465,0.26324,0.25184,0.24143,0.23103,0.22309,0.21514,0.20724,0.19934,0.19206,0.18478,0.17829,0.17179
0.18194,0.18633,0.19072,0.19872,0.20673,0.21514,0.22355,0.23486,0.24617,0.25524,0.26431,0.27883,0.29335,0.30043,0.3075,0.31937,0.33125,0.34853,0.36582,0.3809,0.39598,0.40994,0.4239,0.43438,0.44486,0.45487,0.46489,0.47452,0.48415,0.49265,0.6831,0.69778,0.71245,0.72891,0.74536,0.7629,0.78043,0.79807,0.8157,0.82574,0.83577,0.84718,0.85859,0.8588,0.85901,0.86178,0.86454,0.87388,0.88322,0.89016,0.8971,0.90294,0.90878,0.91087,0.91295,0.91236,0.91176,0.90876,0.90576,0.90079,0.89582,0.89022,0.88461,0.87742,0.87022,0.86711,0.864,0.86164,0.85928,0.84905,0.83882,0.82322,0.80762,0.79134,0.77506,0.7565,0.73794,0.72249,0.70704,0.69283,0.67862,0.493,0.48488,0.47649,0.4681,0.45748,0.44687,0.43424,0.42162,0.40814,0.39466,0.37877,0.36288,0.34724,0.33159,0.31935,0.30712,0.29843,0.28975,0.27856,0.26736,0.25487,0.24238,0.23297,0.22355,0.2141,0.20464,0.19714,0.18964,0.18357,0.17749
0.18743,0.19293,0.19843,0.20582,0.21321,0.22309,0.23297,0.24342,0.25387,0.26755,0.28123,0.29142,0.3016,0.31506,0.32852,0.34347,0.35843,0.37602,0.39362,0.4111,0.42858,0.44488,0.46118,0.47416,0.48714,0.49878,0.51042,0.52046,0.53049,0.54002,0.73699,0.75334,0.76968,0.78681,0.80394,0.82389,0.84383,0.86246,0.88109,0.89676,0.91243,0.91869,0.92494,0.93021,0.93548,0.93991,0.94434,0.95157,0.9588,0.96692,0.97504,0.9826,0.99016,0.99428,0.9984,0.99798,0.99756,0.99218,0.98679,0.98024,0.97369,0.96734,0.961,0.95385,0.94669,0.94278,0.93886,0.93301,0.92715,0.91976,0.91237,0.89384,0.87531,0.85857,0.84182,0.82054,0.79927,0.78166,0.76406,0.74655,0.72904,0.53772,0.52898,0.52012,0.51125,0.4992,0.48714,0.47172,0.4563,0.44022,0.42413,0.40694,0.38975,0.37285,0.35596,0.34198,0.328,0.31396,0.29992,0.29055,0.28117,0.26657,0.25197,0.24342,0.23486,0.22411,0.21336,0.20612,0.19888,0.19073,0.18258
0.19292,0.19954,0.20615,0.21292,0.21968,0.23103,0.24238,0.25197,0.26156,0.27985,0.29814,0.304,0.30986,0.3297,0.34954,0.36758,0.38562,0.40352,0.42142,0.4413,0.46118,0.47981,0.49845,0.51394,0.52943,0.54269,0.55596,0.5664,0.57684,0.58739,0.79087,0.80889,0.82691,0.84472,0.86253,0.88488,0.90723,0.92686,0.94648,0.96779,0.9891,0.9902,0.9913,1.0016,1.0119,1.018,1.0241,1.0293,1.0344,1.0437,1.053,1.0623,1.0715,1.0777,1.0838,1.0836,1.0834,1.0756,1.0678,1.0597,1.0515,1.0445,1.0374,1.0303,1.0232,1.0184,1.0137,1.0044,0.99501,0.99047,0.98592,0.96446,0.943,0.92579,0.90859,0.88459,0.8606,0.84084,0.82108,0.80027,0.77947,0.58244,0.57309,0.56375,0.55441,0.54091,0.52742,0.5092,0.49099,0.47229,0.4536,0.43511,0.41663,0.39847,0.38032,0.3646,0.34888,0.32949,0.31009,0.30253,0.29497,0.27827,0.26156,0.25387,0.24617,0.23413,0.22208,0.2151,0.20812,0.19789,0.18766
0.19853,0.2059,0.21326,0.22063,0.228,0.24143,0.25487,0.26657,0.27827,0.294,0.30973,0.32087,0.33202,0.35264,0.37326,0.39231,0.41137,0.43076,0.45015,0.47206,0.49397,0.51648,0.539,0.55703,0.57506,0.59027,0.60549,0.61753,0.62956,0.64133,0.85162,0.87077,0.88991,0.90856,0.9272,0.95228,0.97736,0.99913,1.0209,1.0416,1.0623,1.0702,1.0781,1.0883,1.0985,1.1044,1.1103,1.1167,1.1231,1.1317,1.1402,1.1529,1.1656,1.1734,1.1811,1.1795,1.1778,1.1691,1.1603,1.1504,1.1404,1.1311,1.1218,1.1131,1.1044,1.0991,1.0938,1.0848,1.0758,1.0683,1.0607,1.0433,1.0259,1.0032,0.98047,0.95462,0.92877,0.90695,0.88513,0.86314,0.84115,0.63645,0.62664,0.61636,0.60607,0.58919,0.57231,0.55153,0.53074,0.50905,0.48736,0.46623,0.44511,0.42513,0.40514,0.38823,0.37133,0.35225,0.33318,0.32066,0.30814,0.294,0.27985,0.26755,0.25524,0.24254,0.22983,0.22101,0.21218,0.20354,0.1949
0.20414,0.21226,0.22038,0.22835,0.23631,0.25184,0.26736,0.28117,0.29497,0.30814,0.32131,0.33774,0.35418,0.37558,0.39698,0.41705,0.43712,0.458,0.47889,0.50282,0.52676,0.55315,0.57954,0.60012,0.62069,0.63786,0.65503,0.66866,0.68229,0.69526,0.91237,0.93264,0.9529,0.97239,0.99188,1.0197,1.0475,1.0714,1.0953,1.1154,1.1355,1.1502,1.1648,1.1749,1.185,1.1908,1.1965,1.2042,1.2118,1.2196,1.2275,1.2436,1.2597,1.2691,1.2784,1.2753,1.2722,1.2625,1.2528,1.2411,1.2294,1.2177,1.2061,1.1958,1.1855,1.1797,1.1739,1.1653,1.1566,1.146,1.1355,1.1221,1.1088,1.0806,1.0524,1.0247,0.99695,0.97307,0.94919,0.92601,0.90282,0.69045,0.6802,0.66897,0.65773,0.63747,0.61721,0.59385,0.5705,0.5458,0.52111,0.49735,0.47359,0.45178,0.42997,0.41187,0.39377,0.37502,0.35626,0.33879,0.32131,0.30973,0.29814,0.28123,0.26431,0.25095,0.23759,0.22691,0.21624,0.20918,0.20213
0.21226,0.21933,0.22641,0.23717,0.24793,0.26324,0.27856,0.29055,0.30253,0.32066,0.33879,0.35758,0.37637,0.39783,0.41928,0.44154,0.46381,0.48679,0.50978,0.53617,0.56255,0.59205,0.62156,0.64507,0.66858,0.68853,0.70849,0.72435,0.74022,0.75468,0.9814,1.0014,1.0215,1.0449,1.0682,1.0958,1.1235,1.1449,1.1664,1.1858,1.2051,1.2303,1.2555,1.2665,1.2776,1.2843,1.291,1.3005,1.31,1.3208,1.3315,1.347,1.3624,1.3712,1.38,1.3766,1.3733,1.363,1.3528,1.3403,1.3278,1.3146,1.3013,1.2897,1.278,1.2696,1.2613,1.2512,1.2412,1.2227,1.2041,1.1936,1.1831,1.1601,1.1371,1.106,1.0748,1.0511,1.0273,1.0018,0.97618,0.75492,0.74087,0.72613,0.71139,0.68809,0.66479,0.63867,0.61255,0.58561,0.55866,0.53246,0.50626,0.482,0.45773,0.43705,0.41636,0.39689,0.37742,0.35758,0.33774,0.32087,0.304,0.29142,0.27883,0.26322,0.2476,0.23736,0.22711,0.21716,0.20721
0.22038,0.22641,0.23244,0.246,0.25955,0.27465,0.28975,0.29992,0.31009,0.33318,0.35626,0.37742,0.39857,0.42007,0.44157,0.46603,0.49049,0.51558,0.54068,0.56951,0.59834,0.63096,0.66357,0.69002,0.71647,0.73921,0.76195,0.78005,0.79814,0.8141,1.0504,1.0702,1.0901,1.1173,1.1446,1.172,1.1994,1.2184,1.2374,1.2561,1.2748,1.3105,1.3462,1.3581,1.3701,1.3778,1.3856,1.3969,1.4082,1.4219,1.4356,1.4503,1.4651,1.4733,1.4815,1.4779,1.4743,1.4635,1.4527,1.4395,1.4263,1.4114,1.3966,1.3835,1.3705,1.3596,1.3486,1.3372,1.3259,1.2993,1.2727,1.2651,1.2575,1.2397,1.2219,1.1873,1.1527,1.1291,1.1055,1.0775,1.0495,0.81939,0.80155,0.7833,0.76504,0.73871,0.71237,0.68349,0.6546,0.62541,0.59621,0.56758,0.53894,0.51222,0.4855,0.46222,0.43894,0.41876,0.39857,0.37637,0.35418,0.33202,0.30986,0.3016,0.29335,0.27548,0.25762,0.2478,0.23797,0.22514,0.2123
0.22662,0.23284,0.23906,0.25519,0.27133,0.28488,0.29843,0.31396,0.32949,0.35225,0.37502,0.39689,0.41876,0.44237,0.46599,0.49248,0.51897,0.54702,0.57508,0.60651,0.63794,0.6722,0.70646,0.73732,0.76818,0.79483,0.82148,0.84256,0.86363,0.87429,1.1116,1.133,1.1544,1.1943,1.2342,1.2593,1.2844,1.3097,1.3351,1.3587,1.3823,1.4128,1.4434,1.4588,1.4743,1.4843,1.4942,1.4985,1.5028,1.5267,1.5506,1.5642,1.5778,1.5859,1.594,1.5912,1.5883,1.5773,1.5664,1.5454,1.5245,1.5078,1.4911,1.4854,1.4797,1.4651,1.4506,1.4382,1.4257,1.4043,1.3828,1.3686,1.3543,1.3315,1.3087,1.2755,1.2422,1.2062,1.1701,1.1515,1.1328,0.89203,0.87138,0.84861,0.82583,0.79634,0.76684,0.73478,0.70273,0.67113,0.63954,0.60769,0.57583,0.54632,0.5168,0.49074,0.46468,0.44237,0.42007,0.39783,0.37558,0.35264,0.3297,0.31506,0.30043,0.2837,0.26698,0.25471,0.24244,0.23127,0.22011
0.23287,0.23927,0.24567,0.26439,0.2831,0.29511,0.30712,0.328,0.34888,0.37133,0.39377,0.41636,0.43894,0.46468,0.49041,0.51893,0.54745,0.57846,0.60947,0.6435,0.67753,0.71344,0.74934,0.78461,0.81988,0.85045,0.88101,0.90507,0.92912,0.93449,1.1727,1.1957,1.2187,1.2712,1.3238,1.3465,1.3693,1.4011,1.4329,1.4613,1.4897,1.5151,1.5406,1.5595,1.5785,1.5907,1.6029,1.6001,1.5974,1.6315,1.6657,1.6781,1.6906,1.6985,1.7065,1.7044,1.7023,1.6911,1.68,1.6514,1.6227,1.6042,1.5857,1.5873,1.5888,1.5707,1.5526,1.5391,1.5256,1.5092,1.4929,1.472,1.4512,1.4234,1.3956,1.3637,1.3317,1.2833,1.2348,1.2254,1.216,0.96468,0.94122,0.91392,0.88662,0.85396,0.82131,0.78608,0.75085,0.71686,0.68287,0.6478,0.61272,0.58041,0.54811,0.51926,0.49041,0.46599,0.44157,0.41928,0.39698,0.37326,0.34954,0.32852,0.3075,0.29192,0.27633,0.26162,0.24691,0.23741,0.22792
0.23968,0.24865,0.25762,0.27243,0.28724,0.3033,0.31935,0.34198,0.3646,0.38823,0.41187,0.43705,0.46222,0.49074,0.51926,0.55119,0.58312,0.61706,0.65101,0.68737,0.72374,0.76198,0.80021,0.8399,0.87958,0.91324,0.94691,0.9747,1.0025,1.0179,1.273,1.3024,1.3318,1.3738,1.4158,1.443,1.4702,1.5054,1.5406,1.5677,1.5948,1.623,1.6512,1.6735,1.6959,1.7111,1.7264,1.7332,1.74,1.7665,1.7929,1.8061,1.8194,1.8259,1.8324,1.8289,1.8255,1.8137,1.802,1.7818,1.7617,1.7449,1.7282,1.7201,1.712,1.6909,1.6698,1.6559,1.642,1.621,1.6,1.5783,1.5565,1.5263,1.496,1.4649,1.4338,1.3888,1.3439,1.3243,1.3047,1.0442,1.0192,0.98599,0.95282,0.9157,0.87858,0.83904,0.7995,0.76391,0.72833,0.69116,0.654,0.61873,0.58345,0.55119,0.51893,0.49248,0.46603,0.44154,0.41705,0.39231,0.36758,0.34347,0.31937,0.30495,0.29053,0.27268,0.25483,0.24517,0.2355
0.24648,0.25802,0.26957,0.28047,0.29138,0.31149,0.33159,0.35596,0.38032,0.40514,0.42997,0.45773,0.4855,0.5168,0.54811,0.58345,0.61879,0.65567,0.69254,0.73125,0.76995,0.81052,0.85108,0.89519,0.93929,0.97604,1.0128,1.0443,1.0759,1.1014,1.3734,1.4091,1.4449,1.4764,1.5079,1.5395,1.5711,1.6097,1.6483,1.6741,1.7,1.7309,1.7618,1.7875,1.8133,1.8316,1.85,1.8663,1.8827,1.9014,1.9201,1.9342,1.9482,1.9532,1.9583,1.9535,1.9486,1.9363,1.924,1.9123,1.9007,1.8857,1.8707,1.853,1.8353,1.8111,1.787,1.7727,1.7584,1.7328,1.7071,1.6845,1.6619,1.6292,1.5964,1.5662,1.5359,1.4944,1.4529,1.4231,1.3933,1.1236,1.0971,1.0581,1.019,0.97744,0.93585,0.892,0.84814,0.81096,0.77378,0.73453,0.69528,0.65704,0.61879,0.58312,0.54745,0.51897,0.49049,0.46381,0.43712,0.41137,0.38562,0.35843,0.33125,0.31798,0.30472,0.28374,0.26276,0.25292,0.24308
0.25452,0.26508,0.27564,0.28829,0.30095,0.32409,0.34724,0.37285,0.39847,0.42513,0.45178,0.482,0.51222,0.54632,0.58041,0.61873,0.65704,0.69684,0.73664,0.7796,0.82256,0.86627,0.90998,0.95821,1.0064,1.0487,1.091,1.125,1.1591,1.188,1.4715,1.5085,1.5455,1.5808,1.6161,1.6513,1.6866,1.7279,1.7692,1.7955,1.8217,1.8533,1.885,1.913,1.941,1.9612,1.9814,1.9992,2.0171,2.0376,2.0581,2.0734,2.0887,2.0944,2.1,2.09,2.08,2.0744,2.0688,2.0554,2.042,2.0249,2.0079,1.9893,1.9708,1.9443,1.9178,1.9021,1.8864,1.8571,1.8279,1.8021,1.7763,1.7427,1.7091,1.6693,1.6295,1.5919,1.5542,1.519,1.4838,1.2072,1.1788,1.1362,1.0935,1.0413,0.98898,0.94934,0.90971,0.86735,0.825,0.78151,0.73801,0.69684,0.65567,0.61706,0.57846,0.54702,0.51558,0.48679,0.458,0.43076,0.40352,0.37602,0.34853,0.32686,0.30518,0.28946,0.27374,0.261,0.24826
0.26257,0.27214,0.28171,0.29611,0.31052,0.3367,0.36288,0.38975,0.41663,0.44511,0.47359,0.50626,0.53894,0.57583,0.61272,0.654,0.69528,0.73801,0.78074,0.82796,0.87517,0.92202,0.96887,1.0212,1.0736,1.1214,1.1693,1.2058,1.2423,1.2747,1.5697,1.6079,1.6461,1.6852,1.7243,1.7632,1.8021,1.8462,1.8902,1.9168,1.9434,1.9758,2.0082,2.0384,2.0686,2.0907,2.1128,2.1322,2.1515,2.1738,2.1961,2.2127,2.2293,2.2355,2.2416,2.2265,2.2114,2.2125,2.2135,2.1984,2.1833,2.1642,2.1451,2.1257,2.1063,2.0775,2.0487,2.0315,2.0143,1.9815,1.9487,1.9197,1.8906,1.8562,1.8217,1.7724,1.7232,1.6893,1.6555,1.6149,1.5744,1.2907,1.2604,1.2143,1.1681,1.1051,1.0421,1.0067,0.97127,0.92374,0.87622,0.82848,0.78074,0.73664,0.69254,0.65101,0.60947,0.57508,0.54068,0.50978,0.47889,0.45015,0.42142,0.39362,0.36582,0.33573,0.30565,0.29519,0.28473,0.26908,0.25344
0.26997,0.27912,0.28826,0.30351,0.31875,0.34876,0.37877,0.40694,0.43511,0.46623,0.49735,0.53246,0.56758,0.60769,0.6478,0.69116,0.73453,0.78151,0.82848,0.87399,0.91949,0.97747,1.0354,1.0945,1.1535,1.2065,1.2594,1.2979,1.3364,1.3694,1.6725,1.7127,1.7529,1.7954,1.838,1.8815,1.925,1.9734,2.0217,2.0534,2.0851,2.116,2.147,2.1782,2.2095,2.2323,2.2551,2.2759,2.2967,2.3154,2.334,2.3587,2.3833,2.3955,2.4078,2.3986,2.3894,2.3813,2.3731,2.3478,2.3225,2.3076,2.2926,2.2715,2.2505,2.2201,2.1897,2.1729,2.1561,2.1233,2.0906,2.0556,2.0207,1.9817,1.9426,1.8899,1.8371,1.798,1.7589,1.7182,1.6774,1.3812,1.3478,1.3011,1.2543,1.1922,1.13,1.0834,1.0367,0.97836,0.92001,0.87399,0.82796,0.7796,0.73125,0.68737,0.6435,0.60651,0.56951,0.53617,0.50282,0.47206,0.4413,0.4111,0.3809,0.34873,0.31657,0.30363,0.29068,0.27677,0.26286
0.27738,0.2861,0.29482,0.31091,0.32699,0.36083,0.39466,0.42413,0.4536,0.48736,0.52111,0.55866,0.59621,0.63954,0.68287,0.72833,0.77378,0.825,0.87622,0.92001,0.96381,1.0329,1.102,1.1677,1.2335,1.2916,1.3496,1.39,1.4305,1.4642,1.7753,1.8175,1.8598,1.9057,1.9516,1.9998,2.0479,2.1006,2.1532,2.19,2.2268,2.2563,2.2858,2.3181,2.3504,2.3739,2.3974,2.4197,2.4419,2.457,2.472,2.5046,2.5372,2.5556,2.574,2.5708,2.5675,2.5501,2.5326,2.4972,2.4617,2.4509,2.4401,2.4174,2.3946,2.3627,2.3308,2.3144,2.298,2.2652,2.2324,2.1916,2.1508,2.1072,2.0635,2.0073,1.9511,1.9067,1.8623,1.8214,1.7805,1.4717,1.4352,1.3879,1.3405,1.2792,1.2179,1.16,1.1022,1.033,0.96381,0.91949,0.87517,0.82256,0.76995,0.72374,0.67753,0.63794,0.59834,0.56255,0.52676,0.49397,0.46118,0.42858,0.39598,0.36174,0.32749,0.31207,0.29664,0.28445,0.27227
0.28378,0.29305,0.30232,0.32086,0.3394,0.37377,0.40814,0.44022,0.47229,0.50905,0.5458,0.58561,0.62541,0.67113,0.71686,0.76391,0.81096,0.86735,0.92374,0.97836,1.033,1.1026,1.1722,1.2456,1.3189,1.381,1.4431,1.4852,1.5274,1.5641,1.8846,1.9293,1.974,2.0244,2.0748,2.1257,2.1766,2.2335,2.2904,2.3334,2.3764,2.4077,2.4391,2.4682,2.4973,2.5197,2.5422,2.5654,2.5887,2.6111,2.6336,2.6659,2.6981,2.7224,2.7467,2.7444,2.7421,2.7209,2.6997,2.6667,2.6337,2.6137,2.5937,2.5698,2.5459,2.5139,2.4819,2.4655,2.4491,2.4164,2.3837,2.3386,2.2935,2.2419,2.1903,2.1311,2.0718,2.0189,1.966,1.9225,1.8789,1.5633,1.5259,1.4768,1.4277,1.3634,1.299,1.2357,1.1723,1.1026,1.0329,0.97747,0.92202,0.86627,0.81052,0.76198,0.71344,0.6722,0.63096,0.59205,0.55315,0.51648,0.47981,0.44488,0.40994,0.37526,0.34058,0.32085,0.30112,0.28971,0.27831
0.29018,0.3,0.30982,0.33082,0.35182,0.38672,0.42162,0.4563,0.49099,0.53074,0.5705,0.61255,0.6546,0.70273,0.75085,0.7995,0.84814,0.90971,0.97127,1.0367,1.1022,1.1723,1.2424,1.3234,1.4044,1.4705,1.5366,1.5804,1.6243,1.664,1.994,2.0411,2.0882,2.1431,2.1979,2.2516,2.3052,2.3664,2.4276,2.4768,2.526,2.5592,2.5923,2.6182,2.6441,2.6655,2.6869,2.7111,2.7354,2.7653,2.7952,2.8271,2.859,2.8892,2.9194,2.9181,2.9167,2.8917,2.8667,2.8363,2.8058,2.7765,2.7473,2.7222,2.6972,2.6651,2.6329,2.6166,2.6002,2.5676,2.5351,2.4856,2.4362,2.3767,2.3172,2.2548,2.1924,2.1311,2.0697,2.0236,1.9774,1.6548,1.6166,1.5658,1.515,1.4476,1.3802,1.3113,1.2424,1.1722,1.102,1.0354,0.96887,0.90998,0.85108,0.80021,0.74934,0.70646,0.66357,0.62156,0.57954,0.539,0.49845,0.46118,0.4239,0.38879,0.35367,0.32964,0.30561,0.29497,0.28434
0.29113,0.30388,0.31663,0.34069,0.36475,0.3995,0.43424,0.47172,0.5092,0.55153,0.59385,0.63867,0.68349,0.73478,0.78608,0.83904,0.892,0.94934,1.0067,1.0834,1.16,1.2357,1.3113,1.3936,1.4759,1.5433,1.6107,1.6593,1.7079,1.7541,2.0914,2.1468,2.2022,2.2653,2.3284,2.3834,2.4383,2.5016,2.5649,2.6159,2.6669,2.7055,2.744,2.7704,2.7967,2.8211,2.8454,2.8611,2.8768,2.9129,2.949,2.984,3.019,3.0478,3.0765,3.0755,3.0744,3.0529,3.0313,2.9997,2.968,2.9374,2.9068,2.8828,2.8588,2.8238,2.7887,2.7672,2.7457,2.7095,2.6732,2.6238,2.5745,2.5097,2.445,2.3818,2.3186,2.2492,2.1797,2.128,2.0763,1.7483,1.7077,1.6542,1.6007,1.5322,1.4637,1.3936,1.3234,1.2456,1.1677,1.0945,1.0212,0.95821,0.89519,0.8399,0.78461,0.73732,0.69002,0.64507,0.60012,0.55703,0.51394,0.47416,0.43438,0.39978,0.36518,0.33741,0.30965,0.29851,0.28737
0.29207,0.30775,0.32343,0.35056,0.37769,0.41228,0.44687,0.48714,0.52742,0.57231,0.61721,0.66479,0.71237,0.76684,0.82131,0.87858,0.93585,0.98898,1.0421,1.13,1.2179,1.299,1.3802,1.4637,1.5473,1.6161,1.6848,1.7382,1.7916,1.8442,2.1888,2.2525,2.3161,2.3875,2.4589,2.5151,2.5714,2.6368,2.7022,2.755,2.8079,2.8518,2.8957,2.9225,2.9493,2.9766,3.0039,3.011,3.0181,3.0604,3.1027,3.1409,3.1791,3.2064,3.2337,3.2329,3.2321,3.2141,3.196,3.1631,3.1302,3.0982,3.0662,3.0434,3.0205,2.9824,2.9444,2.9178,2.8913,2.8513,2.8113,2.762,2.7127,2.6428,2.5729,2.5088,2.4447,2.3672,2.2897,2.2324,2.1752,1.8418,1.7989,1.7427,1.6864,1.6168,1.5473,1.4759,1.4044,1.3189,1.2335,1.1535,1.0736,1.0064,0.93929,0.87958,0.81988,0.76818,0.71647,0.66858,0.62069,0.57506,0.52943,0.48714,0.44486,0.41077,0.37668,0.34519,0.31369,0.30205,0.29041
0.29735,0.31331,0.32927,0.35658,0.38389,0.42069,0.45748,0.4992,0.54091,0.58919,0.63747,0.68809,0.73871,0.79634,0.85396,0.9157,0.97744,1.0413,1.1051,1.1922,1.2792,1.3634,1.4476,1.5322,1.6168,1.6866,1.7564,1.8141,1.8718,1.9292,2.284,2.3546,2.4252,2.4999,2.5745,2.6343,2.6941,2.7632,2.8323,2.8879,2.9435,2.9897,3.0359,3.0667,3.0976,3.1268,3.1561,3.1686,3.1811,3.217,3.2529,3.2898,3.3267,3.3504,3.374,3.3732,3.3724,3.3574,3.3423,3.3103,3.2782,3.2478,3.2173,3.192,3.1667,3.1269,3.0871,3.0588,3.0306,2.9873,2.9439,2.8919,2.8399,2.7692,2.6985,2.6306,2.5627,2.4803,2.3979,2.3327,2.2675,1.9264,1.8792,1.8182,1.7572,1.6866,1.6161,1.5433,1.4705,1.381,1.2916,1.2065,1.1214,1.0487,0.97604,0.91324,0.85045,0.79483,0.73921,0.68853,0.63786,0.59027,0.54269,0.49878,0.45487,0.41945,0.38403,0.35295,0.32187,0.30784,0.29381
0.30263,0.31887,0.33511,0.36261,0.3901,0.4291,0.4681,0.51125,0.55441,0.60607,0.65773,0.71139,0.76504,0.82583,0.88662,0.95282,1.019,1.0935,1.1681,1.2543,1.3405,1.4277,1.515,1.6007,1.6864,1.7572,1.8279,1.89,1.9521,2.0143,2.3792,2.4567,2.5343,2.6122,2.6902,2.7535,2.8169,2.8896,2.9624,3.0208,3.0792,3.1277,3.1761,3.211,3.2459,3.2771,3.3083,3.3261,3.344,3.3736,3.4032,3.4388,3.4744,3.4943,3.5143,3.5135,3.5128,3.5007,3.4886,3.4574,3.4262,3.3973,3.3684,3.3406,3.3129,3.2713,3.2298,3.1999,3.1699,3.1232,3.0765,3.0218,2.967,2.8956,2.8241,2.7524,2.6806,2.5933,2.506,2.4329,2.3599,2.011,1.9594,1.8937,1.8279,1.7564,1.6848,1.6107,1.5366,1.4431,1.3496,1.2594,1.1693,1.091,1.0128,0.94691,0.88101,0.82148,0.76195,0.70849,0.65503,0.60549,0.55596,0.51042,0.46489,0.42813,0.39138,0.36071,0.33005,0.31363,0.29722
0.30706,0.32343,0.33981,0.36993,0.40006,0.43827,0.47649,0.52012,0.56375,0.61636,0.66897,0.72613,0.7833,0.84861,0.91392,0.98599,1.0581,1.1362,1.2143,1.3011,1.3879,1.4768,1.5658,1.6542,1.7427,1.8182,1.8937,1.9619,2.0302,2.0986,2.4741,2.5536,2.6331,2.7137,2.7943,2.8583,2.9224,2.9935,3.0647,3.1192,3.1736,3.2239,3.2742,3.3164,3.3586,3.3959,3.4332,3.4539,3.4747,3.5059,3.5371,3.5684,3.5996,3.6161,3.6326,3.6323,3.6319,3.6212,3.6106,3.5838,3.5571,3.5281,3.4991,3.4688,3.4386,3.3948,3.3509,3.316,3.281,3.2272,3.1733,3.1153,3.0573,2.9883,2.9192,2.8465,2.7739,2.6855,2.597,2.5238,2.4505,2.0916,2.0338,1.9619,1.89,1.8141,1.7382,1.6593,1.5804,1.4852,1.39,1.2979,1.2058,1.125,1.0443,0.9747,0.90507,0.84256,0.78005,0.72435,0.66866,0.61753,0.5664,0.52046,0.47452,0.43664,0.39876,0.36768,0.3366,0.31894,0.30128
0.31149,0.328,0.34451,0.37726,0.41002,0.44745,0.48488,0.52898,0.57309,0.62664,0.6802,0.74087,0.80155,0.87138,0.94122,1.0192,1.0971,1.1788,1.2604,1.3478,1.4352,1.5259,1.6166,1.7077,1.7989,1.8792,1.9594,2.0338,2.1083,2.1829,2.569,2.6505,2.732,2.8152,2.8984,2.9631,3.0278,3.0974,3.1671,3.2175,3.268,3.3201,3.3723,3.4219,3.4714,3.5147,3.558,3.5817,3.6054,3.6382,3.6711,3.698,3.7248,3.7379,3.751,3.751,3.751,3.7418,3.7326,3.7103,3.688,3.6589,3.6297,3.597,3.5643,3.5182,3.472,3.4321,3.3921,3.3311,3.2701,3.2088,3.1476,3.081,3.0143,2.9407,2.8671,2.7776,2.6881,2.6147,2.5412,2.1721,2.1083,2.0302,1.9521,1.8718,1.7916,1.7079,1.6243,1.5274,1.4305,1.3364,1.2423,1.1591,1.0759,1.0025,0.92912,0.86363,0.79814,0.74022,0.68229,0.62956,0.57684,0.53049,0.48415,0.44515,0.40615,0.37465,0.34316,0.32425,0.30534
0.31406,0.32971,0.34536,0.38089,0.41642,0.45471,0.493,0.53772,0.58244,0.63645,0.69045,0.75492,0.81939,0.89203,0.96468,1.0442,1.1236,1.2072,1.2907,1.3812,1.4717,1.5633,1.6548,1.7483,1.8418,1.9264,2.011,2.0916,2.1721,2.2483,2.6385,2.7196,2.8007,2.8883,2.976,3.0422,3.1084,3.177,3.2456,3.2955,3.3453,3.401,3.4567,3.5109,3.5652,3.6114,3.6575,3.6838,3.7101,3.7477,3.7853,3.8115,3.8377,3.8469,3.8562,3.8557,3.8552,3.8457,3.8361,3.8124,3.7886,3.7593,3.73,3.6955,3.6609,3.6054,3.5499,3.5136,3.4773,3.4137,3.3501,3.2874,3.2247,3.1589,3.0932,3.0201,2.947,2.8572,2.7674,2.6951,2.6228,2.2483,2.1829,2.0986,2.0143,1.9292,1.8442,1.7541,1.664,1.5641,1.4642,1.3694,1.2747,1.188,1.1014,1.0179,0.93449,0.87429,0.8141,0.75468,0.69526,0.64133,0.58739,0.54002,0.49265,0.45292,0.41319,0.38059,0.34799,0.32859,0.30918
0.31663,0.33142,0.34621,0.38451,0.42282,0.46197,0.50112,0.54646,0.5918,0.64625,0.7007,0.76897,0.83724,0.91268,0.98813,1.0692,1.1502,1.2356,1.3209,1.4146,1.5082,1.6006,1.6931,1.7889,1.8848,1.9737,2.0626,2.1493,2.2359,2.3136,2.708,2.7887,2.8694,2.9615,3.0535,3.1213,3.1891,3.2566,3.3242,3.3734,3.4227,3.4818,3.541,3.6,3.6591,3.708,3.7569,3.7858,3.8147,3.8571,3.8995,3.9251,3.9506,3.956,3.9613,3.9604,3.9594,3.9495,3.9397,3.9144,3.8892,3.8598,3.8303,3.7939,3.7576,3.6927,3.6278,3.5951,3.5625,3.4963,3.4302,3.366,3.3017,3.2369,3.1721,3.0995,3.027,2.9368,2.8466,2.7755,2.7044,2.3244,2.2575,2.1671,2.0766,1.9867,1.8968,1.8003,1.7038,1.6008,1.4979,1.4025,1.3071,1.217,1.1269,1.0334,0.93987,0.88496,0.83005,0.76914,0.70824,0.65309,0.59795,0.54956,0.50116,0.46069,0.42022,0.38652,0.35282,0.33293,0.31303
0.32009,0.33867,0.35725,0.39261,0.42798,0.46862,0.50926,0.55582,0.60238,0.6596,0.71682,0.7846,0.85238,0.9202,0.98801,1.0791,1.1702,1.258,1.3458,1.4414,1.5369,1.6328,1.7286,1.8295,1.9304,2.0248,2.1193,2.2049,2.2904,2.3665,2.7627,2.849,2.9354,3.0259,3.1165,3.1882,3.2598,3.333,3.4061,3.4598,3.5134,3.5706,3.6277,3.678,3.7283,3.7872,3.8461,3.8777,3.9093,3.9517,3.9942,4.0227,4.0511,4.0597,4.0683,4.0661,4.064,4.0478,4.0315,4.0028,3.974,3.9439,3.9138,3.8767,3.8396,3.7733,3.707,3.6773,3.6476,3.5823,3.517,3.4508,3.3847,3.3182,3.2518,3.1774,3.1031,3.014,2.9249,2.8495,2.7742,2.3899,2.3225,2.2302,2.1379,2.0413,1.9447,1.8429,1.7411,1.6363,1.5314,1.4336,1.3357,1.2434,1.1511,1.0538,0.95644,0.90014,0.84383,0.78211,0.72038,0.66487,0.60936,0.5604,0.51145,0.4693,0.42715,0.39432,0.36149,0.33918,0.31688
0.32355,0.34592,0.36829,0.40072,0.43314,0.47527,0.5174,0.56518,0.61295,0.67295,0.73295,0.80023,0.86752,0.92771,0.9879,1.089,1.1902,1.2805,1.3708,1.4682,1.5657,1.6649,1.7641,1.8701,1.976,2.076,2.1759,2.2604,2.3449,2.4194,2.8174,2.9093,3.0013,3.0904,3.1795,3.255,3.3306,3.4093,3.4881,3.5461,3.6042,3.6593,3.7144,3.756,3.7976,3.8665,3.9353,3.9696,4.0038,4.0463,4.0889,4.1202,4.1516,4.1634,4.1752,4.1719,4.1686,4.146,4.1234,4.0911,4.0588,4.0281,3.9974,3.9595,3.9217,3.854,3.7862,3.7595,3.7327,3.6682,3.6038,3.5357,3.4676,3.3996,3.3315,3.2554,3.1792,3.0912,3.0032,2.9236,2.8439,2.4553,2.3875,2.2933,2.1992,2.0959,1.9927,1.8855,1.7784,1.6717,1.565,1.4647,1.3643,1.2699,1.1754,1.0742,0.97301,0.91531,0.85762,0.79507,0.73252,0.67664,0.62077,0.57125,0.52173,0.4779,0.43407,0.40211,0.37015,0.34544,0.32073
0.32657,0.34943,0.37229,0.40543,0.43857,0.48196,0.52535,0.57554,0.62574,0.68594,0.74615,0.81373,0.8813,0.95148,1.0217,1.1162,1.2107,1.3024,1.3941,1.4944,1.5947,1.698,1.8014,1.9117,2.022,2.1273,2.2326,2.3178,2.4029,2.4766,2.8768,2.9691,3.0614,3.1534,3.2454,3.3227,3.4001,3.4827,3.5654,3.6257,3.686,3.741,3.796,3.8458,3.8956,3.9563,4.0169,4.0504,4.0838,4.1277,4.1716,4.2055,4.2394,4.2555,4.2717,4.2706,4.2695,4.2424,4.2152,4.1801,4.1451,4.1116,4.0782,4.0405,4.0028,3.9422,3.8816,3.8463,3.811,3.7475,3.6839,3.6152,3.5465,3.4753,3.4041,3.3254,3.2467,3.1554,3.0642,2.9826,2.901,2.5074,2.4379,2.3438,2.2496,2.1433,2.0369,1.9246,1.8123,1.7035,1.5948,1.4919,1.3891,1.2925,1.1959,1.1014,1.0068,0.93909,0.87133,0.80769,0.74405,0.68793,0.63181,0.58099,0.53018,0.48529,0.44039,0.40745,0.37452,0.34929,0.32407
0.32958,0.35294,0.3763,0.41015,0.44401,0.48865,0.53329,0.58591,0.63852,0.69894,0.75936,0.82722,0.89509,0.97525,1.0554,1.1433,1.2312,1.3243,1.4175,1.5206,1.6236,1.7312,1.8387,1.9534,2.0681,2.1787,2.2893,2.3751,2.4609,2.5338,2.9363,3.0289,3.1215,3.2164,3.3114,3.3904,3.4695,3.5561,3.6428,3.7053,3.7679,3.8228,3.8777,3.9356,3.9935,4.046,4.0985,4.1312,4.1638,4.2091,4.2543,4.2907,4.3271,4.3476,4.3681,4.3693,4.3705,4.3387,4.307,4.2692,4.2314,4.1952,4.159,4.1214,4.0838,4.0304,3.9769,3.9331,3.8893,3.8267,3.7641,3.6948,3.6254,3.5511,3.4768,3.3954,3.3141,3.2196,3.1252,3.0417,2.9581,2.5596,2.4884,2.3942,2.3001,2.1906,2.0812,1.9637,1.8461,1.7354,1.6246,1.5192,1.4138,1.3151,1.2165,1.1286,1.0407,0.96286,0.88504,0.8203,0.75557,0.69921,0.64285,0.59074,0.53863,0.49267,0.44671,0.4128,0.37889,0.35315,0.32742
0.33157,0.35557,0.37956,0.41451,0.44946,0.49593,0.5424,0.59643,0.65046,0.71208,0.7737,0.84276,0.91181,0.99177,1.0717,1.16,1.2482,1.3424,1.4367,1.5411,1.6456,1.7558,1.866,1.982,2.098,2.2111,2.3242,2.4099,2.4956,2.5672,2.9704,3.0637,3.157,3.2546,3.3522,3.4305,3.5088,3.5943,3.6799,3.7459,3.812,3.8686,3.9252,3.9821,4.0391,4.0945,4.15,4.1832,4.2165,4.2607,4.3049,4.3433,4.3817,4.4021,4.4225,4.4248,4.4271,4.3938,4.3604,4.3191,4.2778,4.2409,4.204,4.1674,4.1307,4.0743,4.0178,3.9723,3.9267,3.8664,3.8061,3.7367,3.6672,3.5911,3.5151,3.4349,3.3547,3.2587,3.1626,3.0761,2.9896,2.5875,2.5157,2.4201,2.3244,2.2137,2.1029,1.9839,1.8649,1.7519,1.6389,1.5327,1.4265,1.3273,1.228,1.1397,1.0514,0.97439,0.89735,0.8326,0.76785,0.71085,0.65385,0.6008,0.54776,0.50035,0.45294,0.4179,0.38287,0.35656,0.33026
0.33357,0.3582,0.38283,0.41887,0.45491,0.50321,0.55151,0.60696,0.66241,0.72523,0.78805,0.8583,0.92854,1.0083,1.0881,1.1766,1.2652,1.3605,1.4559,1.5617,1.6675,1.7804,1.8933,2.0106,2.128,2.2436,2.3592,2.4447,2.5302,2.6005,3.0045,3.0985,3.1926,3.2928,3.393,3.4705,3.548,3.6325,3.7169,3.7865,3.8561,3.9144,3.9726,4.0286,4.0846,4.143,4.2014,4.2352,4.2691,4.3123,4.3555,4.3958,4.4362,4.4565,4.4768,4.4803,4.4838,4.4488,4.4138,4.369,4.3242,4.2866,4.249,4.2133,4.1777,4.1182,4.0587,4.0114,3.9642,3.9062,3.8482,3.7786,3.7089,3.6312,3.5534,3.4744,3.3954,3.2977,3.2001,3.1106,3.021,2.6154,2.5429,2.4459,2.3488,2.2367,2.1245,2.0041,1.8836,1.7684,1.6532,1.5462,1.4392,1.3394,1.2395,1.1509,1.0622,0.98592,0.90967,0.8449,0.78012,0.72249,0.66485,0.61087,0.55688,0.50802,0.45916,0.42301,0.38685,0.35998,0.3331
0.33474,0.36016,0.38558,0.42217,0.45876,0.50857,0.55837,0.61515,0.67193,0.73564,0.79936,0.86872,0.93807,1.0165,1.0948,1.1828,1.2707,1.3666,1.4625,1.5706,1.6786,1.797,1.9155,2.0356,2.1556,2.2704,2.3852,2.4678,2.5505,2.6189,3.0221,3.118,3.2139,3.3165,3.4191,3.4989,3.5787,3.668,3.7574,3.8295,3.9016,3.96,4.0183,4.0693,4.1204,4.1807,4.241,4.2738,4.3067,4.3477,4.3887,4.4364,4.484,4.509,4.534,4.5344,4.5348,4.4977,4.4606,4.4122,4.3638,4.3243,4.2847,4.2494,4.2141,4.1537,4.0934,4.0487,4.0039,3.9482,3.8925,3.8238,3.7551,3.6719,3.5887,3.5104,3.4321,3.3322,3.2323,3.1386,3.045,2.6393,2.5684,2.4734,2.3784,2.264,2.1497,2.0299,1.9101,1.7933,1.6765,1.5664,1.4564,1.3551,1.2537,1.1634,1.0731,0.99579,0.91848,0.85436,0.79024,0.73256,0.67488,0.61905,0.56321,0.51256,0.46191,0.42502,0.38813,0.36148,0.33482
0.33592,0.36212,0.38832,0.42546,0.46261,0.51392,0.56524,0.62334,0.68144,0.74606,0.81067,0.87914,0.9476,1.0246,1.1016,1.1889,1.2763,1.3727,1.4692,1.5794,1.6896,1.8137,1.9377,2.0605,2.1833,2.2972,2.4111,2.4909,2.5708,2.6373,3.0397,3.1375,3.2352,3.3402,3.4452,3.5273,3.6093,3.7036,3.7978,3.8725,3.9472,4.0056,4.064,4.1101,4.1562,4.2183,4.2805,4.3124,4.3443,4.3832,4.422,4.4769,4.5317,4.5615,4.5913,4.5886,4.5858,4.5466,4.5073,4.4554,4.4034,4.362,4.3205,4.2855,4.2505,4.1893,4.1281,4.0859,4.0437,3.9903,3.9369,3.8691,3.8013,3.7127,3.6241,3.5465,3.4689,3.3667,3.2645,3.1667,3.0689,2.6632,2.594,2.501,2.408,2.2914,2.1748,2.0557,1.9366,1.8181,1.6997,1.5866,1.4736,1.3708,1.2679,1.176,1.084,1.0056,0.9273,0.86382,0.80035,0.74263,0.68492,0.62722,0.56953,0.51709,0.46466,0.42703,0.3894,0.36297,0.33654
0.33639,0.3626,0.38881,0.42644,0.46408,0.51621,0.56835,0.62727,0.6862,0.7493,0.81241,0.87275,0.93308,1.0159,1.0988,1.186,1.2731,1.3713,1.4695,1.5836,1.6976,1.8221,1.9466,2.0668,2.187,2.3016,2.4163,2.4978,2.5793,2.6461,3.0493,3.1486,3.2479,3.3537,3.4596,3.542,3.6244,3.7185,3.8126,3.8844,3.9561,4.0078,4.0595,4.1098,4.1601,4.2198,4.2795,4.3111,4.3427,4.3838,4.4248,4.4812,4.5375,4.5696,4.6017,4.6004,4.599,4.5622,4.5253,4.4704,4.4155,4.3731,4.3308,4.2976,4.2645,4.2053,4.146,4.0977,4.0494,4.0001,3.9509,3.8826,3.8144,3.7231,3.6318,3.5516,3.4715,3.367,3.2625,3.1632,3.0639,2.659,2.5909,2.5028,2.4147,2.2987,2.1827,2.0644,1.9461,1.8244,1.7026,1.5872,1.4717,1.3703,1.269,1.1795,1.09,1.0064,0.92293,0.86509,0.80725,0.74759,0.68794,0.62922,0.5705,0.5178,0.4651,0.42722,0.38935,0.36302,0.3367
0.33685,0.36307,0.38929,0.42742,0.46555,0.5185,0.57146,0.63121,0.69095,0.75255,0.81415,0.86636,0.91856,1.0073,1.0959,1.183,1.27,1.3699,1.4698,1.5877,1.7056,1.8306,1.9555,2.0731,2.1906,2.3061,2.4215,2.5046,2.5878,2.6549,3.0588,3.1597,3.2605,3.3673,3.4741,3.5568,3.6395,3.7335,3.8275,3.8962,3.965,4.01,4.0551,4.1095,4.164,4.2213,4.2785,4.3098,4.3411,4.3843,4.4276,4.4855,4.5433,4.5777,4.6121,4.6121,4.6121,4.5777,4.5433,4.4855,4.4276,4.3843,4.3411,4.3098,4.2785,4.2213,4.164,4.1095,4.0551,4.01,3.965,3.8962,3.8275,3.7335,3.6395,3.5568,3.4741,3.3673,3.2605,3.1597,3.0588,2.6549,2.5878,2.5046,2.4215,2.3061,2.1906,2.0731,1.9555,1.8306,1.7056,1.5877,1.4698,1.3699,1.27,1.183,1.0959,1.0073,0.91856,0.86636,0.81415,0.75255,0.69095,0.63121,0.57146,0.5185,0.46555,0.42742,0.38929,0.36307,0.33685
0.3367,0.36302,0.38935,0.42722,0.4651,0.5178,0.5705,0.62922,0.68794,0.74759,0.80725,0.86509,0.92293,1.0064,1.09,1.1795,1.269,1.3703,1.4717,1.5872,1.7026,1.8244,1.9461,2.0644,2.1827,2.2987,2.4147,2.5028,2.5909,2.659,3.0639,3.1632,3.2625,3.367,3.4715,3.5516,3.6318,3.7231,3.8144,3.8826,3.9509,4.0001,4.0494,4.0977,4.146,4.2053,4.2645,4.2976,4.3308,4.3731,4.4155,4.4704,4.5253,4.5622,4.599,4.6004,4.6017,4.5696,4.5375,4.4812,4.4248,4.3838,4.3427,4.3111,4.2795,4.2198,4.1601,4.1098,4.0595,4.0078,3.9561,3.8844,3.8126,3.7185,3.6244,3.542,3.4596,3.3537,3.2479,3.1486,3.0493,2.6461,2.5793,2.4978,2.4163,2.3016,2.187,2.0668,1.9466,1.8221,1.6976,1.5836,1.4695,1.3713,1.2731,1.186,1.0988,1.0159,0.93308,0.87275,0.81241,0.7493,0.6862,0.62727,0.56835,0.51621,0.46408,0.42644,0.38881,0.3626,0.33639
0.33654,0.36297,0.3894,0.42703,0.46466,0.51709,0.56953,0.62722,0.68492,0.74263,0.80035,0.86382,0.9273,1.0056,1.084,1.176,1.2679,1.3708,1.4736,1.5866,1.6997,1.8181,1.9366,2.0557,2.1748,2.2914,2.408,2.501,2.594,2.6632,3.0689,3.1667,3.2645,3.3667,3.4689,3.5465,3.6241,3.7127,3.8013,3.8691,3.9369,3.9903,4.0437,4.0859,4.1281,4.1893,4.2505,4.2855,4.3205,4.362,4.4034,4.4554,4.5073,4.5466,4.5858,4.5886,4.5913,4.5615,4.5317,4.4769,4.422,4.3832,4.3443,4.3124,4.2805,4.2183,4.1562,4.1101,4.064,4.0056,3.9472,3.8725,3.7978,3.7036,3.6093,3.5273,3.4452,3.3402,3.2352,3.1375,3.0397,2.6373,2.5708,2.4909,2.4111,2.2972,2.1833,2.0605,1.9377,1.8137,1.6896,1.5794,1.4692,1.3727,1.2763,1.1889,1.1016,1.0246,0.9476,0.87914,0.81067,0.74606,0.68144,0.62334,0.56524,0.51392,0.46261,0.42546,0.38832,0.36212,0.33592
0.33482,0.36148,0.38813,0.42502,0.46191,0.51256,0.56321,0.61905,0.67488,0.73256,0.79024,0.85436,0.91848,0.99579,1.0731,1.1634,1.2537,1.3551,1.4564,1.5664,1.6765,1.7933,1.9101,2.0299,2.1497,2.264,2.3784,2.4734,2.5684,2.6393,3.045,3.1386,3.2323,3.3322,3.4321,3.5104,3.5887,3.6719,3.7551,3.8238,3.8925,3.9482,4.0039,4.0487,4.0934,4.1537,4.2141,4.2494,4.2847,4.3243,4.3638,4.4122,4.4606,4.4977,4.5348,4.5344,4.534,4.509,4.484,4.4364,4.3887,4.3477,4.3067,4.2738,4.241,4.1807,4.1204,4.0693,4.0183,3.96,3.9016,3.8295,3.7574,3.668,3.5787,3.4989,3.4191,3.3165,3.2139,3.118,3.0221,2.6189,2.5505,2.4678,2.3852,2.2704,2.1556,2.0356,1.9155,1.797,1.6786,1.5706,1.4625,1.3666,1.2707,1.1828,1.0948,1.0165,0.93807,0.86872,0.79936,0.73564,0.67193,0.61515,0.55837,0.50857,0.45876,0.42217,0.38558,0.36016,0.33474
0.3331,0.35998,0.38685,0.42301,0.45916,0.50802,0.55688,0.61087,0.66485,0.72249,0.78012,0.8449,0.90967,0.98592,1.0622,1.1509,1.2395,1.3394,1.4392,1.5462,1.6532,1.7684,1.8836,2.0041,2.1245,2.2367,2.3488,2.4459,2.5429,2.6154,3.021,3.1106,3.2001,3.2977,3.3954,3.4744,3.5534,3.6312,3.7089,3.7786,3.8482,3.9062,3.9642,4.0114,4.0587,4.1182,4.1777,4.2133,4.249,4.2866,4.3242,4.369,4.4138,4.4488,4.4838,4.4803,4.4768,4.4565,4.4362,4.3958,4.3555,4.3123,4.2691,4.2352,4.2014,4.143,4.0846,4.0286,3.9726,3.9144,3.8561,3.7865,3.7169,3.6325,3.548,3.4705,3.393,3.2928,3.1926,3.0985,3.0045,2.6005,2.5302,2.4447,2.3592,2.2436,2.128,2.0106,1.8933,1.7804,1.6675,1.5617,1.4559,1.3605,1.2652,1.1766,1.0881,1.0083,0.92854,0.8583,0.78805,0.72523,0.66241,0.60696,0.55151,0.50321,0.45491,0.41887,0.38283,0.3582,0.33357
0.33026,0.35656,0.38287,0.4179,0.45294,0.50035,0.54776,0.6008,0.65385,0.71085,0.76785,0.8326,0.89735,0.97439,1.0514,1.1397,1.228,1.3273,1.4265,1.5327,1.6389,1.7519,1.8649,1.9839,2.1029,2.2137,2.3244,2.4201,2.5157,2.5875,2.9896,3.0761,3.1626,3.2587,3.3547,3.4349,3.5151,3.5911,3.6672,3.7367,3.8061,3.8664,3.9267,3.9723,4.0178,4.0743,4.1307,4.1674,4.204,4.2409,4.2778,4.3191,4.3604,4.3938,4.4271,4.4248,4.4225,4.4021,4.3817,4.3433,4.3049,4.2607,4.2165,4.1832,4.15,4.0945,4.0391,3.9821,3.9252,3.8686,3.812,3.7459,3.6799,3.5943,3.5088,3.4305,3.3522,3.2546,3.157,3.0637,2.9704,2.5672,2.4956,2.4099,2.3242,2.2111,2.098,1.982,1.866,1.7558,1.6456,1.5411,1.4367,1.3424,1.2482,1.16,1.0717,0.99177,0.91181,0.84276,0.7737,0.71208,0.65046,0.59643,0.5424,0.49593,0.44946,0.41451,0.37956,0.35557,0.33157
0.32742,0.35315,0.37889,0.4128,0.44671,0.49267,0.53863,0.59074,0.64285,0.69921,0.75557,0.8203,0.88504,0.96286,1.0407,1.1286,1.2165,1.3151,1.4138,1.5192,1.6246,1.7354,1.8461,1.9637,2.0812,2.1906,2.3001,2.3942,2.4884,2.5596,2.9581,3.0417,3.1252,3.2196,3.3141,3.3954,3.4768,3.5511,3.6254,3.6948,3.7641,3.8267,3.8893,3.9331,3.9769,4.0304,4.0838,4.1214,4.159,4.1952,4.2314,4.2692,4.307,4.3387,4.3705,4.3693,4.3681,4.3476,4.3271,4.2907,4.2543,4.2091,4.1638,4.1312,4.0985,4.046,3.9935,3.9356,3.8777,3.8228,3.7679,3.7053,3.6428,3.5561,3.4695,3.3904,3.3114,3.2164,3.1215,3.0289,2.9363,2.5338,2.4609,2.3751,2.2893,2.1787,2.0681,1.9534,1.8387,1.7312,1.6236,1.5206,1.4175,1.3243,1.2312,1.1433,1.0554,0.97525,0.89509,0.82722,0.75936,0.69894,0.63852,0.58591,0.53329,0.48865,0.44401,0.41015,0.3763,0.35294,0.32958
0.32407,0.34929,0.37452,0.40745,0.44039,0.48529,0.53018,0.58099,0.63181,0.68793,0.74405,0.80769,0.87133,0.93909,1.0068,1.1014,1.1959,1.2925,1.3891,1.4919,1.5948,1.7035,1.8123,1.9246,2.0369,2.1433,2.2496,2.3438,2.4379,2.5074,2.901,2.9826,3.0642,3.1554,3.2467,3.3254,3.4041,3.4753,3.5465,3.6152,3.6839,3.7475,3.811,3.8463,3.8816,3.9422,4.0028,4.0405,4.0782,4.1116,4.1451,4.1801,4.2152,4.2424,4.2695,4.2706,4.2717,4.2555,4.2394,4.2055,4.1716,4.1277,4.0838,4.0504,4.0169,3.9563,3.8956,3.8458,3.796,3.741,3.686,3.6257,3.5654,3.4827,3.4001,3.3227,3.2454,3.1534,3.0614,2.9691,2.8768,2.4766,2.4029,2.3178,2.2326,2.1273,2.022,1.9117,1.8014,1.698,1.5947,1.4944,1.3941,1.3024,1.2107,1.1162,1.0217,0.95148,0.8813,0.81373,0.74615,0.68594,0.62574,0.57554,0.52535,0.48196,0.43857,0.40543,0.37229,0.34943,0.32657
0.32073,0.34544,0.37015,0.40211,0.43407,0.4779,0.52173,0.57125,0.62077,0.67664,0.73252,0.79507,0.85762,0.91531,0.97301,1.0742,1.1754,1.2699,1.3643,1.4647,1.565,1.6717,1.7784,1.8855,1.9927,2.0959,2.1992,2.2933,2.3875,2.4553,2.8439,2.9236,3.0032,3.0912,3.1792,3.2554,3.3315,3.3996,3.4676,3.5357,3.6038,3.6682,3.7327,3.7595,3.7862,3.854,3.9217,3.9595,3.9974,4.0281,4.0588,4.0911,4.1234,4.146,4.1686,4.1719,4.1752,4.1634,4.1516,4.1202,4.0889,4.0463,4.0038,3.9696,3.9353,3.8665,3.7976,3.756,3.7144,3.6593,3.6042,3.5461,3.4881,3.4093,3.3306,3.255,3.1795,3.0904,3.0013,2.9093,2.8174,2.4194,2.3449,2.2604,2.1759,2.076,1.976,1.8701,1.7641,1.6649,1.5657,1.4682,1.3708,1.2805,1.1902,1.089,0.9879,0.92771,0.86752,0.80023,0.73295,0.67295,0.61295,0.56518,0.5174,0.47527,0.43314,0.40072,0.36829,0.34592,0.32355
0.31688,0.33918,0.36149,0.39432,0.42715,0.4693,0.51145,0.5604,0.60936,0.66487,0.72038,0.78211,0.84383,0.90014,0.95644,1.0538,1.1511,1.2434,1.3357,1.4336,1.5314,1.6363,1.7411,1.8429,1.9447,2.0413,2.1379,2.2302,2.3225,2.3899,2.7742,2.8495,2.9249,3.014,3.1031,3.1774,3.2518,3.3182,3.3847,3.4508,3.517,3.5823,3.6476,3.6773,3.707,3.7733,3.8396,3.8767,3.9138,3.9439,3.974,4.0028,4.0315,4.0478,4.064,4.0661,4.0683,4.0597,4.0511,4.0227,3.9942,3.9517,3.9093,3.8777,3.8461,3.7872,3.7283,3.678,3.6277,3.5706,3.5134,3.4598,3.4061,3.333,3.2598,3.1882,3.1165,3.0259,2.9354,2.849,2.7627,2.3665,2.2904,2.2049,2.1193,2.0248,1.9304,1.8295,1.7286,1.6328,1.5369,1.4414,1.3458,1.258,1.1702,1.0791,0.98801,0.9202,0.85238,0.7846,0.71682,0.6596,0.60238,0.55582,0.50926,0.46862,0.42798,0.39261,0.35725,0.33867,0.32009
0.31303,0.33293,0.35282,0.38652,0.42022,0.46069,0.50116,0.54956,0.59795,0.65309,0.70824,0.76914,0.83005,0.88496,0.93987,1.0334,1.1269,1.217,1.3071,1.4025,1.4979,1.6008,1.7038,1.8003,1.8968,1.9867,2.0766,2.1671,2.2575,2.3244,2.7044,2.7755,2.8466,2.9368,3.027,3.0995,3.1721,3.2369,3.3017,3.366,3.4302,3.4963,3.5625,3.5951,3.6278,3.6927,3.7576,3.7939,3.8303,3.8598,3.8892,3.9144,3.9397,3.9495,3.9594,3.9604,3.9613,3.956,3.9506,3.9251,3.8995,3.8571,3.8147,3.7858,3.7569,3.708,3.6591,3.6,3.541,3.4818,3.4227,3.3734,3.3242,3.2566,3.1891,3.1213,3.0535,2.9615,2.8694,2.7887,2.708,2.3136,2.2359,2.1493,2.0626,1.9737,1.8848,1.7889,1.6931,1.6006,1.5082,1.4146,1.3209,1.2356,1.1502,1.0692,0.98813,0.91268,0.83724,0.76897,0.7007,0.64625,0.5918,0.54646,0.50112,0.46197,0.42282,0.38451,0.34621,0.33142,0.31663
0.30918,0.32859,0.34799,0.38059,0.41319,0.45292,0.49265,0.54002,0.58739,0.64133,0.69526,0.75468,0.8141,0.87429,0.93449,1.0179,1.1014,1.188,1.2747,1.3694,1.4642,1.5641,1.664,1.7541,1.8442,1.9292,2.0143,2.0986,2.1829,2.2483,2.6228,2.6951,2.7674,2.8572,2.947,3.0201,3.0932,3.1589,3.2247,3.2874,3.3501,3.4137,3.4773,3.5136,3.5499,3.6054,3.6609,3.6955,3.73,3.7593,3.7886,3.8124,3.8361,3.8457,3.8552,3.8557,3.8562,3.8469,3.8377,3.8115,3.7853,3.7477,3.7101,3.6838,3.6575,3.6114,3.5652,3.5109,3.4567,3.401,3.3453,3.2955,3.2456,3.177,3.1084,3.0422,2.976,2.8883,2.8007,2.7196,2.6385,2.2483,2.1721,2.0916,2.011,1.9264,1.8418,1.7483,1.6548,1.5633,1.4717,1.3812,1.2907,1.2072,1.1236,1.0442,0.96468,0.89203,0.81939,0.75492,0.69045,0.63645,0.58244,0.53772,0.493,0.45471,0.41642,0.38089,0.34536,0.32971,0.31406
0.30534,0.32425,0.34316,0.37465,0.40615,0.44515,0.48415,0.53049,0.57684,0.62956,0.68229,0.74022,0.79814,0.86363,0.92912,1.0025,1.0759,1.1591,1.2423,1.3364,1.4305,1.5274,1.6243,1.7079,1.7916,1.8718,1.9521,2.0302,2.1083,2.1721,2.5412,2.6147,2.6881,2.7776,2.8671,2.9407,3.0143,3.081,3.1476,3.2088,3.2701,3.3311,3.3921,3.4321,3.472,3.5182,3.5643,3.597,3.6297,3.6589,3.688,3.7103,3.7326,3.7418,3.751,3.751,3.751,3.7379,3.7248,3.698,3.6711,3.6382,3.6054,3.5817,3.558,3.5147,3.4714,3.4219,3.3723,3.3201,3.268,3.2175,3.1671,3.0974,3.0278,2.9631,2.8984,2.8152,2.732,2.6505,2.569,2.1829,2.1083,2.0338,1.9594,1.8792,1.7989,1.7077,1.6166,1.5259,1.4352,1.3478,1.2604,1.1788,1.0971,1.0192,0.94122,0.87138,0.80155,0.74087,0.6802,0.62664,0.57309,0.52898,0.48488,0.44745,0.41002,0.37726,0.34451,0.328,0.31149
0.30128,0.31894,0.3366,0.36768,0.39876,0.43664,0.47452,0.52046,0.5664,0.61753,0.66866,0.72435,0.78005,0.84256,0.90507,0.9747,1.0443,1.125,1.2058,1.2979,1.39,1.4852,1.5804,1.6593,1.7382,1.8141,1.89,1.9619,2.0338,2.0916,2.4505,2.5238,2.597,2.6855,2.7739,2.8465,2.9192,2.9883,3.0573,3.1153,3.1733,3.2272,3.281,3.316,3.3509,3.3948,3.4386,3.4688,3.4991,3.5281,3.5571,3.5838,3.6106,3.6212,3.6319,3.6323,3.6326,3.6161,3.5996,3.5684,3.5371,3.5059,3.4747,3.4539,3.4332,3.3959,3.3586,3.3164,3.2742,3.2239,3.1736,3.1192,3.0647,2.9935,2.9224,2.8583,2.7943,2.7137,2.6331,2.5536,2.4741,2.0986,2.0302,1.9619,1.8937,1.8182,1.7427,1.6542,1.5658,1.4768,1.3879,1.3011,1.2143,1.1362,1.0581,0.98599,0.91392,0.84861,0.7833,0.72613,0.66897,0.61636,0.56375,0.52012,0.47649,0.43827,0.40006,0.36993,0.33981,0.32343,0.30706
0.29722,0.31363,0.33005,0.36071,0.39138,0.42813,0.46489,0.51042,0.55596,0.60549,0.65503,0.70849,0.76195,0.82148,0.88101,0.94691,1.0128,1.091,1.1693,1.2594,1.3496,1.4431,1.5366,1.6107,1.6848,1.7564,1.8279,1.8937,1.9594,2.011,2.3599,2.4329,2.506,2.5933,2.6806,2.7524,2.8241,2.8956,2.967,3.0218,3.0765,3.1232,3.1699,3.1999,3.2298,3.2713,3.3129,3.3406,3.3684,3.3973,3.4262,3.4574,3.4886,3.5007,3.5128,3.5135,3.5143,3.4943,3.4744,3.4388,3.4032,3.3736,3.344,3.3261,3.3083,3.2771,3.2459,3.211,3.1761,3.1277,3.0792,3.0208,2.9624,2.8896,2.8169,2.7535,2.6902,2.6122,2.5343,2.4567,2.3792,2.0143,1.9521,1.89,1.8279,1.7572,1.6864,1.6007,1.515,1.4277,1.3405,1.2543,1.1681,1.0935,1.019,0.95282,0.88662,0.82583,0.76504,0.71139,0.65773,0.60607,0.55441,0.51125,0.4681,0.4291,0.3901,0.36261,0.33511,0.31887,0.30263
0.29381,0.30784,0.32187,0.35295,0.38403,0.41945,0.45487,0.49878,0.54269,0.59027,0.63786,0.68853,0.73921,0.79483,0.85045,0.91324,0.97604,1.0487,1.1214,1.2065,1.2916,1.381,1.4705,1.5433,1.6161,1.6866,1.7572,1.8182,1.8792,1.9264,2.2675,2.3327,2.3979,2.4803,2.5627,2.6306,2.6985,2.7692,2.8399,2.8919,2.9439,2.9873,3.0306,3.0588,3.0871,3.1269,3.1667,3.192,3.2173,3.2478,3.2782,3.3103,3.3423,3.3574,3.3724,3.3732,3.374,3.3504,3.3267,3.2898,3.2529,3.217,3.1811,3.1686,3.1561,3.1268,3.0976,3.0667,3.0359,2.9897,2.9435,2.8879,2.8323,2.7632,2.6941,2.6343,2.5745,2.4999,2.4252,2.3546,2.284,1.9292,1.8718,1.8141,1.7564,1.6866,1.6168,1.5322,1.4476,1.3634,1.2792,1.1922,1.1051,1.0413,0.97744,0.9157,0.85396,0.79634,0.73871,0.68809,0.63747,0.58919,0.54091,0.4992,0.45748,0.42069,0.38389,0.35658,0.32927,0.31331,0.29735
0.29041,0.30205,0.31369,0.34519,0.37668,0.41077,0.44486,0.48714,0.52943,0.57506,0.62069,0.66858,0.71647,0.76818,0.81988,0.87958,0.93929,1.0064,1.0736,1.1535,1.2335,1.3189,1.4044,1.4759,1.5473,1.6168,1.6864,1.7427,1.7989,1.8418,2.1752,2.2324,2.2897,2.3672,2.4447,2.5088,2.5729,2.6428,2.7127,2.762,2.8113,2.8513,2.8913,2.9178,2.9444,2.9824,3.0205,3.0434,3.0662,3.0982,3.1302,3.1631,3.196,3.2141,3.2321,3.2329,3.2337,3.2064,3.1791,3.1409,3.1027,3.0604,3.0181,3.011,3.0039,2.9766,2.9493,2.9225,2.8957,2.8518,2.8079,2.755,2.7022,2.6368,2.5714,2.5151,2.4589,2.3875,2.3161,2.2525,2.1888,1.8442,1.7916,1.7382,1.6848,1.6161,1.5473,1.4637,1.3802,1.299,1.2179,1.13,1.0421,0.98898,0.93585,0.87858,0.82131,0.76684,0.71237,0.66479,0.61721,0.57231,0.52742,0.48714,0.44687,0.41228,0.37769,0.35056,0.32343,0.30775,0.29207
0.28737,0.29851,0.30965,0.33741,0.36518,0.39978,0.43438,0.47416,0.51394,0.55703,0.60012,0.64507,0.69002,0.73732,0.78461,0.8399,0.89519,0.95821,1.0212,1.0945,1.1677,1.2456,1.3234,1.3936,1.4637,1.5322,1.6007,1.6542,1.7077,1.7483,2.0763,2.128,2.1797,2.2492,2.3186,2.3818,2.445,2.5097,2.5745,2.6238,2.6732,2.7095,2.7457,2.7672,2.7887,2.8238,2.8588,2.8828,2.9068,2.9374,2.968,2.9997,3.0313,3.0529,3.0744,3.0755,3.0765,3.0478,3.019,2.984,2.949,2.9129,2.8768,2.8611,2.8454,2.8211,2.7967,2.7704,2.744,2.7055,2.6669,2.6159,2.5649,2.5016,2.4383,2.3834,2.3284,2.2653,2.2022,2.1468,2.0914,1.7541,1.7079,1.6593,1.6107,1.5433,1.4759,1.3936,1.3113,1.2357,1.16,1.0834,1.0067,0.94934,0.892,0.83904,0.78608,0.73478,0.68349,0.63867,0.59385,0.55153,0.5092,0.47172,0.43424,0.3995,0.36475,0.34069,0.31663,0.30388,0.29113
0.28434,0.29497,0.30561,0.32964,0.35367,0.38879,0.4239,0.46118,0.49845,0.539,0.57954,0.62156,0.66357,0.70646,0.74934,0.80021,0.85108,0.90998,0.96887,1.0354,1.102,1.1722,1.2424,1.3113,1.3802,1.4476,1.515,1.5658,1.6166,1.6548,1.9774,2.0236,2.0697,2.1311,2.1924,2.2548,2.3172,2.3767,2.4362,2.4856,2.5351,2.5676,2.6002,2.6166,2.6329,2.6651,2.6972,2.7222,2.7473,2.7765,2.8058,2.8363,2.8667,2.8917,2.9167,2.9181,2.9194,2.8892,2.859,2.8271,2.7952,2.7653,2.7354,2.7111,2.6869,2.6655,2.6441,2.6182,2.5923,2.5592,2.526,2.4768,2.4276,2.3664,2.3052,2.2516,2.1979,2.1431,2.0882,2.0411,1.994,1.664,1.6243,1.5804,1.5366,1.4705,1.4044,1.3234,1.2424,1.1723,1.1022,1.0367,0.97127,0.90971,0.84814,0.7995,0.75085,0.70273,0.6546,0.61255,0.5705,0.53074,0.49099,0.4563,0.42162,0.38672,0.35182,0.33082,0.30982,0.3,0.29018
0.27831,0.28971,0.30112,0.32085,0.34058,0.37526,0.40994,0.44488,0.47981,0.51648,0.55315,0.59205,0.63096,0.6722,0.71344,0.76198,0.81052,0.86627,0.92202,0.97747,1.0329,1.1026,1.1723,1.2357,1.299,1.3634,1.4277,1.4768,1.5259,1.5633,1.8789,1.9225,1.966,2.0189,2.0718,2.1311,2.1903,2.2419,2.2935,2.3386,2.3837,2.4164,2.4491,2.4655,2.4819,2.5139,2.5459,2.5698,2.5937,2.6137,2.6337,2.6667,2.6997,2.7209,2.7421,2.7444,2.7467,2.7224,2.6981,2.6659,2.6336,2.6111,2.5887,2.5654,2.5422,2.5197,2.4973,2.4682,2.4391,2.4077,2.3764,2.3334,2.2904,2.2335,2.1766,2.1257,2.0748,2.0244,1.974,1.9293,1.8846,1.5641,1.5274,1.4852,1.4431,1.381,1.3189,1.2456,1.1722,1.1026,1.033,0.97836,0.92374,0.86735,0.81096,0.76391,0.71686,0.67113,0.62541,0.58561,0.5458,0.50905,0.47229,0.44022,0.40814,0.37377,0.3394,0.32086,0.30232,0.29305,0.28378
0.27227,0.28445,0.29664,0.31207,0.32749,0.36174,0.39598,0.42858,0.46118,0.49397,0.52676,0.56255,0.59834,0.63794,0.67753,0.72374,0.76995,0.82256,0.87517,0.91949,0.96381,1.033,1.1022,1.16,1.2179,1.2792,1.3405,1.3879,1.4352,1.4717,1.7805,1.8214,1.8623,1.9067,1.9511,2.0073,2.0635,2.1072,2.1508,2.1916,2.2324,2.2652,2.298,2.3144,2.3308,2.3627,2.3946,2.4174,2.4401,2.4509,2.4617,2.4972,2.5326,2.5501,2.5675,2.5708,2.574,2.5556,2.5372,2.5046,2.472,2.457,2.4419,2.4197,2.3974,2.3739,2.3504,2.3181,2.2858,2.2563,2.2268,2.19,2.1532,2.1006,2.0479,1.9998,1.9516,1.9057,1.8598,1.8175,1.7753,1.4642,1.4305,1.39,1.3496,1.2916,1.2335,1.1677,1.102,1.0329,0.96381,0.92001,0.87622,0.825,0.77378,0.72833,0.68287,0.63954,0.59621,0.55866,0.52111,0.48736,0.4536,0.42413,0.39466,0.36083,0.32699,0.31091,0.29482,0.2861,0.27738
0.26286,0.27677,0.29068,0.30363,0.31657,0.34873,0.3809,0.4111,0.4413,0.47206,0.50282,0.53617,0.56951,0.60651,0.6435,0.68737,0.73125,0.7796,0.82796,0.87399,0.92001,0.97836,1.0367,1.0834,1.13,1.1922,1.2543,1.3011,1.3478,1.3812,1.6774,1.7182,1.7589,1.798,1.8371,1.8899,1.9426,1.9817,2.0207,2.0556,2.0906,2.1233,2.1561,2.1729,2.1897,2.2201,2.2505,2.2715,2.2926,2.3076,2.3225,2.3478,2.3731,2.3813,2.3894,2.3986,2.4078,2.3955,2.3833,2.3587,2.334,2.3154,2.2967,2.2759,2.2551,2.2323,2.2095,2.1782,2.147,2.116,2.0851,2.0534,2.0217,1.9734,1.925,1.8815,1.838,1.7954,1.7529,1.7127,1.6725,1.3694,1.3364,1.2979,1.2594,1.2065,1.1535,1.0945,1.0354,0.97747,0.91949,0.87399,0.82848,0.78151,0.73453,0.69116,0.6478,0.60769,0.56758,0.53246,0.49735,0.46623,0.43511,0.40694,0.37877,0.34876,0.31875,0.30351,0.28826,0.27912,0.26997
0.25344,0.26908,0.28473,0.29519,0.30565,0.33573,0.36582,0.39362,0.42142,0.45015,0.47889,0.50978,0.54068,0.57508,0.60947,0.65101,0.69254,0.73664,0.78074,0.82848,0.87622,0.92374,0.97127,1.0067,1.0421,1.1051,1.1681,1.2143,1.2604,1.2907,1.5744,1.6149,1.6555,1.6893,1.7232,1.7724,1.8217,1.8562,1.8906,1.9197,1.9487,1.9815,2.0143,2.0315,2.0487,2.0775,2.1063,2.1257,2.1451,2.1642,2.1833,2.1984,2.2135,2.2125,2.2114,2.2265,2.2416,2.2355,2.2293,2.2127,2.1961,2.1738,2.1515,2.1322,2.1128,2.0907,2.0686,2.0384,2.0082,1.9758,1.9434,1.9168,1.8902,1.8462,1.8021,1.7632,1.7243,1.6852,1.6461,1.6079,1.5697,1.2747,1.2423,1.2058,1.1693,1.1214,1.0736,1.0212,0.96887,0.92202,0.87517,0.82796,0.78074,0.73801,0.69528,0.654,0.61272,0.57583,0.53894,0.50626,0.47359,0.44511,0.41663,0.38975,0.36288,0.3367,0.31052,0.29611,0.28171,0.27214,0.26257
0.24826,0.261,0.27374,0.28946,0.30518,0.32686,0.34853,0.37602,0.40352,0.43076,0.458,0.48679,0.51558,0.54702,0.57846,0.61706,0.65567,0.69684,0.73801,0.78151,0.825,0.86735,0.90971,0.94934,0.98898,1.0413,1.0935,1.1362,1.1788,1.2072,1.4838,1.519,1.5542,1.5919,1.6295,1.6693,1.7091,1.7427,1.7763,1.8021,1.8279,1.8571,1.8864,1.9021,1.9178,1.9443,1.9708,1.9893,2.0079,2.0249,2.042,2.0554,2.0688,2.0744,2.08,2.09,2.1,2.0944,2.0887,2.0734,2.0581,2.0376,2.0171,1.9992,1.9814,1.9612,1.941,1.913,1.885,1.8533,1.8217,1.7955,1.7692,1.7279,1.6866,1.6513,1.6161,1.5808,1.5455,1.5085,1.4715,1.188,1.1591,1.125,1.091,1.0487,1.0064,0.95821,0.90998,0.86627,0.82256,0.7796,0.73664,0.69684,0.65704,0.61873,0.58041,0.54632,0.51222,0.482,0.45178,0.42513,0.39847,0.37285,0.34724,0.32409,0.30095,0.28829,0.27564,0.26508,0.25452
0.24308,0.25292,0.26276,0.28374,0.30472,0.31798,0.33125,0.35843,0.38562,0.41137,0.43712,0.46381,0.49049,0.51897,0.54745,0.58312,0.61879,0.65704,0.69528,0.73453,0.77378,0.81096,0.84814,0.892,0.93585,0.97744,1.019,1.0581,1.0971,1.1236,1.3933,1.4231,1.4529,1.4944,1.5359,1.5662,1.5964,1.6292,1.6619,1.6845,1.7071,1.7328,1.7584,1.7727,1.787,1.8111,1.8353,1.853,1.8707,1.8857,1.9007,1.9123,1.924,1.9363,1.9486,1.9535,1.9583,1.9532,1.9482,1.9342,1.9201,1.9014,1.8827,1.8663,1.85,1.8316,1.8133,1.7875,1.7618,1.7309,1.7,1.6741,1.6483,1.6097,1.5711,1.5395,1.5079,1.4764,1.4449,1.4091,1.3734,1.1014,1.0759,1.0443,1.0128,0.97604,0.93929,0.89519,0.85108,0.81052,0.76995,0.73125,0.69254,0.65567,0.61879,0.58345,0.54811,0.5168,0.4855,0.45773,0.42997,0.40514,0.38032,0.35596,0.33159,0.31149,0.29138,0.28047,0.26957,0.25802,0.24648
0.2355,0.24517,0.25483,0.27268,0.29053,0.30495,0.31937,0.34347,0.36758,0.39231,0.41705,0.44154,0.46603,0.49248,0.51893,0.55119,0.58345,0.61873,0.654,0.69116,0.72833,0.76391,0.7995,0.83904,0.87858,0.9157,0.95282,0.98599,1.0192,1.0442,1.3047,1.3243,1.3439,1.3888,1.4338,1.4649,1.496,1.5263,1.5565,1.5783,1.6,1.621,1.642,1.6559,1.6698,1.6909,1.712,1.7201,1.7282,1.7449,1.7617,1.7818,1.802,1.8137,1.8255,1.8289,1.8324,1.8259,1.8194,1.8061,1.7929,1.7665,1.74,1.7332,1.7264,1.7111,1.6959,1.6735,1.6512,1.623,1.5948,1.5677,1.5406,1.5054,1.4702,1.443,1.4158,1.3738,1.3318,1.3024,1.273,1.0179,1.0025,0.9747,0.94691,0.91324,0.87958,0.8399,0.80021,0.76198,0.72374,0.68737,0.65101,0.61706,0.58312,0.55119,0.51926,0.49074,0.46222,0.43705,0.41187,0.38823,0.3646,0.34198,0.31935,0.3033,0.28724,0.27243,0.25762,0.24865,0.23968
0.22792,0.23741,0.24691,0.26162,0.27633,0.29192,0.3075,0.32852,0.34954,0.37326,0.39698,0.41928,0.44157,0.46599,0.49041,0.51926,0.54811,0.58041,0.61272,0.6478,0.68287,0.71686,0.75085,0.78608,0.82131,0.85396,0.88662,0.91392,0.94122,0.96468,1.216,1.2254,1.2348,1.2833,1.3317,1.3637,1.3956,1.4234,1.4512,1.472,1.4929,1.5092,1.5256,1.5391,1.5526,1.5707,1.5888,1.5873,1.5857,1.6042,1.6227,1.6514,1.68,1.6911,1.7023,1.7044,1.7065,1.6985,1.6906,1.6781,1.6657,1.6315,1.5974,1.6001,1.6029,1.5907,1.5785,1.5595,1.5406,1.5151,1.4897,1.4613,1.4329,1.4011,1.3693,1.3465,1.3238,1.2712,1.2187,1.1957,1.1727,0.93449,0.92912,0.90507,0.88101,0.85045,0.81988,0.78461,0.74934,0.71344,0.67753,0.6435,0.60947,0.57846,0.54745,0.51893,0.49041,0.46468,0.43894,0.41636,0.39377,0.37133,0.34888,0.328,0.30712,0.29511,0.2831,0.26439,0.24567,0.23927,0.23287
0.22011,0.23127,0.24244,0.25471,0.26698,0.2837,0.30043,0.31506,0.3297,0.35264,0.37558,0.39783,0.42007,0.44237,0.46468,0.49074,0.5168,0.54632,0.57583,0.60769,0.63954,0.67113,0.70273,0.73478,0.76684,0.79634,0.82583,0.84861,0.87138,0.89203,1.1328,1.1515,1.1701,1.2062,1.2422,1.2755,1.3087,1.3315,1.3543,1.3686,1.3828,1.4043,1.4257,1.4382,1.4506,1.4651,1.4797,1.4854,1.4911,1.5078,1.5245,1.5454,1.5664,1.5773,1.5883,1.5912,1.594,1.5859,1.5778,1.5642,1.5506,1.5267,1.5028,1.4985,1.4942,1.4843,1.4743,1.4588,1.4434,1.4128,1.3823,1.3587,1.3351,1.3097,1.2844,1.2593,1.2342,1.1943,1.1544,1.133,1.1116,0.87429,0.86363,0.84256,0.82148,0.79483,0.76818,0.73732,0.70646,0.6722,0.63794,0.60651,0.57508,0.54702,0.51897,0.49248,0.46599,0.44237,0.41876,0.39689,0.37502,0.35225,0.32949,0.31396,0.29843,0.28488,0.27133,0.25519,0.23906,0.23284,0.22662
0.2123,0.22514,0.23797,0.2478,0.25762,0.27548,0.29335,0.3016,0.30986,0.33202,0.35418,0.37637,0.39857,0.41876,0.43894,0.46222,0.4855,0.51222,0.53894,0.56758,0.59621,0.62541,0.6546,0.68349,0.71237,0.73871,0.76504,0.7833,0.80155,0.81939,1.0495,1.0775,1.1055,1.1291,1.1527,1.1873,1.2219,1.2397,1.2575,1.2651,1.2727,1.2993,1.3259,1.3372,1.3486,1.3596,1.3705,1.3835,1.3966,1.4114,1.4263,1.4395,1.4527,1.4635,1.4743,1.4779,1.4815,1.4733,1.4651,1.4503,1.4356,1.4219,1.4082,1.3969,1.3856,1.3778,1.3701,1.3581,1.3462,1.3105,1.2748,1.2561,1.2374,1.2184,1.1994,1.172,1.1446,1.1173,1.0901,1.0702,1.0504,0.8141,0.79814,0.78005,0.76195,0.73921,0.71647,0.69002,0.66357,0.63096,0.59834,0.56951,0.54068,0.51558,0.49049,0.46603,0.44157,0.42007,0.39857,0.37742,0.35626,0.33318,0.31009,0.29992,0.28975,0.27465,0.25955,0.246,0.23244,0.22641,0.22038
0.20721,0.21716,0.22711,0.23736,0.2476,0.26322,0.27883,0.29142,0.304,0.32087,0.33774,0.35758,0.37742,0.39689,0.41636,0.43705,0.45773,0.482,0.50626,0.53246,0.55866,0.58561,0.61255,0.63867,0.66479,0.68809,0.71139,0.72613,0.74087,0.75492,0.97618,1.0018,1.0273,1.0511,1.0748,1.106,1.1371,1.1601,1.1831,1.1936,1.2041,1.2227,1.2412,1.2512,1.2613,1.2696,1.278,1.2897,1.3013,1.3146,1.3278,1.3403,1.3528,1.363,1.3733,1.3766,1.38,1.3712,1.3624,1.347,1.3315,1.3208,1.31,1.3005,1.291,1.2843,1.2776,1.2665,1.2555,1.2303,1.2051,1.1858,1.1664,1.1449,1.1235,1.0958,1.0682,1.0449,1.0215,1.0014,0.9814,0.75468,0.74022,0.72435,0.70849,0.68853,0.66858,0.64507,0.62156,0.59205,0.56255,0.53617,0.50978,0.48679,0.46381,0.44154,0.41928,0.39783,0.37637,0.35758,0.33879,0.32066,0.30253,0.29055,0.27856,0.26324,0.24793,0.23717,0.22641,0.21933,0.21226
0.20213,0.20918,0.21624,0.22691,0.23759,0.25095,0.26431,0.28123,0.29814,0.30973,0.32131,0.33879,0.35626,0.37502,0.39377,0.41187,0.42997,0.45178,0.47359,0.49735,0.52111,0.5458,0.5705,0.59385,0.61721,0.63747,0.65773,0.66897,0.6802,0.69045,0.90282,0.92601,0.94919,0.97307,0.99695,1.0247,1.0524,1.0806,1.1088,1.1221,1.1355,1.146,1.1566,1.1653,1.1739,1.1797,1.1855,1.1958,1.2061,1.2177,1.2294,1.2411,1.2528,1.2625,1.2722,1.2753,1.2784,1.2691,1.2597,1.2436,1.2275,1.2196,1.2118,1.2042,1.1965,1.1908,1.185,1.1749,1.1648,1.1502,1.1355,1.1154,1.0953,1.0714,1.0475,1.0197,0.99188,0.97239,0.9529,0.93264,0.91237,0.69526,0.68229,0.66866,0.65503,0.63786,0.62069,0.60012,0.57954,0.55315,0.52676,0.50282,0.47889,0.458,0.43712,0.41705,0.39698,0.37558,0.35418,0.33774,0.32131,0.30814,0.29497,0.28117,0.26736,0.25184,0.23631,0.22835,0.22038,0.21226,0.20414
0.1949,0.20354,0.21218,0.22101,0.22983,0.24254,0.25524,0.26755,0.27985,0.294,0.30814,0.32066,0.33318,0.35225,0.37133,0.38823,0.40514,0.42513,0.44511,0.46623,0.48736,0.50905,0.53074,0.55153,0.57231,0.58919,0.60607,0.61636,0.62664,0.63645,0.84115,0.86314,0.88513,0.90695,0.92877,0.95462,0.98047,1.0032,1.0259,1.0433,1.0607,1.0683,1.0758,1.0848,1.0938,1.0991,1.1044,1.1131,1.1218,1.1311,1.1404,1.1504,1.1603,1.1691,1.1778,1.1795,1.1811,1.1734,1.1656,1.1529,1.1402,1.1317,1.1231,1.1167,1.1103,1.1044,1.0985,1.0883,1.0781,1.0702,1.0623,1.0416,1.0209,0.99913,0.97736,0.95228,0.9272,0.90856,0.88991,0.87077,0.85162,0.64133,0.62956,0.61753,0.60549,0.59027,0.57506,0.55703,0.539,0.51648,0.49397,0.47206,0.45015,0.43076,0.41137,0.39231,0.37326,0.35264,0.33202,0.32087,0.30973,0.294,0.27827,0.26657,0.25487,0.24143,0.228,0.22063,0.21326,0.2059,0.19853
0.18766,0.19789,0.20812,0.2151,0.22208,0.23413,0.24617,0.25387,0.26156,0.27827,0.29497,0.30253,0.31009,0.32949,0.34888,0.3646,0.38032,0.39847,0.41663,0.43511,0.4536,0.47229,0.49099,0.5092,0.52742,0.54091,0.55441,0.56375,0.57309,0.58244,0.77947,0.80027,0.82108,0.84084,0.8606,0.88459,0.90859,0.92579,0.943,0.96446,0.98592,0.99047,0.99501,1.0044,1.0137,1.0184,1.0232,1.0303,1.0374,1.0445,1.0515,1.0597,1.0678,1.0756,1.0834,1.0836,1.0838,1.0777,1.0715,1.0623,1.053,1.0437,1.0344,1.0293,1.0241,1.018,1.0119,1.0016,0.9913,0.9902,0.9891,0.96779,0.94648,0.92686,0.90723,0.88488,0.86253,0.84472,0.82691,0.80889,0.79087,0.58739,0.57684,0.5664,0.55596,0.54269,0.52943,0.51394,0.49845,0.47981,0.46118,0.4413,0.42142,0.40352,0.38562,0.36758,0.34954,0.3297,0.30986,0.304,0.29814,0.27985,0.26156,0.25197,0.24238,0.23103,0.21968,0.21292,0.20615,0.19954,0.19292
0.18258,0.19073,0.19888,0.20612,0.21336,0.22411,0.23486,0.24342,0.25197,0.26657,0.28117,0.29055,0.29992,0.31396,0.328,0.34198,0.35596,0.37285,0.38975,0.40694,0.42413,0.44022,0.4563,0.47172,0.48714,0.4992,0.51125,0.52012,0.52898,0.53772,0.72904,0.74655,0.76406,0.78166,0.79927,0.82054,0.84182,0.85857,0.87531,0.89384,0.91237,0.91976,0.92715,0.93301,0.93886,0.94278,0.94669,0.95385,0.961,0.96734,0.97369,0.98024,0.98679,0.99218,0.99756,0.99798,0.9984,0.99428,0.99016,0.9826,0.97504,0.96692,0.9588,0.95157,0.94434,0.93991,0.93548,0.93021,0.92494,0.91869,0.91243,0.89676,0.88109,0.86246,0.84383,0.82389,0.80394,0.78681,0.76968,0.75334,0.73699,0.54002,0.53049,0.52046,0.51042,0.49878,0.48714,0.47416,0.46118,0.44488,0.42858,0.4111,0.39362,0.37602,0.35843,0.34347,0.32852,0.31506,0.3016,0.29142,0.28123,0.26755,0.25387,0.24342,0.23297,0.22309,0.21321,0.20582,0.19843,0.19293,0.18743
0.17749,0.18357,0.18964,0.19714,0.20464,0.2141,0.22355,0.23297,0.24238,0.25487,0.26736,0.27856,0.28975,0.29843,0.30712,0.31935,0.33159,0.34724,0.36288,0.37877,0.39466,0.40814,0.42162,0.43424,0.44687,0.45748,0.4681,0.47649,0.48488,0.493,0.67862,0.69283,0.70704,0.72249,0.73794,0.7565,0.77506,0.79134,0.80762,0.82322,0.83882,0.84905,0.85928,0.86164,0.864,0.86711,0.87022,0.87742,0.88461,0.89022,0.89582,0.90079,0.90576,0.90876,0.91176,0.91236,0.91295,0.91087,0.90878,0.90294,0.8971,0.89016,0.88322,0.87388,0.86454,0.86178,0.85901,0.8588,0.85859,0.84718,0.83577,0.82574,0.8157,0.79807,0.78043,0.7629,0.74536,0.72891,0.71245,0.69778,0.6831,0.49265,0.48415,0.47452,0.46489,0.45487,0.44486,0.43438,0.4239,0.40994,0.39598,0.3809,0.36582,0.34853,0.33125,0.31937,0.3075,0.30043,0.29335,0.27883,0.26431,0.25524,0.24617,0.23486,0.22355,0.21514,0.20673,0.19872,0.19072,0.18633,0.18194
0.17179,0.17829,0.18478,0.19206,0.19934,0.20724,0.21514,0.22309,0.23103,0.24143,0.25184,0.26324,0.27465,0.28488,0.29511,0.3033,0.31149,0.32409,0.3367,0.34876,0.36083,0.37377,0.38672,0.3995,0.41228,0.42069,0.4291,0.43827,0.44745,0.45471,0.63376,0.6469,0.66005,0.67402,0.68799,0.70317,0.71835,0.73165,0.74495,0.75765,0.77034,0.78104,0.79174,0.79744,0.80313,0.80365,0.80416,0.80938,0.8146,0.81806,0.82152,0.82669,0.83186,0.83614,0.84041,0.84014,0.83987,0.83805,0.83623,0.82997,0.8237,0.81735,0.811,0.80882,0.80663,0.80088,0.79513,0.79227,0.7894,0.77943,0.76945,0.76033,0.75122,0.73667,0.72212,0.70759,0.69306,0.67734,0.66162,0.64926,0.63689,0.45292,0.44515,0.43664,0.42813,0.41945,0.41077,0.39978,0.38879,0.37526,0.36174,0.34873,0.33573,0.32686,0.31798,0.30495,0.29192,0.2837,0.27548,0.26322,0.25095,0.24254,0.23413,0.22411,0.2141,0.20724,0.20039,0.19205,0.18372,0.17996,0.1762
0.16608,0.173,0.17993,0.18699,0.19404,0.20039,0.20673,0.21321,0.21968,0.228,0.23631,0.24793,0.25955,0.27133,0.2831,0.28724,0.29138,0.30095,0.31052,0.31875,0.32699,0.3394,0.35182,0.36475,0.37769,0.38389,0.3901,0.40006,0.41002,0.41642,0.58889,0.60098,0.61307,0.62556,0.63805,0.64985,0.66164,0.67196,0.68229,0.69207,0.70186,0.71303,0.72421,0.73324,0.74227,0.74018,0.73809,0.74134,0.74459,0.7459,0.74722,0.75259,0.75797,0.76352,0.76906,0.76792,0.76678,0.76524,0.76369,0.757,0.75031,0.74455,0.73879,0.74376,0.74872,0.73998,0.73125,0.72574,0.72022,0.71168,0.70313,0.69493,0.68674,0.67527,0.66381,0.65228,0.64076,0.62577,0.61079,0.60074,0.59068,0.41319,0.40615,0.39876,0.39138,0.38403,0.37668,0.36518,0.35367,0.34058,0.32749,0.31657,0.30565,0.30518,0.30472,0.29053,0.27633,0.26698,0.25762,0.2476,0.23759,0.22983,0.22208,0.21336,0.20464,0.19934,0.19404,0.18538,0.17672,0.17359,0.17046
0.16034,0.16631,0.17228,0.17883,0.18538,0.19205,0.19872,0.20582,0.21292,0.22063,0.22835,0.23717,0.246,0.25519,0.26439,0.27243,0.28047,0.28829,0.29611,0.30351,0.31091,0.32086,0.33082,0.34069,0.35056,0.35658,0.36261,0.36993,0.37726,0.38089,0.54485,0.55893,0.573,0.58427,0.59553,0.60656,0.6176,0.62799,0.63838,0.64707,0.65576,0.6644,0.67303,0.68021,0.68739,0.69033,0.69327,0.69575,0.69822,0.69783,0.69743,0.70145,0.70547,0.70837,0.71127,0.70953,0.70779,0.70735,0.7069,0.70174,0.69658,0.69624,0.6959,0.6949,0.69389,0.68719,0.68049,0.67688,0.67326,0.6638,0.65433,0.64823,0.64213,0.63114,0.62015,0.60997,0.59979,0.58629,0.57279,0.56228,0.55177,0.38059,0.37465,0.36768,0.36071,0.35295,0.34519,0.33741,0.32964,0.32085,0.31207,0.30363,0.29519,0.28946,0.28374,0.27268,0.26162,0.25471,0.2478,0.23736,0.22691,0.22101,0.2151,0.20612,0.19714,0.19206,0.18699,0.17883,0.17068,0.16796,0.16525
0.1546,0.15962,0.16464,0.17068,0.17672,0.18372,0.19072,0.19843,0.20615,0.21326,0.22038,0.22641,0.23244,0.23906,0.24567,0.25762,0.26957,0.27564,0.28171,0.28826,0.29482,0.30232,0.30982,0.31663,0.32343,0.32927,0.33511,0.33981,0.34451,0.34536,0.50081,0.51687,0.53293,0.54297,0.55302,0.56328,0.57355,0.58401,0.59447,0.60207,0.60967,0.61576,0.62185,0.62719,0.63252,0.64049,0.64845,0.65015,0.65186,0.64975,0.64764,0.65031,0.65298,0.65323,0.65348,0.65114,0.6488,0.64946,0.65012,0.64648,0.64285,0.64793,0.65302,0.64604,0.63906,0.6344,0.62974,0.62802,0.6263,0.61591,0.60553,0.60153,0.59753,0.58701,0.57649,0.56765,0.55882,0.5468,0.53478,0.52382,0.51286,0.34799,0.34316,0.3366,0.33005,0.32187,0.31369,0.30965,0.30561,0.30112,0.29664,0.29068,0.28473,0.27374,0.26276,0.25483,0.24691,0.24244,0.23797,0.22711,0.21624,0.21218,0.20812,0.19888,0.18964,0.18478,0.17993,0.17228,0.16464,0.16234,0.16004
0.15372,0.15803,0.16234,0.16796,0.17359,0.17996,0.18633,0.19293,0.19954,0.2059,0.21226,0.21933,0.22641,0.23284,0.23927,0.24865,0.25802,0.26508,0.27214,0.27912,0.2861,0.29305,0.3,0.30388,0.30775,0.31331,0.31887,0.32343,0.328,0.32971,0.48514,0.4967,0.50826,0.51739,0.52653,0.53553,0.54453,0.55309,0.56166,0.56849,0.57533,0.58236,0.58939,0.59432,0.59925,0.60521,0.61118,0.61438,0.61758,0.6183,0.61903,0.62164,0.62425,0.62282,0.62138,0.62115,0.62092,0.62195,0.62297,0.61942,0.61587,0.61544,0.615,0.61043,0.60586,0.60074,0.59561,0.59143,0.58726,0.57976,0.57225,0.56656,0.56087,0.5522,0.54354,0.53485,0.52616,0.51561,0.50505,0.49721,0.48937,0.32859,0.32425,0.31894,0.31363,0.30784,0.30205,0.29851,0.29497,0.28971,0.28445,0.27677,0.26908,0.261,0.25292,0.24517,0.23741,0.23127,0.22514,0.21716,0.20918,0.20354,0.19789,0.19073,0.18357,0.17829,0.173,0.16631,0.15962,0.15803,0.15644
0.15284,0.15644,0.16004,0.16525,0.17046,0.1762,0.18194,0.18743,0.19292,0.19853,0.20414,0.21226,0.22038,0.22662,0.23287,0.23968,0.24648,0.25452,0.26257,0.26997,0.27738,0.28378,0.29018,0.29113,0.29207,0.29735,0.30263,0.30706,0.31149,0.31406,0.46947,0.47653,0.48359,0.49181,0.50004,0.50777,0.51551,0.52218,0.52885,0.53492,0.54099,0.54896,0.55692,0.56145,0.56597,0.56993,0.5739,0.5786,0.58329,0.58685,0.59041,0.59296,0.59551,0.5924,0.58929,0.59116,0.59304,0.59443,0.59582,0.59236,0.5889,0.58295,0.57699,0.57483,0.57266,0.56707,0.56149,0.55485,0.54822,0.5436,0.53898,0.53159,0.52421,0.5174,0.5106,0.50205,0.4935,0.48441,0.47533,0.4706,0.46587,0.30918,0.30534,0.30128,0.29722,0.29381,0.29041,0.28737,0.28434,0.27831,0.27227,0.26286,0.25344,0.24826,0.24308,0.2355,0.22792,0.22011,0.2123,0.20721,0.20213,0.1949,0.18766,0.18258,0.17749,0.17179,0.16608,0.16034,0.1546,0.15372,0.15284
