0.0072877,0.0076668,0.0080459,0.0085626,0.0090792,0.0099554,0.010832,0.011983,0.013135,0.017407,0.021678,0.024604,0.027529,0.029223,0.030917,0.031389,0.031861,0.033686,0.035512,0.035555,0.035598,0.036226,0.036854,0.036984,0.037115,0.039424,0.041732,0.043217,0.044701,0.04635,0.047999,0.048187,0.048375,0.048524,0.048674,0.047943,0.047213,0.046045,0.044878,0.044938,0.044997,0.045243,0.045489,0.045873,0.046256,0.046482,0.046707,0.046731,0.046754,0.046255,0.045755,0.045331,0.044906,0.043559,0.042212,0.041281,0.04035,0.037628,0.034906,0.035524,0.036141,0.035101,0.03406,0.03333,0.032601,0.030631,0.028661,0.026151,0.02364,0.023539,0.023437,0.021635,0.019833,0.016314,0.012796,0.011088,0.0093801,0.0086071,0.0078341,0.0075609,0.0072877
0.0075609,0.0079685,0.0083762,0.0089362,0.0094961,0.010487,0.011477,0.012741,0.014004,0.01891,0.023817,0.026281,0.028745,0.03068,0.032615,0.034254,0.035894,0.037481,0.039069,0.039313,0.039558,0.040602,0.041645,0.042121,0.042596,0.044754,0.046911,0.048095,0.049279,0.05106,0.052842,0.053385,0.053929,0.054234,0.054539,0.05398,0.053422,0.053124,0.052826,0.052765,0.052704,0.052465,0.052227,0.052365,0.052502,0.052575,0.052647,0.052364,0.052081,0.051492,0.050903,0.050437,0.049971,0.048461,0.04695,0.046093,0.045235,0.042484,0.039733,0.039906,0.040079,0.038741,0.037403,0.036662,0.03592,0.033582,0.031244,0.029306,0.027367,0.026199,0.02503,0.02251,0.019989,0.016704,0.013418,0.011663,0.0099079,0.0090891,0.0082703,0.0079685,0.0076668
0.0078341,0.0082703,0.0087065,0.0093098,0.0099131,0.011018,0.012123,0.013498,0.014873,0.020414,0.025956,0.027958,0.02996,0.032136,0.034312,0.03712,0.039928,0.041277,0.042625,0.043072,0.043518,0.044978,0.046437,0.047257,0.048076,0.050083,0.05209,0.052974,0.053857,0.055771,0.057684,0.058583,0.059483,0.059943,0.060404,0.060018,0.059632,0.060203,0.060774,0.060592,0.06041,0.059688,0.058966,0.058857,0.058748,0.058667,0.058587,0.057997,0.057407,0.056729,0.056051,0.055544,0.055037,0.053363,0.051689,0.050905,0.050121,0.047341,0.044561,0.044288,0.044016,0.042381,0.040746,0.039993,0.03924,0.036533,0.033827,0.03246,0.031094,0.028859,0.026623,0.023384,0.020145,0.017093,0.014041,0.012238,0.010436,0.0095711,0.0087065,0.0083762,0.0080459
0.0086071,0.0090891,0.0095711,0.010125,0.010679,0.01186,0.013041,0.014298,0.015555,0.021568,0.027581,0.028915,0.030249,0.034112,0.037974,0.040662,0.04335,0.045125,0.0469,0.048077,0.049254,0.051278,0.053302,0.053647,0.053993,0.056123,0.058254,0.060084,0.061914,0.06462,0.067326,0.066692,0.066057,0.06692,0.067782,0.068135,0.068488,0.0695,0.070511,0.070081,0.069651,0.068363,0.067076,0.066771,0.066466,0.066269,0.066071,0.066236,0.066401,0.064756,0.063112,0.062659,0.062205,0.06032,0.058436,0.057755,0.057074,0.054277,0.05148,0.050702,0.049923,0.047662,0.045401,0.04433,0.043259,0.040187,0.037115,0.035552,0.033988,0.031396,0.028804,0.026005,0.023206,0.018696,0.014185,0.012563,0.01094,0.010125,0.0093098,0.0089362,0.0085626
0.0093801,0.0099079,0.010436,0.01094,0.011444,0.012702,0.01396,0.015099,0.016238,0.022722,0.029206,0.029872,0.030539,0.036087,0.041636,0.044204,0.046773,0.048974,0.051175,0.053083,0.05499,0.057579,0.060167,0.060038,0.059909,0.062163,0.064417,0.067194,0.069971,0.07347,0.076968,0.0748,0.072631,0.073896,0.075161,0.076253,0.077345,0.078796,0.080248,0.079569,0.078891,0.077038,0.075186,0.074685,0.074184,0.07387,0.073555,0.074475,0.075394,0.072784,0.070173,0.069773,0.069374,0.067278,0.065183,0.064605,0.064028,0.061214,0.0584,0.057115,0.05583,0.052943,0.050055,0.048666,0.047277,0.04384,0.040404,0.038643,0.036882,0.033933,0.030984,0.028625,0.026266,0.020298,0.01433,0.012887,0.011444,0.010679,0.0099131,0.0094961,0.0090792
0.011088,0.011663,0.012238,0.012563,0.012887,0.015826,0.018765,0.020635,0.022505,0.029922,0.037339,0.036542,0.035745,0.04498,0.054215,0.054639,0.055063,0.062977,0.07089,0.068858,0.066825,0.07064,0.074454,0.082296,0.090137,0.094795,0.099453,0.095148,0.090843,0.093952,0.097061,0.10267,0.10828,0.10996,0.11163,0.11281,0.11398,0.11481,0.11565,0.11625,0.11686,0.11577,0.11468,0.1135,0.11233,0.11053,0.10874,0.10234,0.095944,0.10025,0.10455,0.10358,0.10261,0.10025,0.097895,0.094526,0.091156,0.082984,0.074812,0.071779,0.068745,0.070141,0.071536,0.063996,0.056457,0.052724,0.048991,0.04454,0.040088,0.03768,0.035272,0.031409,0.027546,0.023248,0.01895,0.015826,0.012702,0.01186,0.011018,0.010487,0.0099554
0.012796,0.013418,0.014041,0.014185,0.01433,0.01895,0.02357,0.026171,0.028772,0.037121,0.045471,0.043212,0.040952,0.053873,0.066794,0.065074,0.063353,0.076979,0.090605,0.084633,0.078661,0.083701,0.088742,0.10455,0.12037,0.12743,0.13449,0.1231,0.11172,0.11444,0.11715,0.13054,0.14393,0.14602,0.14811,0.14936,0.15061,0.15083,0.15105,0.15294,0.15483,0.1545,0.15418,0.15232,0.15047,0.14719,0.14392,0.13021,0.11649,0.12771,0.13893,0.13739,0.13585,0.13323,0.13061,0.12445,0.11828,0.10475,0.091225,0.086442,0.08166,0.087339,0.093017,0.079327,0.065637,0.061608,0.057579,0.050436,0.043294,0.041428,0.039561,0.034193,0.028826,0.026198,0.02357,0.018765,0.01396,0.013041,0.012123,0.011477,0.010832
0.016314,0.016704,0.017093,0.018696,0.020298,0.023248,0.026198,0.029215,0.032232,0.041208,0.050184,0.054113,0.058043,0.066679,0.075316,0.078509,0.081701,0.092054,0.10241,0.10228,0.10216,0.10842,0.11468,0.12216,0.12964,0.13762,0.14561,0.14396,0.1423,0.14651,0.15071,0.15763,0.16455,0.16642,0.16829,0.16959,0.1709,0.17112,0.17133,0.17252,0.17371,0.17325,0.17278,0.17133,0.16988,0.16662,0.16336,0.15581,0.14826,0.15164,0.15502,0.15141,0.14779,0.14414,0.14048,0.1357,0.13092,0.12463,0.11834,0.11144,0.10454,0.10463,0.10473,0.093951,0.083172,0.078018,0.072863,0.060737,0.04861,0.04643,0.04425,0.038254,0.032259,0.029215,0.026171,0.020635,0.015099,0.014298,0.013498,0.012741,0.011983
0.019833,0.019989,0.020145,0.023206,0.026266,0.027546,0.028826,0.032259,0.035693,0.045294,0.054896,0.065014,0.075133,0.079486,0.083838,0.091943,0.10005,0.10713,0.11421,0.11993,0.12565,0.13314,0.14062,0.13976,0.13891,0.14782,0.15674,0.16482,0.17289,0.17858,0.18426,0.18471,0.18516,0.18682,0.18847,0.18983,0.19118,0.1914,0.19162,0.19211,0.1926,0.19199,0.19138,0.19034,0.1893,0.18605,0.1828,0.18141,0.18002,0.17557,0.17111,0.16542,0.15973,0.15504,0.15036,0.14695,0.14355,0.1445,0.14545,0.13643,0.12742,0.12193,0.11644,0.10857,0.10071,0.094428,0.088147,0.071037,0.053926,0.051432,0.048938,0.042316,0.035693,0.032232,0.028772,0.022505,0.016238,0.015555,0.014873,0.014004,0.013135
0.021635,0.02251,0.023384,0.026005,0.028625,0.031409,0.034193,0.038254,0.042316,0.050527,0.058739,0.070492,0.082245,0.090209,0.098172,0.10463,0.11109,0.11959,0.1281,0.13234,0.13658,0.14543,0.15427,0.15893,0.1636,0.1728,0.18201,0.18982,0.19764,0.20192,0.2062,0.20894,0.21168,0.21351,0.21533,0.21657,0.2178,0.21838,0.21897,0.21913,0.21929,0.21873,0.21817,0.21704,0.21591,0.21289,0.20987,0.20715,0.20443,0.20006,0.19569,0.19058,0.18547,0.17994,0.17441,0.16749,0.16057,0.15766,0.15475,0.14622,0.13769,0.13401,0.13033,0.12101,0.1117,0.10262,0.093547,0.077368,0.061189,0.058475,0.05576,0.050527,0.045294,0.041208,0.037121,0.029922,0.022722,0.021568,0.020414,0.01891,0.017407
0.023437,0.02503,0.026623,0.028804,0.030984,0.035272,0.039561,0.04425,0.048938,0.05576,0.062582,0.07597,0.089358,0.10093,0.11251,0.11732,0.12213,0.13206,0.14199,0.14475,0.14752,0.15772,0.16792,0.1781,0.18829,0.19778,0.20727,0.21483,0.22239,0.22526,0.22814,0.23316,0.23819,0.24019,0.2422,0.24331,0.24442,0.24537,0.24631,0.24614,0.24598,0.24547,0.24497,0.24375,0.24253,0.23973,0.23694,0.23289,0.22883,0.22455,0.22026,0.21573,0.2112,0.20483,0.19846,0.18802,0.17758,0.17082,0.16405,0.156,0.14796,0.14609,0.14422,0.13345,0.12269,0.11082,0.098947,0.0837,0.068453,0.065517,0.062582,0.058739,0.054896,0.050184,0.045471,0.037339,0.029206,0.027581,0.025956,0.023817,0.021678
0.023539,0.026199,0.028859,0.031396,0.033933,0.03768,0.041428,0.04643,0.051432,0.058475,0.065517,0.08208,0.098642,0.10938,0.12011,0.13429,0.14847,0.1591,0.16973,0.17646,0.18319,0.19668,0.21017,0.22461,0.23904,0.25136,0.26368,0.27422,0.28476,0.29166,0.29856,0.30353,0.30849,0.31196,0.31543,0.31767,0.31991,0.32095,0.32199,0.32266,0.32334,0.32246,0.32158,0.31991,0.31825,0.3148,0.31135,0.30781,0.30426,0.29855,0.29284,0.28453,0.27621,0.26709,0.25797,0.2465,0.23503,0.2234,0.21177,0.19864,0.18552,0.17924,0.17297,0.1637,0.15443,0.13949,0.12455,0.10637,0.088189,0.08208,0.07597,0.070492,0.065014,0.054113,0.043212,0.036542,0.029872,0.028915,0.027958,0.026281,0.024604
0.02364,0.027367,0.031094,0.033988,0.036882,0.040088,0.043294,0.04861,0.053926,0.061189,0.068453,0.088189,0.10793,0.11782,0.12771,0.15126,0.1748,0.18613,0.19746,0.20817,0.21887,0.23565,0.25243,0.27111,0.2898,0.30495,0.3201,0.33361,0.34713,0.35806,0.36899,0.37389,0.3788,0.38374,0.38867,0.39204,0.39541,0.39653,0.39766,0.39918,0.40071,0.39945,0.39819,0.39608,0.39398,0.38987,0.38577,0.38273,0.37968,0.37255,0.36542,0.35333,0.34123,0.32936,0.31748,0.30498,0.29248,0.27598,0.25948,0.24128,0.22308,0.21239,0.20171,0.19394,0.18616,0.16816,0.15015,0.12904,0.10793,0.098642,0.089358,0.082245,0.075133,0.058043,0.040952,0.035745,0.030539,0.030249,0.02996,0.028745,0.027529
0.026151,0.029306,0.03246,0.035552,0.038643,0.04454,0.050436,0.060737,0.071037,0.077368,0.0837,0.10637,0.12904,0.14132,0.15361,0.18256,0.21151,0.22438,0.23725,0.25305,0.26885,0.29233,0.3158,0.33664,0.35747,0.37686,0.39626,0.41243,0.4286,0.43915,0.44971,0.45724,0.46477,0.46958,0.47439,0.47755,0.48071,0.48198,0.48324,0.4834,0.48356,0.48171,0.47986,0.47579,0.47172,0.46464,0.45757,0.44995,0.44234,0.43451,0.42667,0.41326,0.39984,0.38556,0.37128,0.3525,0.33372,0.31595,0.29819,0.27803,0.25788,0.24298,0.22807,0.21413,0.20018,0.1825,0.16483,0.14132,0.11782,0.10938,0.10093,0.090209,0.079486,0.066679,0.053873,0.04498,0.036087,0.034112,0.032136,0.03068,0.029223
0.028661,0.031244,0.033827,0.037115,0.040404,0.048991,0.057579,0.072863,0.088147,0.093547,0.098947,0.12455,0.15015,0.16483,0.1795,0.21386,0.24822,0.26263,0.27703,0.29793,0.31882,0.349,0.37918,0.40216,0.42513,0.44878,0.47243,0.49125,0.51007,0.52025,0.53042,0.54058,0.55074,0.55542,0.5601,0.56306,0.56602,0.56742,0.56882,0.56762,0.56642,0.56398,0.56154,0.5555,0.54946,0.53941,0.52936,0.51718,0.505,0.49646,0.48792,0.47319,0.45846,0.44176,0.42507,0.40001,0.37495,0.35592,0.3369,0.31479,0.29268,0.27356,0.25444,0.23431,0.21419,0.19685,0.1795,0.15361,0.12771,0.12011,0.11251,0.098172,0.083838,0.075316,0.066794,0.054215,0.041636,0.037974,0.034312,0.032615,0.030917
0.030631,0.033582,0.036533,0.040187,0.04384,0.052724,0.061608,0.078018,0.094428,0.10262,0.11082,0.13949,0.16816,0.1825,0.19685,0.23276,0.26868,0.29307,0.31747,0.34151,0.36555,0.39518,0.42481,0.45176,0.47871,0.50747,0.53622,0.55945,0.58268,0.5976,0.61251,0.62448,0.63644,0.64319,0.64994,0.65429,0.65864,0.66026,0.66188,0.6609,0.65993,0.65895,0.65797,0.65421,0.65046,0.64101,0.63157,0.62244,0.61331,0.60124,0.58918,0.57197,0.55477,0.53489,0.51501,0.48605,0.4571,0.43183,0.40656,0.37998,0.3534,0.32903,0.30466,0.27816,0.25166,0.23276,0.21386,0.18256,0.15126,0.13429,0.11732,0.10463,0.091943,0.078509,0.065074,0.054639,0.044204,0.040662,0.03712,0.034254,0.031389
0.032601,0.03592,0.03924,0.043259,0.047277,0.056457,0.065637,0.083172,0.10071,0.1117,0.12269,0.15443,0.18616,0.20018,0.21419,0.25166,0.28914,0.32352,0.3579,0.38509,0.41228,0.44136,0.47044,0.50136,0.53229,0.56616,0.60002,0.62765,0.65528,0.67494,0.69461,0.70838,0.72214,0.73096,0.73978,0.74552,0.75126,0.7531,0.75494,0.75419,0.75344,0.75393,0.75441,0.75293,0.75145,0.74262,0.73378,0.7277,0.72161,0.70603,0.69044,0.67076,0.65108,0.62801,0.60494,0.5721,0.53926,0.50774,0.47622,0.44517,0.41412,0.3845,0.35488,0.32201,0.28914,0.26868,0.24822,0.21151,0.1748,0.14847,0.12213,0.11109,0.10005,0.081701,0.063353,0.055063,0.046773,0.04335,0.039928,0.035894,0.031861
0.03333,0.036662,0.039993,0.04433,0.048666,0.063996,0.079327,0.093951,0.10857,0.12101,0.13345,0.1637,0.19394,0.21413,0.23431,0.27816,0.32201,0.35518,0.38836,0.41991,0.45147,0.48764,0.52381,0.56411,0.60441,0.64921,0.694,0.72875,0.76351,0.77432,0.78513,0.80014,0.81514,0.82622,0.83729,0.84099,0.84468,0.84202,0.83935,0.84335,0.84734,0.84711,0.84688,0.84788,0.84888,0.83262,0.81635,0.80854,0.80072,0.78521,0.7697,0.74745,0.72519,0.70634,0.6875,0.6466,0.6057,0.56562,0.52554,0.48962,0.4537,0.42027,0.38685,0.35518,0.32352,0.29307,0.26263,0.22438,0.18613,0.1591,0.13206,0.11959,0.10713,0.092054,0.076979,0.062977,0.048974,0.045125,0.041277,0.037481,0.033686
0.03406,0.037403,0.040746,0.045401,0.050055,0.071536,0.093017,0.10473,0.11644,0.13033,0.14422,0.17297,0.20171,0.22807,0.25444,0.30466,0.35488,0.38685,0.41882,0.45474,0.49066,0.53392,0.57719,0.62686,0.67653,0.73225,0.78798,0.82986,0.87174,0.8737,0.87566,0.8919,0.90814,0.92147,0.9348,0.93645,0.9381,0.93093,0.92376,0.9325,0.94124,0.94029,0.93935,0.94283,0.94632,0.92262,0.89893,0.88938,0.87983,0.86439,0.84896,0.82413,0.7993,0.78468,0.77006,0.7211,0.67214,0.6235,0.57485,0.53406,0.49327,0.45605,0.41882,0.38836,0.3579,0.31747,0.27703,0.23725,0.19746,0.16973,0.14199,0.1281,0.11421,0.10241,0.090605,0.07089,0.051175,0.0469,0.042625,0.039069,0.035512
0.035101,0.038741,0.042381,0.047662,0.052943,0.070141,0.087339,0.10463,0.12193,0.13401,0.14609,0.17924,0.21239,0.24298,0.27356,0.32903,0.3845,0.42027,0.45605,0.49963,0.54321,0.60147,0.65973,0.71265,0.76558,0.86435,0.96313,1.0294,1.0957,1.1151,1.1345,1.1532,1.1719,1.1827,1.1935,1.1817,1.17,1.1378,1.1056,1.0968,1.088,1.0892,1.0905,1.1104,1.1304,1.1303,1.1302,1.1238,1.1174,1.0979,1.0783,1.0505,1.0228,0.98162,0.94047,0.8536,0.76673,0.71121,0.65568,0.6001,0.54452,0.49963,0.45474,0.41991,0.38509,0.34151,0.29793,0.25305,0.20817,0.17646,0.14475,0.13234,0.11993,0.10228,0.084633,0.068858,0.053083,0.048077,0.043072,0.039313,0.035555
0.036141,0.040079,0.044016,0.049923,0.05583,0.068745,0.08166,0.10454,0.12742,0.13769,0.14796,0.18552,0.22308,0.25788,0.29268,0.3534,0.41412,0.4537,0.49327,0.54452,0.59576,0.66902,0.74227,0.79845,0.85462,0.99645,1.1383,1.229,1.3197,1.3565,1.3933,1.4144,1.4356,1.4439,1.4521,1.427,1.4018,1.3447,1.2875,1.2611,1.2347,1.2381,1.2416,1.2781,1.3145,1.338,1.3615,1.3583,1.355,1.3313,1.3076,1.2769,1.2462,1.1786,1.1109,0.98609,0.86131,0.79892,0.73652,0.66614,0.59576,0.54321,0.49066,0.45147,0.41228,0.36555,0.31882,0.26885,0.21887,0.18319,0.14752,0.13658,0.12565,0.10216,0.078661,0.066825,0.05499,0.049254,0.043518,0.039558,0.035598
0.035524,0.039906,0.044288,0.050702,0.057115,0.071779,0.086442,0.11144,0.13643,0.14622,0.156,0.19864,0.24128,0.27803,0.31479,0.37998,0.44517,0.48962,0.53406,0.6001,0.66614,0.75575,0.84537,0.95223,1.0591,1.2213,1.3835,1.5217,1.6598,1.7168,1.7738,1.7939,1.8141,1.8183,1.8225,1.745,1.6674,1.5866,1.5058,1.4768,1.4479,1.4566,1.4654,1.5188,1.5723,1.6289,1.6854,1.7013,1.7172,1.6955,1.6739,1.6333,1.5928,1.4823,1.3719,1.2215,1.0711,0.95681,0.84249,0.75575,0.66902,0.60147,0.53392,0.48764,0.44136,0.39518,0.349,0.29233,0.23565,0.19668,0.15772,0.14543,0.13314,0.10842,0.083701,0.07064,0.057579,0.051278,0.044978,0.040602,0.036226
0.034906,0.039733,0.044561,0.05148,0.0584,0.074812,0.091225,0.11834,0.14545,0.15475,0.16405,0.21177,0.25948,0.29819,0.3369,0.40656,0.47622,0.52554,0.57485,0.65568,0.73652,0.84249,0.94846,1.106,1.2635,1.4462,1.6288,1.8144,2,2.0771,2.1543,2.1734,2.1926,2.1927,2.1929,2.063,1.9331,1.8285,1.724,1.6926,1.6611,1.6751,1.6891,1.7596,1.8301,1.9197,2.0093,2.0443,2.0793,2.0597,2.0401,1.9897,1.9393,1.7861,1.6328,1.4569,1.2809,1.1147,0.94846,0.84537,0.74227,0.65973,0.57719,0.52381,0.47044,0.42481,0.37918,0.3158,0.25243,0.21017,0.16792,0.15427,0.14062,0.11468,0.088742,0.074454,0.060167,0.053302,0.046437,0.041645,0.036854
0.037628,0.042484,0.047341,0.054277,0.061214,0.082984,0.10475,0.12463,0.1445,0.15766,0.17082,0.2234,0.27598,0.31595,0.35592,0.43183,0.50774,0.56562,0.6235,0.71121,0.79892,0.95681,1.1147,1.2989,1.483,1.7208,1.9586,2.187,2.4155,2.551,2.6865,2.7047,2.7229,2.6902,2.6576,2.4774,2.2973,2.1602,2.0232,1.9798,1.9365,1.951,1.9654,2.0536,2.1418,2.2773,2.4128,2.4808,2.5487,2.5372,2.5258,2.4338,2.3419,2.1423,1.9427,1.7172,1.4917,1.2989,1.106,0.95223,0.79845,0.71265,0.62686,0.56411,0.50136,0.45176,0.40216,0.33664,0.27111,0.22461,0.1781,0.15893,0.13976,0.12216,0.10455,0.082296,0.060038,0.053647,0.047257,0.042121,0.036984
0.04035,0.045235,0.050121,0.057074,0.064028,0.091156,0.11828,0.13092,0.14355,0.16057,0.17758,0.23503,0.29248,0.33372,0.37495,0.4571,0.53926,0.6057,0.67214,0.76673,0.86131,1.0711,1.2809,1.4917,1.7025,1.9955,2.2884,2.5597,2.831,3.0248,3.2187,3.236,3.2532,3.1877,3.1222,2.8918,2.6614,2.4919,2.3223,2.2671,2.2119,2.2268,2.2417,2.3477,2.4536,2.635,2.8164,2.9172,3.018,3.0147,3.0115,2.878,2.7445,2.4986,2.2526,1.9776,1.7025,1.483,1.2635,1.0591,0.85462,0.76558,0.67653,0.60441,0.53229,0.47871,0.42513,0.35747,0.2898,0.23904,0.18829,0.1636,0.13891,0.12964,0.12037,0.090137,0.059909,0.053993,0.048076,0.042596,0.037115
0.041281,0.046093,0.050905,0.057755,0.064605,0.094526,0.12445,0.1357,0.14695,0.16749,0.18802,0.2465,0.30498,0.3525,0.40001,0.48605,0.5721,0.6466,0.7211,0.8536,0.98609,1.2215,1.4569,1.7172,1.9776,2.3339,2.6902,3.0276,3.3651,3.5881,3.8111,3.8375,3.864,3.7699,3.6757,3.4007,3.1257,2.9075,2.6893,2.6244,2.5595,2.5711,2.5826,2.7203,2.8581,3.0921,3.3262,3.4698,3.6135,3.6154,3.6172,3.4549,3.2926,2.9825,2.6723,2.3339,1.9955,1.7208,1.4462,1.2213,0.99645,0.86435,0.73225,0.64921,0.56616,0.50747,0.44878,0.37686,0.30495,0.25136,0.19778,0.1728,0.14782,0.13762,0.12743,0.094795,0.062163,0.056123,0.050083,0.044754,0.039424
0.042212,0.04695,0.051689,0.058436,0.065183,0.097895,0.13061,0.14048,0.15036,0.17441,0.19846,0.25797,0.31748,0.37128,0.42507,0.51501,0.60494,0.6875,0.77006,0.94047,1.1109,1.3719,1.6328,1.9427,2.2526,2.6723,3.0921,3.4956,3.8991,4.1513,4.4035,4.4391,4.4747,4.352,4.2292,3.9096,3.5899,3.3231,3.0563,2.9818,2.9072,2.9153,2.9234,3.093,3.2626,3.5493,3.836,4.0225,4.209,4.216,4.223,4.0318,3.8406,3.4663,3.0921,2.6902,2.2884,1.9586,1.6288,1.3835,1.1383,0.96313,0.78798,0.694,0.60002,0.53622,0.47243,0.39626,0.3201,0.26368,0.20727,0.18201,0.15674,0.14561,0.13449,0.099453,0.064417,0.058254,0.05209,0.046911,0.041732
0.043559,0.048461,0.053363,0.06032,0.067278,0.10025,0.13323,0.14414,0.15504,0.17994,0.20483,0.26709,0.32936,0.38556,0.44176,0.53489,0.62801,0.70634,0.78468,0.98162,1.1786,1.4823,1.7861,2.1423,2.4986,2.9825,3.4663,3.9393,4.4124,4.6797,4.947,4.9901,5.0331,4.888,4.7429,4.363,3.9831,3.6778,3.3724,3.2932,3.214,3.2272,3.2405,3.4584,3.6764,4.0241,4.3717,4.5896,4.8075,4.8033,4.7991,4.5911,4.3831,3.9393,3.4956,3.0276,2.5597,2.187,1.8144,1.5217,1.229,1.0294,0.82986,0.72875,0.62765,0.55945,0.49125,0.41243,0.33361,0.27422,0.21483,0.18982,0.16482,0.14396,0.1231,0.095148,0.067194,0.060084,0.052974,0.048095,0.043217
0.044906,0.049971,0.055037,0.062205,0.069374,0.10261,0.13585,0.14779,0.15973,0.18547,0.2112,0.27621,0.34123,0.39984,0.45846,0.55477,0.65108,0.72519,0.7993,1.0228,1.2462,1.5928,1.9393,2.3419,2.7445,3.2926,3.8406,4.3831,4.9256,5.2081,5.4906,5.541,5.5914,5.424,5.2566,4.8165,4.3764,4.0325,3.6885,3.6046,3.5208,3.5392,3.5575,3.8238,4.0902,4.4988,4.9075,5.1567,5.406,5.3906,5.3752,5.1504,4.9256,4.4124,3.8991,3.3651,2.831,2.4155,2,1.6598,1.3197,1.0957,0.87174,0.76351,0.65528,0.58268,0.51007,0.4286,0.34713,0.28476,0.22239,0.19764,0.17289,0.1423,0.11172,0.090843,0.069971,0.061914,0.053857,0.049279,0.044701
0.045331,0.050437,0.055544,0.062659,0.069773,0.10358,0.13739,0.15141,0.16542,0.19058,0.21573,0.28453,0.35333,0.41326,0.47319,0.57197,0.67076,0.74745,0.82413,1.0505,1.2769,1.6333,1.9897,2.4338,2.878,3.4549,4.0318,4.5911,5.1504,5.4801,5.8098,5.8502,5.8906,5.6615,5.4324,4.9882,4.544,4.1914,3.8388,3.7236,3.6084,3.6543,3.7002,4.0204,4.3406,4.7868,5.233,5.5064,5.7798,5.7659,5.7521,5.4801,5.2081,4.6797,4.1513,3.5881,3.0248,2.551,2.0771,1.7168,1.3565,1.1151,0.8737,0.77432,0.67494,0.5976,0.52025,0.43915,0.35806,0.29166,0.22526,0.20192,0.17858,0.14651,0.11444,0.093952,0.07347,0.06462,0.055771,0.05106,0.04635
0.053043,0.05857,0.064097,0.071675,0.079252,0.11451,0.14976,0.16701,0.18425,0.21309,0.24194,0.31744,0.39295,0.45589,0.51884,0.62057,0.7223,0.80339,0.88447,1.1139,1.3432,1.7101,2.077,2.5628,3.0486,3.6567,4.2648,4.8423,5.4199,5.7984,6.177,6.2076,6.2381,5.9475,5.6569,5.2078,4.7587,4.3963,4.0339,3.8874,3.741,3.8146,3.8883,4.2628,4.6374,5.1212,5.6051,5.9027,6.2004,6.1876,6.1748,5.8551,5.5355,4.9906,4.4457,3.8524,3.259,2.7241,2.1892,1.8093,1.4294,1.1696,0.90972,0.81846,0.72721,0.64315,0.55908,0.47586,0.39263,0.3221,0.25157,0.22783,0.2041,0.16702,0.12995,0.10815,0.086348,0.075933,0.065518,0.060402,0.055286
0.053816,0.05946,0.065105,0.073693,0.08228,0.11073,0.13919,0.16438,0.18957,0.21897,0.24836,0.32483,0.4013,0.46519,0.52908,0.6355,0.74192,0.82269,0.90346,1.1372,1.3709,1.7361,2.1014,2.5793,3.0573,3.6601,4.2629,4.8514,5.4398,5.817,6.1942,6.2293,6.2645,5.9864,5.7083,5.2478,4.7873,4.4216,4.0559,3.9211,3.7863,3.8724,3.9585,4.3276,4.6966,5.1709,5.6451,5.9449,6.2446,6.2274,6.2103,5.9006,5.591,5.0385,4.4861,3.8836,3.2812,2.7472,2.2132,1.8338,1.4545,1.1919,0.9293,0.8368,0.7443,0.65806,0.57182,0.48654,0.40126,0.32973,0.25819,0.23145,0.2047,0.17433,0.14396,0.11434,0.084708,0.075781,0.066854,0.061354,0.055854
0.054588,0.060351,0.066114,0.07571,0.085307,0.10696,0.12862,0.16176,0.1949,0.22484,0.25479,0.33222,0.40964,0.47448,0.53931,0.65043,0.76154,0.842,0.92245,1.1605,1.3985,1.7621,2.1257,2.5959,3.0661,3.6636,4.2611,4.8605,5.4598,5.8356,6.2113,6.2511,6.2909,6.0253,5.7598,5.2879,4.8159,4.4469,4.0778,3.9547,3.8317,3.9302,4.0287,4.3923,4.7559,5.2205,5.6851,5.987,6.2888,6.2673,6.2458,5.9461,5.6464,5.0864,4.5264,3.9149,3.3033,2.7702,2.2371,1.8584,1.4796,1.2143,0.94889,0.85513,0.76138,0.67297,0.58457,0.49723,0.40989,0.33735,0.26481,0.23506,0.20531,0.18164,0.15797,0.12052,0.083067,0.075628,0.068189,0.062305,0.056421
0.055338,0.061453,0.067568,0.076361,0.085153,0.1142,0.14325,0.17011,0.19697,0.22872,0.26047,0.33672,0.41298,0.48407,0.55516,0.6631,0.77105,0.85366,0.93628,1.1719,1.4075,1.7526,2.0976,2.5344,2.9712,3.526,4.0808,4.6497,5.2187,5.571,5.9233,5.9592,5.995,5.7529,5.5108,5.0968,4.6829,4.3436,4.0043,3.9155,3.8266,3.9019,3.9773,4.3064,4.6356,5.0541,5.4727,5.7522,6.0318,5.9969,5.9621,5.7241,5.4862,4.9483,4.4104,3.8276,3.2448,2.7445,2.2442,1.869,1.4938,1.2303,0.96687,0.87055,0.77422,0.68338,0.59254,0.50513,0.41772,0.34336,0.269,0.23951,0.21002,0.18511,0.16021,0.12252,0.084836,0.077044,0.069253,0.06317,0.057087
0.056088,0.062555,0.069022,0.077011,0.085,0.12144,0.15787,0.17846,0.19904,0.23259,0.26614,0.34123,0.41631,0.49365,0.571,0.67578,0.78055,0.86533,0.9501,1.1833,1.4165,1.743,2.0695,2.4729,2.8763,3.3883,3.9004,4.4389,4.9775,5.3064,5.6354,5.6673,5.6992,5.4805,5.2618,4.9058,4.5499,4.2404,3.9308,3.8762,3.8215,3.8737,3.9258,4.2205,4.5153,4.8877,5.2602,5.5175,5.7748,5.7266,5.6784,5.5022,5.326,4.8102,4.2944,3.7403,3.1863,2.7188,2.2513,1.8796,1.508,1.2464,0.98486,0.88596,0.78706,0.69378,0.60051,0.51303,0.42555,0.34937,0.27318,0.24396,0.21474,0.18859,0.16244,0.12452,0.086605,0.078461,0.070317,0.064035,0.057753
0.05757,0.064238,0.070906,0.078831,0.086757,0.12636,0.16596,0.18726,0.20855,0.24281,0.27707,0.35134,0.42562,0.50962,0.59363,0.69565,0.79768,0.8956,0.99351,1.1992,1.4049,1.6995,1.9942,2.3596,2.7251,3.1869,3.6487,4.1192,4.5897,4.8808,5.1718,5.221,5.2702,5.0978,4.9255,4.5985,4.2715,4.0165,3.7615,3.7066,3.6517,3.6947,3.7378,3.996,4.2541,4.5962,4.9383,5.131,5.3238,5.2941,5.2644,5.0918,4.9191,4.4633,4.0075,3.4952,2.983,2.5604,2.1378,1.8168,1.4957,1.2519,1.008,0.90498,0.80198,0.70702,0.61205,0.52209,0.43213,0.35535,0.27858,0.24798,0.21737,0.19284,0.16831,0.12863,0.088955,0.079995,0.071036,0.064467,0.057899
0.059052,0.06592,0.072789,0.080651,0.088514,0.13128,0.17404,0.19605,0.21807,0.25303,0.288,0.36146,0.43493,0.52559,0.61626,0.71553,0.8148,0.92586,1.0369,1.2151,1.3932,1.656,1.9188,2.2464,2.574,2.9855,3.397,3.7995,4.2019,4.4551,4.7083,4.7747,4.8411,4.7152,4.5892,4.2912,3.9931,3.7927,3.5922,3.537,3.4818,3.5158,3.5499,3.7714,3.993,4.3047,4.6165,4.7446,4.8728,4.8616,4.8504,4.6814,4.5123,4.1164,3.7205,3.2501,2.7797,2.402,2.0243,1.7539,1.4835,1.2573,1.0311,0.92401,0.8169,0.72025,0.62359,0.53115,0.43871,0.36134,0.28398,0.25199,0.22001,0.1971,0.17418,0.13274,0.091305,0.08153,0.071755,0.0649,0.058044
0.062187,0.069068,0.07595,0.085467,0.094983,0.13675,0.17852,0.20055,0.22257,0.25825,0.29393,0.37403,0.45412,0.54247,0.63082,0.73272,0.83463,0.93993,1.0452,1.2127,1.3802,1.6273,1.8743,2.1758,2.4773,2.858,3.2386,3.6024,3.9661,4.1669,4.3677,4.4328,4.498,4.4061,4.3142,4.0521,3.79,3.6082,3.4264,3.3771,3.3277,3.3664,3.4052,3.6084,3.8117,4.0683,4.3249,4.4299,4.5349,4.5201,4.5053,4.3428,4.1803,3.8219,3.4636,3.0432,2.6228,2.2848,1.9469,1.698,1.4492,1.2424,1.0357,0.93597,0.83627,0.73828,0.64028,0.54271,0.44514,0.36738,0.28961,0.25664,0.22366,0.20033,0.177,0.13545,0.093895,0.083798,0.073701,0.065865,0.058029
0.065322,0.072216,0.079111,0.090282,0.10145,0.14223,0.183,0.20504,0.22707,0.26347,0.29986,0.38659,0.47332,0.55935,0.64537,0.74991,0.85446,0.954,1.0536,1.2104,1.3672,1.5985,1.8298,2.1052,2.3806,2.7304,3.0802,3.4053,3.7304,3.8787,4.0271,4.091,4.1549,4.097,4.0391,3.813,3.5869,3.4238,3.2607,3.2171,3.1736,3.217,3.2604,3.4454,3.6304,3.8319,4.0334,4.1152,4.1971,4.1786,4.1602,4.0042,3.8482,3.5274,3.2066,2.8362,2.4659,2.1677,1.8694,1.6422,1.415,1.2276,1.0402,0.94792,0.85564,0.7563,0.65696,0.55427,0.45158,0.37342,0.29525,0.26128,0.22731,0.20357,0.17982,0.13815,0.096486,0.086066,0.075647,0.06683,0.058013
0.066878,0.074975,0.083072,0.094368,0.10566,0.14718,0.1887,0.2115,0.23431,0.26926,0.30421,0.39295,0.48169,0.57192,0.66215,0.76358,0.86501,0.9667,1.0684,1.2216,1.3747,1.6021,1.8294,2.1099,2.3904,2.7439,3.0973,3.4171,3.7368,3.8562,3.9756,4.0289,4.0822,4.0471,4.012,3.7955,3.5791,3.4116,3.244,3.2037,3.1634,3.2033,3.2432,3.4216,3.6,3.8032,4.0065,4.0525,4.0986,4.0684,4.0382,3.9142,3.7901,3.4731,3.1562,2.7919,2.4276,2.1375,1.8473,1.6231,1.3988,1.2308,1.0628,0.96436,0.86589,0.76353,0.66117,0.56077,0.46037,0.38114,0.3019,0.26965,0.2374,0.21373,0.19006,0.14618,0.10229,0.091649,0.081006,0.071675,0.062344
0.068435,0.077734,0.087033,0.098454,0.10988,0.15213,0.19439,0.21796,0.24154,0.27505,0.30856,0.39931,0.49006,0.5845,0.67893,0.77725,0.87557,0.9794,1.0832,1.2327,1.3822,1.6056,1.8291,2.1146,2.4001,2.7573,3.1145,3.4288,3.7432,3.8336,3.9241,3.9668,4.0094,3.9971,3.9848,3.7781,3.5714,3.3993,3.2273,3.1903,3.1532,3.1896,3.2259,3.3977,3.5695,3.7745,3.9796,3.9898,4.0001,3.9582,3.9162,3.8241,3.732,3.4188,3.1057,2.7476,2.3894,2.1073,1.8252,1.6039,1.3827,1.2341,1.0855,0.9808,0.87613,0.77075,0.66537,0.56726,0.46916,0.38886,0.30856,0.27803,0.24749,0.2239,0.2003,0.1542,0.1081,0.097231,0.086366,0.076521,0.066675
0.068476,0.078964,0.089451,0.10148,0.1135,0.15393,0.19437,0.21895,0.24354,0.2776,0.31166,0.40474,0.49782,0.59278,0.68773,0.79519,0.90266,1.0024,1.1022,1.2733,1.4443,1.6735,1.9027,2.2044,2.5061,2.8758,3.2454,3.5674,3.8894,4.0152,4.1411,4.1719,4.2027,4.1574,4.1121,3.908,3.704,3.5255,3.347,3.3072,3.2675,3.307,3.3466,3.5131,3.6796,3.8938,4.108,4.1414,4.1748,4.1185,4.0622,3.9388,3.8154,3.4943,3.1733,2.8176,2.4618,2.1744,1.8869,1.6553,1.4237,1.2685,1.1133,1.0108,0.90835,0.79844,0.68853,0.58808,0.48764,0.40454,0.32144,0.28922,0.257,0.22736,0.19771,0.15231,0.10691,0.097278,0.087646,0.078746,0.069847
0.068518,0.080193,0.091868,0.1045,0.11713,0.15574,0.19434,0.21994,0.24555,0.28016,0.31477,0.41017,0.50558,0.60106,0.69653,0.81313,0.92974,1.0255,1.1212,1.3138,1.5064,1.7414,1.9764,2.2943,2.6121,2.9942,3.3764,3.706,4.0356,4.1968,4.358,4.3769,4.3959,4.3176,4.2393,4.0379,3.8366,3.6516,3.4667,3.4242,3.3817,3.4245,3.4672,3.6285,3.7897,4.013,4.2364,4.2929,4.3494,4.2788,4.2082,4.0535,3.8987,3.5698,3.2409,2.8876,2.5342,2.2414,1.9486,1.7066,1.4647,1.3029,1.1411,1.0408,0.94057,0.82613,0.71169,0.6089,0.50611,0.42022,0.33432,0.30042,0.26651,0.23082,0.19513,0.15043,0.10572,0.097325,0.088926,0.080972,0.073018
0.072196,0.08243,0.092663,0.10505,0.11744,0.15935,0.20127,0.23185,0.26244,0.29575,0.32907,0.42732,0.52557,0.6233,0.72102,0.84282,0.96461,1.0664,1.1682,1.3908,1.6135,1.8789,2.1443,2.4968,2.8493,3.2843,3.7193,4.0902,4.4611,4.6305,4.8,4.8257,4.8515,4.7437,4.636,4.3793,4.1225,3.9191,3.7156,3.6766,3.6375,3.6862,3.7349,3.9129,4.0908,4.3471,4.6034,4.6896,4.7758,4.7097,4.6436,4.4337,4.2237,3.844,3.4643,3.0728,2.6814,2.3696,2.0578,1.7969,1.5359,1.3534,1.1709,1.062,0.95311,0.83672,0.72033,0.61711,0.5139,0.42929,0.34468,0.30725,0.26983,0.23801,0.2062,0.15848,0.11077,0.10088,0.090993,0.083045,0.075096
0.075874,0.084666,0.093459,0.1056,0.11775,0.16297,0.20819,0.24376,0.27933,0.31135,0.34336,0.44446,0.54556,0.64554,0.74552,0.8725,0.99949,1.1073,1.2151,1.4679,1.7206,2.0164,2.3123,2.6994,3.0866,3.5744,4.0623,4.4744,4.8865,5.0642,5.2419,5.2745,5.307,5.1699,5.0327,4.7206,4.4085,4.1865,3.9645,3.929,3.8934,3.948,4.0027,4.1973,4.392,4.6812,4.9705,5.0863,5.2022,5.1406,5.079,4.8138,4.5486,4.1181,3.6876,3.2581,2.8286,2.4978,2.167,1.8871,1.6072,1.404,1.2008,1.0832,0.96564,0.8473,0.72897,0.62533,0.52169,0.43836,0.35503,0.31408,0.27314,0.2452,0.21726,0.16654,0.11582,0.10444,0.09306,0.085117,0.077174
0.078574,0.087563,0.096551,0.10832,0.12009,0.16553,0.21097,0.24761,0.28426,0.31919,0.35413,0.45716,0.5602,0.66005,0.75991,0.88706,1.0142,1.1341,1.2539,1.5232,1.7925,2.1402,2.4878,2.9292,3.3705,3.9082,4.4458,4.9225,5.3992,5.5858,5.7724,5.8183,5.8643,5.6719,5.4795,5.14,4.8005,4.5427,4.285,4.2399,4.1947,4.2493,4.3038,4.5559,4.808,5.1267,5.4454,5.6103,5.7752,5.7196,5.6639,5.3588,5.0536,4.5589,4.0643,3.5782,3.0921,2.7092,2.3263,2.0088,1.6914,1.4594,1.2273,1.1108,0.99428,0.87378,0.75328,0.6472,0.54113,0.44909,0.35705,0.31752,0.27799,0.24513,0.21227,0.16517,0.11807,0.10693,0.095787,0.086829,0.077871
0.081274,0.090459,0.099644,0.11104,0.12244,0.16809,0.21374,0.25146,0.28918,0.32703,0.36489,0.46986,0.57484,0.67457,0.7743,0.90161,1.0289,1.1608,1.2927,1.5786,1.8644,2.2639,2.6633,3.1589,3.6545,4.2419,4.8293,5.3706,5.9119,6.1073,6.3028,6.3622,6.4215,6.1739,5.9264,5.5594,5.1924,4.899,4.6055,4.5508,4.4961,4.5505,4.605,4.9145,5.224,5.5722,5.9204,6.1343,6.3482,6.2985,6.2489,5.9037,5.5586,4.9998,4.4409,3.8983,3.3556,2.9206,2.4855,2.1306,1.7756,1.5147,1.2538,1.1384,1.0229,0.90025,0.77759,0.66908,0.56057,0.45982,0.35907,0.32096,0.28285,0.24506,0.20727,0.1638,0.12033,0.10942,0.098514,0.088541,0.078568
0.081855,0.090895,0.099936,0.11125,0.12256,0.17395,0.22535,0.26037,0.29539,0.33452,0.37365,0.47566,0.57767,0.6837,0.78974,0.92135,1.053,1.1814,1.3098,1.6026,1.8953,2.3059,2.7165,3.2543,3.7921,4.4191,5.046,5.6168,6.1875,6.4358,6.6841,6.7323,6.7805,6.5122,6.2439,5.8289,5.4138,5.0817,4.7495,4.6769,4.6043,4.6925,4.7807,5.122,5.4633,5.8613,6.2593,6.4945,6.7297,6.6777,6.6257,6.2538,5.8819,5.296,4.71,4.1164,3.5229,3.0464,2.5698,2.1909,1.812,1.5441,1.2762,1.1637,1.0512,0.91551,0.77981,0.67434,0.56886,0.4669,0.36495,0.32674,0.28854,0.24786,0.20718,0.16532,0.12345,0.11136,0.099274,0.089845,0.080417
0.082435,0.091332,0.10023,0.11146,0.12269,0.17982,0.23695,0.26928,0.3016,0.34201,0.38241,0.48146,0.58051,0.69284,0.80518,0.9411,1.077,1.202,1.327,1.6266,1.9263,2.348,2.7697,3.3498,3.9298,4.5962,5.2627,5.8629,6.4631,6.7642,7.0654,7.1025,7.1395,6.8504,6.5614,6.0983,5.6353,5.2644,4.8935,4.803,4.7125,4.8345,4.9564,5.3295,5.7026,6.1505,6.5983,6.8548,7.1112,7.0569,7.0026,6.6039,6.2053,5.5922,4.9791,4.3346,3.6901,3.1722,2.6542,2.2512,1.8483,1.5735,1.2986,1.1891,1.0795,0.93077,0.78204,0.67959,0.57714,0.47399,0.37083,0.33253,0.29423,0.25067,0.2071,0.16683,0.12657,0.1133,0.10003,0.091149,0.082266
0.083288,0.092126,0.10096,0.11435,0.12774,0.17281,0.21788,0.26226,0.30664,0.34295,0.37925,0.48277,0.58629,0.70021,0.81414,0.95351,1.0929,1.2204,1.3479,1.6528,1.9577,2.3954,2.8332,3.4173,4.0015,4.7019,5.4022,6.0195,6.6367,6.9653,7.2938,7.3291,7.3644,7.0752,6.7859,6.3,5.8141,5.413,5.0119,4.9168,4.8216,4.9576,5.0935,5.4789,5.8643,6.3242,6.784,7.056,7.328,7.2738,7.2196,6.8165,6.4133,5.7849,5.1565,4.469,3.7815,3.2484,2.7154,2.2956,1.8758,1.5975,1.3191,1.2051,1.0911,0.94275,0.79439,0.68755,0.58072,0.47501,0.3693,0.3324,0.2955,0.25392,0.21235,0.16911,0.12587,0.11283,0.099801,0.090805,0.08181
0.08414,0.09292,0.1017,0.11725,0.1328,0.16581,0.19881,0.25525,0.31168,0.34389,0.37609,0.48408,0.59207,0.70758,0.8231,0.96591,1.1087,1.2388,1.3689,1.679,1.9891,2.4428,2.8966,3.4849,4.0733,4.8075,5.5418,6.176,6.8103,7.1663,7.5223,7.5558,7.5892,7.2999,7.0105,6.5017,5.9929,5.5616,5.1304,5.0305,4.9307,5.0807,5.2306,5.6283,6.026,6.4979,6.9697,7.2572,7.5447,7.4907,7.4367,7.029,6.6214,5.9777,5.3339,4.6033,3.8728,3.3247,2.7766,2.34,1.9034,1.6215,1.3396,1.2212,1.1027,0.95473,0.80674,0.69552,0.58429,0.47603,0.36777,0.33227,0.29677,0.25718,0.21759,0.17138,0.12516,0.11237,0.099569,0.090461,0.081353
0.081873,0.090966,0.10006,0.11532,0.13058,0.16573,0.20088,0.25794,0.31501,0.34814,0.38127,0.4903,0.59934,0.71719,0.83504,0.97758,1.1201,1.2639,1.4078,1.7152,2.0226,2.4726,2.9225,3.5032,4.0839,4.8094,5.5348,6.2014,6.8679,7.1969,7.5259,7.5599,7.5939,7.3247,7.0555,6.5318,6.0081,5.607,5.2059,5.1311,5.0563,5.1802,5.3041,5.7102,6.1163,6.617,7.1178,7.3628,7.6077,7.5457,7.4837,7.1134,6.7431,6.0734,5.4037,4.6764,3.9491,3.3907,2.8322,2.3891,1.946,1.652,1.3581,1.2351,1.1121,0.96715,0.82219,0.70558,0.58898,0.48121,0.37344,0.336,0.29856,0.25983,0.22109,0.17422,0.12735,0.11394,0.10052,0.091039,0.081556
0.079607,0.089012,0.098418,0.11339,0.12837,0.16566,0.20294,0.26064,0.31834,0.35239,0.38644,0.49652,0.60661,0.72679,0.84697,0.98924,1.1315,1.289,1.4466,1.7514,2.0562,2.5023,2.9484,3.5215,4.0946,4.8112,5.5279,6.2267,6.9255,7.2275,7.5295,7.564,7.5985,7.3495,7.1004,6.5618,6.0232,5.6524,5.2815,5.2317,5.1819,5.2798,5.3776,5.7921,6.2065,6.7362,7.2659,7.4683,7.6707,7.6007,7.5307,7.1978,6.8649,6.1692,5.4735,4.7495,4.0255,3.4566,2.8878,2.4381,1.9885,1.6825,1.3765,1.249,1.1215,0.97958,0.83764,0.71565,0.59366,0.48639,0.37911,0.33974,0.30036,0.26248,0.2246,0.17707,0.12954,0.11551,0.10147,0.091616,0.08176
0.080845,0.090579,0.10031,0.11436,0.12841,0.17813,0.22786,0.26859,0.30932,0.34748,0.38565,0.49762,0.60959,0.72838,0.84717,0.99128,1.1354,1.2944,1.4534,1.7406,2.0279,2.4785,2.9291,3.4859,4.0427,4.7485,5.4542,6.1264,6.7986,7.1421,7.4856,7.508,7.5304,7.2798,7.0293,6.5015,5.9736,5.6186,5.2636,5.2071,5.1505,5.2442,5.3378,5.7314,6.125,6.6404,7.1558,7.3688,7.5817,7.5273,7.4728,7.1135,6.7543,6.0817,5.4091,4.6997,3.9903,3.4412,2.8921,2.4345,1.977,1.6943,1.4115,1.2705,1.1294,0.98665,0.84392,0.7222,0.60047,0.4917,0.38293,0.33887,0.29481,0.2663,0.23778,0.18255,0.12732,0.11397,0.10062,0.090581,0.080543
0.082083,0.092147,0.10221,0.11533,0.12845,0.19061,0.25277,0.27653,0.30029,0.34258,0.38486,0.49872,0.61258,0.72998,0.84737,0.99333,1.1393,1.2997,1.4601,1.7299,1.9996,2.4547,2.9097,3.4503,3.9909,4.6857,5.3804,6.026,6.6717,7.0567,7.4417,7.452,7.4622,7.2102,6.9582,6.4411,5.924,5.5849,5.2457,5.1824,5.1191,5.2085,5.298,5.6707,6.0435,6.5446,7.0456,7.2692,7.4927,7.4538,7.415,7.0293,6.6437,5.9942,5.3447,4.6499,3.9551,3.4258,2.8964,2.4309,1.9655,1.706,1.4466,1.2919,1.1372,0.99372,0.85021,0.72874,0.60728,0.49702,0.38675,0.33801,0.28926,0.27012,0.25097,0.18803,0.12509,0.11243,0.099765,0.089546,0.079327
0.080705,0.090846,0.10099,0.11388,0.12677,0.18932,0.25187,0.27333,0.29478,0.34029,0.3858,0.49787,0.60993,0.72936,0.84879,0.99352,1.1383,1.2958,1.4534,1.718,1.9825,2.4428,2.9031,3.438,3.973,4.6678,5.3626,6.0101,6.6577,7.043,7.4283,7.4529,7.4775,7.2397,7.0019,6.4928,5.9837,5.6278,5.2719,5.1955,5.1191,5.1955,5.2719,5.6278,5.9837,6.4928,7.0019,7.2397,7.4775,7.4529,7.4283,7.043,6.6577,6.0101,5.3626,4.6678,3.973,3.438,2.9031,2.4428,1.9825,1.718,1.4534,1.2958,1.1383,0.99352,0.84879,0.72936,0.60993,0.49787,0.3858,0.34029,0.29478,0.27333,0.25187,0.18932,0.12677,0.11388,0.10099,0.090846,0.080705
0.079327,0.089546,0.099765,0.11243,0.12509,0.18803,0.25097,0.27012,0.28926,0.33801,0.38675,0.49702,0.60728,0.72874,0.85021,0.99372,1.1372,1.2919,1.4466,1.706,1.9655,2.4309,2.8964,3.4258,3.9551,4.6499,5.3447,5.9942,6.6437,7.0293,7.415,7.4538,7.4927,7.2692,7.0456,6.5446,6.0435,5.6707,5.298,5.2085,5.1191,5.1824,5.2457,5.5849,5.924,6.4411,6.9582,7.2102,7.4622,7.452,7.4417,7.0567,6.6717,6.026,5.3804,4.6857,3.9909,3.4503,2.9097,2.4547,1.9996,1.7299,1.4601,1.2997,1.1393,0.99333,0.84737,0.72998,0.61258,0.49872,0.38486,0.34258,0.30029,0.27653,0.25277,0.19061,0.12845,0.11533,0.10221,0.092147,0.082083
0.080543,0.090581,0.10062,0.11397,0.12732,0.18255,0.23778,0.2663,0.29481,0.33887,0.38293,0.4917,0.60047,0.7222,0.84392,0.98665,1.1294,1.2705,1.4115,1.6943,1.977,2.4345,2.8921,3.4412,3.9903,4.6997,5.4091,6.0817,6.7543,7.1135,7.4728,7.5273,7.5817,7.3688,7.1558,6.6404,6.125,5.7314,5.3378,5.2442,5.1505,5.2071,5.2636,5.6186,5.9736,6.5015,7.0293,7.2798,7.5304,7.508,7.4856,7.1421,6.7986,6.1264,5.4542,4.7485,4.0427,3.4859,2.9291,2.4785,2.0279,1.7406,1.4534,1.2944,1.1354,0.99128,0.84717,0.72838,0.60959,0.49762,0.38565,0.34748,0.30932,0.26859,0.22786,0.17813,0.12841,0.11436,0.10031,0.090579,0.080845
0.08176,0.091616,0.10147,0.11551,0.12954,0.17707,0.2246,0.26248,0.30036,0.33974,0.37911,0.48639,0.59366,0.71565,0.83764,0.97958,1.1215,1.249,1.3765,1.6825,1.9885,2.4381,2.8878,3.4566,4.0255,4.7495,5.4735,6.1692,6.8649,7.1978,7.5307,7.6007,7.6707,7.4683,7.2659,6.7362,6.2065,5.7921,5.3776,5.2798,5.1819,5.2317,5.2815,5.6524,6.0232,6.5618,7.1004,7.3495,7.5985,7.564,7.5295,7.2275,6.9255,6.2267,5.5279,4.8112,4.0946,3.5215,2.9484,2.5023,2.0562,1.7514,1.4466,1.289,1.1315,0.98924,0.84697,0.72679,0.60661,0.49652,0.38644,0.35239,0.31834,0.26064,0.20294,0.16566,0.12837,0.11339,0.098418,0.089012,0.079607
0.081556,0.091039,0.10052,0.11394,0.12735,0.17422,0.22109,0.25983,0.29856,0.336,0.37344,0.48121,0.58898,0.70558,0.82219,0.96715,1.1121,1.2351,1.3581,1.652,1.946,2.3891,2.8322,3.3907,3.9491,4.6764,5.4037,6.0734,6.7431,7.1134,7.4837,7.5457,7.6077,7.3628,7.1178,6.617,6.1163,5.7102,5.3041,5.1802,5.0563,5.1311,5.2059,5.607,6.0081,6.5318,7.0555,7.3247,7.5939,7.5599,7.5259,7.1969,6.8679,6.2014,5.5348,4.8094,4.0839,3.5032,2.9225,2.4726,2.0226,1.7152,1.4078,1.2639,1.1201,0.97758,0.83504,0.71719,0.59934,0.4903,0.38127,0.34814,0.31501,0.25794,0.20088,0.16573,0.13058,0.11532,0.10006,0.090966,0.081873
0.081353,0.090461,0.099569,0.11237,0.12516,0.17138,0.21759,0.25718,0.29677,0.33227,0.36777,0.47603,0.58429,0.69552,0.80674,0.95473,1.1027,1.2212,1.3396,1.6215,1.9034,2.34,2.7766,3.3247,3.8728,4.6033,5.3339,5.9777,6.6214,7.029,7.4367,7.4907,7.5447,7.2572,6.9697,6.4979,6.026,5.6283,5.2306,5.0807,4.9307,5.0305,5.1304,5.5616,5.9929,6.5017,7.0105,7.2999,7.5892,7.5558,7.5223,7.1663,6.8103,6.176,5.5418,4.8075,4.0733,3.4849,2.8966,2.4428,1.9891,1.679,1.3689,1.2388,1.1087,0.96591,0.8231,0.70758,0.59207,0.48408,0.37609,0.34389,0.31168,0.25525,0.19881,0.16581,0.1328,0.11725,0.1017,0.09292,0.08414
0.08181,0.090805,0.099801,0.11283,0.12587,0.16911,0.21235,0.25392,0.2955,0.3324,0.3693,0.47501,0.58072,0.68755,0.79439,0.94275,1.0911,1.2051,1.3191,1.5975,1.8758,2.2956,2.7154,3.2484,3.7815,4.469,5.1565,5.7849,6.4133,6.8165,7.2196,7.2738,7.328,7.056,6.784,6.3242,5.8643,5.4789,5.0935,4.9576,4.8216,4.9168,5.0119,5.413,5.8141,6.3,6.7859,7.0752,7.3644,7.3291,7.2938,6.9653,6.6367,6.0195,5.4022,4.7019,4.0015,3.4173,2.8332,2.3954,1.9577,1.6528,1.3479,1.2204,1.0929,0.95351,0.81414,0.70021,0.58629,0.48277,0.37925,0.34295,0.30664,0.26226,0.21788,0.17281,0.12774,0.11435,0.10096,0.092126,0.083288
0.082266,0.091149,0.10003,0.1133,0.12657,0.16683,0.2071,0.25067,0.29423,0.33253,0.37083,0.47399,0.57714,0.67959,0.78204,0.93077,1.0795,1.1891,1.2986,1.5735,1.8483,2.2512,2.6542,3.1722,3.6901,4.3346,4.9791,5.5922,6.2053,6.6039,7.0026,7.0569,7.1112,6.8548,6.5983,6.1505,5.7026,5.3295,4.9564,4.8345,4.7125,4.803,4.8935,5.2644,5.6353,6.0983,6.5614,6.8504,7.1395,7.1025,7.0654,6.7642,6.4631,5.8629,5.2627,4.5962,3.9298,3.3498,2.7697,2.348,1.9263,1.6266,1.327,1.202,1.077,0.9411,0.80518,0.69284,0.58051,0.48146,0.38241,0.34201,0.3016,0.26928,0.23695,0.17982,0.12269,0.11146,0.10023,0.091332,0.082435
0.080417,0.089845,0.099274,0.11136,0.12345,0.16532,0.20718,0.24786,0.28854,0.32674,0.36495,0.4669,0.56886,0.67434,0.77981,0.91551,1.0512,1.1637,1.2762,1.5441,1.812,2.1909,2.5698,3.0464,3.5229,4.1164,4.71,5.296,5.8819,6.2538,6.6257,6.6777,6.7297,6.4945,6.2593,5.8613,5.4633,5.122,4.7807,4.6925,4.6043,4.6769,4.7495,5.0817,5.4138,5.8289,6.2439,6.5122,6.7805,6.7323,6.6841,6.4358,6.1875,5.6168,5.046,4.4191,3.7921,3.2543,2.7165,2.3059,1.8953,1.6026,1.3098,1.1814,1.053,0.92135,0.78974,0.6837,0.57767,0.47566,0.37365,0.33452,0.29539,0.26037,0.22535,0.17395,0.12256,0.11125,0.099936,0.090895,0.081855
0.078568,0.088541,0.098514,0.10942,0.12033,0.1638,0.20727,0.24506,0.28285,0.32096,0.35907,0.45982,0.56057,0.66908,0.77759,0.90025,1.0229,1.1384,1.2538,1.5147,1.7756,2.1306,2.4855,2.9206,3.3556,3.8983,4.4409,4.9998,5.5586,5.9037,6.2489,6.2985,6.3482,6.1343,5.9204,5.5722,5.224,4.9145,4.605,4.5505,4.4961,4.5508,4.6055,4.899,5.1924,5.5594,5.9264,6.1739,6.4215,6.3622,6.3028,6.1073,5.9119,5.3706,4.8293,4.2419,3.6545,3.1589,2.6633,2.2639,1.8644,1.5786,1.2927,1.1608,1.0289,0.90161,0.7743,0.67457,0.57484,0.46986,0.36489,0.32703,0.28918,0.25146,0.21374,0.16809,0.12244,0.11104,0.099644,0.090459,0.081274
0.077871,0.086829,0.095787,0.10693,0.11807,0.16517,0.21227,0.24513,0.27799,0.31752,0.35705,0.44909,0.54113,0.6472,0.75328,0.87378,0.99428,1.1108,1.2273,1.4594,1.6914,2.0088,2.3263,2.7092,3.0921,3.5782,4.0643,4.5589,5.0536,5.3588,5.6639,5.7196,5.7752,5.6103,5.4454,5.1267,4.808,4.5559,4.3038,4.2493,4.1947,4.2399,4.285,4.5427,4.8005,5.14,5.4795,5.6719,5.8643,5.8183,5.7724,5.5858,5.3992,4.9225,4.4458,3.9082,3.3705,2.9292,2.4878,2.1402,1.7925,1.5232,1.2539,1.1341,1.0142,0.88706,0.75991,0.66005,0.5602,0.45716,0.35413,0.31919,0.28426,0.24761,0.21097,0.16553,0.12009,0.10832,0.096551,0.087563,0.078574
0.077174,0.085117,0.09306,0.10444,0.11582,0.16654,0.21726,0.2452,0.27314,0.31408,0.35503,0.43836,0.52169,0.62533,0.72897,0.8473,0.96564,1.0832,1.2008,1.404,1.6072,1.8871,2.167,2.4978,2.8286,3.2581,3.6876,4.1181,4.5486,4.8138,5.079,5.1406,5.2022,5.0863,4.9705,4.6812,4.392,4.1973,4.0027,3.948,3.8934,3.929,3.9645,4.1865,4.4085,4.7206,5.0327,5.1699,5.307,5.2745,5.2419,5.0642,4.8865,4.4744,4.0623,3.5744,3.0866,2.6994,2.3123,2.0164,1.7206,1.4679,1.2151,1.1073,0.99949,0.8725,0.74552,0.64554,0.54556,0.44446,0.34336,0.31135,0.27933,0.24376,0.20819,0.16297,0.11775,0.1056,0.093459,0.084666,0.075874
0.075096,0.083045,0.090993,0.10088,0.11077,0.15848,0.2062,0.23801,0.26983,0.30725,0.34468,0.42929,0.5139,0.61711,0.72033,0.83672,0.95311,1.062,1.1709,1.3534,1.5359,1.7969,2.0578,2.3696,2.6814,3.0728,3.4643,3.844,4.2237,4.4337,4.6436,4.7097,4.7758,4.6896,4.6034,4.3471,4.0908,3.9129,3.7349,3.6862,3.6375,3.6766,3.7156,3.9191,4.1225,4.3793,4.636,4.7437,4.8515,4.8257,4.8,4.6305,4.4611,4.0902,3.7193,3.2843,2.8493,2.4968,2.1443,1.8789,1.6135,1.3908,1.1682,1.0664,0.96461,0.84282,0.72102,0.6233,0.52557,0.42732,0.32907,0.29575,0.26244,0.23185,0.20127,0.15935,0.11744,0.10505,0.092663,0.08243,0.072196
0.073018,0.080972,0.088926,0.097325,0.10572,0.15043,0.19513,0.23082,0.26651,0.30042,0.33432,0.42022,0.50611,0.6089,0.71169,0.82613,0.94057,1.0408,1.1411,1.3029,1.4647,1.7066,1.9486,2.2414,2.5342,2.8876,3.2409,3.5698,3.8987,4.0535,4.2082,4.2788,4.3494,4.2929,4.2364,4.013,3.7897,3.6285,3.4672,3.4245,3.3817,3.4242,3.4667,3.6516,3.8366,4.0379,4.2393,4.3176,4.3959,4.3769,4.358,4.1968,4.0356,3.706,3.3764,2.9942,2.6121,2.2943,1.9764,1.7414,1.5064,1.3138,1.1212,1.0255,0.92974,0.81313,0.69653,0.60106,0.50558,0.41017,0.31477,0.28016,0.24555,0.21994,0.19434,0.15574,0.11713,0.1045,0.091868,0.080193,0.068518
0.069847,0.078746,0.087646,0.097278,0.10691,0.15231,0.19771,0.22736,0.257,0.28922,0.32144,0.40454,0.48764,0.58808,0.68853,0.79844,0.90835,1.0108,1.1133,1.2685,1.4237,1.6553,1.8869,2.1744,2.4618,2.8176,3.1733,3.4943,3.8154,3.9388,4.0622,4.1185,4.1748,4.1414,4.108,3.8938,3.6796,3.5131,3.3466,3.307,3.2675,3.3072,3.347,3.5255,3.704,3.908,4.1121,4.1574,4.2027,4.1719,4.1411,4.0152,3.8894,3.5674,3.2454,2.8758,2.5061,2.2044,1.9027,1.6735,1.4443,1.2733,1.1022,1.0024,0.90266,0.79519,0.68773,0.59278,0.49782,0.40474,0.31166,0.2776,0.24354,0.21895,0.19437,0.15393,0.1135,0.10148,0.089451,0.078964,0.068476
0.066675,0.076521,0.086366,0.097231,0.1081,0.1542,0.2003,0.2239,0.24749,0.27803,0.30856,0.38886,0.46916,0.56726,0.66537,0.77075,0.87613,0.9808,1.0855,1.2341,1.3827,1.6039,1.8252,2.1073,2.3894,2.7476,3.1057,3.4188,3.732,3.8241,3.9162,3.9582,4.0001,3.9898,3.9796,3.7745,3.5695,3.3977,3.2259,3.1896,3.1532,3.1903,3.2273,3.3993,3.5714,3.7781,3.9848,3.9971,4.0094,3.9668,3.9241,3.8336,3.7432,3.4288,3.1145,2.7573,2.4001,2.1146,1.8291,1.6056,1.3822,1.2327,1.0832,0.9794,0.87557,0.77725,0.67893,0.5845,0.49006,0.39931,0.30856,0.27505,0.24154,0.21796,0.19439,0.15213,0.10988,0.098454,0.087033,0.077734,0.068435
0.062344,0.071675,0.081006,0.091649,0.10229,0.14618,0.19006,0.21373,0.2374,0.26965,0.3019,0.38114,0.46037,0.56077,0.66117,0.76353,0.86589,0.96436,1.0628,1.2308,1.3988,1.6231,1.8473,2.1375,2.4276,2.7919,3.1562,3.4731,3.7901,3.9142,4.0382,4.0684,4.0986,4.0525,4.0065,3.8032,3.6,3.4216,3.2432,3.2033,3.1634,3.2037,3.244,3.4116,3.5791,3.7955,4.012,4.0471,4.0822,4.0289,3.9756,3.8562,3.7368,3.4171,3.0973,2.7439,2.3904,2.1099,1.8294,1.6021,1.3747,1.2216,1.0684,0.9667,0.86501,0.76358,0.66215,0.57192,0.48169,0.39295,0.30421,0.26926,0.23431,0.2115,0.1887,0.14718,0.10566,0.094368,0.083072,0.074975,0.066878
0.058013,0.06683,0.075647,0.086066,0.096486,0.13815,0.17982,0.20357,0.22731,0.26128,0.29525,0.37342,0.45158,0.55427,0.65696,0.7563,0.85564,0.94792,1.0402,1.2276,1.415,1.6422,1.8694,2.1677,2.4659,2.8362,3.2066,3.5274,3.8482,4.0042,4.1602,4.1786,4.1971,4.1152,4.0334,3.8319,3.6304,3.4454,3.2604,3.217,3.1736,3.2171,3.2607,3.4238,3.5869,3.813,4.0391,4.097,4.1549,4.091,4.0271,3.8787,3.7304,3.4053,3.0802,2.7304,2.3806,2.1052,1.8298,1.5985,1.3672,1.2104,1.0536,0.954,0.85446,0.74991,0.64537,0.55935,0.47332,0.38659,0.29986,0.26347,0.22707,0.20504,0.183,0.14223,0.10145,0.090282,0.079111,0.072216,0.065322
0.058029,0.065865,0.073701,0.083798,0.093895,0.13545,0.177,0.20033,0.22366,0.25664,0.28961,0.36738,0.44514,0.54271,0.64028,0.73828,0.83627,0.93597,1.0357,1.2424,1.4492,1.698,1.9469,2.2848,2.6228,3.0432,3.4636,3.8219,4.1803,4.3428,4.5053,4.5201,4.5349,4.4299,4.3249,4.0683,3.8117,3.6084,3.4052,3.3664,3.3277,3.3771,3.4264,3.6082,3.79,4.0521,4.3142,4.4061,4.498,4.4328,4.3677,4.1669,3.9661,3.6024,3.2386,2.858,2.4773,2.1758,1.8743,1.6273,1.3802,1.2127,1.0452,0.93993,0.83463,0.73272,0.63082,0.54247,0.45412,0.37403,0.29393,0.25825,0.22257,0.20055,0.17852,0.13675,0.094983,0.085467,0.07595,0.069068,0.062187
0.058044,0.0649,0.071755,0.08153,0.091305,0.13274,0.17418,0.1971,0.22001,0.25199,0.28398,0.36134,0.43871,0.53115,0.62359,0.72025,0.8169,0.92401,1.0311,1.2573,1.4835,1.7539,2.0243,2.402,2.7797,3.2501,3.7205,4.1164,4.5123,4.6814,4.8504,4.8616,4.8728,4.7446,4.6165,4.3047,3.993,3.7714,3.5499,3.5158,3.4818,3.537,3.5922,3.7927,3.9931,4.2912,4.5892,4.7152,4.8411,4.7747,4.7083,4.4551,4.2019,3.7995,3.397,2.9855,2.574,2.2464,1.9188,1.656,1.3932,1.2151,1.0369,0.92586,0.8148,0.71553,0.61626,0.52559,0.43493,0.36146,0.288,0.25303,0.21807,0.19605,0.17404,0.13128,0.088514,0.080651,0.072789,0.06592,0.059052
0.057899,0.064467,0.071036,0.079995,0.088955,0.12863,0.16831,0.19284,0.21737,0.24798,0.27858,0.35535,0.43213,0.52209,0.61205,0.70702,0.80198,0.90498,1.008,1.2519,1.4957,1.8168,2.1378,2.5604,2.983,3.4952,4.0075,4.4633,4.9191,5.0918,5.2644,5.2941,5.3238,5.131,4.9383,4.5962,4.2541,3.996,3.7378,3.6947,3.6517,3.7066,3.7615,4.0165,4.2715,4.5985,4.9255,5.0978,5.2702,5.221,5.1718,4.8808,4.5897,4.1192,3.6487,3.1869,2.7251,2.3596,1.9942,1.6995,1.4049,1.1992,0.99351,0.8956,0.79768,0.69565,0.59363,0.50962,0.42562,0.35134,0.27707,0.24281,0.20855,0.18726,0.16596,0.12636,0.086757,0.078831,0.070906,0.064238,0.05757
0.057753,0.064035,0.070317,0.078461,0.086605,0.12452,0.16244,0.18859,0.21474,0.24396,0.27318,0.34937,0.42555,0.51303,0.60051,0.69378,0.78706,0.88596,0.98486,1.2464,1.508,1.8796,2.2513,2.7188,3.1863,3.7403,4.2944,4.8102,5.326,5.5022,5.6784,5.7266,5.7748,5.5175,5.2602,4.8877,4.5153,4.2205,3.9258,3.8737,3.8215,3.8762,3.9308,4.2404,4.5499,4.9058,5.2618,5.4805,5.6992,5.6673,5.6354,5.3064,4.9775,4.4389,3.9004,3.3883,2.8763,2.4729,2.0695,1.743,1.4165,1.1833,0.9501,0.86533,0.78055,0.67578,0.571,0.49365,0.41631,0.34123,0.26614,0.23259,0.19904,0.17846,0.15787,0.12144,0.085,0.077011,0.069022,0.062555,0.056088
0.057087,0.06317,0.069253,0.077044,0.084836,0.12252,0.16021,0.18511,0.21002,0.23951,0.269,0.34336,0.41772,0.50513,0.59254,0.68338,0.77422,0.87055,0.96687,1.2303,1.4938,1.869,2.2442,2.7445,3.2448,3.8276,4.4104,4.9483,5.4862,5.7241,5.9621,5.9969,6.0318,5.7522,5.4727,5.0541,4.6356,4.3064,3.9773,3.9019,3.8266,3.9155,4.0043,4.3436,4.6829,5.0968,5.5108,5.7529,5.995,5.9592,5.9233,5.571,5.2187,4.6497,4.0808,3.526,2.9712,2.5344,2.0976,1.7526,1.4075,1.1719,0.93628,0.85366,0.77105,0.6631,0.55516,0.48407,0.41298,0.33672,0.26047,0.22872,0.19697,0.17011,0.14325,0.1142,0.085153,0.076361,0.067568,0.061453,0.055338
0.056421,0.062305,0.068189,0.075628,0.083067,0.12052,0.15797,0.18164,0.20531,0.23506,0.26481,0.33735,0.40989,0.49723,0.58457,0.67297,0.76138,0.85513,0.94889,1.2143,1.4796,1.8584,2.2371,2.7702,3.3033,3.9149,4.5264,5.0864,5.6464,5.9461,6.2458,6.2673,6.2888,5.987,5.6851,5.2205,4.7559,4.3923,4.0287,3.9302,3.8317,3.9547,4.0778,4.4469,4.8159,5.2879,5.7598,6.0253,6.2909,6.2511,6.2113,5.8356,5.4598,4.8605,4.2611,3.6636,3.0661,2.5959,2.1257,1.7621,1.3985,1.1605,0.92245,0.842,0.76154,0.65043,0.53931,0.47448,0.40964,0.33222,0.25479,0.22484,0.1949,0.16176,0.12862,0.10696,0.085307,0.07571,0.066114,0.060351,0.054588
0.055854,0.061354,0.066854,0.075781,0.084708,0.11434,0.14396,0.17433,0.2047,0.23145,0.25819,0.32973,0.40126,0.48654,0.57182,0.65806,0.7443,0.8368,0.9293,1.1919,1.4545,1.8338,2.2132,2.7472,3.2812,3.8836,4.4861,5.0385,5.591,5.9006,6.2103,6.2274,6.2446,5.9449,5.6451,5.1709,4.6966,4.3276,3.9585,3.8724,3.7863,3.9211,4.0559,4.4216,4.7873,5.2478,5.7083,5.9864,6.2645,6.2293,6.1942,5.817,5.4398,4.8514,4.2629,3.6601,3.0573,2.5793,2.1014,1.7361,1.3709,1.1372,0.90346,0.82269,0.74192,0.6355,0.52908,0.46519,0.4013,0.32483,0.24836,0.21897,0.18957,0.16438,0.13919,0.11073,0.08228,0.073693,0.065105,0.05946,0.053816
0.055286,0.060402,0.065518,0.075933,0.086348,0.10815,0.12995,0.16702,0.2041,0.22783,0.25157,0.3221,0.39263,0.47586,0.55908,0.64315,0.72721,0.81846,0.90972,1.1696,1.4294,1.8093,2.1892,2.7241,3.259,3.8524,4.4457,4.9906,5.5355,5.8551,6.1748,6.1876,6.2004,5.9027,5.6051,5.1212,4.6374,4.2628,3.8883,3.8146,3.741,3.8874,4.0339,4.3963,4.7587,5.2078,5.6569,5.9475,6.2381,6.2076,6.177,5.7984,5.4199,4.8423,4.2648,3.6567,3.0486,2.5628,2.077,1.7101,1.3432,1.1139,0.88447,0.80339,0.7223,0.62057,0.51884,0.45589,0.39295,0.31744,0.24194,0.21309,0.18425,0.16701,0.14976,0.11451,0.079252,0.071675,0.064097,0.05857,0.053043
0.04635,0.05106,0.055771,0.06462,0.07347,0.093952,0.11444,0.14651,0.17858,0.20192,0.22526,0.29166,0.35806,0.43915,0.52025,0.5976,0.67494,0.77432,0.8737,1.1151,1.3565,1.7168,2.0771,2.551,3.0248,3.5881,4.1513,4.6797,5.2081,5.4801,5.7521,5.7659,5.7798,5.5064,5.233,4.7868,4.3406,4.0204,3.7002,3.6543,3.6084,3.7236,3.8388,4.1914,4.544,4.9882,5.4324,5.6615,5.8906,5.8502,5.8098,5.4801,5.1504,4.5911,4.0318,3.4549,2.878,2.4338,1.9897,1.6333,1.2769,1.0505,0.82413,0.74745,0.67076,0.57197,0.47319,0.41326,0.35333,0.28453,0.21573,0.19058,0.16542,0.15141,0.13739,0.10358,0.069773,0.062659,0.055544,0.050437,0.045331
0.044701,0.049279,0.053857,0.061914,0.069971,0.090843,0.11172,0.1423,0.17289,0.19764,0.22239,0.28476,0.34713,0.4286,0.51007,0.58268,0.65528,0.76351,0.87174,1.0957,1.3197,1.6598,2,2.4155,2.831,3.3651,3.8991,4.4124,4.9256,5.1504,5.3752,5.3906,5.406,5.1567,4.9075,4.4988,4.0902,3.8238,3.5575,3.5392,3.5208,3.6046,3.6885,4.0325,4.3764,4.8165,5.2566,5.424,5.5914,5.541,5.4906,5.2081,4.9256,4.3831,3.8406,3.2926,2.7445,2.3419,1.9393,1.5928,1.2462,1.0228,0.7993,0.72519,0.65108,0.55477,0.45846,0.39984,0.34123,0.27621,0.2112,0.18547,0.15973,0.14779,0.13585,0.10261,0.069374,0.062205,0.055037,0.049971,0.044906
0.043217,0.048095,0.052974,0.060084,0.067194,0.095148,0.1231,0.14396,0.16482,0.18982,0.21483,0.27422,0.33361,0.41243,0.49125,0.55945,0.62765,0.72875,0.82986,1.0294,1.229,1.5217,1.8144,2.187,2.5597,3.0276,3.4956,3.9393,4.3831,4.5911,4.7991,4.8033,4.8075,4.5896,4.3717,4.0241,3.6764,3.4584,3.2405,3.2272,3.214,3.2932,3.3724,3.6778,3.9831,4.363,4.7429,4.888,5.0331,4.9901,4.947,4.6797,4.4124,3.9393,3.4663,2.9825,2.4986,2.1423,1.7861,1.4823,1.1786,0.98162,0.78468,0.70634,0.62801,0.53489,0.44176,0.38556,0.32936,0.26709,0.20483,0.17994,0.15504,0.14414,0.13323,0.10025,0.067278,0.06032,0.053363,0.048461,0.043559
0.041732,0.046911,0.05209,0.058254,0.064417,0.099453,0.13449,0.14561,0.15674,0.18201,0.20727,0.26368,0.3201,0.39626,0.47243,0.53622,0.60002,0.694,0.78798,0.96313,1.1383,1.3835,1.6288,1.9586,2.2884,2.6902,3.0921,3.4663,3.8406,4.0318,4.223,4.216,4.209,4.0225,3.836,3.5493,3.2626,3.093,2.9234,2.9153,2.9072,2.9818,3.0563,3.3231,3.5899,3.9096,4.2292,4.352,4.4747,4.4391,4.4035,4.1513,3.8991,3.4956,3.0921,2.6723,2.2526,1.9427,1.6328,1.3719,1.1109,0.94047,0.77006,0.6875,0.60494,0.51501,0.42507,0.37128,0.31748,0.25797,0.19846,0.17441,0.15036,0.14048,0.13061,0.097895,0.065183,0.058436,0.051689,0.04695,0.042212
0.039424,0.044754,0.050083,0.056123,0.062163,0.094795,0.12743,0.13762,0.14782,0.1728,0.19778,0.25136,0.30495,0.37686,0.44878,0.50747,0.56616,0.64921,0.73225,0.86435,0.99645,1.2213,1.4462,1.7208,1.9955,2.3339,2.6723,2.9825,3.2926,3.4549,3.6172,3.6154,3.6135,3.4698,3.3262,3.0921,2.8581,2.7203,2.5826,2.5711,2.5595,2.6244,2.6893,2.9075,3.1257,3.4007,3.6757,3.7699,3.864,3.8375,3.8111,3.5881,3.3651,3.0276,2.6902,2.3339,1.9776,1.7172,1.4569,1.2215,0.98609,0.8536,0.7211,0.6466,0.5721,0.48605,0.40001,0.3525,0.30498,0.2465,0.18802,0.16749,0.14695,0.1357,0.12445,0.094526,0.064605,0.057755,0.050905,0.046093,0.041281
0.037115,0.042596,0.048076,0.053993,0.059909,0.090137,0.12037,0.12964,0.13891,0.1636,0.18829,0.23904,0.2898,0.35747,0.42513,0.47871,0.53229,0.60441,0.67653,0.76558,0.85462,1.0591,1.2635,1.483,1.7025,1.9776,2.2526,2.4986,2.7445,2.878,3.0115,3.0147,3.018,2.9172,2.8164,2.635,2.4536,2.3477,2.2417,2.2268,2.2119,2.2671,2.3223,2.4919,2.6614,2.8918,3.1222,3.1877,3.2532,3.236,3.2187,3.0248,2.831,2.5597,2.2884,1.9955,1.7025,1.4917,1.2809,1.0711,0.86131,0.76673,0.67214,0.6057,0.53926,0.4571,0.37495,0.33372,0.29248,0.23503,0.17758,0.16057,0.14355,0.13092,0.11828,0.091156,0.064028,0.057074,0.050121,0.045235,0.04035
0.036984,0.042121,0.047257,0.053647,0.060038,0.082296,0.10455,0.12216,0.13976,0.15893,0.1781,0.22461,0.27111,0.33664,0.40216,0.45176,0.50136,0.56411,0.62686,0.71265,0.79845,0.95223,1.106,1.2989,1.4917,1.7172,1.9427,2.1423,2.3419,2.4338,2.5258,2.5372,2.5487,2.4808,2.4128,2.2773,2.1418,2.0536,1.9654,1.951,1.9365,1.9798,2.0232,2.1602,2.2973,2.4774,2.6576,2.6902,2.7229,2.7047,2.6865,2.551,2.4155,2.187,1.9586,1.7208,1.483,1.2989,1.1147,0.95681,0.79892,0.71121,0.6235,0.56562,0.50774,0.43183,0.35592,0.31595,0.27598,0.2234,0.17082,0.15766,0.1445,0.12463,0.10475,0.082984,0.061214,0.054277,0.047341,0.042484,0.037628
0.036854,0.041645,0.046437,0.053302,0.060167,0.074454,0.088742,0.11468,0.14062,0.15427,0.16792,0.21017,0.25243,0.3158,0.37918,0.42481,0.47044,0.52381,0.57719,0.65973,0.74227,0.84537,0.94846,1.1147,1.2809,1.4569,1.6328,1.7861,1.9393,1.9897,2.0401,2.0597,2.0793,2.0443,2.0093,1.9197,1.8301,1.7596,1.6891,1.6751,1.6611,1.6926,1.724,1.8285,1.9331,2.063,2.1929,2.1927,2.1926,2.1734,2.1543,2.0771,2,1.8144,1.6288,1.4462,1.2635,1.106,0.94846,0.84249,0.73652,0.65568,0.57485,0.52554,0.47622,0.40656,0.3369,0.29819,0.25948,0.21177,0.16405,0.15475,0.14545,0.11834,0.091225,0.074812,0.0584,0.05148,0.044561,0.039733,0.034906
0.036226,0.040602,0.044978,0.051278,0.057579,0.07064,0.083701,0.10842,0.13314,0.14543,0.15772,0.19668,0.23565,0.29233,0.349,0.39518,0.44136,0.48764,0.53392,0.60147,0.66902,0.75575,0.84249,0.95681,1.0711,1.2215,1.3719,1.4823,1.5928,1.6333,1.6739,1.6955,1.7172,1.7013,1.6854,1.6289,1.5723,1.5188,1.4654,1.4566,1.4479,1.4768,1.5058,1.5866,1.6674,1.745,1.8225,1.8183,1.8141,1.7939,1.7738,1.7168,1.6598,1.5217,1.3835,1.2213,1.0591,0.95223,0.84537,0.75575,0.66614,0.6001,0.53406,0.48962,0.44517,0.37998,0.31479,0.27803,0.24128,0.19864,0.156,0.14622,0.13643,0.11144,0.086442,0.071779,0.057115,0.050702,0.044288,0.039906,0.035524
0.035598,0.039558,0.043518,0.049254,0.05499,0.066825,0.078661,0.10216,0.12565,0.13658,0.14752,0.18319,0.21887,0.26885,0.31882,0.36555,0.41228,0.45147,0.49066,0.54321,0.59576,0.66614,0.73652,0.79892,0.86131,0.98609,1.1109,1.1786,1.2462,1.2769,1.3076,1.3313,1.355,1.3583,1.3615,1.338,1.3145,1.2781,1.2416,1.2381,1.2347,1.2611,1.2875,1.3447,1.4018,1.427,1.4521,1.4439,1.4356,1.4144,1.3933,1.3565,1.3197,1.229,1.1383,0.99645,0.85462,0.79845,0.74227,0.66902,0.59576,0.54452,0.49327,0.4537,0.41412,0.3534,0.29268,0.25788,0.22308,0.18552,0.14796,0.13769,0.12742,0.10454,0.08166,0.068745,0.05583,0.049923,0.044016,0.040079,0.036141
0.035555,0.039313,0.043072,0.048077,0.053083,0.068858,0.084633,0.10228,0.11993,0.13234,0.14475,0.17646,0.20817,0.25305,0.29793,0.34151,0.38509,0.41991,0.45474,0.49963,0.54452,0.6001,0.65568,0.71121,0.76673,0.8536,0.94047,0.98162,1.0228,1.0505,1.0783,1.0979,1.1174,1.1238,1.1302,1.1303,1.1304,1.1104,1.0905,1.0892,1.088,1.0968,1.1056,1.1378,1.17,1.1817,1.1935,1.1827,1.1719,1.1532,1.1345,1.1151,1.0957,1.0294,0.96313,0.86435,0.76558,0.71265,0.65973,0.60147,0.54321,0.49963,0.45605,0.42027,0.3845,0.32903,0.27356,0.24298,0.21239,0.17924,0.14609,0.13401,0.12193,0.10463,0.087339,0.070141,0.052943,0.047662,0.042381,0.038741,0.035101
0.035512,0.039069,0.042625,0.0469,0.051175,0.07089,0.090605,0.10241,0.11421,0.1281,0.14199,0.16973,0.19746,0.23725,0.27703,0.31747,0.3579,0.38836,0.41882,0.45605,0.49327,0.53406,0.57485,0.6235,0.67214,0.7211,0.77006,0.78468,0.7993,0.82413,0.84896,0.86439,0.87983,0.88938,0.89893,0.92262,0.94632,0.94283,0.93935,0.94029,0.94124,0.9325,0.92376,0.93093,0.9381,0.93645,0.9348,0.92147,0.90814,0.8919,0.87566,0.8737,0.87174,0.82986,0.78798,0.73225,0.67653,0.62686,0.57719,0.53392,0.49066,0.45474,0.41882,0.38685,0.35488,0.30466,0.25444,0.22807,0.20171,0.17297,0.14422,0.13033,0.11644,0.10473,0.093017,0.071536,0.050055,0.045401,0.040746,0.037403,0.03406
0.033686,0.037481,0.041277,0.045125,0.048974,0.062977,0.076979,0.092054,0.10713,0.11959,0.13206,0.1591,0.18613,0.22438,0.26263,0.29307,0.32352,0.35518,0.38685,0.42027,0.4537,0.48962,0.52554,0.56562,0.6057,0.6466,0.6875,0.70634,0.72519,0.74745,0.7697,0.78521,0.80072,0.80854,0.81635,0.83262,0.84888,0.84788,0.84688,0.84711,0.84734,0.84335,0.83935,0.84202,0.84468,0.84099,0.83729,0.82622,0.81514,0.80014,0.78513,0.77432,0.76351,0.72875,0.694,0.64921,0.60441,0.56411,0.52381,0.48764,0.45147,0.41991,0.38836,0.35518,0.32201,0.27816,0.23431,0.21413,0.19394,0.1637,0.13345,0.12101,0.10857,0.093951,0.079327,0.063996,0.048666,0.04433,0.039993,0.036662,0.03333
0.031861,0.035894,0.039928,0.04335,0.046773,0.055063,0.063353,0.081701,0.10005,0.11109,0.12213,0.14847,0.1748,0.21151,0.24822,0.26868,0.28914,0.32201,0.35488,0.3845,0.41412,0.44517,0.47622,0.50774,0.53926,0.5721,0.60494,0.62801,0.65108,0.67076,0.69044,0.70603,0.72161,0.7277,0.73378,0.74262,0.75145,0.75293,0.75441,0.75393,0.75344,0.75419,0.75494,0.7531,0.75126,0.74552,0.73978,0.73096,0.72214,0.70838,0.69461,0.67494,0.65528,0.62765,0.60002,0.56616,0.53229,0.50136,0.47044,0.44136,0.41228,0.38509,0.3579,0.32352,0.28914,0.25166,0.21419,0.20018,0.18616,0.15443,0.12269,0.1117,0.10071,0.083172,0.065637,0.056457,0.047277,0.043259,0.03924,0.03592,0.032601
0.031389,0.034254,0.03712,0.040662,0.044204,0.054639,0.065074,0.078509,0.091943,0.10463,0.11732,0.13429,0.15126,0.18256,0.21386,0.23276,0.25166,0.27816,0.30466,0.32903,0.3534,0.37998,0.40656,0.43183,0.4571,0.48605,0.51501,0.53489,0.55477,0.57197,0.58918,0.60124,0.61331,0.62244,0.63157,0.64101,0.65046,0.65421,0.65797,0.65895,0.65993,0.6609,0.66188,0.66026,0.65864,0.65429,0.64994,0.64319,0.63644,0.62448,0.61251,0.5976,0.58268,0.55945,0.53622,0.50747,0.47871,0.45176,0.42481,0.39518,0.36555,0.34151,0.31747,0.29307,0.26868,0.23276,0.19685,0.1825,0.16816,0.13949,0.11082,0.10262,0.094428,0.078018,0.061608,0.052724,0.04384,0.040187,0.036533,0.033582,0.030631
0.030917,0.032615,0.034312,0.037974,0.041636,0.054215,0.066794,0.075316,0.083838,0.098172,0.11251,0.12011,0.12771,0.15361,0.1795,0.19685,0.21419,0.23431,0.25444,0.27356,0.29268,0.31479,0.3369,0.35592,0.37495,0.40001,0.42507,0.44176,0.45846,0.47319,0.48792,0.49646,0.505,0.51718,0.52936,0.53941,0.54946,0.5555,0.56154,0.56398,0.56642,0.56762,0.56882,0.56742,0.56602,0.56306,0.5601,0.55542,0.55074,0.54058,0.53042,0.52025,0.51007,0.49125,0.47243,0.44878,0.42513,0.40216,0.37918,0.349,0.31882,0.29793,0.27703,0.26263,0.24822,0.21386,0.1795,0.16483,0.15015,0.12455,0.098947,0.093547,0.088147,0.072863,0.057579,0.048991,0.040404,0.037115,0.033827,0.031244,0.028661
0.029223,0.03068,0.032136,0.034112,0.036087,0.04498,0.053873,0.066679,0.079486,0.090209,0.10093,0.10938,0.11782,0.14132,0.16483,0.1825,0.20018,0.21413,0.22807,0.24298,0.25788,0.27803,0.29819,0.31595,0.33372,0.3525,0.37128,0.38556,0.39984,0.41326,0.42667,0.43451,0.44234,0.44995,0.45757,0.46464,0.47172,0.47579,0.47986,0.48171,0.48356,0.4834,0.48324,0.48198,0.48071,0.47755,0.47439,0.46958,0.46477,0.45724,0.44971,0.43915,0.4286,0.41243,0.39626,0.37686,0.35747,0.33664,0.3158,0.29233,0.26885,0.25305,0.23725,0.22438,0.21151,0.18256,0.15361,0.14132,0.12904,0.10637,0.0837,0.077368,0.071037,0.060737,0.050436,0.04454,0.038643,0.035552,0.03246,0.029306,0.026151
0.027529,0.028745,0.02996,0.030249,0.030539,0.035745,0.040952,0.058043,0.075133,0.082245,0.089358,0.098642,0.10793,0.12904,0.15015,0.16816,0.18616,0.19394,0.20171,0.21239,0.22308,0.24128,0.25948,0.27598,0.29248,0.30498,0.31748,0.32936,0.34123,0.35333,0.36542,0.37255,0.37968,0.38273,0.38577,0.38987,0.39398,0.39608,0.39819,0.39945,0.40071,0.39918,0.39766,0.39653,0.39541,0.39204,0.38867,0.38374,0.3788,0.37389,0.36899,0.35806,0.34713,0.33361,0.3201,0.30495,0.2898,0.27111,0.25243,0.23565,0.21887,0.20817,0.19746,0.18613,0.1748,0.15126,0.12771,0.11782,0.10793,0.088189,0.068453,0.061189,0.053926,0.04861,0.043294,0.040088,0.036882,0.033988,0.031094,0.027367,0.02364
0.024604,0.026281,0.027958,0.028915,0.029872,0.036542,0.043212,0.054113,0.065014,0.070492,0.07597,0.08208,0.088189,0.10637,0.12455,0.13949,0.15443,0.1637,0.17297,0.17924,0.18552,0.19864,0.21177,0.2234,0.23503,0.2465,0.25797,0.26709,0.27621,0.28453,0.29284,0.29855,0.30426,0.30781,0.31135,0.3148,0.31825,0.31991,0.32158,0.32246,0.32334,0.32266,0.32199,0.32095,0.31991,0.31767,0.31543,0.31196,0.30849,0.30353,0.29856,0.29166,0.28476,0.27422,0.26368,0.25136,0.23904,0.22461,0.21017,0.19668,0.18319,0.17646,0.16973,0.1591,0.14847,0.13429,0.12011,0.10938,0.098642,0.08208,0.065517,0.058475,0.051432,0.04643,0.041428,0.03768,0.033933,0.031396,0.028859,0.026199,0.023539
0.021678,0.023817,0.025956,0.027581,0.029206,0.037339,0.045471,0.050184,0.054896,0.058739,0.062582,0.065517,0.068453,0.0837,0.098947,0.11082,0.12269,0.13345,0.14422,0.14609,0.14796,0.156,0.16405,0.17082,0.17758,0.18802,0.19846,0.20483,0.2112,0.21573,0.22026,0.22455,0.22883,0.23289,0.23694,0.23973,0.24253,0.24375,0.24497,0.24547,0.24598,0.24614,0.24631,0.24537,0.24442,0.24331,0.2422,0.24019,0.23819,0.23316,0.22814,0.22526,0.22239,0.21483,0.20727,0.19778,0.18829,0.1781,0.16792,0.15772,0.14752,0.14475,0.14199,0.13206,0.12213,0.11732,0.11251,0.10093,0.089358,0.07597,0.062582,0.05576,0.048938,0.04425,0.039561,0.035272,0.030984,0.028804,0.026623,0.02503,0.023437
0.017407,0.01891,0.020414,0.021568,0.022722,0.029922,0.037121,0.041208,0.045294,0.050527,0.05576,0.058475,0.061189,0.077368,0.093547,0.10262,0.1117,0.12101,0.13033,0.13401,0.13769,0.14622,0.15475,0.15766,0.16057,0.16749,0.17441,0.17994,0.18547,0.19058,0.19569,0.20006,0.20443,0.20715,0.20987,0.21289,0.21591,0.21704,0.21817,0.21873,0.21929,0.21913,0.21897,0.21838,0.2178,0.21657,0.21533,0.21351,0.21168,0.20894,0.2062,0.20192,0.19764,0.18982,0.18201,0.1728,0.1636,0.15893,0.15427,0.14543,0.13658,0.13234,0.1281,0.11959,0.11109,0.10463,0.098172,0.090209,0.082245,0.070492,0.058739,0.050527,0.042316,0.038254,0.034193,0.031409,0.028625,0.026005,0.023384,0.02251,0.021635
0.013135,0.014004,0.014873,0.015555,0.016238,0.022505,0.028772,0.032232,0.035693,0.042316,0.048938,0.051432,0.053926,0.071037,0.088147,0.094428,0.10071,0.10857,0.11644,0.12193,0.12742,0.13643,0.14545,0.1445,0.14355,0.14695,0.15036,0.15504,0.15973,0.16542,0.17111,0.17557,0.18002,0.18141,0.1828,0.18605,0.1893,0.19034,0.19138,0.19199,0.1926,0.19211,0.19162,0.1914,0.19118,0.18983,0.18847,0.18682,0.18516,0.18471,0.18426,0.17858,0.17289,0.16482,0.15674,0.14782,0.13891,0.13976,0.14062,0.13314,0.12565,0.11993,0.11421,0.10713,0.10005,0.091943,0.083838,0.079486,0.075133,0.065014,0.054896,0.045294,0.035693,0.032259,0.028826,0.027546,0.026266,0.023206,0.020145,0.019989,0.019833
0.011983,0.012741,0.013498,0.014298,0.015099,0.020635,0.026171,0.029215,0.032259,0.038254,0.04425,0.04643,0.04861,0.060737,0.072863,0.078018,0.083172,0.093951,0.10473,0.10463,0.10454,0.11144,0.11834,0.12463,0.13092,0.1357,0.14048,0.14414,0.14779,0.15141,0.15502,0.15164,0.14826,0.15581,0.16336,0.16662,0.16988,0.17133,0.17278,0.17325,0.17371,0.17252,0.17133,0.17112,0.1709,0.16959,0.16829,0.16642,0.16455,0.15763,0.15071,0.14651,0.1423,0.14396,0.14561,0.13762,0.12964,0.12216,0.11468,0.10842,0.10216,0.10228,0.10241,0.092054,0.081701,0.078509,0.075316,0.066679,0.058043,0.054113,0.050184,0.041208,0.032232,0.029215,0.026198,0.023248,0.020298,0.018696,0.017093,0.016704,0.016314
0.010832,0.011477,0.012123,0.013041,0.01396,0.018765,0.02357,0.026198,0.028826,0.034193,0.039561,0.041428,0.043294,0.050436,0.057579,0.061608,0.065637,0.079327,0.093017,0.087339,0.08166,0.086442,0.091225,0.10475,0.11828,0.12445,0.13061,0.13323,0.13585,0.13739,0.13893,0.12771,0.11649,0.13021,0.14392,0.14719,0.15047,0.15232,0.15418,0.1545,0.15483,0.15294,0.15105,0.15083,0.15061,0.14936,0.14811,0.14602,0.14393,0.13054,0.11715,0.11444,0.11172,0.1231,0.13449,0.12743,0.12037,0.10455,0.088742,0.083701,0.078661,0.084633,0.090605,0.076979,0.063353,0.065074,0.066794,0.053873,0.040952,0.043212,0.045471,0.037121,0.028772,0.026171,0.02357,0.01895,0.01433,0.014185,0.014041,0.013418,0.012796
0.0099554,0.010487,0.011018,0.01186,0.012702,0.015826,0.01895,0.023248,0.027546,0.031409,0.035272,0.03768,0.040088,0.04454,0.048991,0.052724,0.056457,0.063996,0.071536,0.070141,0.068745,0.071779,0.074812,0.082984,0.091156,0.094526,0.097895,0.10025,0.10261,0.10358,0.10455,0.10025,0.095944,0.10234,0.10874,0.11053,0.11233,0.1135,0.11468,0.11577,0.11686,0.11625,0.11565,0.11481,0.11398,0.11281,0.11163,0.10996,0.10828,0.10267,0.097061,0.093952,0.090843,0.095148,0.099453,0.094795,0.090137,0.082296,0.074454,0.07064,0.066825,0.068858,0.07089,0.062977,0.055063,0.054639,0.054215,0.04498,0.035745,0.036542,0.037339,0.029922,0.022505,0.020635,0.018765,0.015826,0.012887,0.012563,0.012238,0.011663,0.011088
0.0090792,0.0094961,0.0099131,0.010679,0.011444,0.012887,0.01433,0.020298,0.026266,0.028625,0.030984,0.033933,0.036882,0.038643,0.040404,0.04384,0.047277,0.048666,0.050055,0.052943,0.05583,0.057115,0.0584,0.061214,0.064028,0.064605,0.065183,0.067278,0.069374,0.069773,0.070173,0.072784,0.075394,0.074475,0.073555,0.07387,0.074184,0.074685,0.075186,0.077038,0.078891,0.079569,0.080248,0.078796,0.077345,0.076253,0.075161,0.073896,0.072631,0.0748,0.076968,0.07347,0.069971,0.067194,0.064417,0.062163,0.059909,0.060038,0.060167,0.057579,0.05499,0.053083,0.051175,0.048974,0.046773,0.044204,0.041636,0.036087,0.030539,0.029872,0.029206,0.022722,0.016238,0.015099,0.01396,0.012702,0.011444,0.01094,0.010436,0.0099079,0.0093801
0.0085626,0.0089362,0.0093098,0.010125,0.01094,0.012563,0.014185,0.018696,0.023206,0.026005,0.028804,0.031396,0.033988,0.035552,0.037115,0.040187,0.043259,0.04433,0.045401,0.047662,0.049923,0.050702,0.05148,0.054277,0.057074,0.057755,0.058436,0.06032,0.062205,0.062659,0.063112,0.064756,0.066401,0.066236,0.066071,0.066269,0.066466,0.066771,0.067076,0.068363,0.069651,0.070081,0.070511,0.0695,0.068488,0.068135,0.067782,0.06692,0.066057,0.066692,0.067326,0.06462,0.061914,0.060084,0.058254,0.056123,0.053993,0.053647,0.053302,0.051278,0.049254,0.048077,0.0469,0.045125,0.04335,0.040662,0.037974,0.034112,0.030249,0.028915,0.027581,0.021568,0.015555,0.014298,0.013041,0.01186,0.010679,0.010125,0.0095711,0.0090891,0.0086071
0.0080459,0.0083762,0.0087065,0.0095711,0.010436,0.012238,0.014041,0.017093,0.020145,0.023384,0.026623,0.028859,0.031094,0.03246,0.033827,0.036533,0.03924,0.039993,0.040746,0.042381,0.044016,0.044288,0.044561,0.047341,0.050121,0.050905,0.051689,0.053363,0.055037,0.055544,0.056051,0.056729,0.057407,0.057997,0.058587,0.058667,0.058748,0.058857,0.058966,0.059688,0.06041,0.060592,0.060774,0.060203,0.059632,0.060018,0.060404,0.059943,0.059483,0.058583,0.057684,0.055771,0.053857,0.052974,0.05209,0.050083,0.048076,0.047257,0.046437,0.044978,0.043518,0.043072,0.042625,0.041277,0.039928,0.03712,0.034312,0.032136,0.02996,0.027958,0.025956,0.020414,0.014873,0.013498,0.012123,0.011018,0.0099131,0.0093098,0.0087065,0.0082703,0.0078341
0.0076668,0.0079685,0.0082703,0.0090891,0.0099079,0.011663,0.013418,0.016704,0.019989,0.02251,0.02503,0.026199,0.027367,0.029306,0.031244,0.033582,0.03592,0.036662,0.037403,0.038741,0.040079,0.039906,0.039733,0.042484,0.045235,0.046093,0.04695,0.048461,0.049971,0.050437,0.050903,0.051492,0.052081,0.052364,0.052647,0.052575,0.052502,0.052365,0.052227,0.052465,0.052704,0.052765,0.052826,0.053124,0.053422,0.05398,0.054539,0.054234,0.053929,0.053385,0.052842,0.05106,0.049279,0.048095,0.046911,0.044754,0.042596,0.042121,0.041645,0.040602,0.039558,0.039313,0.039069,0.037481,0.035894,0.034254,0.032615,0.03068,0.028745,0.026281,0.023817,0.01891,0.014004,0.012741,0.011477,0.010487,0.0094961,0.0089362,0.0083762,0.0079685,0.0075609
0.0072877,0.0075609,0.0078341,0.0086071,0.0093801,0.011088,0.012796,0.016314,0.019833,0.021635,0.023437,0.023539,0.02364,0.026151,0.028661,0.030631,0.032601,0.03333,0.03406,0.035101,0.036141,0.035524,0.034906,0.037628,0.04035,0.041281,0.042212,0.043559,0.044906,0.045331,0.045755,0.046255,0.046754,0.046731,0.046707,0.046482,0.046256,0.045873,0.045489,0.045243,0.044997,0.044938,0.044878,0.046045,0.047213,0.047943,0.048674,0.048524,0.048375,0.048187,0.047999,0.04635,0.044701,0.043217,0.041732,0.039424,0.037115,0.036984,0.036854,0.036226,0.035598,0.035555,0.035512,0.033686,0.031861,0.031389,0.030917,0.029223,0.027529,0.024604,0.021678,0.017407,0.013135,0.011983,0.010832,0.0099554,0.0090792,0.0085626,0.0080459,0.0076668,0.0072877
