0.0036806,0.003776,0.0038714,0.0041183,0.0043652,0.0044879,0.0046106,0.0049317,0.0052528,0.0054088,0.0055648,0.0059586,0.0063524,0.0065342,0.0067159,0.0071809,0.0076459,0.0078549,0.0080639,0.0085668,0.0090697,0.0092999,0.0095301,0.01006,0.01059,0.010813,0.011036,0.010439,0.0098421,0.011078,0.012314,0.012762,0.013211,0.013333,0.013456,0.013764,0.014071,0.014136,0.014201,0.01428,0.014359,0.014322,0.014286,0.01406,0.013835,0.013668,0.013502,0.013049,0.012596,0.012352,0.012108,0.011551,0.010993,0.010755,0.010518,0.0099694,0.0094211,0.0091908,0.0089606,0.0084411,0.0079216,0.007708,0.0074944,0.0070113,0.0065281,0.0063509,0.0061737,0.0058041,0.0054345,0.0052952,0.0051558,0.0048696,0.0045833,0.0044758,0.0043682,0.0041441,0.0039199,0.0038381,0.0037563,0.003882,0.0040077
0.0038548,0.0039623,0.0040698,0.0043485,0.0046272,0.0047658,0.0049044,0.0052672,0.0056299,0.0058079,0.0059859,0.0064365,0.0068871,0.0070991,0.0073112,0.0078458,0.0083805,0.0086228,0.0088652,0.0094461,0.010027,0.0098967,0.0097664,0.010765,0.011764,0.011997,0.012229,0.012298,0.012367,0.013096,0.013826,0.014353,0.014881,0.015028,0.015174,0.015527,0.015879,0.015949,0.016019,0.016087,0.016155,0.016108,0.016061,0.01578,0.015498,0.015325,0.015152,0.014608,0.014063,0.013924,0.013785,0.013012,0.012238,0.011962,0.011685,0.011047,0.010409,0.010141,0.0098724,0.0092719,0.0086713,0.0084267,0.0081821,0.00763,0.0070779,0.0068742,0.0066705,0.0062479,0.0058253,0.005667,0.0055087,0.0051846,0.0048605,0.0047386,0.0046166,0.004366,0.0041153,0.0040229,0.0039305,0.0040653,0.0042001
0.0040289,0.0041486,0.0042683,0.0045788,0.0048893,0.0050438,0.0051982,0.0056027,0.0060071,0.006207,0.0064069,0.0069143,0.0074217,0.0076641,0.0079064,0.0085108,0.0091151,0.0093908,0.0096664,0.010325,0.010984,0.010493,0.010003,0.01147,0.012938,0.01318,0.013423,0.014157,0.014892,0.015115,0.015337,0.015945,0.016552,0.016722,0.016891,0.01729,0.017688,0.017762,0.017836,0.017894,0.017952,0.017894,0.017836,0.017499,0.017161,0.016982,0.016803,0.016167,0.015531,0.015496,0.015461,0.014472,0.013483,0.013168,0.012853,0.012125,0.011396,0.01109,0.010784,0.010103,0.0094211,0.0091454,0.0088697,0.0082487,0.0076277,0.0073975,0.0071673,0.0066917,0.0062161,0.0060389,0.0058617,0.0054997,0.0051377,0.0050013,0.004865,0.0045878,0.0043107,0.0042077,0.0041047,0.0042486,0.0043925
0.0042364,0.0043705,0.0045045,0.0048544,0.0052043,0.0053792,0.0055542,0.0060139,0.0064736,0.0067015,0.0069295,0.0075096,0.0080897,0.0083684,0.0086471,0.008844,0.0090409,0.0098164,0.010592,0.011393,0.012194,0.012117,0.01204,0.01328,0.014521,0.014808,0.015095,0.015955,0.016816,0.017079,0.017343,0.018067,0.018791,0.018992,0.019194,0.01964,0.020087,0.020164,0.02024,0.020292,0.020345,0.02027,0.020196,0.019799,0.019403,0.019194,0.018986,0.018245,0.017505,0.017318,0.017132,0.01611,0.015087,0.014756,0.014425,0.01355,0.012675,0.012318,0.011961,0.011165,0.010369,0.010051,0.0097331,0.0090333,0.0083335,0.0080685,0.0078034,0.0072506,0.0066977,0.0064955,0.0062933,0.0058813,0.0054694,0.0053156,0.0051619,0.0048484,0.0045348,0.0044212,0.0043076,0.0044614,0.0046151
0.004444,0.0045924,0.0047408,0.0051301,0.0055193,0.0057147,0.0059101,0.0064251,0.0069401,0.0071961,0.007452,0.0081048,0.0087576,0.0090727,0.0093877,0.0091772,0.0089667,0.010242,0.011517,0.012461,0.013405,0.013741,0.014077,0.01509,0.016104,0.016435,0.016767,0.017753,0.018739,0.019044,0.019348,0.020189,0.021029,0.021263,0.021496,0.021991,0.022486,0.022565,0.022644,0.022691,0.022738,0.022647,0.022556,0.0221,0.021644,0.021406,0.021169,0.020323,0.019478,0.019141,0.018803,0.017747,0.016691,0.016344,0.015998,0.014975,0.013953,0.013545,0.013138,0.012228,0.011317,0.010957,0.010596,0.0098179,0.0090394,0.0087395,0.0084396,0.0078095,0.0071794,0.0069522,0.006725,0.006263,0.0058011,0.0056299,0.0054588,0.0051089,0.004759,0.0046348,0.0045106,0.0046742,0.0048378
0.0046818,0.0048491,0.0050165,0.0054572,0.005898,0.0061252,0.0063524,0.006934,0.0075156,0.007808,0.0081003,0.0088478,0.0095952,0.0095657,0.0095362,0.010331,0.011127,0.011964,0.012802,0.013907,0.015012,0.015408,0.015805,0.016999,0.018192,0.018581,0.018969,0.020132,0.021294,0.021658,0.022021,0.02302,0.024019,0.02429,0.024561,0.025114,0.025667,0.025762,0.025856,0.0259,0.025943,0.025833,0.025723,0.02517,0.024616,0.02434,0.024065,0.023073,0.022082,0.021685,0.021288,0.020043,0.018798,0.01839,0.017982,0.01677,0.015558,0.015131,0.014704,0.013615,0.012526,0.012107,0.011687,0.010787,0.0098876,0.0095513,0.0092151,0.0085168,0.0078186,0.0075649,0.0073112,0.0067803,0.0062494,0.0060517,0.0058541,0.0054474,0.0050407,0.0048953,0.0047499,0.0049211,0.0050922
0.0049196,0.0051059,0.0052922,0.0057844,0.0062767,0.0065357,0.0067947,0.0074429,0.0080912,0.0084199,0.0087486,0.0095907,0.010433,0.010059,0.0096846,0.011486,0.013286,0.013686,0.014086,0.015352,0.016619,0.017076,0.017533,0.018907,0.020281,0.020726,0.021172,0.022511,0.02385,0.024272,0.024695,0.025852,0.027009,0.027318,0.027627,0.028237,0.028848,0.028958,0.029069,0.029108,0.029148,0.029019,0.02889,0.028239,0.027588,0.027274,0.026961,0.025823,0.024686,0.02423,0.023774,0.022339,0.020905,0.020436,0.019966,0.018565,0.017164,0.016717,0.01627,0.015003,0.013735,0.013256,0.012778,0.011757,0.010736,0.010363,0.0099906,0.0092242,0.0084578,0.0081775,0.0078973,0.0072975,0.0066977,0.0064736,0.0062494,0.0057859,0.0053224,0.0051558,0.0049892,0.005168,0.0053467
0.0052194,0.0054254,0.0056314,0.006182,0.0067326,0.0070219,0.0073112,0.0080511,0.008791,0.0088023,0.0088137,0.010121,0.011428,0.011466,0.011504,0.013148,0.014792,0.015264,0.015736,0.017221,0.018706,0.019246,0.019786,0.021408,0.02303,0.023564,0.024098,0.025698,0.027298,0.027805,0.028312,0.029663,0.031014,0.031365,0.031717,0.032431,0.033145,0.033291,0.033437,0.033487,0.033537,0.033359,0.033181,0.032401,0.031621,0.031237,0.030853,0.029497,0.02814,0.027602,0.027064,0.025376,0.023687,0.023124,0.022561,0.020904,0.019247,0.018726,0.018206,0.01672,0.015234,0.014832,0.01443,0.013105,0.011781,0.011347,0.010913,0.010039,0.0091651,0.0088463,0.0085274,0.0078474,0.0071673,0.0069166,0.0066659,0.0061517,0.0056375,0.0054603,0.0052831,0.0054179,0.0055527
0.0055193,0.005745,0.0059707,0.0065796,0.0071885,0.0075081,0.0078277,0.0086592,0.0094907,0.0091848,0.0088788,0.010651,0.012423,0.012873,0.013323,0.01481,0.016298,0.016841,0.017385,0.019089,0.020793,0.021415,0.022038,0.023909,0.025779,0.026402,0.027024,0.028886,0.030747,0.031338,0.031929,0.033474,0.035018,0.035412,0.035806,0.036624,0.037442,0.037624,0.037805,0.037866,0.037927,0.037699,0.037472,0.036563,0.035655,0.0352,0.034746,0.033171,0.031595,0.030974,0.030353,0.028412,0.02647,0.025812,0.025155,0.023242,0.021329,0.020735,0.020142,0.018438,0.016734,0.016408,0.016082,0.014454,0.012826,0.012331,0.011835,0.010854,0.0098724,0.009515,0.0091575,0.0083972,0.0076368,0.0073596,0.0070825,0.0065175,0.0059525,0.0057647,0.0055769,0.0056678,0.0057587
0.0056799,0.0061048,0.0065296,0.0070029,0.0074763,0.0080859,0.0086955,0.0089758,0.009256,0.010073,0.01089,0.012033,0.013176,0.014262,0.015348,0.016432,0.017515,0.018876,0.020237,0.021483,0.022729,0.02428,0.025832,0.027207,0.028581,0.030188,0.031794,0.033164,0.034534,0.036079,0.037624,0.038744,0.039865,0.040479,0.041092,0.041986,0.042879,0.043273,0.043667,0.043909,0.044152,0.043909,0.043667,0.042758,0.04185,0.040979,0.040108,0.038192,0.036276,0.035541,0.034806,0.032488,0.030169,0.029393,0.028618,0.026349,0.024081,0.023383,0.022685,0.020685,0.018685,0.018173,0.017662,0.016132,0.014601,0.013807,0.013014,0.011877,0.01074,0.010331,0.0099224,0.0090621,0.0082018,0.0078898,0.0075777,0.0069408,0.0063039,0.0060866,0.0058692,0.0060237,0.0061782
0.0058405,0.0064645,0.0070885,0.0074263,0.007764,0.0086637,0.0095634,0.0092923,0.0090212,0.010961,0.012902,0.013415,0.013929,0.015651,0.017373,0.018053,0.018733,0.020911,0.023089,0.023877,0.024664,0.027145,0.029626,0.030505,0.031383,0.033973,0.036563,0.037442,0.03832,0.04082,0.043319,0.044015,0.044712,0.045545,0.046378,0.047348,0.048317,0.048923,0.049529,0.049953,0.050377,0.050119,0.049862,0.048953,0.048044,0.046757,0.045469,0.043213,0.040956,0.040108,0.039259,0.036563,0.033867,0.032974,0.03208,0.029457,0.026833,0.026031,0.025228,0.022932,0.020635,0.019939,0.019242,0.017809,0.016376,0.015284,0.014192,0.0129,0.011608,0.011148,0.010687,0.009727,0.0087667,0.0084199,0.008073,0.0073642,0.0066553,0.0064084,0.0061616,0.0063797,0.0065978
0.0063569,0.0068401,0.0073233,0.0079564,0.0085895,0.0089182,0.0092469,0.010134,0.011022,0.012284,0.013545,0.014782,0.016019,0.017268,0.018516,0.020172,0.021827,0.023412,0.024996,0.026957,0.028918,0.030734,0.03255,0.034799,0.037048,0.03851,0.039971,0.041645,0.043319,0.045795,0.048272,0.049748,0.051225,0.052611,0.053997,0.055156,0.056314,0.057041,0.057768,0.058223,0.058677,0.058442,0.058208,0.057238,0.056269,0.054883,0.053497,0.051339,0.04918,0.047643,0.046106,0.042402,0.038699,0.037631,0.036563,0.033472,0.030381,0.029434,0.028487,0.025789,0.023091,0.022277,0.021464,0.019493,0.017523,0.016754,0.015986,0.014317,0.012649,0.012116,0.011584,0.010502,0.0094195,0.009031,0.0086425,0.0078504,0.0070582,0.0067856,0.006513,0.0064766,0.0064402
0.0068734,0.0072157,0.0075581,0.0084865,0.009415,0.0091727,0.0089303,0.010977,0.013023,0.013606,0.014189,0.016149,0.018109,0.018885,0.01966,0.022291,0.024922,0.025912,0.026903,0.030037,0.033171,0.034322,0.035473,0.039093,0.042713,0.043046,0.043379,0.045848,0.048317,0.050771,0.053224,0.055481,0.057738,0.059677,0.061616,0.062964,0.064312,0.06516,0.066008,0.066493,0.066977,0.066765,0.066553,0.065523,0.064493,0.063009,0.061525,0.059465,0.057405,0.055178,0.052952,0.048241,0.043531,0.042289,0.041047,0.037487,0.033928,0.032837,0.031747,0.028646,0.025546,0.024616,0.023686,0.021178,0.018669,0.018224,0.017779,0.015734,0.013689,0.013085,0.012481,0.011276,0.010072,0.0096422,0.009212,0.0083366,0.0074611,0.0071627,0.0068643,0.0065735,0.0062827
0.007293,0.0076709,0.0080488,0.0086001,0.0091515,0.0097467,0.010342,0.012264,0.014186,0.014848,0.01551,0.017761,0.020013,0.020916,0.021818,0.024887,0.027956,0.02911,0.030264,0.034012,0.03776,0.03854,0.03932,0.042789,0.046257,0.048173,0.050089,0.053126,0.056163,0.0592,0.062237,0.065016,0.067795,0.070166,0.072536,0.074187,0.075838,0.076906,0.077974,0.078451,0.078928,0.07861,0.078292,0.077072,0.075853,0.074036,0.072218,0.069696,0.067174,0.064418,0.061661,0.057511,0.053361,0.050907,0.048453,0.043531,0.038608,0.037306,0.036003,0.032347,0.028692,0.0276,0.026508,0.023581,0.020655,0.019982,0.019309,0.017355,0.015401,0.014447,0.013494,0.012162,0.01083,0.010347,0.0098649,0.0088947,0.0079246,0.0075952,0.0072657,0.0069499,0.0066341
0.0077125,0.008126,0.0085395,0.0087137,0.0088879,0.010321,0.011754,0.013551,0.015349,0.01609,0.016831,0.019374,0.021917,0.022947,0.023977,0.027483,0.03099,0.032307,0.033625,0.037987,0.042349,0.042758,0.043167,0.046484,0.049801,0.0533,0.056799,0.060404,0.064009,0.067629,0.071249,0.074551,0.077853,0.080655,0.083457,0.085411,0.087364,0.088652,0.089939,0.090409,0.090878,0.090454,0.09003,0.088622,0.087213,0.085062,0.082911,0.079928,0.076944,0.073657,0.07037,0.06678,0.063191,0.059525,0.05586,0.049574,0.043288,0.041774,0.040259,0.036048,0.031838,0.030584,0.029329,0.025985,0.022641,0.02174,0.020838,0.018975,0.017112,0.01581,0.014507,0.013047,0.011587,0.011052,0.010518,0.0094529,0.0083881,0.0080276,0.0076671,0.0073263,0.0069855
0.0081775,0.0082881,0.0083987,0.0095051,0.010612,0.011647,0.012682,0.01471,0.016738,0.01758,0.018423,0.021337,0.024252,0.025448,0.026644,0.03071,0.034776,0.036359,0.037942,0.041327,0.044712,0.04706,0.049408,0.053437,0.057465,0.061737,0.066008,0.070499,0.07499,0.079526,0.084063,0.088296,0.092529,0.096096,0.099663,0.10212,0.10457,0.10615,0.10774,0.10824,0.10874,0.10819,0.10765,0.10581,0.10396,0.10126,0.098558,0.094839,0.091121,0.086948,0.082775,0.078284,0.073793,0.069333,0.064872,0.05923,0.053588,0.049748,0.045909,0.04085,0.035791,0.034331,0.032871,0.028983,0.025095,0.024057,0.02302,0.020569,0.018118,0.017187,0.016255,0.014368,0.012481,0.011879,0.011276,0.010106,0.0089349,0.0085554,0.008176,0.0077239,0.0072718
0.0086425,0.0084502,0.0082578,0.010297,0.012335,0.012973,0.013611,0.015869,0.018127,0.019071,0.020014,0.023301,0.026588,0.02795,0.029311,0.033937,0.038563,0.040411,0.042258,0.044667,0.047075,0.051361,0.055648,0.060389,0.06513,0.070173,0.075217,0.080594,0.085971,0.091424,0.096876,0.10204,0.10721,0.11154,0.11587,0.11882,0.12178,0.12366,0.12553,0.12606,0.12659,0.12593,0.12526,0.12299,0.12072,0.11746,0.1142,0.10975,0.1053,0.10024,0.09518,0.089788,0.084396,0.07914,0.073884,0.068886,0.063888,0.057723,0.051558,0.045651,0.039744,0.038078,0.036412,0.03198,0.027548,0.026374,0.025201,0.022162,0.019124,0.018563,0.018003,0.015689,0.013374,0.012705,0.012035,0.010758,0.0094816,0.0090833,0.0086849,0.0081215,0.0075581
0.0088394,0.0093915,0.0099436,0.011276,0.012609,0.014057,0.015504,0.017123,0.018742,0.020954,0.023165,0.025549,0.027933,0.031192,0.034452,0.037037,0.039623,0.042804,0.045984,0.049832,0.053679,0.058889,0.0641,0.069999,0.075899,0.082215,0.088531,0.09521,0.10189,0.10894,0.11599,0.12278,0.12956,0.13539,0.14121,0.1451,0.149,0.15138,0.15377,0.15443,0.15508,0.15409,0.1531,0.15028,0.14745,0.14292,0.13839,0.1296,0.12081,0.11723,0.11364,0.10678,0.099921,0.093264,0.086607,0.080337,0.074066,0.067651,0.061237,0.054716,0.048196,0.044523,0.04085,0.035688,0.030526,0.029174,0.027822,0.024346,0.020869,0.020085,0.019301,0.017071,0.01484,0.013867,0.012894,0.011465,0.010036,0.0095763,0.0091166,0.0089038,0.008691
0.0090363,0.010333,0.011629,0.012256,0.012884,0.01514,0.017397,0.018377,0.019357,0.022836,0.026315,0.027797,0.029278,0.034435,0.039593,0.040138,0.040683,0.045197,0.04971,0.054997,0.060283,0.066417,0.072551,0.079609,0.086668,0.094256,0.10184,0.10983,0.11781,0.12646,0.13511,0.14351,0.15192,0.15923,0.16655,0.17138,0.17621,0.17911,0.182,0.18279,0.18357,0.18226,0.18094,0.17756,0.17418,0.16838,0.16258,0.14945,0.13632,0.13421,0.13211,0.12378,0.11545,0.10739,0.09933,0.091787,0.084244,0.07758,0.070915,0.063781,0.056648,0.050968,0.045288,0.039396,0.033504,0.031974,0.030444,0.026529,0.022614,0.021606,0.020599,0.018453,0.016307,0.01503,0.013753,0.012172,0.01059,0.010069,0.0095483,0.0096861,0.009824
0.0089712,0.010386,0.011801,0.013205,0.01461,0.01622,0.017829,0.02007,0.022311,0.024815,0.02732,0.030809,0.034299,0.037165,0.040032,0.042834,0.045636,0.050998,0.05636,0.062752,0.069143,0.076732,0.08432,0.093044,0.10177,0.11164,0.12152,0.13239,0.14327,0.15483,0.16638,0.1776,0.18882,0.19885,0.20888,0.21614,0.22339,0.2276,0.23182,0.23279,0.23375,0.23144,0.22913,0.22387,0.21861,0.21098,0.20336,0.19026,0.17717,0.16912,0.16107,0.14992,0.13877,0.12825,0.11773,0.10819,0.098649,0.090288,0.081927,0.074043,0.066159,0.05895,0.05174,0.045606,0.039472,0.035556,0.031641,0.028892,0.026143,0.023637,0.021131,0.019546,0.017962,0.016023,0.014083,0.012893,0.011704,0.010702,0.0096998,0.0095809,0.009462
0.0089061,0.010439,0.011972,0.014154,0.016337,0.017299,0.018261,0.021762,0.025264,0.026794,0.028324,0.033822,0.03932,0.039896,0.040471,0.04553,0.050589,0.056799,0.063009,0.070506,0.078004,0.087046,0.096089,0.10648,0.11687,0.12903,0.14119,0.15496,0.16873,0.1832,0.19766,0.21169,0.22571,0.23846,0.25122,0.2609,0.27058,0.2761,0.28163,0.28278,0.28393,0.28063,0.27733,0.27018,0.26303,0.25358,0.24413,0.23107,0.21802,0.20402,0.19003,0.17606,0.1621,0.14912,0.13614,0.12459,0.11305,0.103,0.092938,0.084305,0.075671,0.066932,0.058192,0.051816,0.045439,0.039138,0.032837,0.031255,0.029672,0.025667,0.021662,0.02064,0.019618,0.017015,0.014413,0.013615,0.012817,0.011334,0.0098512,0.0094756,0.0091
0.010475,0.011597,0.012718,0.015121,0.017524,0.018593,0.019662,0.023566,0.027471,0.029185,0.030899,0.036851,0.042804,0.043819,0.044833,0.050748,0.056663,0.064054,0.071446,0.080094,0.088743,0.10041,0.11208,0.12603,0.13997,0.15633,0.17268,0.19153,0.21038,0.23072,0.25105,0.27185,0.29264,0.31189,0.33115,0.34704,0.36294,0.37191,0.38089,0.38192,0.38295,0.37668,0.37041,0.35827,0.34614,0.33112,0.31609,0.29737,0.27865,0.25891,0.23918,0.2198,0.20043,0.18277,0.16511,0.14379,0.12247,0.11558,0.10869,0.097823,0.086955,0.077391,0.067826,0.05976,0.051695,0.045121,0.038548,0.034538,0.030528,0.027729,0.024931,0.022425,0.019919,0.018239,0.01656,0.014793,0.013026,0.011561,0.010097,0.010407,0.010718
0.012044,0.012755,0.013465,0.016089,0.018712,0.019887,0.021063,0.02537,0.029678,0.031576,0.033474,0.03988,0.046287,0.047741,0.049196,0.055966,0.062736,0.071309,0.079882,0.089682,0.099482,0.11378,0.12808,0.14557,0.16307,0.18362,0.20417,0.2281,0.25204,0.27824,0.30444,0.33201,0.35958,0.38532,0.41107,0.43319,0.4553,0.46772,0.48014,0.48105,0.48196,0.47272,0.46348,0.44636,0.42925,0.40865,0.38805,0.36367,0.33928,0.3138,0.28833,0.26355,0.23877,0.21643,0.19409,0.16299,0.13189,0.12817,0.12444,0.11134,0.09824,0.087849,0.077459,0.067704,0.05795,0.051104,0.044258,0.037821,0.031383,0.029791,0.0282,0.02421,0.02022,0.019463,0.018706,0.01597,0.013235,0.011788,0.010342,0.011339,0.012335
0.012047,0.013589,0.015131,0.016988,0.018845,0.02146,0.024075,0.027144,0.030213,0.034615,0.039017,0.042599,0.046181,0.050309,0.054436,0.06229,0.070143,0.080261,0.090379,0.10325,0.11613,0.13406,0.15199,0.1753,0.1986,0.22812,0.25764,0.29323,0.32883,0.36965,0.41047,0.45666,0.50286,0.54368,0.5845,0.61881,0.65311,0.67992,0.70673,0.7165,0.72627,0.70794,0.68962,0.65432,0.61903,0.58124,0.54345,0.50422,0.46499,0.42469,0.38439,0.34602,0.30765,0.27499,0.24233,0.20989,0.17746,0.16239,0.14733,0.13055,0.11376,0.10094,0.088122,0.077459,0.066796,0.057814,0.048832,0.041486,0.03414,0.032352,0.030564,0.026121,0.021678,0.020701,0.019724,0.016048,0.012372,0.011648,0.010925,0.011858,0.012791
0.01205,0.014424,0.016797,0.017888,0.018978,0.023033,0.027088,0.028918,0.030747,0.037654,0.044561,0.045318,0.046075,0.052876,0.059677,0.068613,0.07755,0.089212,0.10088,0.11682,0.13277,0.15434,0.17591,0.20502,0.23413,0.27262,0.31111,0.35836,0.40562,0.46106,0.51649,0.58132,0.64615,0.70204,0.75793,0.80443,0.85092,0.89212,0.93332,0.95195,0.97058,0.94317,0.91575,0.86228,0.80882,0.75384,0.69885,0.64478,0.59071,0.53558,0.48044,0.42849,0.37654,0.33355,0.29057,0.25679,0.22302,0.19662,0.17022,0.14975,0.12929,0.11404,0.098785,0.087213,0.075641,0.064524,0.053406,0.045151,0.036897,0.034912,0.032928,0.028031,0.023135,0.021938,0.020741,0.016125,0.011508,0.011508,0.011508,0.012378,0.013247
0.013406,0.015077,0.016749,0.019126,0.021503,0.024378,0.027253,0.031355,0.035458,0.039275,0.043092,0.046666,0.050241,0.058011,0.065781,0.075732,0.085683,0.10022,0.11476,0.13476,0.15475,0.18329,0.21182,0.25305,0.29428,0.35502,0.41577,0.49779,0.5798,0.67454,0.76929,0.87645,0.98361,1.0471,1.1105,1.1614,1.2122,1.249,1.2858,1.3118,1.3377,1.3474,1.3571,1.307,1.2568,1.1797,1.1025,1.0002,0.89788,0.80071,0.70355,0.616,0.52846,0.45615,0.38384,0.33052,0.27721,0.24011,0.20301,0.16797,0.13292,0.12274,0.11255,0.098573,0.084593,0.07324,0.061888,0.050899,0.039911,0.037715,0.035518,0.030097,0.024675,0.023372,0.02207,0.018064,0.014059,0.013669,0.013279,0.013444,0.013609
0.014762,0.015731,0.0167,0.020364,0.024028,0.025723,0.027418,0.033793,0.040168,0.040895,0.041622,0.048014,0.054406,0.063145,0.071885,0.082851,0.093817,0.11124,0.12865,0.15269,0.17673,0.21223,0.24773,0.30108,0.35443,0.43743,0.52043,0.63721,0.75399,0.88803,1.0221,1.1716,1.3211,1.3921,1.4631,1.5183,1.5734,1.6058,1.6382,1.6716,1.7049,1.7517,1.7985,1.7517,1.7049,1.6055,1.5062,1.3556,1.205,1.0659,0.92666,0.80352,0.68038,0.57874,0.47711,0.40426,0.3314,0.2836,0.2358,0.18618,0.13656,0.13144,0.12632,0.10993,0.093544,0.081957,0.07037,0.056648,0.042925,0.040517,0.038108,0.032162,0.026215,0.024807,0.023398,0.020004,0.01661,0.01583,0.015049,0.01451,0.013971
0.014568,0.016622,0.018677,0.021253,0.02383,0.027486,0.031143,0.035678,0.040214,0.042433,0.044652,0.051816,0.05898,0.068909,0.078837,0.092014,0.10519,0.12578,0.14637,0.17695,0.20752,0.25559,0.30366,0.38425,0.46484,0.58579,0.70673,0.87887,1.051,1.2559,1.4609,1.6351,1.8094,1.9095,2.0096,2.069,2.1284,2.1543,2.1803,2.2127,2.245,2.304,2.363,2.3348,2.3066,2.1781,2.0496,1.851,1.6523,1.4571,1.2618,1.1008,0.93983,0.802,0.66417,0.54747,0.43076,0.35832,0.28587,0.23435,0.18282,0.1541,0.12538,0.11463,0.10387,0.090462,0.07705,0.064024,0.050998,0.045871,0.040744,0.034252,0.02776,0.026236,0.024711,0.021058,0.017405,0.016569,0.015733,0.01512,0.014507
0.014374,0.017514,0.020654,0.022143,0.023631,0.029249,0.034867,0.037563,0.040259,0.04397,0.047681,0.055618,0.063554,0.074672,0.085789,0.10118,0.11657,0.14033,0.1641,0.2012,0.23831,0.29894,0.35958,0.46742,0.57526,0.73415,0.89303,1.1205,1.348,1.6238,1.8997,2.0987,2.2977,2.4269,2.5561,2.6197,2.6833,2.7029,2.7224,2.7538,2.7851,2.8563,2.9275,2.918,2.9084,2.7507,2.5931,2.3463,2.0996,1.8483,1.597,1.3982,1.1993,1.0253,0.85123,0.69068,0.53012,0.43304,0.33595,0.28251,0.22907,0.17676,0.12444,0.11932,0.1142,0.098967,0.083729,0.0714,0.059071,0.051225,0.043379,0.036342,0.029305,0.027665,0.026025,0.022112,0.0182,0.017308,0.016416,0.01573,0.015043
0.014933,0.018273,0.021612,0.023207,0.024801,0.030849,0.036897,0.038631,0.040365,0.045606,0.050846,0.059563,0.06828,0.080526,0.092772,0.11088,0.12899,0.15745,0.18592,0.23259,0.27925,0.36425,0.44924,0.6029,0.75656,0.9721,1.1876,1.4936,1.7995,2.0813,2.363,2.545,2.7271,2.8992,3.0714,3.2206,3.3698,3.4833,3.5968,3.6534,3.71,3.7289,3.7478,3.6575,3.5671,3.3406,3.1141,2.8514,2.5887,2.3194,2.0502,1.7939,1.5377,1.3241,1.1105,0.90522,0.69992,0.55557,0.41122,0.33838,0.26553,0.214,0.16246,0.14421,0.12596,0.10848,0.091,0.078299,0.065599,0.055845,0.04609,0.038452,0.030814,0.029049,0.027283,0.023067,0.018851,0.017881,0.016911,0.016446,0.015981
0.019715,0.023338,0.026961,0.028789,0.030617,0.037449,0.044282,0.045217,0.046151,0.053382,0.060613,0.070334,0.080055,0.094047,0.10804,0.12917,0.15029,0.18429,0.21829,0.27492,0.33155,0.442,0.55244,0.75243,0.95243,1.226,1.4996,1.8845,2.2694,2.5584,2.8474,3.013,3.1785,3.3946,3.6106,3.8456,4.0807,4.2886,4.4966,4.5785,4.6603,4.627,4.5937,4.4225,4.2513,3.9554,3.6594,3.3805,3.1015,2.8134,2.5253,2.2112,1.8972,1.6428,1.3884,1.1379,0.88746,0.6944,0.50134,0.4086,0.31586,0.26389,0.21193,0.17922,0.1465,0.12683,0.10716,0.093755,0.080349,0.068024,0.055699,0.047211,0.038723,0.036353,0.033982,0.029276,0.02457,0.02316,0.02175,0.021367,0.020984
0.020278,0.024188,0.028098,0.030044,0.031989,0.039308,0.046627,0.047644,0.048661,0.056491,0.064321,0.07493,0.085539,0.1011,0.11667,0.14059,0.16451,0.20469,0.24487,0.31625,0.38764,0.54086,0.69407,0.94978,1.2055,1.5428,1.8801,2.2915,2.7028,2.9747,3.2466,3.4591,3.6717,3.9485,4.2253,4.5762,4.9271,5.3116,5.6961,5.8795,6.0628,5.9803,5.8978,5.6145,5.3312,4.9466,4.562,4.2164,3.8708,3.5019,3.133,2.7713,2.4095,2.0773,1.745,1.4248,1.1046,0.85307,0.60153,0.48086,0.36018,0.29768,0.23517,0.18835,0.14152,0.12812,0.11472,0.10024,0.085766,0.072335,0.058903,0.049791,0.040679,0.038133,0.035586,0.030595,0.025603,0.024097,0.022591,0.02213,0.02167
0.020841,0.025039,0.029236,0.031299,0.033361,0.041166,0.048971,0.050071,0.051171,0.0596,0.068029,0.079526,0.091024,0.10816,0.1253,0.15201,0.17872,0.22508,0.27144,0.35758,0.44373,0.63972,0.83571,1.1471,1.4586,1.8596,2.2606,2.6984,3.1363,3.391,3.6457,3.9053,4.1648,4.5024,4.8399,5.3067,5.7736,6.3346,6.8956,7.1805,7.4653,7.3336,7.2018,6.8064,6.411,5.9378,5.4646,5.0524,4.6401,4.1904,3.7408,3.3313,2.9219,2.5118,2.1016,1.7117,1.3217,1.0117,0.70172,0.55312,0.40451,0.33146,0.25841,0.19748,0.13655,0.12941,0.12227,0.10673,0.091184,0.076645,0.062106,0.05237,0.042634,0.039912,0.03719,0.031913,0.026636,0.025034,0.023431,0.022894,0.022356
0.021515,0.025911,0.030306,0.032466,0.034625,0.042477,0.050328,0.051919,0.053509,0.062533,0.071556,0.08346,0.095363,0.11471,0.13405,0.16382,0.19359,0.24582,0.29804,0.40224,0.50644,0.75031,0.99417,1.3482,1.7023,2.1656,2.6288,3.1814,3.734,4.073,4.412,4.7701,5.1282,5.5257,5.9233,6.4431,6.963,7.6416,8.3201,8.7693,9.2186,9.1209,9.0232,8.4748,7.9264,7.3373,6.7482,6.2215,5.6948,5.1367,4.5786,4.0812,3.5838,3.0799,2.5759,2.0695,1.5631,1.1844,0.80581,0.62873,0.45165,0.36709,0.28254,0.22634,0.17014,0.15062,0.13109,0.11325,0.095415,0.081987,0.068559,0.056563,0.044568,0.041667,0.038766,0.033221,0.027677,0.025977,0.024277,0.023517,0.022757
0.022189,0.026783,0.031377,0.033633,0.035888,0.043787,0.051686,0.053767,0.055848,0.065466,0.075084,0.087393,0.099703,0.12125,0.14279,0.17563,0.20846,0.26656,0.32465,0.4469,0.56915,0.86089,1.1526,1.5494,1.9461,2.4716,2.9971,3.6644,4.3317,4.755,5.1783,5.6349,6.0915,6.5491,7.0066,7.5796,8.1525,8.9486,9.7446,10.358,10.972,10.908,10.845,10.143,9.4419,8.7368,8.0317,7.3906,6.7496,6.0829,5.4163,4.831,4.2457,3.648,3.0502,2.4273,1.8044,1.3571,0.90989,0.70434,0.4988,0.40273,0.30666,0.2552,0.20373,0.17183,0.13992,0.11978,0.099645,0.087328,0.075011,0.060757,0.046502,0.043422,0.040341,0.034529,0.028718,0.02692,0.025122,0.02414,0.023159
0.024012,0.02729,0.030568,0.034965,0.039362,0.044022,0.048682,0.053271,0.057861,0.068007,0.078152,0.091513,0.10487,0.12759,0.15031,0.18554,0.22077,0.28548,0.35018,0.48639,0.6226,0.95261,1.2826,1.7547,2.2268,2.8634,3.4999,4.3089,5.1179,5.7013,6.2846,6.9231,7.5616,8.1004,8.6392,9.0851,9.5309,10.246,10.961,11.72,12.479,12.474,12.469,11.706,10.943,10.103,9.2629,8.4917,7.7205,6.9999,6.2793,5.6636,5.0479,4.3395,3.631,2.8573,2.0836,1.544,1.0045,0.7736,0.54274,0.43586,0.32898,0.27255,0.21613,0.18161,0.1471,0.1263,0.10549,0.091462,0.077433,0.062833,0.048232,0.044982,0.041731,0.035708,0.029685,0.027789,0.025893,0.024811,0.023728
0.025834,0.027797,0.02976,0.036298,0.042837,0.044258,0.045679,0.052776,0.059874,0.070547,0.081221,0.095633,0.11004,0.13394,0.15783,0.19545,0.23308,0.3044,0.37572,0.52588,0.67605,1.0443,1.4126,1.9601,2.5075,3.2552,4.0028,4.9534,5.9041,6.6475,7.391,8.2113,9.0316,9.6517,10.272,10.591,10.909,11.544,12.178,13.083,13.987,14.04,14.093,13.268,12.444,11.469,10.494,9.5928,8.6915,7.9168,7.1422,6.4961,5.8501,5.031,4.2119,3.2874,2.3629,1.731,1.0991,0.84287,0.58668,0.46899,0.35129,0.28991,0.22852,0.1914,0.15429,0.13281,0.11134,0.095597,0.079855,0.064908,0.049962,0.046542,0.043122,0.036888,0.030653,0.028659,0.026664,0.025481,0.024298
0.026385,0.028415,0.030444,0.037147,0.04385,0.045369,0.046887,0.054221,0.061555,0.072635,0.083714,0.098742,0.11377,0.13892,0.16408,0.20381,0.24355,0.31901,0.39447,0.55382,0.71317,1.114,1.5149,2.1799,2.845,3.712,4.5791,5.6457,6.7124,7.6743,8.6363,9.566,10.496,11.022,11.548,11.724,11.901,12.473,13.045,14.001,14.957,14.981,15.005,14.15,13.295,12.325,11.355,10.454,9.5535,8.7553,7.9572,7.2211,6.4849,5.5975,4.71,3.6535,2.597,1.8902,1.1835,0.90322,0.62299,0.49638,0.36977,0.3043,0.23883,0.19079,0.14276,0.12921,0.11566,0.09951,0.083357,0.067492,0.051628,0.048055,0.044482,0.038047,0.031612,0.029504,0.027397,0.026121,0.024846
0.026936,0.029033,0.031129,0.037996,0.044864,0.04648,0.048096,0.055666,0.063236,0.074722,0.086207,0.10185,0.11749,0.14391,0.17032,0.21217,0.25402,0.33362,0.41322,0.58175,0.75028,1.1837,1.6172,2.3998,3.1824,4.1689,5.1554,6.338,7.5207,8.7012,9.8817,10.921,11.96,12.391,12.823,12.858,12.893,13.402,13.912,14.92,15.927,15.922,15.918,15.032,14.147,13.181,12.215,11.315,10.415,9.5939,8.7723,7.946,7.1197,6.164,5.2082,4.0197,2.8311,2.0495,1.2679,0.96358,0.65929,0.52377,0.38825,0.31869,0.24913,0.19018,0.13124,0.12561,0.11999,0.10342,0.086859,0.070076,0.053294,0.049568,0.045842,0.039206,0.032571,0.03035,0.02813,0.026762,0.025394
0.027444,0.029461,0.031479,0.038701,0.045922,0.047354,0.048785,0.056847,0.06491,0.076333,0.087755,0.10442,0.12109,0.14732,0.17355,0.21747,0.26138,0.34269,0.42399,0.5958,0.7676,1.2036,1.6396,2.4599,3.2802,4.374,5.4679,6.8089,8.1499,9.4907,10.832,11.786,12.741,13.031,13.321,13.217,13.113,13.5,13.886,14.786,15.686,15.884,16.081,15.351,14.62,13.631,12.642,11.789,10.937,10.057,9.1779,8.2399,7.302,6.309,5.3159,4.1354,2.9548,2.1491,1.3434,1.0131,0.68283,0.54243,0.40204,0.32905,0.25607,0.19619,0.13632,0.12955,0.12279,0.10634,0.089894,0.072157,0.05442,0.050924,0.047428,0.040312,0.033196,0.031142,0.029087,0.027342,0.025597
0.027951,0.02989,0.031829,0.039405,0.046981,0.048228,0.049474,0.058029,0.066584,0.077943,0.089303,0.107,0.12469,0.15074,0.17678,0.22276,0.26875,0.35176,0.43477,0.60984,0.78492,1.2235,1.662,2.52,3.378,4.5792,5.7803,7.2797,8.7791,10.28,11.781,12.652,13.523,13.67,13.818,13.576,13.334,13.597,13.86,14.653,15.446,15.846,16.245,15.669,15.092,14.08,13.069,12.263,11.458,10.521,9.5835,8.5338,7.4842,6.4539,5.4237,4.2511,3.0785,2.2487,1.4189,1.0626,0.70637,0.5611,0.41583,0.33941,0.263,0.2022,0.1414,0.13349,0.12559,0.10926,0.092929,0.074237,0.055545,0.052279,0.049014,0.041418,0.033822,0.031933,0.030044,0.027922,0.0258
0.028345,0.030419,0.032492,0.039865,0.047237,0.048878,0.050519,0.058799,0.067079,0.079293,0.091507,0.10848,0.12546,0.1527,0.17993,0.2251,0.27026,0.35353,0.4368,0.60799,0.77918,1.1971,1.615,2.4093,3.2036,4.415,5.6264,7.1878,8.7492,10.272,11.795,12.678,13.562,13.624,13.685,13.391,13.096,13.166,13.237,13.87,14.503,15.052,15.601,15.232,14.863,13.956,13.048,12.216,11.384,10.431,9.4768,8.3924,7.3081,6.2644,5.2206,4.1293,3.0379,2.2402,1.4425,1.079,0.71546,0.56853,0.4216,0.34421,0.26682,0.20556,0.14431,0.136,0.12769,0.1113,0.094916,0.075874,0.056831,0.05349,0.050148,0.041969,0.03379,0.032217,0.030644,0.028362,0.026079
0.028739,0.030947,0.033155,0.040324,0.047493,0.049529,0.051564,0.059569,0.067574,0.080642,0.093711,0.10997,0.12623,0.15466,0.18309,0.22743,0.27178,0.3553,0.43882,0.60613,0.77344,1.1708,1.5681,2.2986,3.0292,4.2508,5.4725,7.0959,8.7194,10.264,11.809,12.705,13.601,13.577,13.553,13.205,12.858,12.735,12.613,13.086,13.56,14.258,14.956,14.795,14.635,13.832,13.028,12.169,11.31,10.34,9.37,8.251,7.132,6.0748,5.0176,4.0075,2.9973,2.2317,1.466,1.0953,0.72454,0.57596,0.42737,0.349,0.27064,0.20893,0.14723,0.13851,0.1298,0.11335,0.096904,0.07751,0.058117,0.0547,0.051283,0.04252,0.033758,0.032501,0.031244,0.028801,0.026358
0.028895,0.031188,0.033481,0.040625,0.047769,0.049916,0.052064,0.060091,0.068118,0.081126,0.094133,0.11033,0.12652,0.1548,0.18308,0.22636,0.26965,0.35071,0.43176,0.59211,0.75246,1.1163,1.4802,2.1345,2.7887,3.8951,5.0015,6.5084,8.0152,9.5289,11.043,12.008,12.974,13.084,13.194,12.913,12.632,12.34,12.047,12.315,12.584,13.292,14,13.952,13.904,13.117,12.33,11.464,10.598,9.7331,8.8677,7.8347,6.8016,5.7686,4.7355,3.7838,2.8321,2.1274,1.4228,1.0678,0.71284,0.5666,0.42037,0.34622,0.27206,0.20977,0.14748,0.13986,0.13224,0.11467,0.097105,0.078522,0.059939,0.055663,0.051387,0.043448,0.035509,0.033084,0.030659,0.028768,0.026877
0.029051,0.031429,0.033807,0.040926,0.048044,0.050304,0.052564,0.060613,0.068662,0.081609,0.094556,0.11068,0.12681,0.15494,0.18307,0.22529,0.26752,0.34611,0.42471,0.57809,0.73148,1.0619,1.3923,1.9703,2.5483,3.5394,4.5305,5.9208,7.3111,8.7938,10.277,11.312,12.347,12.591,12.835,12.621,12.406,11.944,11.481,11.545,11.608,12.326,13.044,13.108,13.173,12.402,11.631,10.759,9.8865,9.126,8.3654,7.4183,6.4713,5.4624,4.4534,3.5602,2.6669,2.0232,1.3795,1.0403,0.70113,0.55725,0.41338,0.34343,0.27348,0.21061,0.14774,0.14121,0.13468,0.11599,0.097307,0.079534,0.061761,0.056626,0.051492,0.044376,0.03726,0.033667,0.030075,0.028736,0.027397
0.028601,0.03128,0.03396,0.04101,0.04806,0.05039,0.05272,0.060976,0.069233,0.081906,0.09458,0.11039,0.12621,0.15387,0.18153,0.22201,0.26249,0.33695,0.41141,0.55536,0.69931,1.0055,1.3117,1.8482,2.3846,3.2685,4.1524,5.4454,6.7385,8.2117,9.685,10.776,11.867,12.157,12.446,12.217,11.988,11.46,10.932,10.875,10.818,11.461,12.105,12.288,12.472,11.757,11.042,10.161,9.2789,8.5477,7.8165,6.944,6.0715,5.0716,4.0718,3.2523,2.4329,1.8566,1.2804,0.97526,0.67015,0.53618,0.4022,0.33418,0.26615,0.21684,0.16752,0.15048,0.13344,0.11623,0.099021,0.080368,0.061716,0.057329,0.052943,0.045083,0.037222,0.034396,0.03157,0.02953,0.027491
0.028151,0.031132,0.034113,0.041094,0.048075,0.050475,0.052876,0.06134,0.069804,0.082204,0.094604,0.11011,0.12561,0.15281,0.18,0.21873,0.25746,0.32778,0.39811,0.53262,0.66714,0.94913,1.2311,1.726,2.2209,2.9976,3.7743,4.97,6.1658,7.6297,9.0935,10.24,11.387,11.722,12.058,11.814,11.569,10.976,10.384,10.206,10.028,10.597,11.166,11.469,11.771,11.112,10.453,9.5622,8.6712,7.9694,7.2677,6.4697,5.6717,4.6809,3.6901,2.9445,2.1988,1.69,1.1812,0.91021,0.63918,0.5151,0.39102,0.32492,0.25882,0.22306,0.1873,0.15975,0.1322,0.11647,0.10074,0.081203,0.06167,0.058032,0.054394,0.045789,0.037184,0.035125,0.033065,0.030325,0.027585
0.02765,0.031726,0.035802,0.040695,0.045589,0.051867,0.058144,0.06363,0.069116,0.081688,0.094259,0.10922,0.12418,0.15069,0.1772,0.21359,0.24999,0.31727,0.38455,0.50481,0.62508,0.87645,1.1278,1.5765,2.0253,2.7038,3.3823,4.4689,5.5555,6.9548,8.354,9.5148,10.676,11.001,11.327,11.068,10.809,10.247,9.686,9.4603,9.2346,9.6642,10.094,10.378,10.661,10.164,9.6669,8.8566,8.0463,7.328,6.6097,5.797,4.9844,4.1127,3.241,2.5961,1.9511,1.5097,1.0683,0.83421,0.60013,0.48839,0.37665,0.31477,0.2529,0.21706,0.18121,0.1576,0.13399,0.11672,0.099448,0.081576,0.063704,0.058794,0.053883,0.046175,0.038467,0.03563,0.032793,0.029936,0.027079
0.027148,0.032319,0.03749,0.040297,0.043104,0.053258,0.063412,0.06592,0.068428,0.081171,0.093914,0.10833,0.12275,0.14857,0.1744,0.20846,0.24252,0.30676,0.371,0.47701,0.58302,0.80377,1.0245,1.4271,1.8296,2.41,2.9904,3.9678,4.9452,6.2799,7.6145,8.7894,9.9643,10.281,10.597,10.322,10.048,9.518,8.9883,8.715,8.4417,8.7316,9.0214,9.2865,9.5516,9.2161,8.8806,8.151,7.4213,6.6865,5.9517,5.1244,4.2971,3.5445,2.7919,2.2476,1.7033,1.3293,0.95534,0.75821,0.56108,0.46168,0.36227,0.30462,0.24698,0.21105,0.17512,0.15545,0.13577,0.11697,0.098161,0.08195,0.065738,0.059556,0.053373,0.046562,0.03975,0.036136,0.032522,0.029548,0.026573
0.027189,0.032289,0.037389,0.040169,0.042949,0.053258,0.063566,0.065829,0.068091,0.080743,0.093396,0.10735,0.12131,0.14632,0.17134,0.2061,0.24086,0.29843,0.356,0.44964,0.54327,0.72543,0.90759,1.2518,1.596,2.0976,2.5993,3.3908,4.1824,5.3097,6.4371,7.4842,8.5312,8.9482,9.3652,9.1692,8.9732,8.5405,8.1078,7.837,7.5662,7.6747,7.7831,7.9423,8.1015,7.8594,7.6173,7.0293,6.4413,5.7471,5.053,4.3356,3.6183,3.0042,2.3901,1.9383,1.4866,1.1722,0.85779,0.69155,0.52532,0.43675,0.34817,0.28489,0.22161,0.19721,0.17281,0.1519,0.131,0.11411,0.097216,0.081145,0.065073,0.06005,0.055027,0.047172,0.039317,0.036419,0.033521,0.030272,0.027024
0.02723,0.032259,0.037287,0.040041,0.042795,0.053258,0.063721,0.065737,0.067753,0.080315,0.092878,0.10637,0.11987,0.14407,0.16828,0.20373,0.23919,0.2901,0.34101,0.42227,0.50353,0.64708,0.79064,1.0765,1.3624,1.7853,2.2082,2.8139,3.4195,4.3396,5.2597,6.179,7.0982,7.6159,8.1336,8.0161,7.8985,7.5629,7.2273,6.959,6.6908,6.6178,6.5448,6.5981,6.6514,6.5027,6.3539,5.9076,5.4612,4.8078,4.1544,3.5469,2.9394,2.4638,1.9882,1.629,1.2698,1.015,0.76023,0.6249,0.48956,0.41182,0.33407,0.26515,0.19624,0.18336,0.17049,0.14836,0.12623,0.11125,0.096271,0.08034,0.064409,0.060545,0.056681,0.047782,0.038884,0.036701,0.034519,0.030997,0.027476
0.027345,0.032251,0.037157,0.040114,0.043072,0.05304,0.063009,0.065058,0.067108,0.079675,0.092242,0.10509,0.11795,0.14289,0.16784,0.20074,0.23363,0.28121,0.32878,0.40207,0.47535,0.59662,0.71789,0.94025,1.1626,1.5006,1.8386,2.3176,2.7967,3.487,4.1774,4.8972,5.617,6.0861,6.5552,6.5729,6.5907,6.3713,6.1519,5.9147,5.6775,5.5296,5.3817,5.3585,5.3353,5.2125,5.0896,4.7514,4.4132,3.9129,3.4126,2.9415,2.4703,2.0856,1.701,1.4033,1.1057,0.9001,0.69452,0.57927,0.46401,0.39347,0.32294,0.26719,0.21144,0.19013,0.16882,0.14715,0.12549,0.10931,0.093135,0.080467,0.067798,0.061623,0.055448,0.048106,0.040765,0.037275,0.033784,0.030628,0.027473
0.02746,0.032244,0.037027,0.040188,0.043349,0.052823,0.062297,0.06438,0.066462,0.079034,0.091605,0.10381,0.11602,0.14171,0.1674,0.19774,0.22807,0.27232,0.31656,0.38187,0.44718,0.54616,0.64515,0.80397,0.9628,1.2159,1.4689,1.8214,2.1738,2.6344,3.095,3.6154,4.1359,4.5563,4.9768,5.1298,5.2828,5.1796,5.0765,4.8703,4.6642,4.4414,4.2186,4.1189,4.0192,3.9223,3.8254,3.5953,3.3652,3.0181,2.6709,2.336,2.0011,1.7075,1.4138,1.1776,0.9415,0.78516,0.62882,0.53364,0.43846,0.37513,0.3118,0.26923,0.22665,0.1969,0.16716,0.14595,0.12475,0.10737,0.09,0.080594,0.071188,0.062702,0.054215,0.048431,0.042646,0.037848,0.033049,0.030259,0.02747
0.028378,0.031981,0.035583,0.039822,0.044061,0.051711,0.05936,0.064798,0.070235,0.080617,0.091,0.1026,0.1142,0.14029,0.16637,0.19567,0.22497,0.26715,0.30933,0.37058,0.43182,0.52111,0.6104,0.74545,0.88051,1.0838,1.287,1.5631,1.8392,2.1859,2.5325,2.9136,3.2946,3.6195,3.9444,4.1042,4.264,4.2326,4.2012,4.0688,3.9364,3.771,3.6056,3.504,3.4023,3.2994,3.1965,3.0107,2.8248,2.5554,2.286,2.0137,1.7414,1.4979,1.2544,1.0602,0.86592,0.73257,0.59922,0.51258,0.42593,0.3575,0.28907,0.25649,0.22391,0.19505,0.16619,0.1443,0.12241,0.10606,0.089712,0.080836,0.071961,0.063463,0.054965,0.049021,0.043076,0.038263,0.033449,0.030798,0.028147
0.029296,0.031718,0.03414,0.039456,0.044773,0.050598,0.056423,0.065216,0.074008,0.082201,0.090394,0.10139,0.11239,0.13886,0.16534,0.1936,0.22186,0.26199,0.30211,0.35929,0.41647,0.49606,0.57565,0.68693,0.79822,0.95165,1.1051,1.3049,1.5046,1.7373,1.9699,2.2117,2.4534,2.6827,2.912,3.0787,3.2453,3.2856,3.3258,3.2672,3.2086,3.1006,2.9926,2.889,2.7854,2.6765,2.5676,2.426,2.2844,2.0928,1.9012,1.6914,1.4816,1.2884,1.0951,0.94271,0.79034,0.67998,0.56963,0.49152,0.41341,0.33987,0.26633,0.24375,0.22117,0.19319,0.16522,0.14265,0.12008,0.10475,0.089424,0.081079,0.072733,0.064224,0.055715,0.049611,0.043507,0.038678,0.033849,0.031336,0.028824
0.02906,0.031527,0.033995,0.039067,0.04414,0.050104,0.056069,0.06472,0.073371,0.08164,0.089909,0.10307,0.11623,0.14076,0.16528,0.1934,0.22152,0.25287,0.28422,0.34958,0.41494,0.49379,0.57264,0.68346,0.79428,0.94718,1.1001,1.2966,1.4931,1.7143,1.9356,2.1522,2.3689,2.5544,2.7398,2.8776,3.0153,3.0873,3.1592,3.1839,3.2086,3.1839,3.1592,3.0873,3.0153,2.8776,2.7398,2.5544,2.3689,2.1522,1.9356,1.7143,1.4931,1.2966,1.1001,0.94718,0.79428,0.68346,0.57264,0.49379,0.41494,0.34958,0.28422,0.25287,0.22152,0.1934,0.16528,0.14076,0.11623,0.10307,0.089909,0.08164,0.073371,0.06472,0.056069,0.050104,0.04414,0.039067,0.033995,0.031527,0.02906
0.028824,0.031336,0.033849,0.038678,0.043507,0.049611,0.055715,0.064224,0.072733,0.081079,0.089424,0.10475,0.12008,0.14265,0.16522,0.19319,0.22117,0.24375,0.26633,0.33987,0.41341,0.49152,0.56963,0.67998,0.79034,0.94271,1.0951,1.2884,1.4816,1.6914,1.9012,2.0928,2.2844,2.426,2.5676,2.6765,2.7854,2.889,2.9926,3.1006,3.2086,3.2672,3.3258,3.2856,3.2453,3.0787,2.912,2.6827,2.4534,2.2117,1.9699,1.7373,1.5046,1.3049,1.1051,0.95165,0.79822,0.68693,0.57565,0.49606,0.41647,0.35929,0.30211,0.26199,0.22186,0.1936,0.16534,0.13886,0.11239,0.10139,0.090394,0.082201,0.074008,0.065216,0.056423,0.050598,0.044773,0.039456,0.03414,0.031718,0.029296
0.028147,0.030798,0.033449,0.038263,0.043076,0.049021,0.054965,0.063463,0.071961,0.080836,0.089712,0.10606,0.12241,0.1443,0.16619,0.19505,0.22391,0.25649,0.28907,0.3575,0.42593,0.51258,0.59922,0.73257,0.86592,1.0602,1.2544,1.4979,1.7414,2.0137,2.286,2.5554,2.8248,3.0107,3.1965,3.2994,3.4023,3.504,3.6056,3.771,3.9364,4.0688,4.2012,4.2326,4.264,4.1042,3.9444,3.6195,3.2946,2.9136,2.5325,2.1859,1.8392,1.5631,1.287,1.0838,0.88051,0.74545,0.6104,0.52111,0.43182,0.37058,0.30933,0.26715,0.22497,0.19567,0.16637,0.14029,0.1142,0.1026,0.091,0.080617,0.070235,0.064798,0.05936,0.051711,0.044061,0.039822,0.035583,0.031981,0.028378
0.02747,0.030259,0.033049,0.037848,0.042646,0.048431,0.054215,0.062702,0.071188,0.080594,0.09,0.10737,0.12475,0.14595,0.16716,0.1969,0.22665,0.26923,0.3118,0.37513,0.43846,0.53364,0.62882,0.78516,0.9415,1.1776,1.4138,1.7075,2.0011,2.336,2.6709,3.0181,3.3652,3.5953,3.8254,3.9223,4.0192,4.1189,4.2186,4.4414,4.6642,4.8703,5.0765,5.1796,5.2828,5.1298,4.9768,4.5563,4.1359,3.6154,3.095,2.6344,2.1738,1.8214,1.4689,1.2159,0.9628,0.80397,0.64515,0.54616,0.44718,0.38187,0.31656,0.27232,0.22807,0.19774,0.1674,0.14171,0.11602,0.10381,0.091605,0.079034,0.066462,0.06438,0.062297,0.052823,0.043349,0.040188,0.037027,0.032244,0.02746
0.027473,0.030628,0.033784,0.037275,0.040765,0.048106,0.055448,0.061623,0.067798,0.080467,0.093135,0.10931,0.12549,0.14715,0.16882,0.19013,0.21144,0.26719,0.32294,0.39347,0.46401,0.57927,0.69452,0.9001,1.1057,1.4033,1.701,2.0856,2.4703,2.9415,3.4126,3.9129,4.4132,4.7514,5.0896,5.2125,5.3353,5.3585,5.3817,5.5296,5.6775,5.9147,6.1519,6.3713,6.5907,6.5729,6.5552,6.0861,5.617,4.8972,4.1774,3.487,2.7967,2.3176,1.8386,1.5006,1.1626,0.94025,0.71789,0.59662,0.47535,0.40207,0.32878,0.28121,0.23363,0.20074,0.16784,0.14289,0.11795,0.10509,0.092242,0.079675,0.067108,0.065058,0.063009,0.05304,0.043072,0.040114,0.037157,0.032251,0.027345
0.027476,0.030997,0.034519,0.036701,0.038884,0.047782,0.056681,0.060545,0.064409,0.08034,0.096271,0.11125,0.12623,0.14836,0.17049,0.18336,0.19624,0.26515,0.33407,0.41182,0.48956,0.6249,0.76023,1.015,1.2698,1.629,1.9882,2.4638,2.9394,3.5469,4.1544,4.8078,5.4612,5.9076,6.3539,6.5027,6.6514,6.5981,6.5448,6.6178,6.6908,6.959,7.2273,7.5629,7.8985,8.0161,8.1336,7.6159,7.0982,6.179,5.2597,4.3396,3.4195,2.8139,2.2082,1.7853,1.3624,1.0765,0.79064,0.64708,0.50353,0.42227,0.34101,0.2901,0.23919,0.20373,0.16828,0.14407,0.11987,0.10637,0.092878,0.080315,0.067753,0.065737,0.063721,0.053258,0.042795,0.040041,0.037287,0.032259,0.02723
0.027024,0.030272,0.033521,0.036419,0.039317,0.047172,0.055027,0.06005,0.065073,0.081145,0.097216,0.11411,0.131,0.1519,0.17281,0.19721,0.22161,0.28489,0.34817,0.43675,0.52532,0.69155,0.85779,1.1722,1.4866,1.9383,2.3901,3.0042,3.6183,4.3356,5.053,5.7471,6.4413,7.0293,7.6173,7.8594,8.1015,7.9423,7.7831,7.6747,7.5662,7.837,8.1078,8.5405,8.9732,9.1692,9.3652,8.9482,8.5312,7.4842,6.4371,5.3097,4.1824,3.3908,2.5993,2.0976,1.596,1.2518,0.90759,0.72543,0.54327,0.44964,0.356,0.29843,0.24086,0.2061,0.17134,0.14632,0.12131,0.10735,0.093396,0.080743,0.068091,0.065829,0.063566,0.053258,0.042949,0.040169,0.037389,0.032289,0.027189
0.026573,0.029548,0.032522,0.036136,0.03975,0.046562,0.053373,0.059556,0.065738,0.08195,0.098161,0.11697,0.13577,0.15545,0.17512,0.21105,0.24698,0.30462,0.36227,0.46168,0.56108,0.75821,0.95534,1.3293,1.7033,2.2476,2.7919,3.5445,4.2971,5.1244,5.9517,6.6865,7.4213,8.151,8.8806,9.2161,9.5516,9.2865,9.0214,8.7316,8.4417,8.715,8.9883,9.518,10.048,10.322,10.597,10.281,9.9643,8.7894,7.6145,6.2799,4.9452,3.9678,2.9904,2.41,1.8296,1.4271,1.0245,0.80377,0.58302,0.47701,0.371,0.30676,0.24252,0.20846,0.1744,0.14857,0.12275,0.10833,0.093914,0.081171,0.068428,0.06592,0.063412,0.053258,0.043104,0.040297,0.03749,0.032319,0.027148
0.027079,0.029936,0.032793,0.03563,0.038467,0.046175,0.053883,0.058794,0.063704,0.081576,0.099448,0.11672,0.13399,0.1576,0.18121,0.21706,0.2529,0.31477,0.37665,0.48839,0.60013,0.83421,1.0683,1.5097,1.9511,2.5961,3.241,4.1127,4.9844,5.797,6.6097,7.328,8.0463,8.8566,9.6669,10.164,10.661,10.378,10.094,9.6642,9.2346,9.4603,9.686,10.247,10.809,11.068,11.327,11.001,10.676,9.5148,8.354,6.9548,5.5555,4.4689,3.3823,2.7038,2.0253,1.5765,1.1278,0.87645,0.62508,0.50481,0.38455,0.31727,0.24999,0.21359,0.1772,0.15069,0.12418,0.10922,0.094259,0.081688,0.069116,0.06363,0.058144,0.051867,0.045589,0.040695,0.035802,0.031726,0.02765
0.027585,0.030325,0.033065,0.035125,0.037184,0.045789,0.054394,0.058032,0.06167,0.081203,0.10074,0.11647,0.1322,0.15975,0.1873,0.22306,0.25882,0.32492,0.39102,0.5151,0.63918,0.91021,1.1812,1.69,2.1988,2.9445,3.6901,4.6809,5.6717,6.4697,7.2677,7.9694,8.6712,9.5622,10.453,11.112,11.771,11.469,11.166,10.597,10.028,10.206,10.384,10.976,11.569,11.814,12.058,11.722,11.387,10.24,9.0935,7.6297,6.1658,4.97,3.7743,2.9976,2.2209,1.726,1.2311,0.94913,0.66714,0.53262,0.39811,0.32778,0.25746,0.21873,0.18,0.15281,0.12561,0.11011,0.094604,0.082204,0.069804,0.06134,0.052876,0.050475,0.048075,0.041094,0.034113,0.031132,0.028151
0.027491,0.02953,0.03157,0.034396,0.037222,0.045083,0.052943,0.057329,0.061716,0.080368,0.099021,0.11623,0.13344,0.15048,0.16752,0.21684,0.26615,0.33418,0.4022,0.53618,0.67015,0.97526,1.2804,1.8566,2.4329,3.2523,4.0718,5.0716,6.0715,6.944,7.8165,8.5477,9.2789,10.161,11.042,11.757,12.472,12.288,12.105,11.461,10.818,10.875,10.932,11.46,11.988,12.217,12.446,12.157,11.867,10.776,9.685,8.2117,6.7385,5.4454,4.1524,3.2685,2.3846,1.8482,1.3117,1.0055,0.69931,0.55536,0.41141,0.33695,0.26249,0.22201,0.18153,0.15387,0.12621,0.11039,0.09458,0.081906,0.069233,0.060976,0.05272,0.05039,0.04806,0.04101,0.03396,0.03128,0.028601
0.027397,0.028736,0.030075,0.033667,0.03726,0.044376,0.051492,0.056626,0.061761,0.079534,0.097307,0.11599,0.13468,0.14121,0.14774,0.21061,0.27348,0.34343,0.41338,0.55725,0.70113,1.0403,1.3795,2.0232,2.6669,3.5602,4.4534,5.4624,6.4713,7.4183,8.3654,9.126,9.8865,10.759,11.631,12.402,13.173,13.108,13.044,12.326,11.608,11.545,11.481,11.944,12.406,12.621,12.835,12.591,12.347,11.312,10.277,8.7938,7.3111,5.9208,4.5305,3.5394,2.5483,1.9703,1.3923,1.0619,0.73148,0.57809,0.42471,0.34611,0.26752,0.22529,0.18307,0.15494,0.12681,0.11068,0.094556,0.081609,0.068662,0.060613,0.052564,0.050304,0.048044,0.040926,0.033807,0.031429,0.029051
0.026877,0.028768,0.030659,0.033084,0.035509,0.043448,0.051387,0.055663,0.059939,0.078522,0.097105,0.11467,0.13224,0.13986,0.14748,0.20977,0.27206,0.34622,0.42037,0.5666,0.71284,1.0678,1.4228,2.1274,2.8321,3.7838,4.7355,5.7686,6.8016,7.8347,8.8677,9.7331,10.598,11.464,12.33,13.117,13.904,13.952,14,13.292,12.584,12.315,12.047,12.34,12.632,12.913,13.194,13.084,12.974,12.008,11.043,9.5289,8.0152,6.5084,5.0015,3.8951,2.7887,2.1345,1.4802,1.1163,0.75246,0.59211,0.43176,0.35071,0.26965,0.22636,0.18308,0.1548,0.12652,0.11033,0.094133,0.081126,0.068118,0.060091,0.052064,0.049916,0.047769,0.040625,0.033481,0.031188,0.028895
0.026358,0.028801,0.031244,0.032501,0.033758,0.04252,0.051283,0.0547,0.058117,0.07751,0.096904,0.11335,0.1298,0.13851,0.14723,0.20893,0.27064,0.349,0.42737,0.57596,0.72454,1.0953,1.466,2.2317,2.9973,4.0075,5.0176,6.0748,7.132,8.251,9.37,10.34,11.31,12.169,13.028,13.832,14.635,14.795,14.956,14.258,13.56,13.086,12.613,12.735,12.858,13.205,13.553,13.577,13.601,12.705,11.809,10.264,8.7194,7.0959,5.4725,4.2508,3.0292,2.2986,1.5681,1.1708,0.77344,0.60613,0.43882,0.3553,0.27178,0.22743,0.18309,0.15466,0.12623,0.10997,0.093711,0.080642,0.067574,0.059569,0.051564,0.049529,0.047493,0.040324,0.033155,0.030947,0.028739
0.026079,0.028362,0.030644,0.032217,0.03379,0.041969,0.050148,0.05349,0.056831,0.075874,0.094916,0.1113,0.12769,0.136,0.14431,0.20556,0.26682,0.34421,0.4216,0.56853,0.71546,1.079,1.4425,2.2402,3.0379,4.1293,5.2206,6.2644,7.3081,8.3924,9.4768,10.431,11.384,12.216,13.048,13.956,14.863,15.232,15.601,15.052,14.503,13.87,13.237,13.166,13.096,13.391,13.685,13.624,13.562,12.678,11.795,10.272,8.7492,7.1878,5.6264,4.415,3.2036,2.4093,1.615,1.1971,0.77918,0.60799,0.4368,0.35353,0.27026,0.2251,0.17993,0.1527,0.12546,0.10848,0.091507,0.079293,0.067079,0.058799,0.050519,0.048878,0.047237,0.039865,0.032492,0.030419,0.028345
0.0258,0.027922,0.030044,0.031933,0.033822,0.041418,0.049014,0.052279,0.055545,0.074237,0.092929,0.10926,0.12559,0.13349,0.1414,0.2022,0.263,0.33941,0.41583,0.5611,0.70637,1.0626,1.4189,2.2487,3.0785,4.2511,5.4237,6.4539,7.4842,8.5338,9.5835,10.521,11.458,12.263,13.069,14.08,15.092,15.669,16.245,15.846,15.446,14.653,13.86,13.597,13.334,13.576,13.818,13.67,13.523,12.652,11.781,10.28,8.7791,7.2797,5.7803,4.5792,3.378,2.52,1.662,1.2235,0.78492,0.60984,0.43477,0.35176,0.26875,0.22276,0.17678,0.15074,0.12469,0.107,0.089303,0.077943,0.066584,0.058029,0.049474,0.048228,0.046981,0.039405,0.031829,0.02989,0.027951
0.025597,0.027342,0.029087,0.031142,0.033196,0.040312,0.047428,0.050924,0.05442,0.072157,0.089894,0.10634,0.12279,0.12955,0.13632,0.19619,0.25607,0.32905,0.40204,0.54243,0.68283,1.0131,1.3434,2.1491,2.9548,4.1354,5.3159,6.309,7.302,8.2399,9.1779,10.057,10.937,11.789,12.642,13.631,14.62,15.351,16.081,15.884,15.686,14.786,13.886,13.5,13.113,13.217,13.321,13.031,12.741,11.786,10.832,9.4907,8.1499,6.8089,5.4679,4.374,3.2802,2.4599,1.6396,1.2036,0.7676,0.5958,0.42399,0.34269,0.26138,0.21747,0.17355,0.14732,0.12109,0.10442,0.087755,0.076333,0.06491,0.056847,0.048785,0.047354,0.045922,0.038701,0.031479,0.029461,0.027444
0.025394,0.026762,0.02813,0.03035,0.032571,0.039206,0.045842,0.049568,0.053294,0.070076,0.086859,0.10342,0.11999,0.12561,0.13124,0.19018,0.24913,0.31869,0.38825,0.52377,0.65929,0.96358,1.2679,2.0495,2.8311,4.0197,5.2082,6.164,7.1197,7.946,8.7723,9.5939,10.415,11.315,12.215,13.181,14.147,15.032,15.918,15.922,15.927,14.92,13.912,13.402,12.893,12.858,12.823,12.391,11.96,10.921,9.8817,8.7012,7.5207,6.338,5.1554,4.1689,3.1824,2.3998,1.6172,1.1837,0.75028,0.58175,0.41322,0.33362,0.25402,0.21217,0.17032,0.14391,0.11749,0.10185,0.086207,0.074722,0.063236,0.055666,0.048096,0.04648,0.044864,0.037996,0.031129,0.029033,0.026936
0.024846,0.026121,0.027397,0.029504,0.031612,0.038047,0.044482,0.048055,0.051628,0.067492,0.083357,0.09951,0.11566,0.12921,0.14276,0.19079,0.23883,0.3043,0.36977,0.49638,0.62299,0.90322,1.1835,1.8902,2.597,3.6535,4.71,5.5975,6.4849,7.2211,7.9572,8.7553,9.5535,10.454,11.355,12.325,13.295,14.15,15.005,14.981,14.957,14.001,13.045,12.473,11.901,11.724,11.548,11.022,10.496,9.566,8.6363,7.6743,6.7124,5.6457,4.5791,3.712,2.845,2.1799,1.5149,1.114,0.71317,0.55382,0.39447,0.31901,0.24355,0.20381,0.16408,0.13892,0.11377,0.098742,0.083714,0.072635,0.061555,0.054221,0.046887,0.045369,0.04385,0.037147,0.030444,0.028415,0.026385
0.024298,0.025481,0.026664,0.028659,0.030653,0.036888,0.043122,0.046542,0.049962,0.064908,0.079855,0.095597,0.11134,0.13281,0.15429,0.1914,0.22852,0.28991,0.35129,0.46899,0.58668,0.84287,1.0991,1.731,2.3629,3.2874,4.2119,5.031,5.8501,6.4961,7.1422,7.9168,8.6915,9.5928,10.494,11.469,12.444,13.268,14.093,14.04,13.987,13.083,12.178,11.544,10.909,10.591,10.272,9.6517,9.0316,8.2113,7.391,6.6475,5.9041,4.9534,4.0028,3.2552,2.5075,1.9601,1.4126,1.0443,0.67605,0.52588,0.37572,0.3044,0.23308,0.19545,0.15783,0.13394,0.11004,0.095633,0.081221,0.070547,0.059874,0.052776,0.045679,0.044258,0.042837,0.036298,0.02976,0.027797,0.025834
0.023728,0.024811,0.025893,0.027789,0.029685,0.035708,0.041731,0.044982,0.048232,0.062833,0.077433,0.091462,0.10549,0.1263,0.1471,0.18161,0.21613,0.27255,0.32898,0.43586,0.54274,0.7736,1.0045,1.544,2.0836,2.8573,3.631,4.3395,5.0479,5.6636,6.2793,6.9999,7.7205,8.4917,9.2629,10.103,10.943,11.706,12.469,12.474,12.479,11.72,10.961,10.246,9.5309,9.0851,8.6392,8.1004,7.5616,6.9231,6.2846,5.7013,5.1179,4.3089,3.4999,2.8634,2.2268,1.7547,1.2826,0.95261,0.6226,0.48639,0.35018,0.28548,0.22077,0.18554,0.15031,0.12759,0.10487,0.091513,0.078152,0.068007,0.057861,0.053271,0.048682,0.044022,0.039362,0.034965,0.030568,0.02729,0.024012
0.023159,0.02414,0.025122,0.02692,0.028718,0.034529,0.040341,0.043422,0.046502,0.060757,0.075011,0.087328,0.099645,0.11978,0.13992,0.17183,0.20373,0.2552,0.30666,0.40273,0.4988,0.70434,0.90989,1.3571,1.8044,2.4273,3.0502,3.648,4.2457,4.831,5.4163,6.0829,6.7496,7.3906,8.0317,8.7368,9.4419,10.143,10.845,10.908,10.972,10.358,9.7446,8.9486,8.1525,7.5796,7.0066,6.5491,6.0915,5.6349,5.1783,4.755,4.3317,3.6644,2.9971,2.4716,1.9461,1.5494,1.1526,0.86089,0.56915,0.4469,0.32465,0.26656,0.20846,0.17563,0.14279,0.12125,0.099703,0.087393,0.075084,0.065466,0.055848,0.053767,0.051686,0.043787,0.035888,0.033633,0.031377,0.026783,0.022189
0.022757,0.023517,0.024277,0.025977,0.027677,0.033221,0.038766,0.041667,0.044568,0.056563,0.068559,0.081987,0.095415,0.11325,0.13109,0.15062,0.17014,0.22634,0.28254,0.36709,0.45165,0.62873,0.80581,1.1844,1.5631,2.0695,2.5759,3.0799,3.5838,4.0812,4.5786,5.1367,5.6948,6.2215,6.7482,7.3373,7.9264,8.4748,9.0232,9.1209,9.2186,8.7693,8.3201,7.6416,6.963,6.4431,5.9233,5.5257,5.1282,4.7701,4.412,4.073,3.734,3.1814,2.6288,2.1656,1.7023,1.3482,0.99417,0.75031,0.50644,0.40224,0.29804,0.24582,0.19359,0.16382,0.13405,0.11471,0.095363,0.08346,0.071556,0.062533,0.053509,0.051919,0.050328,0.042477,0.034625,0.032466,0.030306,0.025911,0.021515
0.022356,0.022894,0.023431,0.025034,0.026636,0.031913,0.03719,0.039912,0.042634,0.05237,0.062106,0.076645,0.091184,0.10673,0.12227,0.12941,0.13655,0.19748,0.25841,0.33146,0.40451,0.55312,0.70172,1.0117,1.3217,1.7117,2.1016,2.5118,2.9219,3.3313,3.7408,4.1904,4.6401,5.0524,5.4646,5.9378,6.411,6.8064,7.2018,7.3336,7.4653,7.1805,6.8956,6.3346,5.7736,5.3067,4.8399,4.5024,4.1648,3.9053,3.6457,3.391,3.1363,2.6984,2.2606,1.8596,1.4586,1.1471,0.83571,0.63972,0.44373,0.35758,0.27144,0.22508,0.17872,0.15201,0.1253,0.10816,0.091024,0.079526,0.068029,0.0596,0.051171,0.050071,0.048971,0.041166,0.033361,0.031299,0.029236,0.025039,0.020841
0.02167,0.02213,0.022591,0.024097,0.025603,0.030595,0.035586,0.038133,0.040679,0.049791,0.058903,0.072335,0.085766,0.10024,0.11472,0.12812,0.14152,0.18835,0.23517,0.29768,0.36018,0.48086,0.60153,0.85307,1.1046,1.4248,1.745,2.0773,2.4095,2.7713,3.133,3.5019,3.8708,4.2164,4.562,4.9466,5.3312,5.6145,5.8978,5.9803,6.0628,5.8795,5.6961,5.3116,4.9271,4.5762,4.2253,3.9485,3.6717,3.4591,3.2466,2.9747,2.7028,2.2915,1.8801,1.5428,1.2055,0.94978,0.69407,0.54086,0.38764,0.31625,0.24487,0.20469,0.16451,0.14059,0.11667,0.1011,0.085539,0.07493,0.064321,0.056491,0.048661,0.047644,0.046627,0.039308,0.031989,0.030044,0.028098,0.024188,0.020278
0.020984,0.021367,0.02175,0.02316,0.02457,0.029276,0.033982,0.036353,0.038723,0.047211,0.055699,0.068024,0.080349,0.093755,0.10716,0.12683,0.1465,0.17922,0.21193,0.26389,0.31586,0.4086,0.50134,0.6944,0.88746,1.1379,1.3884,1.6428,1.8972,2.2112,2.5253,2.8134,3.1015,3.3805,3.6594,3.9554,4.2513,4.4225,4.5937,4.627,4.6603,4.5785,4.4966,4.2886,4.0807,3.8456,3.6106,3.3946,3.1785,3.013,2.8474,2.5584,2.2694,1.8845,1.4996,1.226,0.95243,0.75243,0.55244,0.442,0.33155,0.27492,0.21829,0.18429,0.15029,0.12917,0.10804,0.094047,0.080055,0.070334,0.060613,0.053382,0.046151,0.045217,0.044282,0.037449,0.030617,0.028789,0.026961,0.023338,0.019715
0.015981,0.016446,0.016911,0.017881,0.018851,0.023067,0.027283,0.029049,0.030814,0.038452,0.04609,0.055845,0.065599,0.078299,0.091,0.10848,0.12596,0.14421,0.16246,0.214,0.26553,0.33838,0.41122,0.55557,0.69992,0.90522,1.1105,1.3241,1.5377,1.7939,2.0502,2.3194,2.5887,2.8514,3.1141,3.3406,3.5671,3.6575,3.7478,3.7289,3.71,3.6534,3.5968,3.4833,3.3698,3.2206,3.0714,2.8992,2.7271,2.545,2.363,2.0813,1.7995,1.4936,1.1876,0.9721,0.75656,0.6029,0.44924,0.36425,0.27925,0.23259,0.18592,0.15745,0.12899,0.11088,0.092772,0.080526,0.06828,0.059563,0.050846,0.045606,0.040365,0.038631,0.036897,0.030849,0.024801,0.023207,0.021612,0.018273,0.014933
0.015043,0.01573,0.016416,0.017308,0.0182,0.022112,0.026025,0.027665,0.029305,0.036342,0.043379,0.051225,0.059071,0.0714,0.083729,0.098967,0.1142,0.11932,0.12444,0.17676,0.22907,0.28251,0.33595,0.43304,0.53012,0.69068,0.85123,1.0253,1.1993,1.3982,1.597,1.8483,2.0996,2.3463,2.5931,2.7507,2.9084,2.918,2.9275,2.8563,2.7851,2.7538,2.7224,2.7029,2.6833,2.6197,2.5561,2.4269,2.2977,2.0987,1.8997,1.6238,1.348,1.1205,0.89303,0.73415,0.57526,0.46742,0.35958,0.29894,0.23831,0.2012,0.1641,0.14033,0.11657,0.10118,0.085789,0.074672,0.063554,0.055618,0.047681,0.04397,0.040259,0.037563,0.034867,0.029249,0.023631,0.022143,0.020654,0.017514,0.014374
0.014507,0.01512,0.015733,0.016569,0.017405,0.021058,0.024711,0.026236,0.02776,0.034252,0.040744,0.045871,0.050998,0.064024,0.07705,0.090462,0.10387,0.11463,0.12538,0.1541,0.18282,0.23435,0.28587,0.35832,0.43076,0.54747,0.66417,0.802,0.93983,1.1008,1.2618,1.4571,1.6523,1.851,2.0496,2.1781,2.3066,2.3348,2.363,2.304,2.245,2.2127,2.1803,2.1543,2.1284,2.069,2.0096,1.9095,1.8094,1.6351,1.4609,1.2559,1.051,0.87887,0.70673,0.58579,0.46484,0.38425,0.30366,0.25559,0.20752,0.17695,0.14637,0.12578,0.10519,0.092014,0.078837,0.068909,0.05898,0.051816,0.044652,0.042433,0.040214,0.035678,0.031143,0.027486,0.02383,0.021253,0.018677,0.016622,0.014568
0.013971,0.01451,0.015049,0.01583,0.01661,0.020004,0.023398,0.024807,0.026215,0.032162,0.038108,0.040517,0.042925,0.056648,0.07037,0.081957,0.093544,0.10993,0.12632,0.13144,0.13656,0.18618,0.2358,0.2836,0.3314,0.40426,0.47711,0.57874,0.68038,0.80352,0.92666,1.0659,1.205,1.3556,1.5062,1.6055,1.7049,1.7517,1.7985,1.7517,1.7049,1.6716,1.6382,1.6058,1.5734,1.5183,1.4631,1.3921,1.3211,1.1716,1.0221,0.88803,0.75399,0.63721,0.52043,0.43743,0.35443,0.30108,0.24773,0.21223,0.17673,0.15269,0.12865,0.11124,0.093817,0.082851,0.071885,0.063145,0.054406,0.048014,0.041622,0.040895,0.040168,0.033793,0.027418,0.025723,0.024028,0.020364,0.0167,0.015731,0.014762
0.013609,0.013444,0.013279,0.013669,0.014059,0.018064,0.02207,0.023372,0.024675,0.030097,0.035518,0.037715,0.039911,0.050899,0.061888,0.07324,0.084593,0.098573,0.11255,0.12274,0.13292,0.16797,0.20301,0.24011,0.27721,0.33052,0.38384,0.45615,0.52846,0.616,0.70355,0.80071,0.89788,1.0002,1.1025,1.1797,1.2568,1.307,1.3571,1.3474,1.3377,1.3118,1.2858,1.249,1.2122,1.1614,1.1105,1.0471,0.98361,0.87645,0.76929,0.67454,0.5798,0.49779,0.41577,0.35502,0.29428,0.25305,0.21182,0.18329,0.15475,0.13476,0.11476,0.10022,0.085683,0.075732,0.065781,0.058011,0.050241,0.046666,0.043092,0.039275,0.035458,0.031355,0.027253,0.024378,0.021503,0.019126,0.016749,0.015077,0.013406
0.013247,0.012378,0.011508,0.011508,0.011508,0.016125,0.020741,0.021938,0.023135,0.028031,0.032928,0.034912,0.036897,0.045151,0.053406,0.064524,0.075641,0.087213,0.098785,0.11404,0.12929,0.14975,0.17022,0.19662,0.22302,0.25679,0.29057,0.33355,0.37654,0.42849,0.48044,0.53558,0.59071,0.64478,0.69885,0.75384,0.80882,0.86228,0.91575,0.94317,0.97058,0.95195,0.93332,0.89212,0.85092,0.80443,0.75793,0.70204,0.64615,0.58132,0.51649,0.46106,0.40562,0.35836,0.31111,0.27262,0.23413,0.20502,0.17591,0.15434,0.13277,0.11682,0.10088,0.089212,0.07755,0.068613,0.059677,0.052876,0.046075,0.045318,0.044561,0.037654,0.030747,0.028918,0.027088,0.023033,0.018978,0.017888,0.016797,0.014424,0.01205
0.012791,0.011858,0.010925,0.011648,0.012372,0.016048,0.019724,0.020701,0.021678,0.026121,0.030564,0.032352,0.03414,0.041486,0.048832,0.057814,0.066796,0.077459,0.088122,0.10094,0.11376,0.13055,0.14733,0.16239,0.17746,0.20989,0.24233,0.27499,0.30765,0.34602,0.38439,0.42469,0.46499,0.50422,0.54345,0.58124,0.61903,0.65432,0.68962,0.70794,0.72627,0.7165,0.70673,0.67992,0.65311,0.61881,0.5845,0.54368,0.50286,0.45666,0.41047,0.36965,0.32883,0.29323,0.25764,0.22812,0.1986,0.1753,0.15199,0.13406,0.11613,0.10325,0.090379,0.080261,0.070143,0.06229,0.054436,0.050309,0.046181,0.042599,0.039017,0.034615,0.030213,0.027144,0.024075,0.02146,0.018845,0.016988,0.015131,0.013589,0.012047
0.012335,0.011339,0.010342,0.011788,0.013235,0.01597,0.018706,0.019463,0.02022,0.02421,0.0282,0.029791,0.031383,0.037821,0.044258,0.051104,0.05795,0.067704,0.077459,0.087849,0.09824,0.11134,0.12444,0.12817,0.13189,0.16299,0.19409,0.21643,0.23877,0.26355,0.28833,0.3138,0.33928,0.36367,0.38805,0.40865,0.42925,0.44636,0.46348,0.47272,0.48196,0.48105,0.48014,0.46772,0.4553,0.43319,0.41107,0.38532,0.35958,0.33201,0.30444,0.27824,0.25204,0.2281,0.20417,0.18362,0.16307,0.14557,0.12808,0.11378,0.099482,0.089682,0.079882,0.071309,0.062736,0.055966,0.049196,0.047741,0.046287,0.03988,0.033474,0.031576,0.029678,0.02537,0.021063,0.019887,0.018712,0.016089,0.013465,0.012755,0.012044
0.010718,0.010407,0.010097,0.011561,0.013026,0.014793,0.01656,0.018239,0.019919,0.022425,0.024931,0.027729,0.030528,0.034538,0.038548,0.045121,0.051695,0.05976,0.067826,0.077391,0.086955,0.097823,0.10869,0.11558,0.12247,0.14379,0.16511,0.18277,0.20043,0.2198,0.23918,0.25891,0.27865,0.29737,0.31609,0.33112,0.34614,0.35827,0.37041,0.37668,0.38295,0.38192,0.38089,0.37191,0.36294,0.34704,0.33115,0.31189,0.29264,0.27185,0.25105,0.23072,0.21038,0.19153,0.17268,0.15633,0.13997,0.12603,0.11208,0.10041,0.088743,0.080094,0.071446,0.064054,0.056663,0.050748,0.044833,0.043819,0.042804,0.036851,0.030899,0.029185,0.027471,0.023566,0.019662,0.018593,0.017524,0.015121,0.012718,0.011597,0.010475
0.0091,0.0094756,0.0098512,0.011334,0.012817,0.013615,0.014413,0.017015,0.019618,0.02064,0.021662,0.025667,0.029672,0.031255,0.032837,0.039138,0.045439,0.051816,0.058192,0.066932,0.075671,0.084305,0.092938,0.103,0.11305,0.12459,0.13614,0.14912,0.1621,0.17606,0.19003,0.20402,0.21802,0.23107,0.24413,0.25358,0.26303,0.27018,0.27733,0.28063,0.28393,0.28278,0.28163,0.2761,0.27058,0.2609,0.25122,0.23846,0.22571,0.21169,0.19766,0.1832,0.16873,0.15496,0.14119,0.12903,0.11687,0.10648,0.096089,0.087046,0.078004,0.070506,0.063009,0.056799,0.050589,0.04553,0.040471,0.039896,0.03932,0.033822,0.028324,0.026794,0.025264,0.021762,0.018261,0.017299,0.016337,0.014154,0.011972,0.010439,0.0089061
0.009462,0.0095809,0.0096998,0.010702,0.011704,0.012893,0.014083,0.016023,0.017962,0.019546,0.021131,0.023637,0.026143,0.028892,0.031641,0.035556,0.039472,0.045606,0.05174,0.05895,0.066159,0.074043,0.081927,0.090288,0.098649,0.10819,0.11773,0.12825,0.13877,0.14992,0.16107,0.16912,0.17717,0.19026,0.20336,0.21098,0.21861,0.22387,0.22913,0.23144,0.23375,0.23279,0.23182,0.2276,0.22339,0.21614,0.20888,0.19885,0.18882,0.1776,0.16638,0.15483,0.14327,0.13239,0.12152,0.11164,0.10177,0.093044,0.08432,0.076732,0.069143,0.062752,0.05636,0.050998,0.045636,0.042834,0.040032,0.037165,0.034299,0.030809,0.02732,0.024815,0.022311,0.02007,0.017829,0.01622,0.01461,0.013205,0.011801,0.010386,0.0089712
0.009824,0.0096861,0.0095483,0.010069,0.01059,0.012172,0.013753,0.01503,0.016307,0.018453,0.020599,0.021606,0.022614,0.026529,0.030444,0.031974,0.033504,0.039396,0.045288,0.050968,0.056648,0.063781,0.070915,0.07758,0.084244,0.091787,0.09933,0.10739,0.11545,0.12378,0.13211,0.13421,0.13632,0.14945,0.16258,0.16838,0.17418,0.17756,0.18094,0.18226,0.18357,0.18279,0.182,0.17911,0.17621,0.17138,0.16655,0.15923,0.15192,0.14351,0.13511,0.12646,0.11781,0.10983,0.10184,0.094256,0.086668,0.079609,0.072551,0.066417,0.060283,0.054997,0.04971,0.045197,0.040683,0.040138,0.039593,0.034435,0.029278,0.027797,0.026315,0.022836,0.019357,0.018377,0.017397,0.01514,0.012884,0.012256,0.011629,0.010333,0.0090363
0.008691,0.0089038,0.0091166,0.0095763,0.010036,0.011465,0.012894,0.013867,0.01484,0.017071,0.019301,0.020085,0.020869,0.024346,0.027822,0.029174,0.030526,0.035688,0.04085,0.044523,0.048196,0.054716,0.061237,0.067651,0.074066,0.080337,0.086607,0.093264,0.099921,0.10678,0.11364,0.11723,0.12081,0.1296,0.13839,0.14292,0.14745,0.15028,0.1531,0.15409,0.15508,0.15443,0.15377,0.15138,0.149,0.1451,0.14121,0.13539,0.12956,0.12278,0.11599,0.10894,0.10189,0.09521,0.088531,0.082215,0.075899,0.069999,0.0641,0.058889,0.053679,0.049832,0.045984,0.042804,0.039623,0.037037,0.034452,0.031192,0.027933,0.025549,0.023165,0.020954,0.018742,0.017123,0.015504,0.014057,0.012609,0.011276,0.0099436,0.0093915,0.0088394
0.0075581,0.0081215,0.0086849,0.0090833,0.0094816,0.010758,0.012035,0.012705,0.013374,0.015689,0.018003,0.018563,0.019124,0.022162,0.025201,0.026374,0.027548,0.03198,0.036412,0.038078,0.039744,0.045651,0.051558,0.057723,0.063888,0.068886,0.073884,0.07914,0.084396,0.089788,0.09518,0.10024,0.1053,0.10975,0.1142,0.11746,0.12072,0.12299,0.12526,0.12593,0.12659,0.12606,0.12553,0.12366,0.12178,0.11882,0.11587,0.11154,0.10721,0.10204,0.096876,0.091424,0.085971,0.080594,0.075217,0.070173,0.06513,0.060389,0.055648,0.051361,0.047075,0.044667,0.042258,0.040411,0.038563,0.033937,0.029311,0.02795,0.026588,0.023301,0.020014,0.019071,0.018127,0.015869,0.013611,0.012973,0.012335,0.010297,0.0082578,0.0084502,0.0086425
0.0072718,0.0077239,0.008176,0.0085554,0.0089349,0.010106,0.011276,0.011879,0.012481,0.014368,0.016255,0.017187,0.018118,0.020569,0.02302,0.024057,0.025095,0.028983,0.032871,0.034331,0.035791,0.04085,0.045909,0.049748,0.053588,0.05923,0.064872,0.069333,0.073793,0.078284,0.082775,0.086948,0.091121,0.094839,0.098558,0.10126,0.10396,0.10581,0.10765,0.10819,0.10874,0.10824,0.10774,0.10615,0.10457,0.10212,0.099663,0.096096,0.092529,0.088296,0.084063,0.079526,0.07499,0.070499,0.066008,0.061737,0.057465,0.053437,0.049408,0.04706,0.044712,0.041327,0.037942,0.036359,0.034776,0.03071,0.026644,0.025448,0.024252,0.021337,0.018423,0.01758,0.016738,0.01471,0.012682,0.011647,0.010612,0.0095051,0.0083987,0.0082881,0.0081775
0.0069855,0.0073263,0.0076671,0.0080276,0.0083881,0.0094529,0.010518,0.011052,0.011587,0.013047,0.014507,0.01581,0.017112,0.018975,0.020838,0.02174,0.022641,0.025985,0.029329,0.030584,0.031838,0.036048,0.040259,0.041774,0.043288,0.049574,0.05586,0.059525,0.063191,0.06678,0.07037,0.073657,0.076944,0.079928,0.082911,0.085062,0.087213,0.088622,0.09003,0.090454,0.090878,0.090409,0.089939,0.088652,0.087364,0.085411,0.083457,0.080655,0.077853,0.074551,0.071249,0.067629,0.064009,0.060404,0.056799,0.0533,0.049801,0.046484,0.043167,0.042758,0.042349,0.037987,0.033625,0.032307,0.03099,0.027483,0.023977,0.022947,0.021917,0.019374,0.016831,0.01609,0.015349,0.013551,0.011754,0.010321,0.0088879,0.0087137,0.0085395,0.008126,0.0077125
0.0066341,0.0069499,0.0072657,0.0075952,0.0079246,0.0088947,0.0098649,0.010347,0.01083,0.012162,0.013494,0.014447,0.015401,0.017355,0.019309,0.019982,0.020655,0.023581,0.026508,0.0276,0.028692,0.032347,0.036003,0.037306,0.038608,0.043531,0.048453,0.050907,0.053361,0.057511,0.061661,0.064418,0.067174,0.069696,0.072218,0.074036,0.075853,0.077072,0.078292,0.07861,0.078928,0.078451,0.077974,0.076906,0.075838,0.074187,0.072536,0.070166,0.067795,0.065016,0.062237,0.0592,0.056163,0.053126,0.050089,0.048173,0.046257,0.042789,0.03932,0.03854,0.03776,0.034012,0.030264,0.02911,0.027956,0.024887,0.021818,0.020916,0.020013,0.017761,0.01551,0.014848,0.014186,0.012264,0.010342,0.0097467,0.0091515,0.0086001,0.0080488,0.0076709,0.007293
0.0062827,0.0065735,0.0068643,0.0071627,0.0074611,0.0083366,0.009212,0.0096422,0.010072,0.011276,0.012481,0.013085,0.013689,0.015734,0.017779,0.018224,0.018669,0.021178,0.023686,0.024616,0.025546,0.028646,0.031747,0.032837,0.033928,0.037487,0.041047,0.042289,0.043531,0.048241,0.052952,0.055178,0.057405,0.059465,0.061525,0.063009,0.064493,0.065523,0.066553,0.066765,0.066977,0.066493,0.066008,0.06516,0.064312,0.062964,0.061616,0.059677,0.057738,0.055481,0.053224,0.050771,0.048317,0.045848,0.043379,0.043046,0.042713,0.039093,0.035473,0.034322,0.033171,0.030037,0.026903,0.025912,0.024922,0.022291,0.01966,0.018885,0.018109,0.016149,0.014189,0.013606,0.013023,0.010977,0.0089303,0.0091727,0.009415,0.0084865,0.0075581,0.0072157,0.0068734
0.0064402,0.0064766,0.006513,0.0067856,0.0070582,0.0078504,0.0086425,0.009031,0.0094195,0.010502,0.011584,0.012116,0.012649,0.014317,0.015986,0.016754,0.017523,0.019493,0.021464,0.022277,0.023091,0.025789,0.028487,0.029434,0.030381,0.033472,0.036563,0.037631,0.038699,0.042402,0.046106,0.047643,0.04918,0.051339,0.053497,0.054883,0.056269,0.057238,0.058208,0.058442,0.058677,0.058223,0.057768,0.057041,0.056314,0.055156,0.053997,0.052611,0.051225,0.049748,0.048272,0.045795,0.043319,0.041645,0.039971,0.03851,0.037048,0.034799,0.03255,0.030734,0.028918,0.026957,0.024996,0.023412,0.021827,0.020172,0.018516,0.017268,0.016019,0.014782,0.013545,0.012284,0.011022,0.010134,0.0092469,0.0089182,0.0085895,0.0079564,0.0073233,0.0068401,0.0063569
0.0065978,0.0063797,0.0061616,0.0064084,0.0066553,0.0073642,0.008073,0.0084199,0.0087667,0.009727,0.010687,0.011148,0.011608,0.0129,0.014192,0.015284,0.016376,0.017809,0.019242,0.019939,0.020635,0.022932,0.025228,0.026031,0.026833,0.029457,0.03208,0.032974,0.033867,0.036563,0.039259,0.040108,0.040956,0.043213,0.045469,0.046757,0.048044,0.048953,0.049862,0.050119,0.050377,0.049953,0.049529,0.048923,0.048317,0.047348,0.046378,0.045545,0.044712,0.044015,0.043319,0.04082,0.03832,0.037442,0.036563,0.033973,0.031383,0.030505,0.029626,0.027145,0.024664,0.023877,0.023089,0.020911,0.018733,0.018053,0.017373,0.015651,0.013929,0.013415,0.012902,0.010961,0.0090212,0.0092923,0.0095634,0.0086637,0.007764,0.0074263,0.0070885,0.0064645,0.0058405
0.0061782,0.0060237,0.0058692,0.0060866,0.0063039,0.0069408,0.0075777,0.0078898,0.0082018,0.0090621,0.0099224,0.010331,0.01074,0.011877,0.013014,0.013807,0.014601,0.016132,0.017662,0.018173,0.018685,0.020685,0.022685,0.023383,0.024081,0.026349,0.028618,0.029393,0.030169,0.032488,0.034806,0.035541,0.036276,0.038192,0.040108,0.040979,0.04185,0.042758,0.043667,0.043909,0.044152,0.043909,0.043667,0.043273,0.042879,0.041986,0.041092,0.040479,0.039865,0.038744,0.037624,0.036079,0.034534,0.033164,0.031794,0.030188,0.028581,0.027207,0.025832,0.02428,0.022729,0.021483,0.020237,0.018876,0.017515,0.016432,0.015348,0.014262,0.013176,0.012033,0.01089,0.010073,0.009256,0.0089758,0.0086955,0.0080859,0.0074763,0.0070029,0.0065296,0.0061048,0.0056799
0.0057587,0.0056678,0.0055769,0.0057647,0.0059525,0.0065175,0.0070825,0.0073596,0.0076368,0.0083972,0.0091575,0.009515,0.0098724,0.010854,0.011835,0.012331,0.012826,0.014454,0.016082,0.016408,0.016734,0.018438,0.020142,0.020735,0.021329,0.023242,0.025155,0.025812,0.02647,0.028412,0.030353,0.030974,0.031595,0.033171,0.034746,0.0352,0.035655,0.036563,0.037472,0.037699,0.037927,0.037866,0.037805,0.037624,0.037442,0.036624,0.035806,0.035412,0.035018,0.033474,0.031929,0.031338,0.030747,0.028886,0.027024,0.026402,0.025779,0.023909,0.022038,0.021415,0.020793,0.019089,0.017385,0.016841,0.016298,0.01481,0.013323,0.012873,0.012423,0.010651,0.0088788,0.0091848,0.0094907,0.0086592,0.0078277,0.0075081,0.0071885,0.0065796,0.0059707,0.005745,0.0055193
0.0055527,0.0054179,0.0052831,0.0054603,0.0056375,0.0061517,0.0066659,0.0069166,0.0071673,0.0078474,0.0085274,0.0088463,0.0091651,0.010039,0.010913,0.011347,0.011781,0.013105,0.01443,0.014832,0.015234,0.01672,0.018206,0.018726,0.019247,0.020904,0.022561,0.023124,0.023687,0.025376,0.027064,0.027602,0.02814,0.029497,0.030853,0.031237,0.031621,0.032401,0.033181,0.033359,0.033537,0.033487,0.033437,0.033291,0.033145,0.032431,0.031717,0.031365,0.031014,0.029663,0.028312,0.027805,0.027298,0.025698,0.024098,0.023564,0.02303,0.021408,0.019786,0.019246,0.018706,0.017221,0.015736,0.015264,0.014792,0.013148,0.011504,0.011466,0.011428,0.010121,0.0088137,0.0088023,0.008791,0.0080511,0.0073112,0.0070219,0.0067326,0.006182,0.0056314,0.0054254,0.0052194
0.0053467,0.005168,0.0049892,0.0051558,0.0053224,0.0057859,0.0062494,0.0064736,0.0066977,0.0072975,0.0078973,0.0081775,0.0084578,0.0092242,0.0099906,0.010363,0.010736,0.011757,0.012778,0.013256,0.013735,0.015003,0.01627,0.016717,0.017164,0.018565,0.019966,0.020436,0.020905,0.022339,0.023774,0.02423,0.024686,0.025823,0.026961,0.027274,0.027588,0.028239,0.02889,0.029019,0.029148,0.029108,0.029069,0.028958,0.028848,0.028237,0.027627,0.027318,0.027009,0.025852,0.024695,0.024272,0.02385,0.022511,0.021172,0.020726,0.020281,0.018907,0.017533,0.017076,0.016619,0.015352,0.014086,0.013686,0.013286,0.011486,0.0096846,0.010059,0.010433,0.0095907,0.0087486,0.0084199,0.0080912,0.0074429,0.0067947,0.0065357,0.0062767,0.0057844,0.0052922,0.0051059,0.0049196
0.0050922,0.0049211,0.0047499,0.0048953,0.0050407,0.0054474,0.0058541,0.0060517,0.0062494,0.0067803,0.0073112,0.0075649,0.0078186,0.0085168,0.0092151,0.0095513,0.0098876,0.010787,0.011687,0.012107,0.012526,0.013615,0.014704,0.015131,0.015558,0.01677,0.017982,0.01839,0.018798,0.020043,0.021288,0.021685,0.022082,0.023073,0.024065,0.02434,0.024616,0.02517,0.025723,0.025833,0.025943,0.0259,0.025856,0.025762,0.025667,0.025114,0.024561,0.02429,0.024019,0.02302,0.022021,0.021658,0.021294,0.020132,0.018969,0.018581,0.018192,0.016999,0.015805,0.015408,0.015012,0.013907,0.012802,0.011964,0.011127,0.010331,0.0095362,0.0095657,0.0095952,0.0088478,0.0081003,0.007808,0.0075156,0.006934,0.0063524,0.0061252,0.005898,0.0054572,0.0050165,0.0048491,0.0046818
0.0048378,0.0046742,0.0045106,0.0046348,0.004759,0.0051089,0.0054588,0.0056299,0.0058011,0.006263,0.006725,0.0069522,0.0071794,0.0078095,0.0084396,0.0087395,0.0090394,0.0098179,0.010596,0.010957,0.011317,0.012228,0.013138,0.013545,0.013953,0.014975,0.015998,0.016344,0.016691,0.017747,0.018803,0.019141,0.019478,0.020323,0.021169,0.021406,0.021644,0.0221,0.022556,0.022647,0.022738,0.022691,0.022644,0.022565,0.022486,0.021991,0.021496,0.021263,0.021029,0.020189,0.019348,0.019044,0.018739,0.017753,0.016767,0.016435,0.016104,0.01509,0.014077,0.013741,0.013405,0.012461,0.011517,0.010242,0.0089667,0.0091772,0.0093877,0.0090727,0.0087576,0.0081048,0.007452,0.0071961,0.0069401,0.0064251,0.0059101,0.0057147,0.0055193,0.0051301,0.0047408,0.0045924,0.004444
0.0046151,0.0044614,0.0043076,0.0044212,0.0045348,0.0048484,0.0051619,0.0053156,0.0054694,0.0058813,0.0062933,0.0064955,0.0066977,0.0072506,0.0078034,0.0080685,0.0083335,0.0090333,0.0097331,0.010051,0.010369,0.011165,0.011961,0.012318,0.012675,0.01355,0.014425,0.014756,0.015087,0.01611,0.017132,0.017318,0.017505,0.018245,0.018986,0.019194,0.019403,0.019799,0.020196,0.02027,0.020345,0.020292,0.02024,0.020164,0.020087,0.01964,0.019194,0.018992,0.018791,0.018067,0.017343,0.017079,0.016816,0.015955,0.015095,0.014808,0.014521,0.01328,0.01204,0.012117,0.012194,0.011393,0.010592,0.0098164,0.0090409,0.008844,0.0086471,0.0083684,0.0080897,0.0075096,0.0069295,0.0067015,0.0064736,0.0060139,0.0055542,0.0053792,0.0052043,0.0048544,0.0045045,0.0043705,0.0042364
0.0043925,0.0042486,0.0041047,0.0042077,0.0043107,0.0045878,0.004865,0.0050013,0.0051377,0.0054997,0.0058617,0.0060389,0.0062161,0.0066917,0.0071673,0.0073975,0.0076277,0.0082487,0.0088697,0.0091454,0.0094211,0.010103,0.010784,0.01109,0.011396,0.012125,0.012853,0.013168,0.013483,0.014472,0.015461,0.015496,0.015531,0.016167,0.016803,0.016982,0.017161,0.017499,0.017836,0.017894,0.017952,0.017894,0.017836,0.017762,0.017688,0.01729,0.016891,0.016722,0.016552,0.015945,0.015337,0.015115,0.014892,0.014157,0.013423,0.01318,0.012938,0.01147,0.010003,0.010493,0.010984,0.010325,0.0096664,0.0093908,0.0091151,0.0085108,0.0079064,0.0076641,0.0074217,0.0069143,0.0064069,0.006207,0.0060071,0.0056027,0.0051982,0.0050438,0.0048893,0.0045788,0.0042683,0.0041486,0.0040289
0.0042001,0.0040653,0.0039305,0.0040229,0.0041153,0.004366,0.0046166,0.0047386,0.0048605,0.0051846,0.0055087,0.005667,0.0058253,0.0062479,0.0066705,0.0068742,0.0070779,0.00763,0.0081821,0.0084267,0.0086713,0.0092719,0.0098724,0.010141,0.010409,0.011047,0.011685,0.011962,0.012238,0.013012,0.013785,0.013924,0.014063,0.014608,0.015152,0.015325,0.015498,0.01578,0.016061,0.016108,0.016155,0.016087,0.016019,0.015949,0.015879,0.015527,0.015174,0.015028,0.014881,0.014353,0.013826,0.013096,0.012367,0.012298,0.012229,0.011997,0.011764,0.010765,0.0097664,0.0098967,0.010027,0.0094461,0.0088652,0.0086228,0.0083805,0.0078458,0.0073112,0.0070991,0.0068871,0.0064365,0.0059859,0.0058079,0.0056299,0.0052672,0.0049044,0.0047658,0.0046272,0.0043485,0.0040698,0.0039623,0.0038548
0.0040077,0.003882,0.0037563,0.0038381,0.0039199,0.0041441,0.0043682,0.0044758,0.0045833,0.0048696,0.0051558,0.0052952,0.0054345,0.0058041,0.0061737,0.0063509,0.0065281,0.0070113,0.0074944,0.007708,0.0079216,0.0084411,0.0089606,0.0091908,0.0094211,0.0099694,0.010518,0.010755,0.010993,0.011551,0.012108,0.012352,0.012596,0.013049,0.013502,0.013668,0.013835,0.01406,0.014286,0.014322,0.014359,0.01428,0.014201,0.014136,0.014071,0.013764,0.013456,0.013333,0.013211,0.012762,0.012314,0.011078,0.0098421,0.010439,0.011036,0.010813,0.01059,0.01006,0.0095301,0.0092999,0.0090697,0.0085668,0.0080639,0.0078549,0.0076459,0.0071809,0.0067159,0.0065342,0.0063524,0.0059586,0.0055648,0.0054088,0.0052528,0.0049317,0.0046106,0.0044879,0.0043652,0.0041183,0.0038714,0.003776,0.0036806
