0.009023,0.0093062,0.0095893,0.010297,0.011005,0.010529,0.010054,0.011691,0.013328,0.013659,0.01399,0.015036,0.016083,0.016443,0.016803,0.01792,0.019037,0.019411,0.019785,0.021007,0.022228,0.022633,0.023038,0.024246,0.025453,0.025838,0.026223,0.027349,0.028476,0.028808,0.02914,0.03005,0.030959,0.031144,0.031328,0.031821,0.032313,0.032405,0.032498,0.03259,0.032682,0.032575,0.032467,0.031944,0.031421,0.03119,0.030959,0.030107,0.029254,0.028903,0.028552,0.027398,0.026244,0.025834,0.025423,0.024184,0.022945,0.022519,0.022093,0.02083,0.019566,0.01916,0.018754,0.017595,0.016437,0.016297,0.016157,0.014876,0.013596,0.013213,0.01283,0.012008,0.011186,0.010877,0.010568,0.0099063,0.0092446,0.0090077,0.0087707,0.0084768,0.0081829
0.0095508,0.0098593,0.010168,0.010933,0.011699,0.011627,0.011554,0.012934,0.014313,0.014682,0.01505,0.01622,0.017391,0.017796,0.018201,0.019468,0.020734,0.021164,0.021593,0.022978,0.024364,0.024828,0.025292,0.026674,0.028055,0.028492,0.028929,0.030208,0.031487,0.031861,0.032235,0.033274,0.034313,0.034537,0.03476,0.035298,0.035837,0.035937,0.036037,0.036152,0.036268,0.036144,0.036021,0.035429,0.034837,0.03456,0.034283,0.033326,0.032368,0.031962,0.031556,0.030233,0.028909,0.028437,0.027965,0.026551,0.025138,0.024659,0.024181,0.02275,0.021319,0.020867,0.020414,0.019101,0.017788,0.017486,0.017184,0.01613,0.015075,0.014421,0.013767,0.012861,0.011956,0.011603,0.011251,0.010526,0.0098001,0.0095393,0.0092785,0.0089692,0.0086599
0.010079,0.010413,0.010746,0.01157,0.012393,0.012724,0.013054,0.014176,0.015298,0.015704,0.01611,0.017404,0.018699,0.019149,0.0196,0.021016,0.022431,0.022916,0.023401,0.02495,0.0265,0.027023,0.027546,0.029102,0.030657,0.031147,0.031636,0.033067,0.034498,0.034914,0.035329,0.036498,0.037668,0.037929,0.038191,0.038776,0.03936,0.039468,0.039576,0.039714,0.039853,0.039714,0.039576,0.038914,0.038253,0.037929,0.037606,0.036545,0.035483,0.035021,0.03456,0.033067,0.031575,0.031041,0.030507,0.028919,0.027331,0.0268,0.026269,0.02467,0.023072,0.022573,0.022074,0.020607,0.019139,0.018675,0.018212,0.017383,0.016554,0.015629,0.014704,0.013715,0.012725,0.01233,0.011934,0.011145,0.010356,0.010071,0.0097862,0.0094616,0.0091369
0.009657,0.010483,0.011308,0.012272,0.013236,0.01361,0.013984,0.015227,0.01647,0.016925,0.01738,0.018832,0.020283,0.020793,0.021302,0.022917,0.024532,0.025085,0.025638,0.027407,0.029176,0.029776,0.030376,0.032146,0.033916,0.034484,0.035052,0.036714,0.038376,0.038868,0.03936,0.040699,0.042038,0.042215,0.042392,0.043015,0.043638,0.043892,0.044146,0.044323,0.0445,0.044392,0.044284,0.0437,0.043115,0.042538,0.041961,0.040676,0.039391,0.03886,0.038329,0.036598,0.034867,0.034285,0.033703,0.031893,0.030083,0.029472,0.02886,0.027045,0.02523,0.024659,0.024089,0.022435,0.020782,0.02026,0.019739,0.018513,0.017288,0.016587,0.015887,0.014745,0.013602,0.013175,0.012748,0.011868,0.010988,0.010672,0.010356,0.010378,0.0104
0.0092354,0.010553,0.01187,0.012974,0.014079,0.014496,0.014913,0.016278,0.017643,0.018146,0.018649,0.020259,0.021868,0.022436,0.023004,0.024818,0.026632,0.027254,0.027875,0.029863,0.031851,0.032529,0.033206,0.03519,0.037175,0.037822,0.038468,0.040361,0.042253,0.042823,0.043392,0.0449,0.046408,0.0465,0.046592,0.047254,0.047916,0.048316,0.048716,0.048931,0.049147,0.04907,0.048993,0.048485,0.047977,0.047146,0.046315,0.044807,0.0433,0.042699,0.042099,0.04013,0.03816,0.037529,0.036898,0.034867,0.032836,0.032144,0.031451,0.02942,0.027389,0.026746,0.026103,0.024264,0.022425,0.021845,0.021265,0.019643,0.018021,0.017546,0.017071,0.015775,0.014479,0.014021,0.013562,0.012591,0.01162,0.011273,0.010925,0.011294,0.011663
0.0109,0.011757,0.012614,0.013837,0.015059,0.015519,0.015978,0.017496,0.019014,0.019577,0.02014,0.021951,0.023762,0.024409,0.025056,0.027118,0.02918,0.029876,0.030571,0.032842,0.035114,0.035891,0.036668,0.039007,0.041345,0.041776,0.042207,0.044023,0.045838,0.046931,0.048023,0.049524,0.051024,0.05167,0.052316,0.053101,0.053886,0.054348,0.054809,0.055032,0.055255,0.055163,0.055071,0.054555,0.05404,0.053186,0.052332,0.050993,0.049654,0.048639,0.047623,0.045023,0.042422,0.041668,0.040915,0.038576,0.036237,0.03546,0.034683,0.032359,0.030036,0.029299,0.028562,0.026484,0.024406,0.023764,0.023122,0.021329,0.019536,0.019009,0.018483,0.017035,0.015587,0.015227,0.014867,0.013633,0.012399,0.01163,0.01086,0.011513,0.012167
0.012565,0.012962,0.013359,0.014699,0.01604,0.016541,0.017043,0.018714,0.020385,0.021008,0.021631,0.023644,0.025657,0.026383,0.027109,0.029419,0.031728,0.032498,0.033267,0.035821,0.038376,0.039253,0.04013,0.042823,0.045515,0.045731,0.045946,0.047685,0.049424,0.051039,0.052655,0.054147,0.05564,0.05684,0.05804,0.058948,0.059856,0.060379,0.060902,0.061133,0.061364,0.061256,0.061149,0.060626,0.060102,0.059225,0.058348,0.057179,0.056009,0.054578,0.053147,0.049916,0.046685,0.045808,0.044931,0.042284,0.039637,0.038776,0.037914,0.035298,0.032682,0.031851,0.031021,0.028703,0.026386,0.025683,0.02498,0.023015,0.02105,0.020473,0.019896,0.018295,0.016695,0.016434,0.016172,0.014675,0.013178,0.011987,0.010796,0.011733,0.01267
0.012961,0.013855,0.014749,0.015687,0.016626,0.017772,0.018919,0.0201,0.02128,0.022745,0.024209,0.025637,0.027066,0.028781,0.030496,0.032151,0.033806,0.035768,0.037729,0.039568,0.041407,0.042561,0.043715,0.046254,0.048793,0.050093,0.051393,0.053455,0.055517,0.057456,0.059395,0.061149,0.062903,0.064357,0.065811,0.066888,0.067965,0.068596,0.069227,0.069481,0.069735,0.069565,0.069396,0.068758,0.068119,0.06708,0.066042,0.064634,0.063226,0.061526,0.059825,0.057079,0.054332,0.052693,0.051055,0.048285,0.045515,0.043723,0.04193,0.038922,0.035914,0.034983,0.034052,0.031416,0.02878,0.02798,0.02718,0.02497,0.022761,0.022115,0.02147,0.019679,0.017889,0.017463,0.017037,0.015513,0.01399,0.013176,0.012362,0.013006,0.01365
0.013356,0.014747,0.016138,0.016675,0.017212,0.019003,0.020794,0.021485,0.022176,0.024481,0.026786,0.027631,0.028476,0.031179,0.033883,0.034883,0.035883,0.039037,0.042192,0.043315,0.044438,0.045869,0.0473,0.049685,0.05207,0.054455,0.05684,0.059225,0.06161,0.063872,0.066134,0.06815,0.070166,0.071874,0.073582,0.074828,0.076074,0.076813,0.077551,0.077828,0.078105,0.077875,0.077644,0.07689,0.076136,0.074936,0.073735,0.072089,0.070443,0.068473,0.066503,0.064241,0.06198,0.059579,0.057179,0.054286,0.051393,0.04867,0.045946,0.042546,0.039145,0.038114,0.037083,0.034129,0.031174,0.030277,0.02938,0.026926,0.024472,0.023758,0.023044,0.021064,0.019083,0.018492,0.017901,0.016352,0.014802,0.014365,0.013928,0.014279,0.01463
0.014652,0.015626,0.016601,0.017833,0.019065,0.020333,0.021601,0.023199,0.024798,0.026431,0.028063,0.030052,0.032041,0.033977,0.035914,0.038337,0.040761,0.042499,0.044238,0.046246,0.048254,0.050493,0.052732,0.05554,0.058348,0.06121,0.064072,0.066934,0.069796,0.07252,0.075243,0.077698,0.080152,0.082337,0.084522,0.086014,0.087507,0.088338,0.089169,0.089484,0.0898,0.089507,0.089215,0.088346,0.087476,0.08603,0.084583,0.082514,0.080444,0.078021,0.075597,0.072881,0.070166,0.067296,0.064426,0.061341,0.058256,0.055286,0.052316,0.048716,0.045115,0.042953,0.040791,0.037422,0.034052,0.033034,0.032016,0.029239,0.026461,0.025661,0.024861,0.022658,0.020454,0.019806,0.019157,0.017448,0.01574,0.015259,0.014778,0.015125,0.015472
0.015947,0.016506,0.017064,0.018991,0.020917,0.021662,0.022407,0.024913,0.02742,0.02838,0.02934,0.032473,0.035606,0.036775,0.037945,0.041792,0.045638,0.045962,0.046285,0.049177,0.05207,0.055117,0.058164,0.061395,0.064626,0.067965,0.071304,0.074643,0.077982,0.081167,0.084353,0.087245,0.090138,0.0928,0.095462,0.097201,0.09894,0.099863,0.10079,0.10114,0.10149,0.10114,0.10079,0.099801,0.098816,0.097124,0.095431,0.092939,0.090446,0.087568,0.084691,0.081521,0.078352,0.075013,0.071673,0.068396,0.065119,0.061903,0.058687,0.054886,0.051085,0.047793,0.0445,0.040714,0.036929,0.035791,0.034652,0.031551,0.028451,0.027565,0.026678,0.024252,0.021825,0.021119,0.020413,0.018545,0.016677,0.016152,0.015627,0.01597,0.016313
0.016892,0.017507,0.018121,0.02024,0.022359,0.023184,0.024009,0.026807,0.029605,0.03067,0.031735,0.035278,0.038822,0.039591,0.040361,0.043853,0.047346,0.049262,0.051178,0.054548,0.057917,0.061549,0.06518,0.069012,0.072843,0.07689,0.080937,0.085006,0.089076,0.093016,0.096955,0.10053,0.10411,0.10725,0.11039,0.11266,0.11493,0.11614,0.11736,0.11777,0.11819,0.11769,0.11719,0.11597,0.11476,0.1127,0.11063,0.10758,0.10453,0.10086,0.097185,0.093269,0.089353,0.08533,0.081306,0.077374,0.073443,0.069565,0.065688,0.061672,0.057656,0.054047,0.050439,0.0454,0.040361,0.039068,0.037776,0.034294,0.030813,0.029808,0.028803,0.026104,0.023405,0.022625,0.021845,0.019816,0.017788,0.017235,0.016683,0.016834,0.016986
0.017837,0.018508,0.019179,0.02149,0.023801,0.024706,0.02561,0.0287,0.03179,0.032959,0.034129,0.038083,0.042038,0.042407,0.042776,0.045915,0.049054,0.052563,0.056071,0.059918,0.063764,0.067981,0.072197,0.076628,0.08106,0.085814,0.090569,0.09537,0.10017,0.10486,0.10956,0.11382,0.11808,0.1217,0.12531,0.12811,0.13091,0.13242,0.13393,0.13441,0.13488,0.13424,0.13359,0.13215,0.1307,0.12827,0.12584,0.12222,0.1186,0.11414,0.10968,0.10502,0.10036,0.095647,0.090938,0.086353,0.081767,0.077228,0.072689,0.068458,0.064226,0.060302,0.056379,0.050085,0.043792,0.042346,0.040899,0.037037,0.033175,0.032052,0.030928,0.027957,0.024986,0.024132,0.023278,0.021088,0.018899,0.018318,0.017738,0.017698,0.017658
0.018206,0.01971,0.021214,0.022842,0.02447,0.026539,0.028608,0.030784,0.032959,0.035729,0.038499,0.040691,0.042884,0.044831,0.046777,0.050385,0.053994,0.058087,0.06218,0.066773,0.071366,0.07642,0.081475,0.086922,0.092369,0.098078,0.10379,0.10976,0.11573,0.12159,0.12745,0.13285,0.13824,0.14288,0.14752,0.15103,0.15455,0.15657,0.1586,0.15932,0.16004,0.15932,0.1586,0.15661,0.15463,0.15141,0.14819,0.14346,0.13873,0.13321,0.12768,0.12183,0.11597,0.11016,0.10434,0.098678,0.093016,0.087538,0.08206,0.07699,0.07192,0.06728,0.062641,0.057156,0.05167,0.048208,0.044746,0.040322,0.035898,0.03466,0.033421,0.030093,0.026764,0.025822,0.02488,0.022441,0.020002,0.019344,0.018686,0.018832,0.018977
0.018575,0.020913,0.02325,0.024195,0.02514,0.028372,0.031605,0.032867,0.034129,0.038499,0.042869,0.0433,0.04373,0.047254,0.050778,0.054855,0.058933,0.063611,0.068288,0.073628,0.078967,0.08486,0.090754,0.097216,0.10368,0.11034,0.117,0.12414,0.13128,0.13832,0.14535,0.15187,0.1584,0.16406,0.16972,0.17395,0.17818,0.18072,0.18326,0.18423,0.1852,0.1844,0.1836,0.18108,0.17855,0.17455,0.17055,0.1647,0.15886,0.15227,0.14569,0.13864,0.13159,0.12467,0.11774,0.111,0.10426,0.097847,0.091431,0.085522,0.079613,0.074259,0.068904,0.064226,0.059548,0.054071,0.048593,0.043607,0.038622,0.037268,0.035914,0.032228,0.028543,0.027512,0.026481,0.023793,0.021105,0.02037,0.019634,0.019965,0.020296
0.020459,0.022104,0.023749,0.025876,0.028003,0.030274,0.032544,0.035483,0.038422,0.040838,0.043253,0.0454,0.047546,0.051609,0.055671,0.060379,0.065088,0.070604,0.07612,0.082491,0.088861,0.095924,0.10299,0.11096,0.11893,0.12748,0.13602,0.14511,0.15419,0.16324,0.17229,0.18089,0.18949,0.19708,0.20466,0.21044,0.21622,0.21976,0.2233,0.22429,0.22528,0.22405,0.22281,0.21928,0.21576,0.2102,0.20465,0.19712,0.18959,0.18098,0.17237,0.16331,0.15426,0.14544,0.13662,0.12817,0.11971,0.11185,0.10399,0.096855,0.089723,0.083299,0.076874,0.071358,0.065842,0.060379,0.054917,0.048393,0.041869,0.040314,0.03876,0.034671,0.030582,0.02944,0.028299,0.025383,0.022468,0.021697,0.020925,0.020998,0.021071
0.022342,0.023295,0.024247,0.027557,0.030867,0.032175,0.033483,0.038099,0.042715,0.043176,0.043638,0.0475,0.051362,0.055963,0.060564,0.065903,0.071243,0.077598,0.083952,0.091354,0.098755,0.10699,0.11522,0.1247,0.13418,0.14461,0.15504,0.16607,0.17711,0.18817,0.19923,0.20991,0.22059,0.2301,0.23961,0.24693,0.25426,0.2588,0.26334,0.26435,0.26537,0.26369,0.26201,0.25749,0.25297,0.24586,0.23875,0.22953,0.22031,0.20968,0.19905,0.18799,0.17692,0.16621,0.1555,0.14533,0.13516,0.12585,0.11654,0.10819,0.099832,0.092338,0.084845,0.07849,0.072135,0.066688,0.061241,0.053178,0.045115,0.043361,0.041607,0.037114,0.032621,0.031368,0.030116,0.026974,0.023832,0.023024,0.022216,0.022031,0.021847
0.022673,0.02478,0.026888,0.0292,0.031513,0.034529,0.037545,0.040084,0.042622,0.044931,0.047239,0.051616,0.055994,0.061256,0.066519,0.072781,0.079044,0.086576,0.094108,0.10299,0.11188,0.12225,0.13262,0.14462,0.15663,0.1701,0.18357,0.19826,0.21296,0.22808,0.24321,0.25838,0.27355,0.28754,0.30153,0.31258,0.32362,0.33059,0.33755,0.33936,0.34118,0.33826,0.33535,0.3277,0.32005,0.30919,0.29833,0.28495,0.27157,0.2567,0.24184,0.22686,0.21188,0.19766,0.18345,0.17039,0.15733,0.14099,0.12465,0.11899,0.11333,0.10427,0.095216,0.087653,0.08009,0.07372,0.06735,0.06031,0.05327,0.049054,0.044838,0.039814,0.03479,0.033426,0.032061,0.028609,0.025157,0.024252,0.023347,0.023494,0.023641
0.023004,0.026266,0.029528,0.030844,0.032159,0.036883,0.041607,0.042069,0.04253,0.046685,0.050839,0.055732,0.060626,0.06655,0.072474,0.079659,0.086845,0.095554,0.10426,0.11463,0.12501,0.13752,0.15003,0.16455,0.17908,0.19559,0.2121,0.23045,0.24881,0.268,0.28719,0.30685,0.32652,0.34498,0.36345,0.37822,0.39299,0.40237,0.41176,0.41438,0.41699,0.41284,0.40868,0.39791,0.38714,0.37252,0.35791,0.34036,0.32282,0.30373,0.28463,0.26574,0.24684,0.22912,0.21139,0.19545,0.17951,0.15613,0.13276,0.12979,0.12682,0.1162,0.10559,0.096816,0.088045,0.080752,0.073458,0.067442,0.061426,0.054748,0.04807,0.042515,0.03696,0.035483,0.034006,0.030244,0.026481,0.02548,0.024478,0.024956,0.025435
0.024295,0.027815,0.031336,0.032794,0.034252,0.039207,0.044161,0.044954,0.045746,0.05037,0.054994,0.060579,0.066165,0.07302,0.079875,0.088215,0.096555,0.10705,0.11754,0.13041,0.14327,0.15903,0.1748,0.19409,0.21337,0.23619,0.259,0.28541,0.31182,0.34034,0.36886,0.398,0.42715,0.45338,0.47962,0.49885,0.51809,0.52855,0.53901,0.54448,0.54994,0.54717,0.5444,0.53147,0.51855,0.49739,0.47623,0.44884,0.42145,0.3919,0.36235,0.33429,0.30622,0.28109,0.25597,0.23424,0.21251,0.18947,0.16643,0.15575,0.14507,0.13201,0.11896,0.10843,0.097909,0.08933,0.080752,0.073812,0.066873,0.060325,0.053778,0.0466,0.039422,0.037814,0.036206,0.032068,0.027931,0.026857,0.025783,0.026096,0.026409
0.025586,0.029365,0.033144,0.034744,0.036345,0.04153,0.046715,0.047839,0.048962,0.054055,0.059148,0.065426,0.071704,0.07949,0.087276,0.09677,0.10626,0.11854,0.13082,0.14618,0.16153,0.18055,0.19957,0.22362,0.24767,0.27678,0.3059,0.34036,0.37483,0.41268,0.45054,0.48916,0.52778,0.56179,0.59579,0.61949,0.64318,0.65472,0.66627,0.67457,0.68288,0.6815,0.68011,0.66503,0.64995,0.62226,0.59456,0.55732,0.52009,0.48008,0.44007,0.40284,0.3656,0.33307,0.30054,0.27303,0.24552,0.22281,0.20009,0.18171,0.16332,0.14782,0.13233,0.12005,0.10777,0.097909,0.088045,0.080183,0.07232,0.065903,0.059487,0.050685,0.041884,0.040145,0.038406,0.033893,0.02938,0.028234,0.027088,0.027235,0.027383
0.028226,0.03087,0.033513,0.037075,0.040638,0.043515,0.046392,0.049424,0.052455,0.058217,0.06398,0.071104,0.078228,0.087091,0.095954,0.10736,0.11876,0.13374,0.14872,0.16792,0.18712,0.21204,0.23696,0.27011,0.30325,0.34627,0.3893,0.44084,0.49239,0.54694,0.60148,0.65226,0.70304,0.74397,0.7849,0.80652,0.82814,0.83783,0.84753,0.85922,0.87091,0.87822,0.88553,0.87468,0.86384,0.83098,0.79813,0.7482,0.69827,0.64057,0.58287,0.52793,0.473,0.42604,0.37908,0.34001,0.30094,0.26928,0.23762,0.2132,0.18879,0.16931,0.14984,0.13498,0.12013,0.10859,0.097047,0.087938,0.078829,0.071581,0.064334,0.056171,0.048008,0.04443,0.040853,0.035996,0.031139,0.029928,0.028717,0.028529,0.02834
0.030867,0.032375,0.033883,0.039407,0.044931,0.0455,0.046069,0.051009,0.055948,0.06238,0.068811,0.076782,0.084753,0.094693,0.10463,0.11794,0.13125,0.14893,0.16661,0.18966,0.21271,0.24353,0.27435,0.31659,0.35883,0.41576,0.47269,0.54132,0.60995,0.68119,0.75243,0.81537,0.8783,0.92615,0.97401,0.99355,1.0131,1.0209,1.0288,1.0439,1.0589,1.0749,1.091,1.0843,1.0777,1.0397,1.0017,0.93908,0.87645,0.80106,0.72566,0.65303,0.5804,0.51901,0.45761,0.40699,0.35637,0.31576,0.27515,0.2447,0.21425,0.1908,0.16735,0.14992,0.13248,0.11927,0.10605,0.095693,0.085337,0.077259,0.069181,0.061656,0.054132,0.048716,0.0433,0.038099,0.032898,0.031622,0.030347,0.029822,0.029297
0.030928,0.034244,0.03756,0.040568,0.043577,0.046262,0.048947,0.05444,0.059933,0.067065,0.074197,0.083268,0.092338,0.1039,0.11547,0.13126,0.14706,0.16866,0.19026,0.21994,0.24963,0.29126,0.3329,0.39064,0.44838,0.5274,0.60641,0.69796,0.78952,0.87407,0.95862,1.0295,1.1003,1.153,1.2056,1.2327,1.2599,1.2748,1.2896,1.3062,1.3228,1.3356,1.3484,1.3397,1.331,1.2886,1.2462,1.1722,1.0982,1.0092,0.92015,0.83114,0.74212,0.66273,0.58333,0.51586,0.44838,0.39223,0.33607,0.29393,0.25178,0.22138,0.19097,0.16273,0.1345,0.12576,0.11702,0.10506,0.093108,0.083929,0.074751,0.067042,0.059333,0.05267,0.046008,0.040284,0.03456,0.033145,0.03173,0.031598,0.031467
0.03099,0.036114,0.041238,0.04173,0.042222,0.047023,0.051824,0.057871,0.063918,0.07175,0.079583,0.089753,0.099924,0.11311,0.1263,0.14458,0.16286,0.18839,0.21391,0.25023,0.28654,0.339,0.39145,0.46469,0.53794,0.63903,0.74012,0.8546,0.96908,1.0669,1.1648,1.2436,1.3224,1.3798,1.4372,1.4719,1.5067,1.5286,1.5504,1.5686,1.5867,1.5963,1.6058,1.595,1.5843,1.5375,1.4907,1.4053,1.3199,1.2173,1.1146,1.0092,0.90384,0.80644,0.70904,0.62472,0.5404,0.46869,0.39699,0.34315,0.28931,0.25195,0.21459,0.17555,0.13652,0.13225,0.12799,0.11443,0.10088,0.0906,0.080321,0.072427,0.064534,0.056625,0.048716,0.042469,0.036221,0.034667,0.033113,0.033375,0.033636
0.032359,0.03786,0.043361,0.043915,0.044469,0.049662,0.054855,0.061464,0.068073,0.07679,0.085507,0.096893,0.10828,0.12379,0.1393,0.16106,0.18282,0.21447,0.24613,0.29372,0.3413,0.41138,0.48146,0.57756,0.67365,0.79629,0.91892,1.0432,1.1674,1.2667,1.3659,1.4454,1.5249,1.597,1.6692,1.7349,1.8006,1.8522,1.9039,1.9235,1.9431,1.9265,1.9099,1.8772,1.8446,1.7905,1.7364,1.6459,1.5553,1.4423,1.3293,1.2152,1.1011,0.98724,0.87338,0.7719,0.67042,0.58002,0.48962,0.41731,0.345,0.29599,0.24698,0.20887,0.17077,0.14913,0.1275,0.11864,0.10979,0.098124,0.086461,0.077682,0.068904,0.060249,0.051593,0.0448,0.038006,0.036352,0.034698,0.034629,0.03456
0.033729,0.039607,0.045485,0.0461,0.046715,0.052301,0.057887,0.065057,0.072227,0.081829,0.091431,0.10403,0.11663,0.13447,0.1523,0.17754,0.20277,0.24056,0.27835,0.33721,0.39607,0.48377,0.57148,0.69042,0.80937,0.95354,1.0977,1.2317,1.3658,1.4664,1.567,1.6472,1.7274,1.8143,1.9012,1.9979,2.0945,2.1759,2.2573,2.2784,2.2995,2.2567,2.2139,2.1594,2.105,2.0436,1.9822,1.8865,1.7908,1.6674,1.5439,1.4212,1.2984,1.168,1.0377,0.91908,0.80044,0.69135,0.58225,0.49147,0.40068,0.34003,0.27937,0.24219,0.20502,0.16601,0.12701,0.12285,0.1187,0.10565,0.0926,0.082937,0.073274,0.063872,0.054471,0.047131,0.039791,0.038037,0.036283,0.035883,0.035483
0.037006,0.040214,0.043423,0.046215,0.049008,0.055025,0.061041,0.068881,0.07672,0.08713,0.097539,0.11195,0.12636,0.14689,0.16743,0.19754,0.22765,0.27528,0.3229,0.39918,0.47546,0.58656,0.69765,0.84029,0.98293,1.1326,1.2822,1.4087,1.5352,1.6315,1.7278,1.823,1.9182,2.0362,2.1542,2.2893,2.4244,2.5377,2.6511,2.6913,2.7315,2.6831,2.6346,2.5579,2.4812,2.4073,2.3335,2.2191,2.1048,1.9622,1.8195,1.68,1.5406,1.3935,1.2465,1.1056,0.96478,0.83229,0.69981,0.58833,0.47685,0.39921,0.32156,0.27542,0.22928,0.19254,0.1558,0.14214,0.12848,0.11382,0.099155,0.088469,0.077782,0.068742,0.059702,0.050624,0.041545,0.03966,0.037776,0.037275,0.036775
0.040284,0.040822,0.041361,0.046331,0.051301,0.057748,0.064195,0.072704,0.081214,0.092431,0.10365,0.11987,0.13608,0.15932,0.18255,0.21754,0.25253,0.30999,0.36745,0.46115,0.55486,0.68935,0.82383,0.99017,1.1565,1.3116,1.4667,1.5856,1.7046,1.7966,1.8886,1.9988,2.109,2.2581,2.4072,2.5807,2.7543,2.8996,3.0448,3.1042,3.1636,3.1094,3.0553,2.9563,2.8574,2.7711,2.6848,2.5518,2.4189,2.257,2.0951,1.9389,1.7828,1.619,1.4553,1.2922,1.1291,0.97324,0.81737,0.68519,0.55302,0.45838,0.36375,0.30865,0.25355,0.21907,0.18458,0.16143,0.13827,0.12199,0.10571,0.094,0.082291,0.073612,0.064934,0.054117,0.0433,0.041284,0.039268,0.038668,0.038068
0.041869,0.042453,0.043038,0.048277,0.053517,0.060433,0.06735,0.076536,0.085722,0.098132,0.11054,0.12852,0.1465,0.17301,0.19951,0.24136,0.28322,0.3548,0.42638,0.54071,0.65503,0.81129,0.96755,1.1493,1.3311,1.4918,1.6524,1.7808,1.9092,2.0258,2.1424,2.2824,2.4224,2.6016,2.7808,2.9968,3.2128,3.3993,3.5858,3.6802,3.7745,3.7343,3.6942,3.5762,3.4583,3.3336,3.2088,3.0339,2.8589,2.6603,2.4616,2.278,2.0943,1.9055,1.7166,1.5273,1.3379,1.1529,0.96785,0.80675,0.64565,0.53047,0.4153,0.3482,0.28111,0.24111,0.20111,0.16717,0.13324,0.1229,0.11256,0.099694,0.08683,0.077498,0.068165,0.05871,0.049254,0.045161,0.041068,0.039937,0.038806
0.054468,0.055354,0.05624,0.062147,0.068054,0.076511,0.084968,0.095778,0.10659,0.12118,0.13577,0.15603,0.17629,0.20783,0.23937,0.28872,0.33807,0.42579,0.51352,0.6492,0.78488,0.96521,1.1455,1.3436,1.5417,1.7102,1.8788,2.0174,2.1561,2.2994,2.4428,2.6141,2.7853,2.9958,3.2063,3.4655,3.7247,3.9529,4.1812,4.3106,4.44,4.4137,4.3874,4.25,4.1127,3.9488,3.785,3.5673,3.3495,3.1129,2.8762,2.6638,2.4513,2.2371,2.0229,1.805,1.5871,1.3722,1.1572,0.9647,0.77222,0.63574,0.49925,0.41785,0.33644,0.29022,0.24399,0.19724,0.15049,0.14546,0.14044,0.12472,0.109,0.098506,0.088012,0.078538,0.069064,0.06249,0.055917,0.052504,0.049091
0.053024,0.055776,0.058528,0.064782,0.071036,0.080216,0.089396,0.10014,0.11089,0.12748,0.14406,0.16636,0.18865,0.22408,0.2595,0.31743,0.37536,0.47997,0.58458,0.73843,0.89228,1.0928,1.2932,1.5185,1.7437,1.9416,2.1395,2.3049,2.4704,2.649,2.8276,3.0471,3.2666,3.5317,3.7968,4.1085,4.4201,4.703,4.9858,5.1491,5.3124,5.2837,5.2551,5.0838,4.9126,4.681,4.4495,4.1692,3.8889,3.5944,3.2999,3.0408,2.7817,2.5445,2.3073,2.0709,1.8346,1.5891,1.3436,1.1141,0.88458,0.72119,0.5578,0.46375,0.3697,0.31613,0.26257,0.22087,0.17917,0.16357,0.14798,0.13173,0.11548,0.1036,0.091725,0.082199,0.072674,0.065223,0.057773,0.054834,0.051895
0.051581,0.056199,0.060816,0.067417,0.074019,0.083922,0.093825,0.10451,0.1152,0.13378,0.15235,0.17668,0.20101,0.24032,0.27963,0.34614,0.41265,0.53415,0.65565,0.82766,0.99967,1.2203,1.4409,1.6933,1.9458,2.173,2.4002,2.5924,2.7847,2.9986,3.2124,3.4801,3.7479,4.0676,4.3874,4.7514,5.1155,5.453,5.7904,5.9876,6.1847,6.1538,6.1228,5.9177,5.7125,5.4132,5.1139,4.7712,4.4284,4.076,3.7236,3.4179,3.1121,2.8519,2.5916,2.3368,2.082,1.8061,1.5301,1.2635,0.99694,0.80664,0.61635,0.50965,0.40296,0.34205,0.28114,0.24449,0.20784,0.18168,0.15552,0.13873,0.12195,0.1087,0.095437,0.08586,0.076284,0.067956,0.059628,0.057163,0.054698
0.052384,0.057459,0.062534,0.069933,0.077333,0.087165,0.096996,0.10945,0.1219,0.14074,0.15958,0.18688,0.21418,0.25664,0.2991,0.37458,0.45007,0.58597,0.72187,0.91622,1.1106,1.3573,1.604,1.8902,2.1764,2.4368,2.6971,2.9284,3.1596,3.4261,3.6927,4.0199,4.3471,4.7325,5.1178,5.5451,5.9723,6.3492,6.726,6.944,7.162,7.1364,7.1109,6.8687,6.6265,6.2301,5.8338,5.4008,4.9679,4.5553,4.1427,3.7902,3.4377,3.1506,2.8636,2.6025,2.3414,2.0361,1.7309,1.4267,1.1225,0.90077,0.67907,0.5565,0.43393,0.36741,0.30089,0.25998,0.21906,0.1917,0.16433,0.14553,0.12673,0.11341,0.10008,0.089768,0.079456,0.070685,0.061913,0.059041,0.056169
0.053187,0.058719,0.064251,0.072449,0.080647,0.090407,0.10017,0.11439,0.12861,0.1477,0.1668,0.19707,0.22735,0.27295,0.31856,0.40303,0.4875,0.6378,0.7881,1.0048,1.2215,1.4943,1.7671,2.0871,2.4071,2.7006,2.9941,3.2643,3.5344,3.8537,4.173,4.5597,4.9464,5.3973,5.8483,6.3387,6.8291,7.2453,7.6616,7.9004,8.1392,8.119,8.0989,7.8197,7.5405,7.0471,6.5536,6.0305,5.5074,5.0346,4.5617,4.1625,3.7633,3.4494,3.1355,2.8681,2.6007,2.2662,1.9317,1.5898,1.248,0.9949,0.74179,0.60335,0.46491,0.39277,0.32064,0.27546,0.23028,0.20172,0.17315,0.15233,0.13152,0.11812,0.10472,0.093676,0.082629,0.073414,0.064198,0.060919,0.05764
0.054488,0.060573,0.066659,0.074637,0.082615,0.093467,0.10432,0.1186,0.13289,0.15396,0.17503,0.20623,0.23744,0.28755,0.33766,0.42778,0.5179,0.68467,0.85143,1.0975,1.3436,1.6467,1.9498,2.2931,2.6364,2.9723,3.3083,3.6266,3.9449,4.3153,4.6858,5.1251,5.5644,6.0734,6.5823,7.1122,7.6421,8.0623,8.4825,8.7106,8.9387,8.9262,8.9137,8.6136,8.3136,7.75,7.1864,6.5807,5.9751,5.4473,4.9195,4.4853,4.0511,3.7141,3.377,3.097,2.817,2.4699,2.1228,1.747,1.3712,1.086,0.80076,0.6476,0.49444,0.41625,0.33807,0.28964,0.24121,0.20323,0.16525,0.15108,0.13691,0.12278,0.10866,0.097055,0.085453,0.075885,0.066317,0.06272,0.059122
0.055788,0.062427,0.069067,0.076825,0.084583,0.096527,0.10847,0.12282,0.13717,0.16021,0.18326,0.21539,0.24753,0.30215,0.35677,0.45254,0.54831,0.73154,0.91477,1.1902,1.4657,1.7991,2.1326,2.4991,2.8656,3.2441,3.6225,3.9889,4.3553,4.7769,5.1985,5.6905,6.1825,6.7494,7.3163,7.8857,8.4551,8.8793,9.3035,9.5208,9.7381,9.7333,9.7285,9.4076,9.0866,8.4529,7.8191,7.1309,6.4427,5.86,5.2772,4.8081,4.3389,3.9787,3.6185,3.3259,3.0332,2.6736,2.314,1.9042,1.4945,1.1771,0.85974,0.69185,0.52396,0.43973,0.35551,0.30382,0.25213,0.20474,0.15735,0.14983,0.1423,0.12745,0.11259,0.10044,0.088276,0.078356,0.068436,0.06452,0.060604
0.057273,0.064127,0.070981,0.078948,0.086915,0.099297,0.11168,0.12654,0.14139,0.16547,0.18955,0.22312,0.2567,0.31437,0.37205,0.47383,0.5756,0.77428,0.97296,1.2726,1.5722,1.9353,2.2985,2.6995,3.1005,3.5265,3.9525,4.3749,4.7972,5.257,5.7168,6.247,6.7771,7.3606,7.944,8.5261,9.1082,9.5387,9.9692,10.164,10.358,10.324,10.29,9.9325,9.5753,8.9151,8.255,7.5334,6.8117,6.1993,5.587,5.1011,4.6153,4.2268,3.8384,3.5159,3.1935,2.8187,2.4439,2.0182,1.5926,1.2536,0.91463,0.73195,0.54926,0.45864,0.36802,0.31571,0.26341,0.2126,0.1618,0.15494,0.14809,0.13171,0.11532,0.10358,0.091841,0.080796,0.06975,0.066189,0.062627
0.058757,0.065826,0.072895,0.08107,0.089246,0.10207,0.11489,0.13025,0.14562,0.17073,0.19585,0.23085,0.26586,0.32659,0.38733,0.49511,0.6029,0.81703,1.0312,1.355,1.6788,2.0716,2.4643,2.8999,3.3354,3.809,4.2825,4.7608,5.2391,5.7371,6.2351,6.8034,7.3717,7.9717,8.5718,9.1665,9.7612,10.198,10.635,10.806,10.978,10.914,10.851,10.457,10.064,9.3774,8.6909,7.9358,7.1808,6.5387,5.8967,5.3942,4.8917,4.4749,4.0582,3.706,3.3537,2.9637,2.5737,2.1322,1.6907,1.3301,0.96952,0.77204,0.57456,0.47754,0.38053,0.32761,0.27469,0.22047,0.16624,0.16006,0.15387,0.13596,0.11805,0.10673,0.095407,0.083235,0.071064,0.067857,0.064651
0.059858,0.067147,0.074435,0.082818,0.091201,0.1045,0.1178,0.13346,0.14912,0.17504,0.20096,0.237,0.27305,0.33521,0.39737,0.50982,0.62226,0.84112,1.06,1.3982,1.7365,2.1573,2.5782,3.0539,3.5297,4.0609,4.5921,5.1303,5.6686,6.1874,6.7061,7.2759,7.8456,8.4346,9.0236,9.6188,10.214,10.667,11.121,11.285,11.45,11.317,11.185,10.734,10.284,9.6067,8.9298,8.1896,7.4494,6.8035,6.1577,5.6475,5.1373,4.696,4.2546,3.857,3.4594,3.0475,2.6355,2.1879,1.7402,1.373,1.0057,0.80052,0.59531,0.49351,0.39171,0.33556,0.2794,0.22613,0.17286,0.16497,0.15707,0.13976,0.12245,0.10972,0.096985,0.085395,0.073805,0.069542,0.065279
0.060958,0.068467,0.075976,0.084566,0.093157,0.10694,0.12072,0.13667,0.15263,0.17935,0.20607,0.24315,0.28023,0.34383,0.40742,0.52452,0.64161,0.86522,1.0888,1.4415,1.7942,2.2431,2.692,3.208,3.7239,4.3128,4.9016,5.4999,6.0982,6.6376,7.1771,7.7483,8.3195,8.8975,9.4754,10.071,10.667,11.136,11.606,11.764,11.922,11.72,11.518,11.011,10.503,9.836,9.1687,8.4433,7.7179,7.0683,6.4187,5.9009,5.383,4.9171,4.4511,4.0081,3.5651,3.1312,2.6974,2.2435,1.7897,1.4158,1.0419,0.829,0.61607,0.50949,0.4029,0.3435,0.28411,0.23179,0.17948,0.16987,0.16027,0.14356,0.12685,0.11271,0.098564,0.087555,0.076545,0.071226,0.065906
0.062286,0.069875,0.077464,0.086155,0.094847,0.10892,0.123,0.13923,0.15545,0.18263,0.20982,0.24705,0.28428,0.34967,0.41505,0.53118,0.64731,0.86758,1.0878,1.4366,1.7854,2.247,2.7086,3.274,3.8394,4.4801,5.1207,5.7623,6.4039,6.9675,7.5312,8.0742,8.6172,9.17,9.7228,10.282,10.842,11.277,11.713,11.867,12.022,11.794,11.566,11.047,10.528,9.8637,9.199,8.5128,7.8266,7.1999,6.5732,6.0343,5.4953,5.0005,4.5057,4.043,3.5803,3.1332,2.686,2.2344,1.7828,1.4171,1.0513,0.83839,0.62546,0.51769,0.40993,0.34958,0.28923,0.23485,0.18048,0.17289,0.1653,0.14682,0.12833,0.11518,0.10203,0.089687,0.077344,0.072602,0.067861
0.063614,0.071283,0.078952,0.087744,0.096536,0.11091,0.12528,0.14178,0.15827,0.18592,0.21357,0.25095,0.28833,0.35551,0.42269,0.53784,0.653,0.86993,1.0869,1.4318,1.7767,2.251,2.7252,3.3401,3.9549,4.6473,5.3398,6.0247,6.7096,7.2975,7.8853,8.4002,8.915,9.4426,9.9702,10.493,11.017,11.418,11.82,11.971,12.121,11.867,11.613,11.083,10.554,9.8915,9.2293,8.5823,7.9353,7.3315,6.7277,6.1677,5.6077,5.084,4.5604,4.0779,3.5954,3.1351,2.6747,2.2253,1.776,1.4183,1.0607,0.84777,0.63484,0.5259,0.41696,0.35566,0.29436,0.23792,0.18148,0.17591,0.17034,0.15007,0.12981,0.11765,0.10549,0.091818,0.078142,0.073978,0.069815
0.064546,0.072345,0.080144,0.089006,0.097867,0.11252,0.12718,0.14359,0.16,0.18787,0.21574,0.25487,0.29399,0.35897,0.42395,0.53527,0.6466,0.85125,1.0559,1.385,1.7141,2.1882,2.6623,3.2874,3.9126,4.6304,5.3482,6.0502,6.7521,7.3539,7.9557,8.4491,8.9425,9.4154,9.8883,10.344,10.799,11.178,11.556,11.689,11.822,11.572,11.321,10.813,10.304,9.6811,9.0581,8.4521,7.8462,7.2616,6.677,6.1129,5.5487,5.0179,4.487,3.999,3.511,3.0489,2.5868,2.1515,1.7162,1.3789,1.0416,0.83786,0.63417,0.5265,0.41882,0.35787,0.29691,0.2406,0.18429,0.1769,0.16951,0.15163,0.13376,0.11987,0.10599,0.093419,0.08085,0.075328,0.069805
0.065479,0.073408,0.081337,0.090267,0.099198,0.11413,0.12907,0.14539,0.16172,0.18982,0.21791,0.25878,0.29965,0.36243,0.42521,0.5327,0.6402,0.83257,1.0249,1.3383,1.6516,2.1255,2.5994,3.2348,3.8702,4.6135,5.3567,6.0757,6.7946,7.4104,8.0261,8.4981,8.97,9.3882,9.8064,10.194,10.581,10.937,11.293,11.408,11.522,11.276,11.03,10.542,10.055,9.4708,8.8868,8.322,7.7571,7.1917,6.6262,6.058,5.4898,4.9517,4.4136,3.9201,3.4267,2.9627,2.4988,2.0776,1.6564,1.3394,1.0224,0.82795,0.63349,0.52709,0.42069,0.36008,0.29947,0.24329,0.18711,0.17789,0.16867,0.15319,0.13772,0.1221,0.10648,0.095019,0.083559,0.076677,0.069796
0.066482,0.074395,0.082308,0.091218,0.10013,0.11518,0.13024,0.14648,0.16272,0.19178,0.22084,0.26038,0.29993,0.36079,0.42165,0.52476,0.62787,0.80744,0.98701,1.2821,1.5771,2.0255,2.4738,3.0815,3.6892,4.4164,5.1436,5.8575,6.5713,7.1843,7.7973,8.2611,8.7249,9.0985,9.4721,9.8124,10.153,10.454,10.755,10.853,10.951,10.734,10.518,10.063,9.6078,9.061,8.5141,7.9785,7.443,6.8985,6.3541,5.8206,5.2871,4.7774,4.2678,3.7743,3.2809,2.8251,2.3693,1.9722,1.5751,1.2818,0.98852,0.80539,0.62226,0.52011,0.41796,0.3587,0.29943,0.24443,0.18943,0.17988,0.17034,0.15324,0.13615,0.12293,0.10971,0.096625,0.08354,0.077615,0.07169
0.067485,0.075382,0.083279,0.092169,0.10106,0.11623,0.13141,0.14756,0.16372,0.19374,0.22376,0.26198,0.3002,0.35915,0.4181,0.51682,0.61555,0.78232,0.94908,1.2259,1.5026,1.9254,2.3482,2.9282,3.5082,4.2193,4.9305,5.6392,6.348,6.9583,7.5685,8.0242,8.4799,8.8089,9.1378,9.431,9.7241,9.9704,10.217,10.298,10.38,10.193,10.006,9.5833,9.1609,8.6511,8.1414,7.6351,7.1289,6.6054,6.0819,5.5831,5.0843,4.6031,4.1219,3.6285,3.1352,2.6875,2.2398,1.8668,1.4938,1.2242,0.95462,0.78282,0.61103,0.51313,0.41524,0.35732,0.2994,0.24558,0.19176,0.18188,0.172,0.15329,0.13458,0.12376,0.11294,0.098232,0.083522,0.078553,0.073585
0.068053,0.076027,0.084,0.092839,0.10168,0.11695,0.13222,0.1497,0.16718,0.19568,0.22418,0.26157,0.29896,0.35568,0.41241,0.50558,0.59875,0.75287,0.907,1.1686,1.4302,1.8186,2.2069,2.7437,3.2805,3.955,4.6294,5.321,6.0126,6.6128,7.213,7.6545,8.096,8.3984,8.7008,8.9564,9.212,9.4174,9.6228,9.6904,9.7579,9.5949,9.4319,9.0563,8.6807,8.1974,7.7142,7.2217,6.7291,6.2321,5.7351,5.2763,4.8175,4.3586,3.8997,3.4314,2.963,2.5325,2.102,1.755,1.4081,1.159,0.90984,0.75175,0.59365,0.50138,0.4091,0.35362,0.29814,0.24574,0.19334,0.18303,0.17272,0.15409,0.13545,0.12386,0.11226,0.099463,0.086661,0.079888,0.073115
0.068621,0.076671,0.084722,0.093508,0.10229,0.11767,0.13304,0.15184,0.17064,0.19762,0.22459,0.26115,0.29771,0.35221,0.40671,0.49433,0.58194,0.72343,0.86491,1.1114,1.3578,1.7117,2.0656,2.5592,3.0528,3.6906,4.3284,5.0028,5.6773,6.2674,6.8575,7.2848,7.7121,7.9879,8.2638,8.4819,8.6999,8.8644,9.0289,9.0824,9.136,8.997,8.8581,8.5293,8.2004,7.7438,7.2871,6.8082,6.3294,5.8588,5.3883,4.9694,4.5506,4.1141,3.6775,3.2342,2.7908,2.3775,1.9641,1.6433,1.3224,1.0938,0.86507,0.72067,0.57628,0.48962,0.40296,0.34992,0.29688,0.2459,0.19492,0.18418,0.17344,0.15489,0.13633,0.12396,0.11159,0.10069,0.0898,0.081223,0.072646
0.069373,0.077417,0.08546,0.094077,0.10269,0.11815,0.13361,0.15295,0.17229,0.19833,0.22436,0.25992,0.29548,0.34811,0.40074,0.47738,0.55402,0.69396,0.83391,1.0568,1.2797,1.6025,1.9253,2.3777,2.8302,3.4186,4.0071,4.6529,5.2987,5.874,6.4492,6.8683,7.2874,7.549,7.8105,7.9926,8.1746,8.3212,8.4679,8.5165,8.5651,8.44,8.3149,8.0348,7.7547,7.3455,6.9364,6.4706,6.0048,5.5525,5.1001,4.6868,4.2735,3.8563,3.439,3.0175,2.5959,2.2151,1.8342,1.539,1.2437,1.0345,0.82535,0.69225,0.55914,0.47813,0.39713,0.34556,0.29399,0.25176,0.20953,0.19175,0.17397,0.15548,0.13699,0.12377,0.11056,0.099186,0.087815,0.080526,0.073237
0.070126,0.078162,0.086199,0.094647,0.10309,0.11864,0.13418,0.15406,0.17394,0.19903,0.22413,0.25869,0.29325,0.34401,0.39477,0.46043,0.52609,0.6645,0.8029,1.0022,1.2015,1.4932,1.7849,2.1962,2.6075,3.1467,3.6858,4.303,4.9202,5.4806,6.041,6.4518,6.8627,7.11,7.3572,7.5033,7.6493,7.7781,7.9069,7.9506,7.9943,7.883,7.7718,7.5403,7.3089,6.9473,6.5857,6.133,5.6803,5.2461,4.8119,4.4041,3.9964,3.5984,3.2005,2.8008,2.401,2.0527,1.7043,1.4347,1.1651,0.97535,0.78564,0.66382,0.542,0.46665,0.3913,0.3412,0.29109,0.25761,0.22413,0.19931,0.17449,0.15607,0.13765,0.12359,0.10953,0.097678,0.08583,0.079829,0.073828
0.0741,0.080219,0.086337,0.094639,0.10294,0.11963,0.13632,0.15498,0.17364,0.19873,0.22382,0.25774,0.29165,0.3404,0.38914,0.45619,0.52324,0.64502,0.7668,0.9495,1.1322,1.3972,1.6621,2.0332,2.4042,2.8954,3.3866,3.9596,4.5326,5.0669,5.6012,6.0148,6.4283,6.6897,6.9512,7.0928,7.2344,7.3359,7.4374,7.4636,7.4899,7.4105,7.3311,7.1444,6.9578,6.634,6.3101,5.8778,5.4454,5.0149,4.5845,4.1792,3.7739,3.3786,2.9834,2.6079,2.2324,1.9125,1.5927,1.3474,1.102,0.92822,0.75443,0.642,0.52957,0.4582,0.38683,0.33867,0.29051,0.25724,0.22396,0.19938,0.1748,0.15641,0.13802,0.12333,0.10863,0.098809,0.088984,0.081444,0.073905
0.078075,0.082275,0.086476,0.094631,0.10279,0.12062,0.13845,0.1559,0.17335,0.19843,0.22351,0.25678,0.29005,0.33678,0.38351,0.45195,0.52039,0.62555,0.73071,0.8968,1.0629,1.3011,1.5393,1.8702,2.201,2.6441,3.0873,3.6161,4.145,4.6532,5.1615,5.5777,5.9939,6.2695,6.5451,6.6823,6.8196,6.8938,6.9679,6.9767,6.9855,6.9379,6.8904,6.7485,6.6066,6.3206,6.0345,5.6225,5.2104,4.7837,4.357,3.9542,3.5514,3.1588,2.7663,2.415,2.0637,1.7724,1.4812,1.2601,1.0389,0.88109,0.72323,0.62018,0.51713,0.44975,0.38237,0.33615,0.28993,0.25686,0.22379,0.19945,0.17511,0.15675,0.13839,0.12307,0.10774,0.09994,0.092138,0.08306,0.073982
0.078736,0.082629,0.086522,0.094523,0.10252,0.12064,0.13875,0.15656,0.17438,0.19879,0.22319,0.25604,0.28888,0.33488,0.38088,0.44693,0.51298,0.61173,0.71049,0.86347,1.0164,1.2392,1.4619,1.7665,2.0711,2.4718,2.8725,3.3566,3.8406,4.3205,4.8003,5.2181,5.6359,5.9335,6.2312,6.3968,6.5623,6.6226,6.683,6.6795,6.676,6.65,6.624,6.5106,6.3972,6.1429,5.8887,5.5025,5.1162,4.6967,4.2772,3.8607,3.4443,3.049,2.6538,2.3135,1.9731,1.6966,1.4201,1.2115,1.0029,0.85461,0.70629,0.60866,0.51102,0.44547,0.37992,0.32769,0.27545,0.24935,0.22325,0.19924,0.17523,0.15698,0.13873,0.12344,0.10814,0.098686,0.08923,0.082691,0.076151
0.079398,0.082983,0.086568,0.094416,0.10226,0.12065,0.13904,0.15723,0.17541,0.19914,0.22287,0.25529,0.28771,0.33298,0.37825,0.4419,0.50556,0.59792,0.69027,0.83014,0.97001,1.1773,1.3845,1.6629,1.9412,2.2995,2.6577,3.097,3.5363,3.9877,4.4392,4.8585,5.2778,5.5975,5.9173,6.1112,6.3051,6.3515,6.398,6.3823,6.3666,6.3621,6.3577,6.2727,6.1878,5.9653,5.7428,5.3824,5.0221,4.6097,4.1973,3.7672,3.3372,2.9393,2.5413,2.2119,1.8825,1.6207,1.359,1.163,0.96693,0.82814,0.68935,0.59713,0.50492,0.4412,0.37748,0.31922,0.26097,0.24184,0.22271,0.19903,0.17535,0.15721,0.13907,0.12381,0.10854,0.097432,0.086322,0.082321,0.078321
0.078859,0.082652,0.086445,0.095924,0.1054,0.12223,0.13905,0.15722,0.17538,0.19909,0.22279,0.24856,0.27434,0.3261,0.37786,0.44155,0.50524,0.59752,0.68981,0.82914,0.96847,1.1701,1.3718,1.6418,1.9119,2.2557,2.5995,3.0181,3.4367,3.8775,4.3183,4.7341,5.1499,5.49,5.83,6.0382,6.2464,6.3121,6.3778,6.3722,6.3666,6.3722,6.3778,6.3121,6.2464,6.0382,5.83,5.49,5.1499,4.7341,4.3183,3.8775,3.4367,3.0181,2.5995,2.2557,1.9119,1.6418,1.3718,1.1701,0.96847,0.82914,0.68981,0.59752,0.50524,0.44155,0.37786,0.3261,0.27434,0.24856,0.22279,0.19909,0.17538,0.15722,0.13905,0.12223,0.1054,0.095924,0.086445,0.082652,0.078859
0.078321,0.082321,0.086322,0.097432,0.10854,0.12381,0.13907,0.15721,0.17535,0.19903,0.22271,0.24184,0.26097,0.31922,0.37748,0.4412,0.50492,0.59713,0.68935,0.82814,0.96693,1.163,1.359,1.6207,1.8825,2.2119,2.5413,2.9393,3.3372,3.7672,4.1973,4.6097,5.0221,5.3824,5.7428,5.9653,6.1878,6.2727,6.3577,6.3621,6.3666,6.3823,6.398,6.3515,6.3051,6.1112,5.9173,5.5975,5.2778,4.8585,4.4392,3.9877,3.5363,3.097,2.6577,2.2995,1.9412,1.6629,1.3845,1.1773,0.97001,0.83014,0.69027,0.59792,0.50556,0.4419,0.37825,0.33298,0.28771,0.25529,0.22287,0.19914,0.17541,0.15723,0.13904,0.12065,0.10226,0.094416,0.086568,0.082983,0.079398
0.076151,0.082691,0.08923,0.098686,0.10814,0.12344,0.13873,0.15698,0.17523,0.19924,0.22325,0.24935,0.27545,0.32769,0.37992,0.44547,0.51102,0.60866,0.70629,0.85461,1.0029,1.2115,1.4201,1.6966,1.9731,2.3135,2.6538,3.049,3.4443,3.8607,4.2772,4.6967,5.1162,5.5025,5.8887,6.1429,6.3972,6.5106,6.624,6.65,6.676,6.6795,6.683,6.6226,6.5623,6.3968,6.2312,5.9335,5.6359,5.2181,4.8003,4.3205,3.8406,3.3566,2.8725,2.4718,2.0711,1.7665,1.4619,1.2392,1.0164,0.86347,0.71049,0.61173,0.51298,0.44693,0.38088,0.33488,0.28888,0.25604,0.22319,0.19879,0.17438,0.15656,0.13875,0.12064,0.10252,0.094523,0.086522,0.082629,0.078736
0.073982,0.08306,0.092138,0.09994,0.10774,0.12307,0.13839,0.15675,0.17511,0.19945,0.22379,0.25686,0.28993,0.33615,0.38237,0.44975,0.51713,0.62018,0.72323,0.88109,1.0389,1.2601,1.4812,1.7724,2.0637,2.415,2.7663,3.1588,3.5514,3.9542,4.357,4.7837,5.2104,5.6225,6.0345,6.3206,6.6066,6.7485,6.8904,6.9379,6.9855,6.9767,6.9679,6.8938,6.8196,6.6823,6.5451,6.2695,5.9939,5.5777,5.1615,4.6532,4.145,3.6161,3.0873,2.6441,2.201,1.8702,1.5393,1.3011,1.0629,0.8968,0.73071,0.62555,0.52039,0.45195,0.38351,0.33678,0.29005,0.25678,0.22351,0.19843,0.17335,0.1559,0.13845,0.12062,0.10279,0.094631,0.086476,0.082275,0.078075
0.073905,0.081444,0.088984,0.098809,0.10863,0.12333,0.13802,0.15641,0.1748,0.19938,0.22396,0.25724,0.29051,0.33867,0.38683,0.4582,0.52957,0.642,0.75443,0.92822,1.102,1.3474,1.5927,1.9125,2.2324,2.6079,2.9834,3.3786,3.7739,4.1792,4.5845,5.0149,5.4454,5.8778,6.3101,6.634,6.9578,7.1444,7.3311,7.4105,7.4899,7.4636,7.4374,7.3359,7.2344,7.0928,6.9512,6.6897,6.4283,6.0148,5.6012,5.0669,4.5326,3.9596,3.3866,2.8954,2.4042,2.0332,1.6621,1.3972,1.1322,0.9495,0.7668,0.64502,0.52324,0.45619,0.38914,0.3404,0.29165,0.25774,0.22382,0.19873,0.17364,0.15498,0.13632,0.11963,0.10294,0.094639,0.086337,0.080219,0.0741
0.073828,0.079829,0.08583,0.097678,0.10953,0.12359,0.13765,0.15607,0.17449,0.19931,0.22413,0.25761,0.29109,0.3412,0.3913,0.46665,0.542,0.66382,0.78564,0.97535,1.1651,1.4347,1.7043,2.0527,2.401,2.8008,3.2005,3.5984,3.9964,4.4041,4.8119,5.2461,5.6803,6.133,6.5857,6.9473,7.3089,7.5403,7.7718,7.883,7.9943,7.9506,7.9069,7.7781,7.6493,7.5033,7.3572,7.11,6.8627,6.4518,6.041,5.4806,4.9202,4.303,3.6858,3.1467,2.6075,2.1962,1.7849,1.4932,1.2015,1.0022,0.8029,0.6645,0.52609,0.46043,0.39477,0.34401,0.29325,0.25869,0.22413,0.19903,0.17394,0.15406,0.13418,0.11864,0.10309,0.094647,0.086199,0.078162,0.070126
0.073237,0.080526,0.087815,0.099186,0.11056,0.12377,0.13699,0.15548,0.17397,0.19175,0.20953,0.25176,0.29399,0.34556,0.39713,0.47813,0.55914,0.69225,0.82535,1.0345,1.2437,1.539,1.8342,2.2151,2.5959,3.0175,3.439,3.8563,4.2735,4.6868,5.1001,5.5525,6.0048,6.4706,6.9364,7.3455,7.7547,8.0348,8.3149,8.44,8.5651,8.5165,8.4679,8.3212,8.1746,7.9926,7.8105,7.549,7.2874,6.8683,6.4492,5.874,5.2987,4.6529,4.0071,3.4186,2.8302,2.3777,1.9253,1.6025,1.2797,1.0568,0.83391,0.69396,0.55402,0.47738,0.40074,0.34811,0.29548,0.25992,0.22436,0.19833,0.17229,0.15295,0.13361,0.11815,0.10269,0.094077,0.08546,0.077417,0.069373
0.072646,0.081223,0.0898,0.10069,0.11159,0.12396,0.13633,0.15489,0.17344,0.18418,0.19492,0.2459,0.29688,0.34992,0.40296,0.48962,0.57628,0.72067,0.86507,1.0938,1.3224,1.6433,1.9641,2.3775,2.7908,3.2342,3.6775,4.1141,4.5506,4.9694,5.3883,5.8588,6.3294,6.8082,7.2871,7.7438,8.2004,8.5293,8.8581,8.997,9.136,9.0824,9.0289,8.8644,8.6999,8.4819,8.2638,7.9879,7.7121,7.2848,6.8575,6.2674,5.6773,5.0028,4.3284,3.6906,3.0528,2.5592,2.0656,1.7117,1.3578,1.1114,0.86491,0.72343,0.58194,0.49433,0.40671,0.35221,0.29771,0.26115,0.22459,0.19762,0.17064,0.15184,0.13304,0.11767,0.10229,0.093508,0.084722,0.076671,0.068621
0.073115,0.079888,0.086661,0.099463,0.11226,0.12386,0.13545,0.15409,0.17272,0.18303,0.19334,0.24574,0.29814,0.35362,0.4091,0.50138,0.59365,0.75175,0.90984,1.159,1.4081,1.755,2.102,2.5325,2.963,3.4314,3.8997,4.3586,4.8175,5.2763,5.7351,6.2321,6.7291,7.2217,7.7142,8.1974,8.6807,9.0563,9.4319,9.5949,9.7579,9.6904,9.6228,9.4174,9.212,8.9564,8.7008,8.3984,8.096,7.6545,7.213,6.6128,6.0126,5.321,4.6294,3.955,3.2805,2.7437,2.2069,1.8186,1.4302,1.1686,0.907,0.75287,0.59875,0.50558,0.41241,0.35568,0.29896,0.26157,0.22418,0.19568,0.16718,0.1497,0.13222,0.11695,0.10168,0.092839,0.084,0.076027,0.068053
0.073585,0.078553,0.083522,0.098232,0.11294,0.12376,0.13458,0.15329,0.172,0.18188,0.19176,0.24558,0.2994,0.35732,0.41524,0.51313,0.61103,0.78282,0.95462,1.2242,1.4938,1.8668,2.2398,2.6875,3.1352,3.6285,4.1219,4.6031,5.0843,5.5831,6.0819,6.6054,7.1289,7.6351,8.1414,8.6511,9.1609,9.5833,10.006,10.193,10.38,10.298,10.217,9.9704,9.7241,9.431,9.1378,8.8089,8.4799,8.0242,7.5685,6.9583,6.348,5.6392,4.9305,4.2193,3.5082,2.9282,2.3482,1.9254,1.5026,1.2259,0.94908,0.78232,0.61555,0.51682,0.4181,0.35915,0.3002,0.26198,0.22376,0.19374,0.16372,0.14756,0.13141,0.11623,0.10106,0.092169,0.083279,0.075382,0.067485
0.07169,0.077615,0.08354,0.096625,0.10971,0.12293,0.13615,0.15324,0.17034,0.17988,0.18943,0.24443,0.29943,0.3587,0.41796,0.52011,0.62226,0.80539,0.98852,1.2818,1.5751,1.9722,2.3693,2.8251,3.2809,3.7743,4.2678,4.7774,5.2871,5.8206,6.3541,6.8985,7.443,7.9785,8.5141,9.061,9.6078,10.063,10.518,10.734,10.951,10.853,10.755,10.454,10.153,9.8124,9.4721,9.0985,8.7249,8.2611,7.7973,7.1843,6.5713,5.8575,5.1436,4.4164,3.6892,3.0815,2.4738,2.0255,1.5771,1.2821,0.98701,0.80744,0.62787,0.52476,0.42165,0.36079,0.29993,0.26038,0.22084,0.19178,0.16272,0.14648,0.13024,0.11518,0.10013,0.091218,0.082308,0.074395,0.066482
0.069796,0.076677,0.083559,0.095019,0.10648,0.1221,0.13772,0.15319,0.16867,0.17789,0.18711,0.24329,0.29947,0.36008,0.42069,0.52709,0.63349,0.82795,1.0224,1.3394,1.6564,2.0776,2.4988,2.9627,3.4267,3.9201,4.4136,4.9517,5.4898,6.058,6.6262,7.1917,7.7571,8.322,8.8868,9.4708,10.055,10.542,11.03,11.276,11.522,11.408,11.293,10.937,10.581,10.194,9.8064,9.3882,8.97,8.4981,8.0261,7.4104,6.7946,6.0757,5.3567,4.6135,3.8702,3.2348,2.5994,2.1255,1.6516,1.3383,1.0249,0.83257,0.6402,0.5327,0.42521,0.36243,0.29965,0.25878,0.21791,0.18982,0.16172,0.14539,0.12907,0.11413,0.099198,0.090267,0.081337,0.073408,0.065479
0.069805,0.075328,0.08085,0.093419,0.10599,0.11987,0.13376,0.15163,0.16951,0.1769,0.18429,0.2406,0.29691,0.35787,0.41882,0.5265,0.63417,0.83786,1.0416,1.3789,1.7162,2.1515,2.5868,3.0489,3.511,3.999,4.487,5.0179,5.5487,6.1129,6.677,7.2616,7.8462,8.4521,9.0581,9.6811,10.304,10.813,11.321,11.572,11.822,11.689,11.556,11.178,10.799,10.344,9.8883,9.4154,8.9425,8.4491,7.9557,7.3539,6.7521,6.0502,5.3482,4.6304,3.9126,3.2874,2.6623,2.1882,1.7141,1.385,1.0559,0.85125,0.6466,0.53527,0.42395,0.35897,0.29399,0.25487,0.21574,0.18787,0.16,0.14359,0.12718,0.11252,0.097867,0.089006,0.080144,0.072345,0.064546
0.069815,0.073978,0.078142,0.091818,0.10549,0.11765,0.12981,0.15007,0.17034,0.17591,0.18148,0.23792,0.29436,0.35566,0.41696,0.5259,0.63484,0.84777,1.0607,1.4183,1.776,2.2253,2.6747,3.1351,3.5954,4.0779,4.5604,5.084,5.6077,6.1677,6.7277,7.3315,7.9353,8.5823,9.2293,9.8915,10.554,11.083,11.613,11.867,12.121,11.971,11.82,11.418,11.017,10.493,9.9702,9.4426,8.915,8.4002,7.8853,7.2975,6.7096,6.0247,5.3398,4.6473,3.9549,3.3401,2.7252,2.251,1.7767,1.4318,1.0869,0.86993,0.653,0.53784,0.42269,0.35551,0.28833,0.25095,0.21357,0.18592,0.15827,0.14178,0.12528,0.11091,0.096536,0.087744,0.078952,0.071283,0.063614
0.067861,0.072602,0.077344,0.089687,0.10203,0.11518,0.12833,0.14682,0.1653,0.17289,0.18048,0.23485,0.28923,0.34958,0.40993,0.51769,0.62546,0.83839,1.0513,1.4171,1.7828,2.2344,2.686,3.1332,3.5803,4.043,4.5057,5.0005,5.4953,6.0343,6.5732,7.1999,7.8266,8.5128,9.199,9.8637,10.528,11.047,11.566,11.794,12.022,11.867,11.713,11.277,10.842,10.282,9.7228,9.17,8.6172,8.0742,7.5312,6.9675,6.4039,5.7623,5.1207,4.4801,3.8394,3.274,2.7086,2.247,1.7854,1.4366,1.0878,0.86758,0.64731,0.53118,0.41505,0.34967,0.28428,0.24705,0.20982,0.18263,0.15545,0.13923,0.123,0.10892,0.094847,0.086155,0.077464,0.069875,0.062286
0.065906,0.071226,0.076545,0.087555,0.098564,0.11271,0.12685,0.14356,0.16027,0.16987,0.17948,0.23179,0.28411,0.3435,0.4029,0.50949,0.61607,0.829,1.0419,1.4158,1.7897,2.2435,2.6974,3.1312,3.5651,4.0081,4.4511,4.9171,5.383,5.9009,6.4187,7.0683,7.7179,8.4433,9.1687,9.836,10.503,11.011,11.518,11.72,11.922,11.764,11.606,11.136,10.667,10.071,9.4754,8.8975,8.3195,7.7483,7.1771,6.6376,6.0982,5.4999,4.9016,4.3128,3.7239,3.208,2.692,2.2431,1.7942,1.4415,1.0888,0.86522,0.64161,0.52452,0.40742,0.34383,0.28023,0.24315,0.20607,0.17935,0.15263,0.13667,0.12072,0.10694,0.093157,0.084566,0.075976,0.068467,0.060958
0.065279,0.069542,0.073805,0.085395,0.096985,0.10972,0.12245,0.13976,0.15707,0.16497,0.17286,0.22613,0.2794,0.33556,0.39171,0.49351,0.59531,0.80052,1.0057,1.373,1.7402,2.1879,2.6355,3.0475,3.4594,3.857,4.2546,4.696,5.1373,5.6475,6.1577,6.8035,7.4494,8.1896,8.9298,9.6067,10.284,10.734,11.185,11.317,11.45,11.285,11.121,10.667,10.214,9.6188,9.0236,8.4346,7.8456,7.2759,6.7061,6.1874,5.6686,5.1303,4.5921,4.0609,3.5297,3.0539,2.5782,2.1573,1.7365,1.3982,1.06,0.84112,0.62226,0.50982,0.39737,0.33521,0.27305,0.237,0.20096,0.17504,0.14912,0.13346,0.1178,0.1045,0.091201,0.082818,0.074435,0.067147,0.059858
0.064651,0.067857,0.071064,0.083235,0.095407,0.10673,0.11805,0.13596,0.15387,0.16006,0.16624,0.22047,0.27469,0.32761,0.38053,0.47754,0.57456,0.77204,0.96952,1.3301,1.6907,2.1322,2.5737,2.9637,3.3537,3.706,4.0582,4.4749,4.8917,5.3942,5.8967,6.5387,7.1808,7.9358,8.6909,9.3774,10.064,10.457,10.851,10.914,10.978,10.806,10.635,10.198,9.7612,9.1665,8.5718,7.9717,7.3717,6.8034,6.2351,5.7371,5.2391,4.7608,4.2825,3.809,3.3354,2.8999,2.4643,2.0716,1.6788,1.355,1.0312,0.81703,0.6029,0.49511,0.38733,0.32659,0.26586,0.23085,0.19585,0.17073,0.14562,0.13025,0.11489,0.10207,0.089246,0.08107,0.072895,0.065826,0.058757
0.062627,0.066189,0.06975,0.080796,0.091841,0.10358,0.11532,0.13171,0.14809,0.15494,0.1618,0.2126,0.26341,0.31571,0.36802,0.45864,0.54926,0.73195,0.91463,1.2536,1.5926,2.0182,2.4439,2.8187,3.1935,3.5159,3.8384,4.2268,4.6153,5.1011,5.587,6.1993,6.8117,7.5334,8.255,8.9151,9.5753,9.9325,10.29,10.324,10.358,10.164,9.9692,9.5387,9.1082,8.5261,7.944,7.3606,6.7771,6.247,5.7168,5.257,4.7972,4.3749,3.9525,3.5265,3.1005,2.6995,2.2985,1.9353,1.5722,1.2726,0.97296,0.77428,0.5756,0.47383,0.37205,0.31437,0.2567,0.22312,0.18955,0.16547,0.14139,0.12654,0.11168,0.099297,0.086915,0.078948,0.070981,0.064127,0.057273
0.060604,0.06452,0.068436,0.078356,0.088276,0.10044,0.11259,0.12745,0.1423,0.14983,0.15735,0.20474,0.25213,0.30382,0.35551,0.43973,0.52396,0.69185,0.85974,1.1771,1.4945,1.9042,2.314,2.6736,3.0332,3.3259,3.6185,3.9787,4.3389,4.8081,5.2772,5.86,6.4427,7.1309,7.8191,8.4529,9.0866,9.4076,9.7285,9.7333,9.7381,9.5208,9.3035,8.8793,8.4551,7.8857,7.3163,6.7494,6.1825,5.6905,5.1985,4.7769,4.3553,3.9889,3.6225,3.2441,2.8656,2.4991,2.1326,1.7991,1.4657,1.1902,0.91477,0.73154,0.54831,0.45254,0.35677,0.30215,0.24753,0.21539,0.18326,0.16021,0.13717,0.12282,0.10847,0.096527,0.084583,0.076825,0.069067,0.062427,0.055788
0.059122,0.06272,0.066317,0.075885,0.085453,0.097055,0.10866,0.12278,0.13691,0.15108,0.16525,0.20323,0.24121,0.28964,0.33807,0.41625,0.49444,0.6476,0.80076,1.086,1.3712,1.747,2.1228,2.4699,2.817,3.097,3.377,3.7141,4.0511,4.4853,4.9195,5.4473,5.9751,6.5807,7.1864,7.75,8.3136,8.6136,8.9137,8.9262,8.9387,8.7106,8.4825,8.0623,7.6421,7.1122,6.5823,6.0734,5.5644,5.1251,4.6858,4.3153,3.9449,3.6266,3.3083,2.9723,2.6364,2.2931,1.9498,1.6467,1.3436,1.0975,0.85143,0.68467,0.5179,0.42778,0.33766,0.28755,0.23744,0.20623,0.17503,0.15396,0.13289,0.1186,0.10432,0.093467,0.082615,0.074637,0.066659,0.060573,0.054488
0.05764,0.060919,0.064198,0.073414,0.082629,0.093676,0.10472,0.11812,0.13152,0.15233,0.17315,0.20172,0.23028,0.27546,0.32064,0.39277,0.46491,0.60335,0.74179,0.9949,1.248,1.5898,1.9317,2.2662,2.6007,2.8681,3.1355,3.4494,3.7633,4.1625,4.5617,5.0346,5.5074,6.0305,6.5536,7.0471,7.5405,7.8197,8.0989,8.119,8.1392,7.9004,7.6616,7.2453,6.8291,6.3387,5.8483,5.3973,4.9464,4.5597,4.173,3.8537,3.5344,3.2643,2.9941,2.7006,2.4071,2.0871,1.7671,1.4943,1.2215,1.0048,0.7881,0.6378,0.4875,0.40303,0.31856,0.27295,0.22735,0.19707,0.1668,0.1477,0.12861,0.11439,0.10017,0.090407,0.080647,0.072449,0.064251,0.058719,0.053187
0.056169,0.059041,0.061913,0.070685,0.079456,0.089768,0.10008,0.11341,0.12673,0.14553,0.16433,0.1917,0.21906,0.25998,0.30089,0.36741,0.43393,0.5565,0.67907,0.90077,1.1225,1.4267,1.7309,2.0361,2.3414,2.6025,2.8636,3.1506,3.4377,3.7902,4.1427,4.5553,4.9679,5.4008,5.8338,6.2301,6.6265,6.8687,7.1109,7.1364,7.162,6.944,6.726,6.3492,5.9723,5.5451,5.1178,4.7325,4.3471,4.0199,3.6927,3.4261,3.1596,2.9284,2.6971,2.4368,2.1764,1.8902,1.604,1.3573,1.1106,0.91622,0.72187,0.58597,0.45007,0.37458,0.2991,0.25664,0.21418,0.18688,0.15958,0.14074,0.1219,0.10945,0.096996,0.087165,0.077333,0.069933,0.062534,0.057459,0.052384
0.054698,0.057163,0.059628,0.067956,0.076284,0.08586,0.095437,0.1087,0.12195,0.13873,0.15552,0.18168,0.20784,0.24449,0.28114,0.34205,0.40296,0.50965,0.61635,0.80664,0.99694,1.2635,1.5301,1.8061,2.082,2.3368,2.5916,2.8519,3.1121,3.4179,3.7236,4.076,4.4284,4.7712,5.1139,5.4132,5.7125,5.9177,6.1228,6.1538,6.1847,5.9876,5.7904,5.453,5.1155,4.7514,4.3874,4.0676,3.7479,3.4801,3.2124,2.9986,2.7847,2.5924,2.4002,2.173,1.9458,1.6933,1.4409,1.2203,0.99967,0.82766,0.65565,0.53415,0.41265,0.34614,0.27963,0.24032,0.20101,0.17668,0.15235,0.13378,0.1152,0.10451,0.093825,0.083922,0.074019,0.067417,0.060816,0.056199,0.051581
0.051895,0.054834,0.057773,0.065223,0.072674,0.082199,0.091725,0.1036,0.11548,0.13173,0.14798,0.16357,0.17917,0.22087,0.26257,0.31613,0.3697,0.46375,0.5578,0.72119,0.88458,1.1141,1.3436,1.5891,1.8346,2.0709,2.3073,2.5445,2.7817,3.0408,3.2999,3.5944,3.8889,4.1692,4.4495,4.681,4.9126,5.0838,5.2551,5.2837,5.3124,5.1491,4.9858,4.703,4.4201,4.1085,3.7968,3.5317,3.2666,3.0471,2.8276,2.649,2.4704,2.3049,2.1395,1.9416,1.7437,1.5185,1.2932,1.0928,0.89228,0.73843,0.58458,0.47997,0.37536,0.31743,0.2595,0.22408,0.18865,0.16636,0.14406,0.12748,0.11089,0.10014,0.089396,0.080216,0.071036,0.064782,0.058528,0.055776,0.053024
0.049091,0.052504,0.055917,0.06249,0.069064,0.078538,0.088012,0.098506,0.109,0.12472,0.14044,0.14546,0.15049,0.19724,0.24399,0.29022,0.33644,0.41785,0.49925,0.63574,0.77222,0.9647,1.1572,1.3722,1.5871,1.805,2.0229,2.2371,2.4513,2.6638,2.8762,3.1129,3.3495,3.5673,3.785,3.9488,4.1127,4.25,4.3874,4.4137,4.44,4.3106,4.1812,3.9529,3.7247,3.4655,3.2063,2.9958,2.7853,2.6141,2.4428,2.2994,2.1561,2.0174,1.8788,1.7102,1.5417,1.3436,1.1455,0.96521,0.78488,0.6492,0.51352,0.42579,0.33807,0.28872,0.23937,0.20783,0.17629,0.15603,0.13577,0.12118,0.10659,0.095778,0.084968,0.076511,0.068054,0.062147,0.05624,0.055354,0.054468
0.038806,0.039937,0.041068,0.045161,0.049254,0.05871,0.068165,0.077498,0.08683,0.099694,0.11256,0.1229,0.13324,0.16717,0.20111,0.24111,0.28111,0.3482,0.4153,0.53047,0.64565,0.80675,0.96785,1.1529,1.3379,1.5273,1.7166,1.9055,2.0943,2.278,2.4616,2.6603,2.8589,3.0339,3.2088,3.3336,3.4583,3.5762,3.6942,3.7343,3.7745,3.6802,3.5858,3.3993,3.2128,2.9968,2.7808,2.6016,2.4224,2.2824,2.1424,2.0258,1.9092,1.7808,1.6524,1.4918,1.3311,1.1493,0.96755,0.81129,0.65503,0.54071,0.42638,0.3548,0.28322,0.24136,0.19951,0.17301,0.1465,0.12852,0.11054,0.098132,0.085722,0.076536,0.06735,0.060433,0.053517,0.048277,0.043038,0.042453,0.041869
0.038068,0.038668,0.039268,0.041284,0.0433,0.054117,0.064934,0.073612,0.082291,0.094,0.10571,0.12199,0.13827,0.16143,0.18458,0.21907,0.25355,0.30865,0.36375,0.45838,0.55302,0.68519,0.81737,0.97324,1.1291,1.2922,1.4553,1.619,1.7828,1.9389,2.0951,2.257,2.4189,2.5518,2.6848,2.7711,2.8574,2.9563,3.0553,3.1094,3.1636,3.1042,3.0448,2.8996,2.7543,2.5807,2.4072,2.2581,2.109,1.9988,1.8886,1.7966,1.7046,1.5856,1.4667,1.3116,1.1565,0.99017,0.82383,0.68935,0.55486,0.46115,0.36745,0.30999,0.25253,0.21754,0.18255,0.15932,0.13608,0.11987,0.10365,0.092431,0.081214,0.072704,0.064195,0.057748,0.051301,0.046331,0.041361,0.040822,0.040284
0.036775,0.037275,0.037776,0.03966,0.041545,0.050624,0.059702,0.068742,0.077782,0.088469,0.099155,0.11382,0.12848,0.14214,0.1558,0.19254,0.22928,0.27542,0.32156,0.39921,0.47685,0.58833,0.69981,0.83229,0.96478,1.1056,1.2465,1.3935,1.5406,1.68,1.8195,1.9622,2.1048,2.2191,2.3335,2.4073,2.4812,2.5579,2.6346,2.6831,2.7315,2.6913,2.6511,2.5377,2.4244,2.2893,2.1542,2.0362,1.9182,1.823,1.7278,1.6315,1.5352,1.4087,1.2822,1.1326,0.98293,0.84029,0.69765,0.58656,0.47546,0.39918,0.3229,0.27528,0.22765,0.19754,0.16743,0.14689,0.12636,0.11195,0.097539,0.08713,0.07672,0.068881,0.061041,0.055025,0.049008,0.046215,0.043423,0.040214,0.037006
0.035483,0.035883,0.036283,0.038037,0.039791,0.047131,0.054471,0.063872,0.073274,0.082937,0.0926,0.10565,0.1187,0.12285,0.12701,0.16601,0.20502,0.24219,0.27937,0.34003,0.40068,0.49147,0.58225,0.69135,0.80044,0.91908,1.0377,1.168,1.2984,1.4212,1.5439,1.6674,1.7908,1.8865,1.9822,2.0436,2.105,2.1594,2.2139,2.2567,2.2995,2.2784,2.2573,2.1759,2.0945,1.9979,1.9012,1.8143,1.7274,1.6472,1.567,1.4664,1.3658,1.2317,1.0977,0.95354,0.80937,0.69042,0.57148,0.48377,0.39607,0.33721,0.27835,0.24056,0.20277,0.17754,0.1523,0.13447,0.11663,0.10403,0.091431,0.081829,0.072227,0.065057,0.057887,0.052301,0.046715,0.0461,0.045485,0.039607,0.033729
0.03456,0.034629,0.034698,0.036352,0.038006,0.0448,0.051593,0.060249,0.068904,0.077682,0.086461,0.098124,0.10979,0.11864,0.1275,0.14913,0.17077,0.20887,0.24698,0.29599,0.345,0.41731,0.48962,0.58002,0.67042,0.7719,0.87338,0.98724,1.1011,1.2152,1.3293,1.4423,1.5553,1.6459,1.7364,1.7905,1.8446,1.8772,1.9099,1.9265,1.9431,1.9235,1.9039,1.8522,1.8006,1.7349,1.6692,1.597,1.5249,1.4454,1.3659,1.2667,1.1674,1.0432,0.91892,0.79629,0.67365,0.57756,0.48146,0.41138,0.3413,0.29372,0.24613,0.21447,0.18282,0.16106,0.1393,0.12379,0.10828,0.096893,0.085507,0.07679,0.068073,0.061464,0.054855,0.049662,0.044469,0.043915,0.043361,0.03786,0.032359
0.033636,0.033375,0.033113,0.034667,0.036221,0.042469,0.048716,0.056625,0.064534,0.072427,0.080321,0.0906,0.10088,0.11443,0.12799,0.13225,0.13652,0.17555,0.21459,0.25195,0.28931,0.34315,0.39699,0.46869,0.5404,0.62472,0.70904,0.80644,0.90384,1.0092,1.1146,1.2173,1.3199,1.4053,1.4907,1.5375,1.5843,1.595,1.6058,1.5963,1.5867,1.5686,1.5504,1.5286,1.5067,1.4719,1.4372,1.3798,1.3224,1.2436,1.1648,1.0669,0.96908,0.8546,0.74012,0.63903,0.53794,0.46469,0.39145,0.339,0.28654,0.25023,0.21391,0.18839,0.16286,0.14458,0.1263,0.11311,0.099924,0.089753,0.079583,0.07175,0.063918,0.057871,0.051824,0.047023,0.042222,0.04173,0.041238,0.036114,0.03099
0.031467,0.031598,0.03173,0.033145,0.03456,0.040284,0.046008,0.05267,0.059333,0.067042,0.074751,0.083929,0.093108,0.10506,0.11702,0.12576,0.1345,0.16273,0.19097,0.22138,0.25178,0.29393,0.33607,0.39223,0.44838,0.51586,0.58333,0.66273,0.74212,0.83114,0.92015,1.0092,1.0982,1.1722,1.2462,1.2886,1.331,1.3397,1.3484,1.3356,1.3228,1.3062,1.2896,1.2748,1.2599,1.2327,1.2056,1.153,1.1003,1.0295,0.95862,0.87407,0.78952,0.69796,0.60641,0.5274,0.44838,0.39064,0.3329,0.29126,0.24963,0.21994,0.19026,0.16866,0.14706,0.13126,0.11547,0.1039,0.092338,0.083268,0.074197,0.067065,0.059933,0.05444,0.048947,0.046262,0.043577,0.040568,0.03756,0.034244,0.030928
0.029297,0.029822,0.030347,0.031622,0.032898,0.038099,0.0433,0.048716,0.054132,0.061656,0.069181,0.077259,0.085337,0.095693,0.10605,0.11927,0.13248,0.14992,0.16735,0.1908,0.21425,0.2447,0.27515,0.31576,0.35637,0.40699,0.45761,0.51901,0.5804,0.65303,0.72566,0.80106,0.87645,0.93908,1.0017,1.0397,1.0777,1.0843,1.091,1.0749,1.0589,1.0439,1.0288,1.0209,1.0131,0.99355,0.97401,0.92615,0.8783,0.81537,0.75243,0.68119,0.60995,0.54132,0.47269,0.41576,0.35883,0.31659,0.27435,0.24353,0.21271,0.18966,0.16661,0.14893,0.13125,0.11794,0.10463,0.094693,0.084753,0.076782,0.068811,0.06238,0.055948,0.051009,0.046069,0.0455,0.044931,0.039407,0.033883,0.032375,0.030867
0.02834,0.028529,0.028717,0.029928,0.031139,0.035996,0.040853,0.04443,0.048008,0.056171,0.064334,0.071581,0.078829,0.087938,0.097047,0.10859,0.12013,0.13498,0.14984,0.16931,0.18879,0.2132,0.23762,0.26928,0.30094,0.34001,0.37908,0.42604,0.473,0.52793,0.58287,0.64057,0.69827,0.7482,0.79813,0.83098,0.86384,0.87468,0.88553,0.87822,0.87091,0.85922,0.84753,0.83783,0.82814,0.80652,0.7849,0.74397,0.70304,0.65226,0.60148,0.54694,0.49239,0.44084,0.3893,0.34627,0.30325,0.27011,0.23696,0.21204,0.18712,0.16792,0.14872,0.13374,0.11876,0.10736,0.095954,0.087091,0.078228,0.071104,0.06398,0.058217,0.052455,0.049424,0.046392,0.043515,0.040638,0.037075,0.033513,0.03087,0.028226
0.027383,0.027235,0.027088,0.028234,0.02938,0.033893,0.038406,0.040145,0.041884,0.050685,0.059487,0.065903,0.07232,0.080183,0.088045,0.097909,0.10777,0.12005,0.13233,0.14782,0.16332,0.18171,0.20009,0.22281,0.24552,0.27303,0.30054,0.33307,0.3656,0.40284,0.44007,0.48008,0.52009,0.55732,0.59456,0.62226,0.64995,0.66503,0.68011,0.6815,0.68288,0.67457,0.66627,0.65472,0.64318,0.61949,0.59579,0.56179,0.52778,0.48916,0.45054,0.41268,0.37483,0.34036,0.3059,0.27678,0.24767,0.22362,0.19957,0.18055,0.16153,0.14618,0.13082,0.11854,0.10626,0.09677,0.087276,0.07949,0.071704,0.065426,0.059148,0.054055,0.048962,0.047839,0.046715,0.04153,0.036345,0.034744,0.033144,0.029365,0.025586
0.026409,0.026096,0.025783,0.026857,0.027931,0.032068,0.036206,0.037814,0.039422,0.0466,0.053778,0.060325,0.066873,0.073812,0.080752,0.08933,0.097909,0.10843,0.11896,0.13201,0.14507,0.15575,0.16643,0.18947,0.21251,0.23424,0.25597,0.28109,0.30622,0.33429,0.36235,0.3919,0.42145,0.44884,0.47623,0.49739,0.51855,0.53147,0.5444,0.54717,0.54994,0.54448,0.53901,0.52855,0.51809,0.49885,0.47962,0.45338,0.42715,0.398,0.36886,0.34034,0.31182,0.28541,0.259,0.23619,0.21337,0.19409,0.1748,0.15903,0.14327,0.13041,0.11754,0.10705,0.096555,0.088215,0.079875,0.07302,0.066165,0.060579,0.054994,0.05037,0.045746,0.044954,0.044161,0.039207,0.034252,0.032794,0.031336,0.027815,0.024295
0.025435,0.024956,0.024478,0.02548,0.026481,0.030244,0.034006,0.035483,0.03696,0.042515,0.04807,0.054748,0.061426,0.067442,0.073458,0.080752,0.088045,0.096816,0.10559,0.1162,0.12682,0.12979,0.13276,0.15613,0.17951,0.19545,0.21139,0.22912,0.24684,0.26574,0.28463,0.30373,0.32282,0.34036,0.35791,0.37252,0.38714,0.39791,0.40868,0.41284,0.41699,0.41438,0.41176,0.40237,0.39299,0.37822,0.36345,0.34498,0.32652,0.30685,0.28719,0.268,0.24881,0.23045,0.2121,0.19559,0.17908,0.16455,0.15003,0.13752,0.12501,0.11463,0.10426,0.095554,0.086845,0.079659,0.072474,0.06655,0.060626,0.055732,0.050839,0.046685,0.04253,0.042069,0.041607,0.036883,0.032159,0.030844,0.029528,0.026266,0.023004
0.023641,0.023494,0.023347,0.024252,0.025157,0.028609,0.032061,0.033426,0.03479,0.039814,0.044838,0.049054,0.05327,0.06031,0.06735,0.07372,0.08009,0.087653,0.095216,0.10427,0.11333,0.11899,0.12465,0.14099,0.15733,0.17039,0.18345,0.19766,0.21188,0.22686,0.24184,0.2567,0.27157,0.28495,0.29833,0.30919,0.32005,0.3277,0.33535,0.33826,0.34118,0.33936,0.33755,0.33059,0.32362,0.31258,0.30153,0.28754,0.27355,0.25838,0.24321,0.22808,0.21296,0.19826,0.18357,0.1701,0.15663,0.14462,0.13262,0.12225,0.11188,0.10299,0.094108,0.086576,0.079044,0.072781,0.066519,0.061256,0.055994,0.051616,0.047239,0.044931,0.042622,0.040084,0.037545,0.034529,0.031513,0.0292,0.026888,0.02478,0.022673
0.021847,0.022031,0.022216,0.023024,0.023832,0.026974,0.030116,0.031368,0.032621,0.037114,0.041607,0.043361,0.045115,0.053178,0.061241,0.066688,0.072135,0.07849,0.084845,0.092338,0.099832,0.10819,0.11654,0.12585,0.13516,0.14533,0.1555,0.16621,0.17692,0.18799,0.19905,0.20968,0.22031,0.22953,0.23875,0.24586,0.25297,0.25749,0.26201,0.26369,0.26537,0.26435,0.26334,0.2588,0.25426,0.24693,0.23961,0.2301,0.22059,0.20991,0.19923,0.18817,0.17711,0.16607,0.15504,0.14461,0.13418,0.1247,0.11522,0.10699,0.098755,0.091354,0.083952,0.077598,0.071243,0.065903,0.060564,0.055963,0.051362,0.0475,0.043638,0.043176,0.042715,0.038099,0.033483,0.032175,0.030867,0.027557,0.024247,0.023295,0.022342
0.021071,0.020998,0.020925,0.021697,0.022468,0.025383,0.028299,0.02944,0.030582,0.034671,0.03876,0.040314,0.041869,0.048393,0.054917,0.060379,0.065842,0.071358,0.076874,0.083299,0.089723,0.096855,0.10399,0.11185,0.11971,0.12817,0.13662,0.14544,0.15426,0.16331,0.17237,0.18098,0.18959,0.19712,0.20465,0.2102,0.21576,0.21928,0.22281,0.22405,0.22528,0.22429,0.2233,0.21976,0.21622,0.21044,0.20466,0.19708,0.18949,0.18089,0.17229,0.16324,0.15419,0.14511,0.13602,0.12748,0.11893,0.11096,0.10299,0.095924,0.088861,0.082491,0.07612,0.070604,0.065088,0.060379,0.055671,0.051609,0.047546,0.0454,0.043253,0.040838,0.038422,0.035483,0.032544,0.030274,0.028003,0.025876,0.023749,0.022104,0.020459
0.020296,0.019965,0.019634,0.02037,0.021105,0.023793,0.026481,0.027512,0.028543,0.032228,0.035914,0.037268,0.038622,0.043607,0.048593,0.054071,0.059548,0.064226,0.068904,0.074259,0.079613,0.085522,0.091431,0.097847,0.10426,0.111,0.11774,0.12467,0.13159,0.13864,0.14569,0.15227,0.15886,0.1647,0.17055,0.17455,0.17855,0.18108,0.1836,0.1844,0.1852,0.18423,0.18326,0.18072,0.17818,0.17395,0.16972,0.16406,0.1584,0.15187,0.14535,0.13832,0.13128,0.12414,0.117,0.11034,0.10368,0.097216,0.090754,0.08486,0.078967,0.073628,0.068288,0.063611,0.058933,0.054855,0.050778,0.047254,0.04373,0.0433,0.042869,0.038499,0.034129,0.032867,0.031605,0.028372,0.02514,0.024195,0.02325,0.020913,0.018575
0.018977,0.018832,0.018686,0.019344,0.020002,0.022441,0.02488,0.025822,0.026764,0.030093,0.033421,0.03466,0.035898,0.040322,0.044746,0.048208,0.05167,0.057156,0.062641,0.06728,0.07192,0.07699,0.08206,0.087538,0.093016,0.098678,0.10434,0.11016,0.11597,0.12183,0.12768,0.13321,0.13873,0.14346,0.14819,0.15141,0.15463,0.15661,0.1586,0.15932,0.16004,0.15932,0.1586,0.15657,0.15455,0.15103,0.14752,0.14288,0.13824,0.13285,0.12745,0.12159,0.11573,0.10976,0.10379,0.098078,0.092369,0.086922,0.081475,0.07642,0.071366,0.066773,0.06218,0.058087,0.053994,0.050385,0.046777,0.044831,0.042884,0.040691,0.038499,0.035729,0.032959,0.030784,0.028608,0.026539,0.02447,0.022842,0.021214,0.01971,0.018206
0.017658,0.017698,0.017738,0.018318,0.018899,0.021088,0.023278,0.024132,0.024986,0.027957,0.030928,0.032052,0.033175,0.037037,0.040899,0.042346,0.043792,0.050085,0.056379,0.060302,0.064226,0.068458,0.072689,0.077228,0.081767,0.086353,0.090938,0.095647,0.10036,0.10502,0.10968,0.11414,0.1186,0.12222,0.12584,0.12827,0.1307,0.13215,0.13359,0.13424,0.13488,0.13441,0.13393,0.13242,0.13091,0.12811,0.12531,0.1217,0.11808,0.11382,0.10956,0.10486,0.10017,0.09537,0.090569,0.085814,0.08106,0.076628,0.072197,0.067981,0.063764,0.059918,0.056071,0.052563,0.049054,0.045915,0.042776,0.042407,0.042038,0.038083,0.034129,0.032959,0.03179,0.0287,0.02561,0.024706,0.023801,0.02149,0.019179,0.018508,0.017837
0.016986,0.016834,0.016683,0.017235,0.017788,0.019816,0.021845,0.022625,0.023405,0.026104,0.028803,0.029808,0.030813,0.034294,0.037776,0.039068,0.040361,0.0454,0.050439,0.054047,0.057656,0.061672,0.065688,0.069565,0.073443,0.077374,0.081306,0.08533,0.089353,0.093269,0.097185,0.10086,0.10453,0.10758,0.11063,0.1127,0.11476,0.11597,0.11719,0.11769,0.11819,0.11777,0.11736,0.11614,0.11493,0.11266,0.11039,0.10725,0.10411,0.10053,0.096955,0.093016,0.089076,0.085006,0.080937,0.07689,0.072843,0.069012,0.06518,0.061549,0.057917,0.054548,0.051178,0.049262,0.047346,0.043853,0.040361,0.039591,0.038822,0.035278,0.031735,0.03067,0.029605,0.026807,0.024009,0.023184,0.022359,0.02024,0.018121,0.017507,0.016892
0.016313,0.01597,0.015627,0.016152,0.016677,0.018545,0.020413,0.021119,0.021825,0.024252,0.026678,0.027565,0.028451,0.031551,0.034652,0.035791,0.036929,0.040714,0.0445,0.047793,0.051085,0.054886,0.058687,0.061903,0.065119,0.068396,0.071673,0.075013,0.078352,0.081521,0.084691,0.087568,0.090446,0.092939,0.095431,0.097124,0.098816,0.099801,0.10079,0.10114,0.10149,0.10114,0.10079,0.099863,0.09894,0.097201,0.095462,0.0928,0.090138,0.087245,0.084353,0.081167,0.077982,0.074643,0.071304,0.067965,0.064626,0.061395,0.058164,0.055117,0.05207,0.049177,0.046285,0.045962,0.045638,0.041792,0.037945,0.036775,0.035606,0.032473,0.02934,0.02838,0.02742,0.024913,0.022407,0.021662,0.020917,0.018991,0.017064,0.016506,0.015947
0.015472,0.015125,0.014778,0.015259,0.01574,0.017448,0.019157,0.019806,0.020454,0.022658,0.024861,0.025661,0.026461,0.029239,0.032016,0.033034,0.034052,0.037422,0.040791,0.042953,0.045115,0.048716,0.052316,0.055286,0.058256,0.061341,0.064426,0.067296,0.070166,0.072881,0.075597,0.078021,0.080444,0.082514,0.084583,0.08603,0.087476,0.088346,0.089215,0.089507,0.0898,0.089484,0.089169,0.088338,0.087507,0.086014,0.084522,0.082337,0.080152,0.077698,0.075243,0.07252,0.069796,0.066934,0.064072,0.06121,0.058348,0.05554,0.052732,0.050493,0.048254,0.046246,0.044238,0.042499,0.040761,0.038337,0.035914,0.033977,0.032041,0.030052,0.028063,0.026431,0.024798,0.023199,0.021601,0.020333,0.019065,0.017833,0.016601,0.015626,0.014652
0.01463,0.014279,0.013928,0.014365,0.014802,0.016352,0.017901,0.018492,0.019083,0.021064,0.023044,0.023758,0.024472,0.026926,0.02938,0.030277,0.031174,0.034129,0.037083,0.038114,0.039145,0.042546,0.045946,0.04867,0.051393,0.054286,0.057179,0.059579,0.06198,0.064241,0.066503,0.068473,0.070443,0.072089,0.073735,0.074936,0.076136,0.07689,0.077644,0.077875,0.078105,0.077828,0.077551,0.076813,0.076074,0.074828,0.073582,0.071874,0.070166,0.06815,0.066134,0.063872,0.06161,0.059225,0.05684,0.054455,0.05207,0.049685,0.0473,0.045869,0.044438,0.043315,0.042192,0.039037,0.035883,0.034883,0.033883,0.031179,0.028476,0.027631,0.026786,0.024481,0.022176,0.021485,0.020794,0.019003,0.017212,0.016675,0.016138,0.014747,0.013356
0.01365,0.013006,0.012362,0.013176,0.01399,0.015513,0.017037,0.017463,0.017889,0.019679,0.02147,0.022115,0.022761,0.02497,0.02718,0.02798,0.02878,0.031416,0.034052,0.034983,0.035914,0.038922,0.04193,0.043723,0.045515,0.048285,0.051055,0.052693,0.054332,0.057079,0.059825,0.061526,0.063226,0.064634,0.066042,0.06708,0.068119,0.068758,0.069396,0.069565,0.069735,0.069481,0.069227,0.068596,0.067965,0.066888,0.065811,0.064357,0.062903,0.061149,0.059395,0.057456,0.055517,0.053455,0.051393,0.050093,0.048793,0.046254,0.043715,0.042561,0.041407,0.039568,0.037729,0.035768,0.033806,0.032151,0.030496,0.028781,0.027066,0.025637,0.024209,0.022745,0.02128,0.0201,0.018919,0.017772,0.016626,0.015687,0.014749,0.013855,0.012961
0.01267,0.011733,0.010796,0.011987,0.013178,0.014675,0.016172,0.016434,0.016695,0.018295,0.019896,0.020473,0.02105,0.023015,0.02498,0.025683,0.026386,0.028703,0.031021,0.031851,0.032682,0.035298,0.037914,0.038776,0.039637,0.042284,0.044931,0.045808,0.046685,0.049916,0.053147,0.054578,0.056009,0.057179,0.058348,0.059225,0.060102,0.060626,0.061149,0.061256,0.061364,0.061133,0.060902,0.060379,0.059856,0.058948,0.05804,0.05684,0.05564,0.054147,0.052655,0.051039,0.049424,0.047685,0.045946,0.045731,0.045515,0.042823,0.04013,0.039253,0.038376,0.035821,0.033267,0.032498,0.031728,0.029419,0.027109,0.026383,0.025657,0.023644,0.021631,0.021008,0.020385,0.018714,0.017043,0.016541,0.01604,0.014699,0.013359,0.012962,0.012565
0.012167,0.011513,0.01086,0.01163,0.012399,0.013633,0.014867,0.015227,0.015587,0.017035,0.018483,0.019009,0.019536,0.021329,0.023122,0.023764,0.024406,0.026484,0.028562,0.029299,0.030036,0.032359,0.034683,0.03546,0.036237,0.038576,0.040915,0.041668,0.042422,0.045023,0.047623,0.048639,0.049654,0.050993,0.052332,0.053186,0.05404,0.054555,0.055071,0.055163,0.055255,0.055032,0.054809,0.054348,0.053886,0.053101,0.052316,0.05167,0.051024,0.049524,0.048023,0.046931,0.045838,0.044023,0.042207,0.041776,0.041345,0.039007,0.036668,0.035891,0.035114,0.032842,0.030571,0.029876,0.02918,0.027118,0.025056,0.024409,0.023762,0.021951,0.02014,0.019577,0.019014,0.017496,0.015978,0.015519,0.015059,0.013837,0.012614,0.011757,0.0109
0.011663,0.011294,0.010925,0.011273,0.01162,0.012591,0.013562,0.014021,0.014479,0.015775,0.017071,0.017546,0.018021,0.019643,0.021265,0.021845,0.022425,0.024264,0.026103,0.026746,0.027389,0.02942,0.031451,0.032144,0.032836,0.034867,0.036898,0.037529,0.03816,0.04013,0.042099,0.042699,0.0433,0.044807,0.046315,0.047146,0.047977,0.048485,0.048993,0.04907,0.049147,0.048931,0.048716,0.048316,0.047916,0.047254,0.046592,0.0465,0.046408,0.0449,0.043392,0.042823,0.042253,0.040361,0.038468,0.037822,0.037175,0.03519,0.033206,0.032529,0.031851,0.029863,0.027875,0.027254,0.026632,0.024818,0.023004,0.022436,0.021868,0.020259,0.018649,0.018146,0.017643,0.016278,0.014913,0.014496,0.014079,0.012974,0.01187,0.010553,0.0092354
0.0104,0.010378,0.010356,0.010672,0.010988,0.011868,0.012748,0.013175,0.013602,0.014745,0.015887,0.016587,0.017288,0.018513,0.019739,0.02026,0.020782,0.022435,0.024089,0.024659,0.02523,0.027045,0.02886,0.029472,0.030083,0.031893,0.033703,0.034285,0.034867,0.036598,0.038329,0.03886,0.039391,0.040676,0.041961,0.042538,0.043115,0.0437,0.044284,0.044392,0.0445,0.044323,0.044146,0.043892,0.043638,0.043015,0.042392,0.042215,0.042038,0.040699,0.03936,0.038868,0.038376,0.036714,0.035052,0.034484,0.033916,0.032146,0.030376,0.029776,0.029176,0.027407,0.025638,0.025085,0.024532,0.022917,0.021302,0.020793,0.020283,0.018832,0.01738,0.016925,0.01647,0.015227,0.013984,0.01361,0.013236,0.012272,0.011308,0.010483,0.009657
0.0091369,0.0094616,0.0097862,0.010071,0.010356,0.011145,0.011934,0.01233,0.012725,0.013715,0.014704,0.015629,0.016554,0.017383,0.018212,0.018675,0.019139,0.020607,0.022074,0.022573,0.023072,0.02467,0.026269,0.0268,0.027331,0.028919,0.030507,0.031041,0.031575,0.033067,0.03456,0.035021,0.035483,0.036545,0.037606,0.037929,0.038253,0.038914,0.039576,0.039714,0.039853,0.039714,0.039576,0.039468,0.03936,0.038776,0.038191,0.037929,0.037668,0.036498,0.035329,0.034914,0.034498,0.033067,0.031636,0.031147,0.030657,0.029102,0.027546,0.027023,0.0265,0.02495,0.023401,0.022916,0.022431,0.021016,0.0196,0.019149,0.018699,0.017404,0.01611,0.015704,0.015298,0.014176,0.013054,0.012724,0.012393,0.01157,0.010746,0.010413,0.010079
0.0086599,0.0089692,0.0092785,0.0095393,0.0098001,0.010526,0.011251,0.011603,0.011956,0.012861,0.013767,0.014421,0.015075,0.01613,0.017184,0.017486,0.017788,0.019101,0.020414,0.020867,0.021319,0.02275,0.024181,0.024659,0.025138,0.026551,0.027965,0.028437,0.028909,0.030233,0.031556,0.031962,0.032368,0.033326,0.034283,0.03456,0.034837,0.035429,0.036021,0.036144,0.036268,0.036152,0.036037,0.035937,0.035837,0.035298,0.03476,0.034537,0.034313,0.033274,0.032235,0.031861,0.031487,0.030208,0.028929,0.028492,0.028055,0.026674,0.025292,0.024828,0.024364,0.022978,0.021593,0.021164,0.020734,0.019468,0.018201,0.017796,0.017391,0.01622,0.01505,0.014682,0.014313,0.012934,0.011554,0.011627,0.011699,0.010933,0.010168,0.0098593,0.0095508
0.0081829,0.0084768,0.0087707,0.0090077,0.0092446,0.0099063,0.010568,0.010877,0.011186,0.012008,0.01283,0.013213,0.013596,0.014876,0.016157,0.016297,0.016437,0.017595,0.018754,0.01916,0.019566,0.02083,0.022093,0.022519,0.022945,0.024184,0.025423,0.025834,0.026244,0.027398,0.028552,0.028903,0.029254,0.030107,0.030959,0.03119,0.031421,0.031944,0.032467,0.032575,0.032682,0.03259,0.032498,0.032405,0.032313,0.031821,0.031328,0.031144,0.030959,0.03005,0.02914,0.028808,0.028476,0.027349,0.026223,0.025838,0.025453,0.024246,0.023038,0.022633,0.022228,0.021007,0.019785,0.019411,0.019037,0.01792,0.016803,0.016443,0.016083,0.015036,0.01399,0.013659,0.013328,0.011691,0.010054,0.010529,0.011005,0.010297,0.0095893,0.0093062,0.009023
