0.020378,0.021503,0.022627,0.023904,0.02518,0.025991,0.026803,0.028272,0.029742,0.032364,0.034986,0.035793,0.0366,0.039874,0.043148,0.043907,0.044666,0.045631,0.046596,0.049063,0.051531,0.053998,0.056465,0.058933,0.0614,0.06401,0.06662,0.069324,0.072029,0.074512,0.10622,0.10881,0.1114,0.11516,0.11891,0.12299,0.12707,0.13008,0.13308,0.13672,0.14036,0.14396,0.14757,0.1495,0.15143,0.15423,0.15703,0.15885,0.16067,0.16217,0.16367,0.1649,0.16614,0.16706,0.16797,0.16859,0.16921,0.16919,0.16917,0.16905,0.16892,0.16837,0.16781,0.1669,0.16598,0.16445,0.16291,0.16093,0.15896,0.15875,0.15855,0.15546,0.15238,0.14738,0.14238,0.13957,0.13675,0.1316,0.12646,0.12284,0.11923,0.087245,0.084144,0.080934,0.077723,0.074433,0.071143,0.06798,0.064817,0.061843,0.058869,0.056038,0.053207,0.051357,0.049506,0.048288,0.04707,0.044761,0.042452,0.040665,0.038877,0.035761,0.032646,0.031934,0.031222,0.029077,0.026933,0.025335,0.023738,0.022559,0.021381
0.020876,0.02204,0.023203,0.024531,0.025859,0.027498,0.029137,0.030814,0.032491,0.0343,0.036109,0.038284,0.040459,0.042009,0.043559,0.045212,0.046865,0.048676,0.050487,0.05327,0.056054,0.058941,0.061827,0.064737,0.067648,0.070756,0.073864,0.077003,0.080143,0.083069,0.11609,0.11999,0.12389,0.12792,0.13196,0.13571,0.13947,0.14377,0.14806,0.15185,0.15564,0.15976,0.16388,0.16646,0.16905,0.17176,0.17447,0.17632,0.17817,0.17977,0.18137,0.18236,0.18335,0.18481,0.18627,0.18692,0.18757,0.18754,0.18751,0.18734,0.18717,0.18643,0.18569,0.18481,0.18393,0.18214,0.18036,0.17806,0.17575,0.17401,0.17226,0.16854,0.16483,0.16141,0.15799,0.15328,0.14857,0.14388,0.1392,0.13407,0.12895,0.095556,0.091879,0.088178,0.084477,0.080712,0.076948,0.073286,0.069625,0.06624,0.062855,0.059763,0.056671,0.053436,0.050202,0.048241,0.046279,0.043915,0.04155,0.039644,0.037738,0.034729,0.031719,0.03099,0.03026,0.028479,0.026697,0.024885,0.023073,0.021932,0.020791
0.021375,0.022577,0.023779,0.025158,0.026537,0.029005,0.031472,0.033356,0.035239,0.036236,0.037232,0.040775,0.044318,0.044144,0.04397,0.046517,0.049063,0.05172,0.054378,0.057478,0.060578,0.063883,0.067189,0.070542,0.073895,0.077501,0.081108,0.084682,0.088257,0.091626,0.12596,0.13117,0.13637,0.14069,0.14501,0.14844,0.15187,0.15745,0.16304,0.16698,0.17091,0.17555,0.18018,0.18343,0.18667,0.18929,0.19192,0.1938,0.19568,0.19738,0.19907,0.19981,0.20055,0.20256,0.20457,0.20525,0.20593,0.20589,0.20584,0.20563,0.20543,0.20449,0.20356,0.20272,0.20188,0.19984,0.1978,0.19518,0.19255,0.18926,0.18597,0.18162,0.17727,0.17544,0.1736,0.16699,0.16038,0.15616,0.15193,0.1453,0.13867,0.10387,0.099613,0.095422,0.09123,0.086991,0.082753,0.078593,0.074433,0.070637,0.066841,0.063488,0.060135,0.055516,0.050898,0.048193,0.045489,0.043069,0.040649,0.038624,0.0366,0.033696,0.030792,0.030045,0.029299,0.02788,0.026461,0.024435,0.022409,0.021305,0.020201
0.022934,0.024288,0.025642,0.027204,0.028766,0.030562,0.032359,0.034329,0.036299,0.038648,0.040997,0.042831,0.044666,0.045963,0.04726,0.050131,0.053002,0.056109,0.059217,0.062721,0.066224,0.07002,0.073816,0.077857,0.081898,0.08605,0.090202,0.094243,0.098285,0.10248,0.13852,0.14429,0.15005,0.15535,0.16065,0.16624,0.17183,0.1775,0.18317,0.18815,0.19314,0.19771,0.20228,0.20589,0.20949,0.21224,0.215,0.21707,0.21914,0.22108,0.22301,0.22389,0.22477,0.22649,0.2282,0.22895,0.2297,0.23019,0.23067,0.22418,0.2177,0.21642,0.21514,0.22108,0.22703,0.22509,0.22314,0.22026,0.21738,0.21363,0.20987,0.19751,0.18515,0.18147,0.17779,0.17292,0.16805,0.16811,0.16816,0.16159,0.15501,0.11683,0.1119,0.10675,0.10159,0.096584,0.091578,0.086738,0.081898,0.077501,0.073104,0.069253,0.065402,0.061036,0.056671,0.052986,0.0493,0.045663,0.042025,0.039858,0.037691,0.035733,0.033775,0.031936,0.030097,0.028598,0.027099,0.025643,0.024188,0.022941,0.021694
0.024494,0.025999,0.027505,0.02925,0.030994,0.03212,0.033247,0.035303,0.037359,0.04106,0.044761,0.044888,0.045014,0.047782,0.05055,0.053745,0.05694,0.060499,0.064057,0.067964,0.071871,0.076157,0.080443,0.085173,0.089902,0.094599,0.099297,0.1038,0.10831,0.11334,0.15108,0.15741,0.16373,0.17001,0.17629,0.18404,0.19179,0.19755,0.20331,0.20933,0.21536,0.21987,0.22437,0.22834,0.23231,0.23519,0.23807,0.24033,0.2426,0.24478,0.24696,0.24797,0.24899,0.25041,0.25183,0.25265,0.25348,0.25449,0.2555,0.24274,0.22997,0.22834,0.22672,0.23945,0.25218,0.25033,0.24848,0.24535,0.24222,0.23799,0.23377,0.2134,0.19303,0.18751,0.18199,0.17885,0.17572,0.18006,0.18439,0.17787,0.17136,0.12979,0.12419,0.11807,0.11195,0.10618,0.1004,0.094884,0.089364,0.084366,0.079368,0.075018,0.070669,0.066556,0.062444,0.057778,0.053112,0.048257,0.043401,0.041092,0.038782,0.03777,0.036758,0.033827,0.030896,0.029316,0.027736,0.026852,0.025968,0.024577,0.023187
0.025057,0.026619,0.028182,0.030001,0.03182,0.033973,0.036125,0.038506,0.040886,0.043005,0.045125,0.046683,0.048241,0.051396,0.054552,0.058102,0.061653,0.065718,0.069783,0.07437,0.078957,0.083978,0.089,0.094315,0.099629,0.10533,0.11103,0.11692,0.1228,0.12864,0.1699,0.1777,0.1855,0.19329,0.20108,0.20938,0.21768,0.22487,0.23206,0.23831,0.24456,0.24963,0.2547,0.25886,0.26303,0.26632,0.26961,0.27182,0.27402,0.27621,0.27839,0.27954,0.2807,0.27601,0.27132,0.27857,0.28582,0.28689,0.28796,0.28201,0.27606,0.27555,0.27504,0.28087,0.28671,0.28509,0.28347,0.28004,0.27662,0.27181,0.267,0.25299,0.23897,0.23208,0.22518,0.21922,0.21326,0.21135,0.20944,0.20035,0.19125,0.14108,0.12788,0.12694,0.126,0.11897,0.11195,0.10547,0.098996,0.093065,0.087134,0.082017,0.0769,0.072258,0.067616,0.062974,0.058332,0.05331,0.048288,0.045544,0.0428,0.040301,0.037802,0.035743,0.033685,0.031835,0.029985,0.028294,0.026604,0.025163,0.023723
0.02562,0.027239,0.028859,0.030752,0.032646,0.035825,0.039004,0.041708,0.044413,0.044951,0.045489,0.048478,0.051467,0.05501,0.058553,0.06246,0.066367,0.070938,0.075509,0.080776,0.086042,0.0918,0.097557,0.10346,0.10936,0.11606,0.12277,0.13003,0.13729,0.14393,0.18872,0.19799,0.20726,0.21656,0.22586,0.23472,0.24358,0.2522,0.26082,0.26729,0.27375,0.27938,0.28502,0.28938,0.29375,0.29745,0.30115,0.3033,0.30545,0.30763,0.30982,0.31111,0.31241,0.30161,0.2908,0.30449,0.31817,0.31929,0.32041,0.32128,0.32215,0.32275,0.32336,0.3223,0.32124,0.31984,0.31845,0.31474,0.31102,0.30562,0.30023,0.29258,0.28492,0.27665,0.26838,0.25958,0.25079,0.24264,0.2345,0.22282,0.21115,0.15236,0.13156,0.1358,0.14004,0.13177,0.1235,0.11606,0.10863,0.10176,0.0949,0.089016,0.083132,0.07796,0.072788,0.06817,0.063551,0.058363,0.053175,0.049996,0.046817,0.042831,0.038846,0.037659,0.036473,0.034354,0.032234,0.029737,0.027239,0.025749,0.02426
0.027434,0.029243,0.031053,0.033154,0.035255,0.037667,0.040079,0.042428,0.044777,0.046643,0.04851,0.051855,0.0552,0.059217,0.063235,0.067735,0.072235,0.07747,0.082705,0.088897,0.09509,0.10169,0.10828,0.11548,0.12267,0.1308,0.13892,0.14774,0.15657,0.16516,0.21283,0.22426,0.2357,0.24747,0.25925,0.27006,0.28087,0.29065,0.30042,0.30825,0.31608,0.32232,0.32856,0.33303,0.33751,0.34139,0.34526,0.34733,0.34939,0.34546,0.34153,0.34827,0.355,0.3502,0.3454,0.35324,0.36108,0.36328,0.36549,0.36716,0.36883,0.3706,0.37237,0.37205,0.37174,0.37111,0.37047,0.36668,0.3629,0.35657,0.35024,0.34112,0.33199,0.32183,0.31167,0.30064,0.28962,0.27784,0.26607,0.25391,0.24176,0.18373,0.16696,0.16288,0.1588,0.14283,0.12687,0.1238,0.12073,0.11256,0.10439,0.097715,0.09104,0.08507,0.079099,0.073903,0.068707,0.063614,0.058522,0.054488,0.050455,0.046517,0.042578,0.04,0.037422,0.035239,0.033057,0.031194,0.029332,0.027662,0.025993
0.029248,0.031247,0.033247,0.035556,0.037865,0.03951,0.041155,0.043148,0.045141,0.048336,0.051531,0.055232,0.058933,0.063425,0.067917,0.07301,0.078102,0.084002,0.089902,0.097019,0.10414,0.11157,0.119,0.1275,0.13599,0.14553,0.15507,0.16546,0.17585,0.18638,0.23693,0.25054,0.26414,0.27839,0.29264,0.3054,0.31817,0.3291,0.34003,0.34922,0.3584,0.36525,0.3721,0.37669,0.38128,0.38532,0.38937,0.39135,0.39333,0.38328,0.37324,0.38542,0.3976,0.3988,0.4,0.402,0.40399,0.40728,0.41057,0.41304,0.4155,0.41844,0.42139,0.42181,0.42224,0.42237,0.42249,0.41863,0.41478,0.40752,0.40026,0.38966,0.37906,0.36701,0.35496,0.3417,0.32845,0.31304,0.29764,0.285,0.27236,0.21511,0.20236,0.18996,0.17756,0.1539,0.13023,0.13153,0.13283,0.12335,0.11388,0.10641,0.098949,0.092179,0.08541,0.079637,0.073864,0.068866,0.063868,0.05898,0.054093,0.050202,0.046311,0.042341,0.038371,0.036125,0.033879,0.032652,0.031424,0.029576,0.027727
0.029906,0.031964,0.034022,0.036434,0.038846,0.041637,0.044429,0.0462,0.047972,0.051515,0.055058,0.059241,0.063425,0.068423,0.073421,0.07921,0.084999,0.091839,0.09868,0.10682,0.11496,0.12416,0.13337,0.1437,0.15404,0.16624,0.17844,0.19168,0.20492,0.21859,0.27545,0.29305,0.31065,0.32776,0.34487,0.36038,0.3759,0.38941,0.40293,0.41462,0.42632,0.43293,0.43954,0.44354,0.44753,0.45043,0.45334,0.45446,0.45558,0.45022,0.44486,0.45154,0.45822,0.45908,0.45993,0.4628,0.46567,0.46922,0.47276,0.47751,0.48226,0.48758,0.49289,0.49555,0.49821,0.49984,0.50148,0.49789,0.4943,0.48647,0.47864,0.4662,0.45375,0.43904,0.42433,0.40681,0.38929,0.36938,0.34947,0.33132,0.31317,0.25176,0.23518,0.21957,0.20397,0.18327,0.16256,0.14951,0.13645,0.13138,0.12631,0.11755,0.10879,0.10096,0.093128,0.086501,0.079874,0.074212,0.068549,0.063535,0.058522,0.054014,0.049506,0.045615,0.041724,0.039154,0.036584,0.034365,0.032146,0.030242,0.028339
0.030564,0.03268,0.034797,0.037311,0.039826,0.043765,0.047703,0.049253,0.050803,0.054694,0.058585,0.063251,0.067917,0.073421,0.078925,0.08541,0.091895,0.099676,0.10746,0.11662,0.12577,0.13675,0.14773,0.15991,0.17208,0.18695,0.20182,0.21791,0.23399,0.25079,0.31396,0.33557,0.35717,0.37713,0.39709,0.41536,0.43363,0.44973,0.46583,0.48003,0.49424,0.50061,0.50699,0.51039,0.51379,0.51554,0.5173,0.51757,0.51784,0.51716,0.51648,0.51766,0.51885,0.51935,0.51986,0.52361,0.52736,0.53115,0.53495,0.54199,0.54903,0.55671,0.5644,0.56929,0.57418,0.57732,0.58047,0.57715,0.57383,0.56543,0.55703,0.54273,0.52843,0.51107,0.4937,0.47192,0.45014,0.42572,0.4013,0.37764,0.35398,0.28842,0.268,0.24919,0.23038,0.21264,0.19489,0.16748,0.14007,0.13941,0.13874,0.12868,0.11862,0.10974,0.10085,0.093366,0.085884,0.079558,0.073231,0.068091,0.06295,0.057826,0.052701,0.048889,0.045077,0.042183,0.039288,0.036078,0.032867,0.030909,0.028951
0.032617,0.034972,0.037327,0.040158,0.04299,0.045702,0.048415,0.051183,0.053951,0.058276,0.062602,0.06783,0.073057,0.079257,0.085457,0.092859,0.10026,0.10914,0.11802,0.12908,0.14014,0.15329,0.16644,0.18191,0.19739,0.21636,0.23534,0.25628,0.27722,0.29961,0.37099,0.39843,0.42586,0.45122,0.47657,0.49906,0.52155,0.542,0.56246,0.57983,0.5972,0.60415,0.61109,0.61283,0.61457,0.61397,0.61337,0.61149,0.60962,0.60754,0.60546,0.60529,0.60513,0.60501,0.60489,0.6092,0.61351,0.61966,0.62582,0.6353,0.64478,0.65522,0.66566,0.67505,0.68445,0.69165,0.69884,0.69799,0.69713,0.68898,0.68083,0.66424,0.64766,0.62495,0.60225,0.57435,0.54645,0.51552,0.48459,0.45297,0.42135,0.34658,0.31937,0.29415,0.26893,0.24663,0.22433,0.19934,0.17435,0.16479,0.15522,0.14306,0.1309,0.12048,0.11007,0.10149,0.092907,0.08575,0.078593,0.072867,0.067142,0.061938,0.056734,0.051507,0.046279,0.043258,0.040237,0.037731,0.035224,0.033058,0.030893
0.03467,0.037264,0.039858,0.043005,0.046153,0.04764,0.049126,0.053112,0.057098,0.061859,0.06662,0.072409,0.078197,0.085093,0.091989,0.10031,0.10863,0.11861,0.12859,0.14154,0.1545,0.16982,0.18515,0.20392,0.2227,0.24577,0.26885,0.29465,0.32044,0.34844,0.42803,0.46129,0.49455,0.5253,0.55605,0.58276,0.60948,0.63428,0.65908,0.67962,0.70017,0.70768,0.7152,0.71528,0.71535,0.7124,0.70944,0.70542,0.7014,0.69792,0.69444,0.69293,0.69141,0.69066,0.68992,0.69479,0.69966,0.70817,0.71668,0.72861,0.74053,0.75373,0.76692,0.78082,0.79472,0.80597,0.81721,0.81883,0.82044,0.81253,0.80462,0.78575,0.76688,0.73884,0.7108,0.67678,0.64276,0.60532,0.56788,0.52831,0.48873,0.40475,0.37074,0.33911,0.30748,0.28062,0.25376,0.23119,0.20862,0.19016,0.17171,0.15744,0.14317,0.13123,0.11929,0.10961,0.099929,0.091942,0.083955,0.077644,0.071333,0.06605,0.060767,0.054124,0.047482,0.044334,0.041186,0.039383,0.03758,0.035208,0.032835
0.035382,0.038071,0.040759,0.043606,0.046453,0.049166,0.051879,0.056236,0.060593,0.065924,0.071254,0.077699,0.084144,0.091958,0.099771,0.10926,0.11875,0.13051,0.14227,0.15771,0.17314,0.19239,0.21163,0.23595,0.26028,0.28948,0.31869,0.35128,0.38387,0.41906,0.50906,0.54915,0.58925,0.62633,0.66341,0.69834,0.73326,0.76457,0.79588,0.81938,0.84288,0.85475,0.86662,0.86384,0.86106,0.85557,0.85008,0.84301,0.83594,0.82967,0.8234,0.81856,0.81372,0.81295,0.81218,0.81747,0.82275,0.83222,0.8417,0.85778,0.87385,0.89035,0.90685,0.92671,0.94658,0.96031,0.97405,0.97733,0.98061,0.97174,0.96287,0.94131,0.91975,0.88772,0.8557,0.81482,0.77394,0.72929,0.68464,0.63542,0.5862,0.48929,0.44492,0.40483,0.36473,0.33043,0.29612,0.26751,0.23891,0.21616,0.19341,0.17606,0.15872,0.14459,0.13046,0.1193,0.10814,0.099226,0.090313,0.083211,0.07611,0.070242,0.064374,0.058474,0.052574,0.048478,0.044381,0.041384,0.038387,0.035951,0.033515
0.036094,0.038877,0.041661,0.044207,0.046754,0.050692,0.054631,0.05936,0.064089,0.069989,0.075888,0.08299,0.090091,0.098822,0.10755,0.11821,0.12887,0.14241,0.15595,0.17387,0.19179,0.21495,0.2381,0.26798,0.29786,0.33319,0.36853,0.40791,0.44729,0.48968,0.59009,0.63701,0.68394,0.72736,0.77078,0.81391,0.85704,0.89486,0.93267,0.95914,0.9856,1.0018,1.0181,1.0124,1.0068,0.99874,0.99072,0.9806,0.97048,0.96141,0.95235,0.94419,0.93603,0.93524,0.93445,0.94014,0.94583,0.95627,0.96671,0.98694,1.0072,1.027,1.0468,1.0726,1.0984,1.1147,1.1309,1.1358,1.1408,1.131,1.1211,1.0969,1.0726,1.0366,1.0006,0.95286,0.90512,0.85326,0.8014,0.74253,0.68366,0.57383,0.5191,0.47054,0.42199,0.38023,0.33848,0.30384,0.2692,0.24215,0.21511,0.19469,0.17427,0.15794,0.14162,0.12898,0.11635,0.10651,0.096671,0.088779,0.080886,0.074433,0.06798,0.062824,0.057667,0.052622,0.047576,0.043385,0.039194,0.036695,0.034196
0.03834,0.04144,0.04454,0.046841,0.049142,0.053397,0.057652,0.062887,0.068122,0.074631,0.081139,0.089024,0.096908,0.10664,0.11638,0.12876,0.14115,0.15738,0.17362,0.19537,0.21713,0.24601,0.27489,0.31211,0.34933,0.39317,0.43701,0.48391,0.53081,0.58087,0.69161,0.74537,0.79912,0.85135,0.90359,0.95566,1.0077,1.0538,1.0999,1.1338,1.1677,1.1857,1.2037,1.2008,1.1978,1.1921,1.1863,1.1723,1.1584,1.1466,1.1348,1.1219,1.1091,1.1053,1.1016,1.1081,1.1146,1.1267,1.1388,1.1601,1.1815,1.204,1.2265,1.2542,1.2819,1.3001,1.3182,1.3209,1.3235,1.3101,1.2967,1.2666,1.2365,1.198,1.1595,1.108,1.0564,0.99817,0.93993,0.87177,0.80361,0.68051,0.61527,0.55659,0.49791,0.44698,0.39605,0.35406,0.31206,0.27836,0.24467,0.21946,0.19424,0.17488,0.15552,0.1409,0.12628,0.11509,0.1039,0.095058,0.086216,0.079186,0.072155,0.066485,0.060815,0.055524,0.050234,0.046098,0.041962,0.039154,0.036347
0.040585,0.044002,0.047418,0.049474,0.051531,0.056102,0.060673,0.066414,0.072155,0.079273,0.08639,0.095058,0.10373,0.11446,0.1252,0.13931,0.15342,0.17235,0.19129,0.21688,0.24247,0.27708,0.31168,0.35624,0.40079,0.45315,0.5055,0.55991,0.61432,0.67205,0.79314,0.85372,0.9143,0.97535,1.0364,1.0974,1.1584,1.2128,1.2671,1.3084,1.3498,1.3695,1.3893,1.3891,1.3889,1.3854,1.3818,1.364,1.3462,1.3317,1.3172,1.2997,1.2821,1.2755,1.2688,1.2761,1.2834,1.2971,1.3109,1.3333,1.3558,1.381,1.4062,1.4358,1.4654,1.4855,1.5056,1.5059,1.5062,1.4892,1.4723,1.4363,1.4003,1.3594,1.3184,1.2631,1.2077,1.1431,1.0785,1.001,0.92356,0.78719,0.71143,0.64263,0.57383,0.51372,0.45362,0.40427,0.35493,0.31458,0.27423,0.24422,0.21422,0.19182,0.16943,0.15282,0.13621,0.12367,0.11113,0.10134,0.091547,0.083939,0.076331,0.070147,0.063962,0.058427,0.052891,0.04881,0.044729,0.041614,0.038498
0.041392,0.044548,0.047703,0.050898,0.054093,0.059036,0.063978,0.070234,0.076489,0.084311,0.092132,0.10175,0.11136,0.1238,0.13623,0.1526,0.16897,0.19155,0.21413,0.24543,0.27674,0.31902,0.3613,0.41466,0.46801,0.52772,0.58743,0.6503,0.71317,0.77731,0.90759,0.97555,1.0435,1.1126,1.1817,1.2514,1.3211,1.3846,1.4481,1.4994,1.5507,1.5837,1.6166,1.6265,1.6363,1.632,1.6277,1.6106,1.5935,1.5737,1.554,1.5329,1.5119,1.5031,1.4944,1.498,1.5016,1.5137,1.5257,1.5463,1.567,1.593,1.619,1.6459,1.6727,1.6885,1.7042,1.6989,1.6936,1.6689,1.6442,1.6051,1.566,1.5174,1.4687,1.4111,1.3535,1.2842,1.2148,1.1322,1.0496,0.90345,0.82072,0.74196,0.66319,0.59312,0.52306,0.46556,0.40807,0.36029,0.31252,0.2762,0.23987,0.21321,0.18654,0.1627,0.13885,0.12902,0.11919,0.10834,0.097494,0.089158,0.080823,0.074085,0.067347,0.06174,0.056133,0.05093,0.045726,0.042507,0.039288
0.042199,0.045093,0.047988,0.052321,0.056655,0.06197,0.067284,0.074053,0.080823,0.089348,0.097873,0.10844,0.119,0.13313,0.14725,0.16588,0.18452,0.21074,0.23696,0.27399,0.31102,0.36097,0.41092,0.47308,0.53523,0.6023,0.66936,0.74069,0.81203,0.88257,1.022,1.0974,1.1727,1.2499,1.327,1.4054,1.4837,1.5564,1.6291,1.6903,1.7516,1.7978,1.844,1.8638,1.8837,1.8787,1.8736,1.8572,1.8407,1.8157,1.7908,1.7662,1.7417,1.7308,1.7199,1.7199,1.7199,1.7302,1.7405,1.7593,1.7781,1.805,1.8319,1.856,1.8801,1.8915,1.9029,1.892,1.881,1.8485,1.8161,1.7739,1.7317,1.6753,1.619,1.5591,1.4993,1.4252,1.3512,1.2634,1.1756,1.0197,0.93002,0.84129,0.75256,0.67252,0.59249,0.52685,0.46121,0.40601,0.35081,0.30817,0.26553,0.23459,0.20365,0.17258,0.1415,0.13438,0.12726,0.11535,0.10344,0.094378,0.085315,0.078023,0.070732,0.065054,0.059376,0.053049,0.046722,0.043401,0.040079
0.044587,0.047315,0.050044,0.05467,0.059297,0.06507,0.070843,0.078261,0.085679,0.095082,0.10448,0.11624,0.128,0.14411,0.16022,0.18218,0.20413,0.23568,0.26722,0.31204,0.35685,0.41504,0.47323,0.54156,0.60989,0.6832,0.75651,0.83456,0.91262,0.99052,1.1402,1.2246,1.3091,1.3958,1.4826,1.5686,1.6545,1.737,1.8194,1.8943,1.9691,2.0311,2.0932,2.1255,2.1577,2.1626,2.1675,2.1556,2.1438,2.1175,2.0911,2.0615,2.032,2.0139,1.9959,1.9895,1.9831,1.9889,1.9946,2.011,2.0274,2.0513,2.0751,2.0924,2.1097,2.1125,2.1154,2.0949,2.0744,2.0363,1.9982,1.9438,1.8894,1.8271,1.7648,1.6986,1.6325,1.5552,1.4779,1.3883,1.2987,1.1352,1.0409,0.94433,0.84777,0.75959,0.67142,0.59676,0.52211,0.45931,0.39652,0.34697,0.29742,0.26081,0.2242,0.19418,0.16416,0.1504,0.13664,0.12344,0.11024,0.10018,0.090123,0.082246,0.07437,0.068272,0.062175,0.056386,0.050597,0.04654,0.042483
0.046975,0.049538,0.0521,0.057019,0.061938,0.06817,0.074401,0.082468,0.090534,0.10082,0.1111,0.12405,0.137,0.1551,0.17319,0.19847,0.22374,0.26061,0.29748,0.35009,0.40269,0.46912,0.53555,0.61005,0.68454,0.7641,0.84366,0.92844,1.0132,1.0985,1.2583,1.3519,1.4454,1.5418,1.6382,1.7317,1.8252,1.9175,2.0098,2.0982,2.1866,2.2645,2.3424,2.3871,2.4317,2.4466,2.4614,2.4541,2.4468,2.4192,2.3915,2.3568,2.3222,2.297,2.2719,2.2591,2.2463,2.2475,2.2488,2.2627,2.2766,2.2975,2.3184,2.3288,2.3393,2.3336,2.3278,2.2978,2.2678,2.2241,2.1803,2.1138,2.0472,1.9789,1.9106,1.8381,1.7657,1.6852,1.6047,1.5132,1.4217,1.2506,1.1518,1.0474,0.94299,0.84666,0.75034,0.66667,0.583,0.51262,0.44223,0.38577,0.3293,0.28702,0.24475,0.21579,0.18683,0.16642,0.14602,0.13153,0.11704,0.10599,0.094931,0.086469,0.078008,0.071491,0.064975,0.059724,0.054472,0.04968,0.044888
0.047197,0.050676,0.054156,0.059423,0.06469,0.071428,0.078166,0.086889,0.095612,0.10672,0.11783,0.13254,0.14725,0.16812,0.18899,0.21888,0.24876,0.29239,0.33601,0.39687,0.45773,0.53002,0.6023,0.68114,0.75999,0.84382,0.92765,1.0185,1.1094,1.2029,1.3738,1.4752,1.5766,1.6818,1.787,1.8926,1.9981,2.1059,2.2137,2.3144,2.4151,2.5066,2.598,2.6599,2.7218,2.7482,2.7747,2.7753,2.7758,2.7511,2.7265,2.6934,2.6604,2.6302,2.6001,2.5786,2.5571,2.5494,2.5417,2.5525,2.5632,2.5745,2.5857,2.5866,2.5874,2.575,2.5626,2.5253,2.4881,2.4351,2.382,2.3038,2.2255,2.1468,2.0681,1.9847,1.9014,1.8146,1.7279,1.6316,1.5352,1.3575,1.255,1.1461,1.0371,0.93389,0.83069,0.73974,0.6488,0.57082,0.49285,0.43021,0.36758,0.31878,0.26997,0.23632,0.20266,0.17948,0.1563,0.14025,0.12421,0.11213,0.10006,0.09093,0.081804,0.074789,0.067774,0.062191,0.056608,0.051167,0.045726
0.047418,0.051815,0.056212,0.061827,0.067442,0.074686,0.08193,0.091309,0.10069,0.11263,0.12457,0.14104,0.1575,0.18115,0.20479,0.23929,0.27379,0.32416,0.37454,0.44366,0.51277,0.59091,0.66904,0.75224,0.83543,0.92353,1.0116,1.1086,1.2055,1.3072,1.4893,1.5985,1.7077,1.8217,1.9357,2.0534,2.1711,2.2943,2.4175,2.5306,2.6437,2.7486,2.8536,2.9327,3.0118,3.0499,3.088,3.0964,3.1048,3.0831,3.0615,3.03,2.9985,2.9634,2.9283,2.8981,2.8679,2.8513,2.8347,2.8422,2.8498,2.8514,2.853,2.8443,2.8356,2.8165,2.7973,2.7528,2.7083,2.646,2.5838,2.4938,2.4038,2.3147,2.2256,2.1313,2.0371,1.9441,1.8511,1.75,1.6488,1.4645,1.3583,1.2448,1.1312,1.0211,0.91104,0.81282,0.7146,0.62903,0.54346,0.47466,0.40585,0.35053,0.2952,0.25685,0.21849,0.19254,0.16658,0.14898,0.13137,0.11828,0.10518,0.09539,0.0856,0.078087,0.070574,0.064658,0.058743,0.052654,0.046564
0.049063,0.053729,0.058395,0.064358,0.070321,0.078063,0.085805,0.09588,0.10596,0.11908,0.13221,0.15075,0.16929,0.19649,0.22369,0.2646,0.3055,0.36374,0.42199,0.49712,0.57225,0.65291,0.73358,0.81748,0.90139,0.99234,1.0833,1.1868,1.2903,1.401,1.5949,1.717,1.839,1.9634,2.0877,2.2186,2.3495,2.4872,2.6248,2.7524,2.88,2.9969,3.1138,3.2053,3.2968,3.3552,3.4135,3.4298,3.446,3.4344,3.4229,3.3976,3.3723,3.3333,3.2943,3.2578,3.2212,3.1973,3.1733,3.1698,3.1663,3.1578,3.1492,3.13,3.1108,3.0836,3.0564,3.0079,2.9593,2.8928,2.8262,2.7306,2.6349,2.5343,2.4336,2.3275,2.2215,2.1131,2.0046,1.8908,1.7771,1.5808,1.4656,1.3454,1.2252,1.1068,0.98838,0.88296,0.77755,0.68731,0.59708,0.52242,0.44777,0.3861,0.32443,0.28069,0.23695,0.20756,0.17817,0.15856,0.13895,0.12472,0.11049,0.099961,0.089427,0.081377,0.073326,0.06707,0.060815,0.0552,0.049585
0.050708,0.055643,0.060578,0.066889,0.073199,0.08144,0.08968,0.10045,0.11122,0.12554,0.13985,0.16046,0.18107,0.21183,0.2426,0.2899,0.33721,0.40332,0.46944,0.55058,0.63172,0.71491,0.79811,0.88273,0.96734,1.0611,1.1549,1.265,1.3751,1.4948,1.7005,1.8355,1.9704,2.105,2.2397,2.3838,2.528,2.6801,2.8322,2.9743,3.1163,3.2451,3.3739,3.4779,3.5818,3.6604,3.7391,3.7631,3.7871,3.7857,3.7843,3.7651,3.746,3.7031,3.6603,3.6174,3.5746,3.5432,3.5119,3.4974,3.4828,3.4642,3.4455,3.4158,3.386,3.3508,3.3155,3.2629,3.2104,3.1395,3.0687,2.9674,2.8661,2.7538,2.6415,2.5237,2.406,2.282,2.1581,2.0317,1.9054,1.6971,1.5728,1.446,1.3191,1.1924,1.0657,0.95311,0.8405,0.7456,0.6507,0.57019,0.48968,0.42167,0.35366,0.30453,0.25541,0.22259,0.18977,0.16815,0.14653,0.13117,0.11581,0.10453,0.093255,0.084666,0.076078,0.069482,0.062887,0.057746,0.052606
0.052306,0.057478,0.06265,0.069348,0.076046,0.084832,0.093619,0.10508,0.11654,0.13225,0.14796,0.17088,0.1938,0.22914,0.26447,0.31816,0.37185,0.44476,0.51768,0.60079,0.68391,0.76758,0.85125,0.93729,1.0233,1.1232,1.2231,1.3416,1.4602,1.5935,1.8157,1.9644,2.1131,2.2633,2.4134,2.5757,2.738,2.8995,3.0609,3.2205,3.3801,3.5213,3.6625,3.7779,3.8933,3.9838,4.0744,4.1146,4.1549,4.1657,4.1765,4.1553,4.1341,4.0897,4.0453,3.9948,3.9444,3.9047,3.865,3.8305,3.796,3.7734,3.7508,3.7247,3.6987,3.6612,3.6237,3.5666,3.5095,3.4325,3.3555,3.2494,3.1432,3.0192,2.8951,2.7652,2.6352,2.4921,2.349,2.203,2.057,1.8308,1.6913,1.5528,1.4143,1.2786,1.1429,1.0229,0.90297,0.80301,0.70305,0.61827,0.53349,0.46003,0.38656,0.33139,0.27622,0.23922,0.20222,0.17832,0.15442,0.1378,0.12119,0.10908,0.096972,0.087869,0.078767,0.071839,0.064911,0.059526,0.05414
0.053903,0.059312,0.064722,0.071807,0.078893,0.088225,0.097557,0.1097,0.12185,0.13896,0.15608,0.18131,0.20653,0.24644,0.28634,0.34642,0.40649,0.4862,0.56592,0.65101,0.73611,0.82025,0.90439,0.99186,1.0793,1.1853,1.2913,1.4183,1.5453,1.6922,1.9308,2.0933,2.2559,2.4215,2.5872,2.7676,2.948,3.1189,3.2897,3.4668,3.6439,3.7975,3.951,4.0778,4.2047,4.3072,4.4097,4.4661,4.5226,4.5457,4.5688,4.5455,4.5223,4.4763,4.4302,4.3722,4.3141,4.2661,4.218,4.1636,4.1092,4.0826,4.056,4.0337,4.0114,3.9717,3.932,3.8703,3.8086,3.7255,3.6423,3.5313,3.4203,3.2845,3.1487,3.0066,2.8645,2.7023,2.54,2.3743,2.2086,1.9644,1.8097,1.6596,1.5095,1.3648,1.2201,1.0928,0.96545,0.86042,0.7554,0.66635,0.57731,0.49838,0.41946,0.35825,0.29704,0.25585,0.21466,0.18849,0.16231,0.14444,0.12656,0.11363,0.10069,0.091072,0.081456,0.074196,0.066936,0.061305,0.055675
0.055421,0.061084,0.066746,0.07422,0.081693,0.091499,0.10131,0.11428,0.12724,0.14592,0.16459,0.19249,0.22039,0.2649,0.3094,0.37519,0.44097,0.52393,0.60688,0.69301,0.77913,0.86525,0.95137,1.0439,1.1364,1.2537,1.371,1.5121,1.6532,1.814,2.0691,2.2458,2.4224,2.6069,2.7914,2.9836,3.1758,3.3709,3.5661,3.7526,3.9391,4.1034,4.2676,4.4056,4.5435,4.6557,4.7679,4.8305,4.893,4.9233,4.9536,4.9375,4.9213,4.8628,4.8043,4.7442,4.6841,4.6184,4.5527,4.4961,4.4396,4.4142,4.3888,4.3681,4.3474,4.3092,4.271,4.2098,4.1487,4.064,3.9792,3.8615,3.7438,3.5959,3.4481,3.2826,3.1171,2.9355,2.754,2.5639,2.3738,2.1078,1.9341,1.7704,1.6067,1.4516,1.2965,1.1622,1.0279,0.91705,0.80617,0.71309,0.62001,0.53682,0.45362,0.38711,0.3206,0.27462,0.22863,0.19957,0.1705,0.15118,0.13185,0.11809,0.10434,0.094235,0.084129,0.076552,0.068976,0.063069,0.057161
0.05694,0.062855,0.068771,0.076632,0.084492,0.094773,0.10505,0.11885,0.13264,0.15287,0.1731,0.20367,0.23424,0.28335,0.33247,0.40396,0.47545,0.56165,0.64785,0.735,0.82215,0.91025,0.99835,1.0959,1.1935,1.3221,1.4507,1.6059,1.761,1.9358,2.2075,2.3982,2.5889,2.7923,2.9957,3.1996,3.4035,3.623,3.8426,4.0384,4.2342,4.4092,4.5843,4.7333,4.8823,5.0042,5.1262,5.1948,5.2635,5.3009,5.3384,5.3294,5.3204,5.2494,5.1784,5.1162,5.054,4.9707,4.8873,4.8287,4.77,4.7458,4.7216,4.7024,4.6833,4.6466,4.6099,4.5493,4.4888,4.4024,4.3161,4.1917,4.0672,3.9074,3.7475,3.5586,3.3696,3.1688,2.968,2.7535,2.539,2.2512,2.0584,1.8811,1.7038,1.5383,1.3729,1.2316,1.0904,0.97367,0.85694,0.75983,0.66272,0.57525,0.48778,0.41598,0.34417,0.29338,0.2426,0.21065,0.1787,0.15791,0.13713,0.12256,0.108,0.097399,0.086802,0.078909,0.071017,0.064832,0.058648
0.058348,0.064532,0.070716,0.078885,0.087055,0.097842,0.10863,0.12326,0.13789,0.15961,0.18134,0.21488,0.24842,0.30159,0.35477,0.42958,0.50439,0.59225,0.68011,0.77082,0.86153,0.95445,1.0474,1.1549,1.2623,1.405,1.5477,1.7177,1.8877,2.0763,2.3643,2.5698,2.7754,2.9909,3.2064,3.4375,3.6685,3.9026,4.1366,4.35,4.5634,4.7482,4.933,5.0933,5.2537,5.3778,5.502,5.5755,5.6491,5.6824,5.7158,5.7045,5.6932,5.6241,5.555,5.478,5.4011,5.3169,5.2328,5.1751,5.1175,5.0962,5.0749,5.0592,5.0434,5.0035,4.9636,4.9049,4.8462,4.7594,4.6725,4.5376,4.4027,4.229,4.0553,3.8411,3.6268,3.3955,3.1641,2.932,2.6999,2.3913,2.1802,1.9881,1.796,1.6198,1.4436,1.2951,1.1465,1.0255,0.90455,0.80333,0.7021,0.61068,0.51926,0.44318,0.3671,0.31191,0.25672,0.22185,0.18698,0.16469,0.1424,0.12699,0.11159,0.10045,0.089316,0.081092,0.072867,0.066454,0.06004
0.059755,0.066208,0.072662,0.081139,0.089617,0.10091,0.1122,0.12767,0.14314,0.16636,0.18958,0.22608,0.26259,0.31983,0.37707,0.4552,0.53334,0.62286,0.71238,0.80665,0.90091,0.99866,1.0964,1.2138,1.3311,1.4879,1.6446,1.8295,2.0144,2.2169,2.521,2.7415,2.9619,3.1896,3.4172,3.6754,3.9336,4.1821,4.4307,4.6616,4.8926,5.0872,5.2818,5.4534,5.625,5.7514,5.8778,5.9562,6.0347,6.0639,6.0932,6.0796,6.066,5.9988,5.9316,5.8398,5.7481,5.6631,5.5782,5.5216,5.465,5.4466,5.4283,5.4159,5.4036,5.3604,5.3172,5.2605,5.2037,5.1163,5.0289,4.8835,4.7382,4.5506,4.3631,4.1236,3.8841,3.6221,3.3601,3.1105,2.8608,2.5315,2.302,2.0951,1.8882,1.7012,1.5143,1.3585,1.2027,1.0774,0.95216,0.84682,0.74148,0.64611,0.55073,0.47039,0.39004,0.33044,0.27084,0.23306,0.19527,0.17147,0.14766,0.13142,0.11518,0.1035,0.091831,0.083275,0.074718,0.068075,0.061432
0.061036,0.067703,0.07437,0.08314,0.09191,0.10367,0.11543,0.13174,0.14804,0.1728,0.19755,0.23671,0.27587,0.33596,0.39605,0.47648,0.5569,0.64991,0.74291,0.84239,0.94188,1.046,1.1502,1.2779,1.4056,1.5767,1.7477,1.9469,2.146,2.3605,2.6786,2.9065,3.1344,3.3828,3.6311,3.9058,4.1805,4.4491,4.7177,4.9684,5.2191,5.4321,5.6451,5.8195,5.9939,6.1234,6.2529,6.3317,6.4105,6.4319,6.4533,6.4326,6.4119,6.3455,6.279,6.1868,6.0946,6.0138,5.933,5.8797,5.8264,5.8082,5.79,5.7734,5.7568,5.7131,5.6695,5.6102,5.551,5.4542,5.3575,5.2018,5.0461,4.8345,4.6229,4.3669,4.1109,3.8247,3.5385,3.2682,2.9979,2.6557,2.4155,2.1947,1.9739,1.7758,1.5777,1.4136,1.2495,1.1204,0.99139,0.88352,0.77565,0.67648,0.57731,0.49364,0.40997,0.34695,0.28394,0.24349,0.20304,0.17759,0.15214,0.1352,0.11826,0.10618,0.094109,0.085212,0.076315,0.069467,0.062618
0.062318,0.069198,0.076078,0.085141,0.094204,0.10643,0.11866,0.1358,0.15295,0.17923,0.20552,0.24734,0.28916,0.35209,0.41503,0.49775,0.58047,0.67695,0.77343,0.87814,0.98285,1.0934,1.204,1.342,1.4801,1.6655,1.8509,2.0642,2.2776,2.5041,2.8361,3.0715,3.3069,3.576,3.845,4.1362,4.4274,4.7161,5.0047,5.2752,5.5456,5.777,6.0084,6.1856,6.3627,6.4954,6.6281,6.7072,6.7863,6.7999,6.8135,6.7856,6.7578,6.6922,6.6265,6.5338,6.4412,6.3645,6.2877,6.2378,6.1878,6.1697,6.1517,6.1308,6.11,6.0658,6.0217,5.96,5.8983,5.7922,5.6861,5.5201,5.3541,5.1184,4.8828,4.6102,4.3376,4.0273,3.7169,3.4259,3.1349,2.7799,2.5291,2.2944,2.0596,1.8504,1.6411,1.4687,1.2963,1.1635,1.0306,0.92021,0.80981,0.70684,0.60388,0.51689,0.4299,0.36347,0.29704,0.25392,0.2108,0.18371,0.15662,0.13898,0.12135,0.10887,0.096387,0.08715,0.077913,0.070858,0.063804
0.063393,0.070447,0.077501,0.086849,0.096197,0.10887,0.12153,0.13945,0.15736,0.18505,0.21275,0.25659,0.30042,0.36524,0.43005,0.51507,0.60008,0.70115,0.80222,0.91325,1.0243,1.1417,1.2592,1.4054,1.5516,1.7461,1.9405,2.1644,2.3883,2.6205,2.9598,3.2103,3.4608,3.7397,4.0186,4.3246,4.6306,4.9407,5.2508,5.5425,5.8343,6.0773,6.3203,6.5045,6.6887,6.8192,6.9497,7.0292,7.1088,7.1239,7.139,7.1078,7.0765,7.0089,6.9413,6.8548,6.7683,6.6994,6.6305,6.58,6.5294,6.5132,6.497,6.4756,6.4541,6.4015,6.349,6.2738,6.1987,6.0731,5.9475,5.7588,5.57,5.3193,5.0686,4.7773,4.486,4.1666,3.8473,3.5457,3.2441,2.8806,2.623,2.3797,2.1364,1.9167,1.6971,1.5164,1.3357,1.1976,1.0594,0.94742,0.83543,0.73025,0.62507,0.535,0.44492,0.37628,0.30763,0.26249,0.21735,0.18889,0.16043,0.14213,0.12383,0.111,0.098174,0.088684,0.079194,0.071958,0.064722
0.064469,0.071697,0.078925,0.088557,0.09819,0.1113,0.12441,0.14309,0.16177,0.19088,0.21998,0.26583,0.31168,0.37838,0.44508,0.53239,0.6197,0.72535,0.83101,0.94836,1.0657,1.19,1.3144,1.4687,1.6231,1.8267,2.0302,2.2646,2.499,2.7369,3.0834,3.3491,3.6147,3.9035,4.1923,4.5131,4.8339,5.1654,5.4968,5.8099,6.1229,6.3776,6.6322,6.8235,7.0147,7.1429,7.2712,7.3513,7.4313,7.4479,7.4645,7.4299,7.3952,7.3256,7.256,7.1757,7.0953,7.0343,6.9732,6.9221,6.8711,6.8567,6.8423,6.8203,6.7983,6.7372,6.6762,6.5876,6.4991,6.354,6.209,5.9975,5.7859,5.5202,5.2544,4.9444,4.6343,4.3059,3.9776,3.6654,3.3532,2.9813,2.717,2.465,2.2131,1.9831,1.7531,1.5641,1.3751,1.2316,1.0882,0.97462,0.86106,0.75366,0.64627,0.55311,0.45995,0.38909,0.31823,0.27107,0.2239,0.19407,0.16424,0.14528,0.12631,0.11314,0.099961,0.090218,0.080475,0.073057,0.065639
0.065323,0.072662,0.08,0.089838,0.099676,0.11314,0.1266,0.14592,0.16524,0.19546,0.22569,0.27262,0.31954,0.38706,0.45457,0.54401,0.63346,0.74409,0.85473,0.97755,1.1004,1.2307,1.361,1.5211,1.6811,1.8886,2.096,2.3386,2.5813,2.8267,3.182,3.4553,3.7285,4.0263,4.3241,4.654,4.9839,5.3264,5.6689,5.9932,6.3176,6.5804,6.8432,7.0367,7.2301,7.3691,7.5082,7.5905,7.6728,7.6896,7.7065,7.6802,7.6538,7.5959,7.5379,7.4669,7.3959,7.335,7.2741,7.2268,7.1795,7.1603,7.141,7.1123,7.0835,7.0075,6.9315,6.8212,6.711,6.5454,6.3798,6.1491,5.9184,5.6322,5.346,5.0269,4.7078,4.3783,4.0488,3.7349,3.421,3.0433,2.7746,2.5168,2.2591,2.0255,1.7919,1.5986,1.4053,1.2573,1.1094,0.99305,0.87672,0.76782,0.65892,0.5641,0.46928,0.39723,0.32519,0.27689,0.2286,0.19781,0.16702,0.14756,0.1281,0.11465,0.10119,0.091246,0.081297,0.073745,0.066193
0.066177,0.073626,0.081076,0.09112,0.10116,0.11497,0.12878,0.14874,0.1687,0.20005,0.2314,0.2794,0.3274,0.39573,0.46406,0.55564,0.64722,0.76284,0.87846,1.0067,1.135,1.2713,1.4077,1.5734,1.7392,1.9505,2.1618,2.4127,2.6635,2.9166,3.2805,3.5614,3.8424,4.1492,4.456,4.795,5.134,5.4874,5.8409,6.1766,6.5123,6.7833,7.0542,7.2499,7.4455,7.5953,7.7451,7.8297,7.9143,7.9314,7.9485,7.9305,7.9124,7.8661,7.8197,7.7581,7.6964,7.6356,7.5749,7.5314,7.4879,7.4639,7.4398,7.4042,7.3686,7.2777,7.1868,7.0548,6.9229,6.7368,6.5506,6.3008,6.0509,5.7443,5.4377,5.1095,4.7812,4.4507,4.1201,3.8044,3.4888,3.1053,2.8321,2.5686,2.3051,2.0679,1.8306,1.6331,1.4355,1.283,1.1306,1.0115,0.89237,0.78197,0.67157,0.57509,0.47861,0.40538,0.33215,0.28272,0.2333,0.20155,0.16981,0.14985,0.12989,0.11616,0.10243,0.092274,0.08212,0.074433,0.066746
0.066667,0.074227,0.081788,0.09195,0.10211,0.11612,0.13012,0.15049,0.17085,0.20282,0.2348,0.28339,0.33199,0.40079,0.4696,0.56291,0.65623,0.77422,0.89222,1.0239,1.1556,1.2965,1.4374,1.6077,1.7779,1.9946,2.2113,2.467,2.7227,2.9818,3.3524,3.6381,3.9239,4.2349,4.5458,4.8931,5.2403,5.5942,5.9481,6.2798,6.6115,6.8822,7.1529,7.3563,7.5597,7.7109,7.8621,7.9481,8.0341,8.06,8.0859,8.0799,8.0739,8.0394,8.0048,7.9589,7.9131,7.8578,7.8025,7.7667,7.7309,7.7021,7.6734,7.6237,7.5739,7.4658,7.3577,7.2054,7.0531,6.8464,6.6397,6.3719,6.1041,5.7869,5.4696,5.1341,4.7985,4.4669,4.1354,3.8212,3.5069,3.1194,2.843,2.583,2.323,2.0857,1.8485,1.652,1.4556,1.3017,1.1478,1.0243,0.90076,0.78822,0.67569,0.57897,0.48225,0.40902,0.33579,0.28595,0.23611,0.20382,0.17153,0.15123,0.13093,0.117,0.10308,0.092804,0.082531,0.074789,0.067047
0.067157,0.074828,0.0825,0.09278,0.10306,0.11726,0.13147,0.15224,0.173,0.2056,0.2382,0.28739,0.33658,0.40585,0.47513,0.57019,0.66525,0.78561,0.90598,1.0411,1.1761,1.3216,1.4672,1.6419,1.8167,2.0388,2.2608,2.5213,2.7818,3.0469,3.4242,3.7149,4.0055,4.3206,4.6357,4.9911,5.3466,5.7009,6.0553,6.383,6.7107,6.9811,7.2516,7.4628,7.6739,7.8265,7.9792,8.0665,8.1538,8.1886,8.2234,8.2294,8.2354,8.2126,8.1898,8.1598,8.1297,8.0799,8.0301,8.0019,7.9738,7.9404,7.907,7.8431,7.7792,7.654,7.5287,7.356,7.1833,6.956,6.7287,6.443,6.1573,5.8294,5.5016,5.1586,4.8157,4.4832,4.1507,3.8379,3.5251,3.1336,2.854,2.5974,2.3409,2.1036,1.8664,1.671,1.4757,1.3204,1.1651,1.0371,0.90914,0.79447,0.6798,0.58284,0.48589,0.41266,0.33942,0.28918,0.23893,0.20609,0.17326,0.15261,0.13197,0.11785,0.10373,0.093334,0.082942,0.075145,0.067347
0.067316,0.075058,0.0828,0.093136,0.10347,0.11772,0.13197,0.15284,0.1737,0.20654,0.23938,0.28901,0.33863,0.40894,0.47924,0.57486,0.67047,0.79036,0.91025,1.045,1.1798,1.3288,1.4777,1.6577,1.8376,2.0646,2.2917,2.5535,2.8154,3.0819,3.4607,3.757,4.0532,4.3755,4.6978,5.0525,5.4073,5.7572,6.1071,6.424,6.741,7.0042,7.2674,7.4758,7.6842,7.8346,7.985,8.0689,8.1528,8.1903,8.2278,8.2402,8.2526,8.2521,8.2515,8.2365,8.2215,8.1857,8.15,8.1265,8.103,8.0662,8.0295,7.9573,7.8851,7.7483,7.6116,7.4224,7.2333,6.9917,6.7501,6.454,6.158,5.8214,5.4848,5.1363,4.7878,4.4568,4.1258,3.8185,3.5112,3.1252,2.8514,2.5916,2.3317,2.097,1.8624,1.6722,1.482,1.3281,1.1742,1.043,0.91183,0.79479,0.67774,0.58118,0.48462,0.41234,0.34006,0.2899,0.23975,0.20679,0.17382,0.15303,0.13223,0.11802,0.1038,0.093413,0.083021,0.075216,0.06741
0.067474,0.075287,0.083101,0.093492,0.10388,0.11818,0.13248,0.15344,0.17439,0.20748,0.24057,0.29063,0.34069,0.41202,0.48336,0.57952,0.67569,0.7951,0.91452,1.049,1.1834,1.3359,1.4883,1.6734,1.8585,2.0905,2.3225,2.5857,2.8489,3.1168,3.4973,3.7991,4.1009,4.4304,4.7599,5.114,5.4681,5.8134,6.1588,6.4651,6.7714,7.0273,7.2832,7.4889,7.6945,7.8427,7.9909,8.0714,8.1519,8.1921,8.2322,8.2511,8.2699,8.2915,8.3132,8.3132,8.3132,8.2915,8.2699,8.2511,8.2322,8.1921,8.1519,8.0714,7.9909,7.8427,7.6945,7.4889,7.2832,7.0273,6.7714,6.4651,6.1588,5.8134,5.4681,5.114,4.7599,4.4304,4.1009,3.7991,3.4973,3.1168,2.8489,2.5857,2.3225,2.0905,1.8585,1.6734,1.4883,1.3359,1.1834,1.049,0.91452,0.7951,0.67569,0.57952,0.48336,0.41202,0.34069,0.29063,0.24057,0.20748,0.17439,0.15344,0.13248,0.11818,0.10388,0.093492,0.083101,0.075287,0.067474
0.06741,0.075216,0.083021,0.093413,0.1038,0.11802,0.13223,0.15303,0.17382,0.20679,0.23975,0.2899,0.34006,0.41234,0.48462,0.58118,0.67774,0.79479,0.91183,1.043,1.1742,1.3281,1.482,1.6722,1.8624,2.097,2.3317,2.5916,2.8514,3.1252,3.5112,3.8185,4.1258,4.4568,4.7878,5.1363,5.4848,5.8214,6.158,6.454,6.7501,6.9917,7.2333,7.4224,7.6116,7.7483,7.8851,7.9573,8.0295,8.0662,8.103,8.1265,8.15,8.1857,8.2215,8.2365,8.2515,8.2521,8.2526,8.2402,8.2278,8.1903,8.1528,8.0689,7.985,7.8346,7.6842,7.4758,7.2674,7.0042,6.741,6.424,6.1071,5.7572,5.4073,5.0525,4.6978,4.3755,4.0532,3.757,3.4607,3.0819,2.8154,2.5535,2.2917,2.0646,1.8376,1.6577,1.4777,1.3288,1.1798,1.045,0.91025,0.79036,0.67047,0.57486,0.47924,0.40894,0.33863,0.28901,0.23938,0.20654,0.1737,0.15284,0.13197,0.11772,0.10347,0.093136,0.0828,0.075058,0.067316
0.067347,0.075145,0.082942,0.093334,0.10373,0.11785,0.13197,0.15261,0.17326,0.20609,0.23893,0.28918,0.33942,0.41266,0.48589,0.58284,0.6798,0.79447,0.90914,1.0371,1.1651,1.3204,1.4757,1.671,1.8664,2.1036,2.3409,2.5974,2.854,3.1336,3.5251,3.8379,4.1507,4.4832,4.8157,5.1586,5.5016,5.8294,6.1573,6.443,6.7287,6.956,7.1833,7.356,7.5287,7.654,7.7792,7.8431,7.907,7.9404,7.9738,8.0019,8.0301,8.0799,8.1297,8.1598,8.1898,8.2126,8.2354,8.2294,8.2234,8.1886,8.1538,8.0665,7.9792,7.8265,7.6739,7.4628,7.2516,6.9811,6.7107,6.383,6.0553,5.7009,5.3466,4.9911,4.6357,4.3206,4.0055,3.7149,3.4242,3.0469,2.7818,2.5213,2.2608,2.0388,1.8167,1.6419,1.4672,1.3216,1.1761,1.0411,0.90598,0.78561,0.66525,0.57019,0.47513,0.40585,0.33658,0.28739,0.2382,0.2056,0.173,0.15224,0.13147,0.11726,0.10306,0.09278,0.0825,0.074828,0.067157
0.067047,0.074789,0.082531,0.092804,0.10308,0.117,0.13093,0.15123,0.17153,0.20382,0.23611,0.28595,0.33579,0.40902,0.48225,0.57897,0.67569,0.78822,0.90076,1.0243,1.1478,1.3017,1.4556,1.652,1.8485,2.0857,2.323,2.583,2.843,3.1194,3.5069,3.8212,4.1354,4.4669,4.7985,5.1341,5.4696,5.7869,6.1041,6.3719,6.6397,6.8464,7.0531,7.2054,7.3577,7.4658,7.5739,7.6237,7.6734,7.7021,7.7309,7.7667,7.8025,7.8578,7.9131,7.9589,8.0048,8.0394,8.0739,8.0799,8.0859,8.06,8.0341,7.9481,7.8621,7.7109,7.5597,7.3563,7.1529,6.8822,6.6115,6.2798,5.9481,5.5942,5.2403,4.8931,4.5458,4.2349,3.9239,3.6381,3.3524,2.9818,2.7227,2.467,2.2113,1.9946,1.7779,1.6077,1.4374,1.2965,1.1556,1.0239,0.89222,0.77422,0.65623,0.56291,0.4696,0.40079,0.33199,0.28339,0.2348,0.20282,0.17085,0.15049,0.13012,0.11612,0.10211,0.09195,0.081788,0.074227,0.066667
0.066746,0.074433,0.08212,0.092274,0.10243,0.11616,0.12989,0.14985,0.16981,0.20155,0.2333,0.28272,0.33215,0.40538,0.47861,0.57509,0.67157,0.78197,0.89237,1.0115,1.1306,1.283,1.4355,1.6331,1.8306,2.0679,2.3051,2.5686,2.8321,3.1053,3.4888,3.8044,4.1201,4.4507,4.7812,5.1095,5.4377,5.7443,6.0509,6.3008,6.5506,6.7368,6.9229,7.0548,7.1868,7.2777,7.3686,7.4042,7.4398,7.4639,7.4879,7.5314,7.5749,7.6356,7.6964,7.7581,7.8197,7.8661,7.9124,7.9305,7.9485,7.9314,7.9143,7.8297,7.7451,7.5953,7.4455,7.2499,7.0542,6.7833,6.5123,6.1766,5.8409,5.4874,5.134,4.795,4.456,4.1492,3.8424,3.5614,3.2805,2.9166,2.6635,2.4127,2.1618,1.9505,1.7392,1.5734,1.4077,1.2713,1.135,1.0067,0.87846,0.76284,0.64722,0.55564,0.46406,0.39573,0.3274,0.2794,0.2314,0.20005,0.1687,0.14874,0.12878,0.11497,0.10116,0.09112,0.081076,0.073626,0.066177
0.066193,0.073745,0.081297,0.091246,0.10119,0.11465,0.1281,0.14756,0.16702,0.19781,0.2286,0.27689,0.32519,0.39723,0.46928,0.5641,0.65892,0.76782,0.87672,0.99305,1.1094,1.2573,1.4053,1.5986,1.7919,2.0255,2.2591,2.5168,2.7746,3.0433,3.421,3.7349,4.0488,4.3783,4.7078,5.0269,5.346,5.6322,5.9184,6.1491,6.3798,6.5454,6.711,6.8212,6.9315,7.0075,7.0835,7.1123,7.141,7.1603,7.1795,7.2268,7.2741,7.335,7.3959,7.4669,7.5379,7.5959,7.6538,7.6802,7.7065,7.6896,7.6728,7.5905,7.5082,7.3691,7.2301,7.0367,6.8432,6.5804,6.3176,5.9932,5.6689,5.3264,4.9839,4.654,4.3241,4.0263,3.7285,3.4553,3.182,2.8267,2.5813,2.3386,2.096,1.8886,1.6811,1.5211,1.361,1.2307,1.1004,0.97755,0.85473,0.74409,0.63346,0.54401,0.45457,0.38706,0.31954,0.27262,0.22569,0.19546,0.16524,0.14592,0.1266,0.11314,0.099676,0.089838,0.08,0.072662,0.065323
0.065639,0.073057,0.080475,0.090218,0.099961,0.11314,0.12631,0.14528,0.16424,0.19407,0.2239,0.27107,0.31823,0.38909,0.45995,0.55311,0.64627,0.75366,0.86106,0.97462,1.0882,1.2316,1.3751,1.5641,1.7531,1.9831,2.2131,2.465,2.717,2.9813,3.3532,3.6654,3.9776,4.3059,4.6343,4.9444,5.2544,5.5202,5.7859,5.9975,6.209,6.354,6.4991,6.5876,6.6762,6.7372,6.7983,6.8203,6.8423,6.8567,6.8711,6.9221,6.9732,7.0343,7.0953,7.1757,7.256,7.3256,7.3952,7.4299,7.4645,7.4479,7.4313,7.3513,7.2712,7.1429,7.0147,6.8235,6.6322,6.3776,6.1229,5.8099,5.4968,5.1654,4.8339,4.5131,4.1923,3.9035,3.6147,3.3491,3.0834,2.7369,2.499,2.2646,2.0302,1.8267,1.6231,1.4687,1.3144,1.19,1.0657,0.94836,0.83101,0.72535,0.6197,0.53239,0.44508,0.37838,0.31168,0.26583,0.21998,0.19088,0.16177,0.14309,0.12441,0.1113,0.09819,0.088557,0.078925,0.071697,0.064469
0.064722,0.071958,0.079194,0.088684,0.098174,0.111,0.12383,0.14213,0.16043,0.18889,0.21735,0.26249,0.30763,0.37628,0.44492,0.535,0.62507,0.73025,0.83543,0.94742,1.0594,1.1976,1.3357,1.5164,1.6971,1.9167,2.1364,2.3797,2.623,2.8806,3.2441,3.5457,3.8473,4.1666,4.486,4.7773,5.0686,5.3193,5.57,5.7588,5.9475,6.0731,6.1987,6.2738,6.349,6.4015,6.4541,6.4756,6.497,6.5132,6.5294,6.58,6.6305,6.6994,6.7683,6.8548,6.9413,7.0089,7.0765,7.1078,7.139,7.1239,7.1088,7.0292,6.9497,6.8192,6.6887,6.5045,6.3203,6.0773,5.8343,5.5425,5.2508,4.9407,4.6306,4.3246,4.0186,3.7397,3.4608,3.2103,2.9598,2.6205,2.3883,2.1644,1.9405,1.7461,1.5516,1.4054,1.2592,1.1417,1.0243,0.91325,0.80222,0.70115,0.60008,0.51507,0.43005,0.36524,0.30042,0.25659,0.21275,0.18505,0.15736,0.13945,0.12153,0.10887,0.096197,0.086849,0.077501,0.070447,0.063393
0.063804,0.070858,0.077913,0.08715,0.096387,0.10887,0.12135,0.13898,0.15662,0.18371,0.2108,0.25392,0.29704,0.36347,0.4299,0.51689,0.60388,0.70684,0.80981,0.92021,1.0306,1.1635,1.2963,1.4687,1.6411,1.8504,2.0596,2.2944,2.5291,2.7799,3.1349,3.4259,3.7169,4.0273,4.3376,4.6102,4.8828,5.1184,5.3541,5.5201,5.6861,5.7922,5.8983,5.96,6.0217,6.0658,6.11,6.1308,6.1517,6.1697,6.1878,6.2378,6.2877,6.3645,6.4412,6.5338,6.6265,6.6922,6.7578,6.7856,6.8135,6.7999,6.7863,6.7072,6.6281,6.4954,6.3627,6.1856,6.0084,5.777,5.5456,5.2752,5.0047,4.7161,4.4274,4.1362,3.845,3.576,3.3069,3.0715,2.8361,2.5041,2.2776,2.0642,1.8509,1.6655,1.4801,1.342,1.204,1.0934,0.98285,0.87814,0.77343,0.67695,0.58047,0.49775,0.41503,0.35209,0.28916,0.24734,0.20552,0.17923,0.15295,0.1358,0.11866,0.10643,0.094204,0.085141,0.076078,0.069198,0.062318
0.062618,0.069467,0.076315,0.085212,0.094109,0.10618,0.11826,0.1352,0.15214,0.17759,0.20304,0.24349,0.28394,0.34695,0.40997,0.49364,0.57731,0.67648,0.77565,0.88352,0.99139,1.1204,1.2495,1.4136,1.5777,1.7758,1.9739,2.1947,2.4155,2.6557,2.9979,3.2682,3.5385,3.8247,4.1109,4.3669,4.6229,4.8345,5.0461,5.2018,5.3575,5.4542,5.551,5.6102,5.6695,5.7131,5.7568,5.7734,5.79,5.8082,5.8264,5.8797,5.933,6.0138,6.0946,6.1868,6.279,6.3455,6.4119,6.4326,6.4533,6.4319,6.4105,6.3317,6.2529,6.1234,5.9939,5.8195,5.6451,5.4321,5.2191,4.9684,4.7177,4.4491,4.1805,3.9058,3.6311,3.3828,3.1344,2.9065,2.6786,2.3605,2.146,1.9469,1.7477,1.5767,1.4056,1.2779,1.1502,1.046,0.94188,0.84239,0.74291,0.64991,0.5569,0.47648,0.39605,0.33596,0.27587,0.23671,0.19755,0.1728,0.14804,0.13174,0.11543,0.10367,0.09191,0.08314,0.07437,0.067703,0.061036
0.061432,0.068075,0.074718,0.083275,0.091831,0.1035,0.11518,0.13142,0.14766,0.17147,0.19527,0.23306,0.27084,0.33044,0.39004,0.47039,0.55073,0.64611,0.74148,0.84682,0.95216,1.0774,1.2027,1.3585,1.5143,1.7012,1.8882,2.0951,2.302,2.5315,2.8608,3.1105,3.3601,3.6221,3.8841,4.1236,4.3631,4.5506,4.7382,4.8835,5.0289,5.1163,5.2037,5.2605,5.3172,5.3604,5.4036,5.4159,5.4283,5.4466,5.465,5.5216,5.5782,5.6631,5.7481,5.8398,5.9316,5.9988,6.066,6.0796,6.0932,6.0639,6.0347,5.9562,5.8778,5.7514,5.625,5.4534,5.2818,5.0872,4.8926,4.6616,4.4307,4.1821,3.9336,3.6754,3.4172,3.1896,2.9619,2.7415,2.521,2.2169,2.0144,1.8295,1.6446,1.4879,1.3311,1.2138,1.0964,0.99866,0.90091,0.80665,0.71238,0.62286,0.53334,0.4552,0.37707,0.31983,0.26259,0.22608,0.18958,0.16636,0.14314,0.12767,0.1122,0.10091,0.089617,0.081139,0.072662,0.066208,0.059755
0.06004,0.066454,0.072867,0.081092,0.089316,0.10045,0.11159,0.12699,0.1424,0.16469,0.18698,0.22185,0.25672,0.31191,0.3671,0.44318,0.51926,0.61068,0.7021,0.80333,0.90455,1.0255,1.1465,1.2951,1.4436,1.6198,1.796,1.9881,2.1802,2.3913,2.6999,2.932,3.1641,3.3955,3.6268,3.8411,4.0553,4.229,4.4027,4.5376,4.6725,4.7594,4.8462,4.9049,4.9636,5.0035,5.0434,5.0592,5.0749,5.0962,5.1175,5.1751,5.2328,5.3169,5.4011,5.478,5.555,5.6241,5.6932,5.7045,5.7158,5.6824,5.6491,5.5755,5.502,5.3778,5.2537,5.0933,4.933,4.7482,4.5634,4.35,4.1366,3.9026,3.6685,3.4375,3.2064,2.9909,2.7754,2.5698,2.3643,2.0763,1.8877,1.7177,1.5477,1.405,1.2623,1.1549,1.0474,0.95445,0.86153,0.77082,0.68011,0.59225,0.50439,0.42958,0.35477,0.30159,0.24842,0.21488,0.18134,0.15961,0.13789,0.12326,0.10863,0.097842,0.087055,0.078885,0.070716,0.064532,0.058348
0.058648,0.064832,0.071017,0.078909,0.086802,0.097399,0.108,0.12256,0.13713,0.15791,0.1787,0.21065,0.2426,0.29338,0.34417,0.41598,0.48778,0.57525,0.66272,0.75983,0.85694,0.97367,1.0904,1.2316,1.3729,1.5383,1.7038,1.8811,2.0584,2.2512,2.539,2.7535,2.968,3.1688,3.3696,3.5586,3.7475,3.9074,4.0672,4.1917,4.3161,4.4024,4.4888,4.5493,4.6099,4.6466,4.6833,4.7024,4.7216,4.7458,4.77,4.8287,4.8873,4.9707,5.054,5.1162,5.1784,5.2494,5.3204,5.3294,5.3384,5.3009,5.2635,5.1948,5.1262,5.0042,4.8823,4.7333,4.5843,4.4092,4.2342,4.0384,3.8426,3.623,3.4035,3.1996,2.9957,2.7923,2.5889,2.3982,2.2075,1.9358,1.761,1.6059,1.4507,1.3221,1.1935,1.0959,0.99835,0.91025,0.82215,0.735,0.64785,0.56165,0.47545,0.40396,0.33247,0.28335,0.23424,0.20367,0.1731,0.15287,0.13264,0.11885,0.10505,0.094773,0.084492,0.076632,0.068771,0.062855,0.05694
0.057161,0.063069,0.068976,0.076552,0.084129,0.094235,0.10434,0.11809,0.13185,0.15118,0.1705,0.19957,0.22863,0.27462,0.3206,0.38711,0.45362,0.53682,0.62001,0.71309,0.80617,0.91705,1.0279,1.1622,1.2965,1.4516,1.6067,1.7704,1.9341,2.1078,2.3738,2.5639,2.754,2.9355,3.1171,3.2826,3.4481,3.5959,3.7438,3.8615,3.9792,4.064,4.1487,4.2098,4.271,4.3092,4.3474,4.3681,4.3888,4.4142,4.4396,4.4961,4.5527,4.6184,4.6841,4.7442,4.8043,4.8628,4.9213,4.9375,4.9536,4.9233,4.893,4.8305,4.7679,4.6557,4.5435,4.4056,4.2676,4.1034,3.9391,3.7526,3.5661,3.3709,3.1758,2.9836,2.7914,2.6069,2.4224,2.2458,2.0691,1.814,1.6532,1.5121,1.371,1.2537,1.1364,1.0439,0.95137,0.86525,0.77913,0.69301,0.60688,0.52393,0.44097,0.37519,0.3094,0.2649,0.22039,0.19249,0.16459,0.14592,0.12724,0.11428,0.10131,0.091499,0.081693,0.07422,0.066746,0.061084,0.055421
0.055675,0.061305,0.066936,0.074196,0.081456,0.091072,0.10069,0.11363,0.12656,0.14444,0.16231,0.18849,0.21466,0.25585,0.29704,0.35825,0.41946,0.49838,0.57731,0.66635,0.7554,0.86042,0.96545,1.0928,1.2201,1.3648,1.5095,1.6596,1.8097,1.9644,2.2086,2.3743,2.54,2.7023,2.8645,3.0066,3.1487,3.2845,3.4203,3.5313,3.6423,3.7255,3.8086,3.8703,3.932,3.9717,4.0114,4.0337,4.056,4.0826,4.1092,4.1636,4.218,4.2661,4.3141,4.3722,4.4302,4.4763,4.5223,4.5455,4.5688,4.5457,4.5226,4.4661,4.4097,4.3072,4.2047,4.0778,3.951,3.7975,3.6439,3.4668,3.2897,3.1189,2.948,2.7676,2.5872,2.4215,2.2559,2.0933,1.9308,1.6922,1.5453,1.4183,1.2913,1.1853,1.0793,0.99186,0.90439,0.82025,0.73611,0.65101,0.56592,0.4862,0.40649,0.34642,0.28634,0.24644,0.20653,0.18131,0.15608,0.13896,0.12185,0.1097,0.097557,0.088225,0.078893,0.071807,0.064722,0.059312,0.053903
0.05414,0.059526,0.064911,0.071839,0.078767,0.087869,0.096972,0.10908,0.12119,0.1378,0.15442,0.17832,0.20222,0.23922,0.27622,0.33139,0.38656,0.46003,0.53349,0.61827,0.70305,0.80301,0.90297,1.0229,1.1429,1.2786,1.4143,1.5528,1.6913,1.8308,2.057,2.203,2.349,2.4921,2.6352,2.7652,2.8951,3.0192,3.1432,3.2494,3.3555,3.4325,3.5095,3.5666,3.6237,3.6612,3.6987,3.7247,3.7508,3.7734,3.796,3.8305,3.865,3.9047,3.9444,3.9948,4.0453,4.0897,4.1341,4.1553,4.1765,4.1657,4.1549,4.1146,4.0744,3.9838,3.8933,3.7779,3.6625,3.5213,3.3801,3.2205,3.0609,2.8995,2.738,2.5757,2.4134,2.2633,2.1131,1.9644,1.8157,1.5935,1.4602,1.3416,1.2231,1.1232,1.0233,0.93729,0.85125,0.76758,0.68391,0.60079,0.51768,0.44476,0.37185,0.31816,0.26447,0.22914,0.1938,0.17088,0.14796,0.13225,0.11654,0.10508,0.093619,0.084832,0.076046,0.069348,0.06265,0.057478,0.052306
0.052606,0.057746,0.062887,0.069482,0.076078,0.084666,0.093255,0.10453,0.11581,0.13117,0.14653,0.16815,0.18977,0.22259,0.25541,0.30453,0.35366,0.42167,0.48968,0.57019,0.6507,0.7456,0.8405,0.95311,1.0657,1.1924,1.3191,1.446,1.5728,1.6971,1.9054,2.0317,2.1581,2.282,2.406,2.5237,2.6415,2.7538,2.8661,2.9674,3.0687,3.1395,3.2104,3.2629,3.3155,3.3508,3.386,3.4158,3.4455,3.4642,3.4828,3.4974,3.5119,3.5432,3.5746,3.6174,3.6603,3.7031,3.746,3.7651,3.7843,3.7857,3.7871,3.7631,3.7391,3.6604,3.5818,3.4779,3.3739,3.2451,3.1163,2.9743,2.8322,2.6801,2.528,2.3838,2.2397,2.105,1.9704,1.8355,1.7005,1.4948,1.3751,1.265,1.1549,1.0611,0.96734,0.88273,0.79811,0.71491,0.63172,0.55058,0.46944,0.40332,0.33721,0.2899,0.2426,0.21183,0.18107,0.16046,0.13985,0.12554,0.11122,0.10045,0.08968,0.08144,0.073199,0.066889,0.060578,0.055643,0.050708
0.049585,0.0552,0.060815,0.06707,0.073326,0.081377,0.089427,0.099961,0.11049,0.12472,0.13895,0.15856,0.17817,0.20756,0.23695,0.28069,0.32443,0.3861,0.44777,0.52242,0.59708,0.68731,0.77755,0.88296,0.98838,1.1068,1.2252,1.3454,1.4656,1.5808,1.7771,1.8908,2.0046,2.1131,2.2215,2.3275,2.4336,2.5343,2.6349,2.7306,2.8262,2.8928,2.9593,3.0079,3.0564,3.0836,3.1108,3.13,3.1492,3.1578,3.1663,3.1698,3.1733,3.1973,3.2212,3.2578,3.2943,3.3333,3.3723,3.3976,3.4229,3.4344,3.446,3.4298,3.4135,3.3552,3.2968,3.2053,3.1138,2.9969,2.88,2.7524,2.6248,2.4872,2.3495,2.2186,2.0877,1.9634,1.839,1.717,1.5949,1.401,1.2903,1.1868,1.0833,0.99234,0.90139,0.81748,0.73358,0.65291,0.57225,0.49712,0.42199,0.36374,0.3055,0.2646,0.22369,0.19649,0.16929,0.15075,0.13221,0.11908,0.10596,0.09588,0.085805,0.078063,0.070321,0.064358,0.058395,0.053729,0.049063
0.046564,0.052654,0.058743,0.064658,0.070574,0.078087,0.0856,0.09539,0.10518,0.11828,0.13137,0.14898,0.16658,0.19254,0.21849,0.25685,0.2952,0.35053,0.40585,0.47466,0.54346,0.62903,0.7146,0.81282,0.91104,1.0211,1.1312,1.2448,1.3583,1.4645,1.6488,1.75,1.8511,1.9441,2.0371,2.1313,2.2256,2.3147,2.4038,2.4938,2.5838,2.646,2.7083,2.7528,2.7973,2.8165,2.8356,2.8443,2.853,2.8514,2.8498,2.8422,2.8347,2.8513,2.8679,2.8981,2.9283,2.9634,2.9985,3.03,3.0615,3.0831,3.1048,3.0964,3.088,3.0499,3.0118,2.9327,2.8536,2.7486,2.6437,2.5306,2.4175,2.2943,2.1711,2.0534,1.9357,1.8217,1.7077,1.5985,1.4893,1.3072,1.2055,1.1086,1.0116,0.92353,0.83543,0.75224,0.66904,0.59091,0.51277,0.44366,0.37454,0.32416,0.27379,0.23929,0.20479,0.18115,0.1575,0.14104,0.12457,0.11263,0.10069,0.091309,0.08193,0.074686,0.067442,0.061827,0.056212,0.051815,0.047418
0.045726,0.051167,0.056608,0.062191,0.067774,0.074789,0.081804,0.09093,0.10006,0.11213,0.12421,0.14025,0.1563,0.17948,0.20266,0.23632,0.26997,0.31878,0.36758,0.43021,0.49285,0.57082,0.6488,0.73974,0.83069,0.93389,1.0371,1.1461,1.255,1.3575,1.5352,1.6316,1.7279,1.8146,1.9014,1.9847,2.0681,2.1468,2.2255,2.3038,2.382,2.4351,2.4881,2.5253,2.5626,2.575,2.5874,2.5866,2.5857,2.5745,2.5632,2.5525,2.5417,2.5494,2.5571,2.5786,2.6001,2.6302,2.6604,2.6934,2.7265,2.7511,2.7758,2.7753,2.7747,2.7482,2.7218,2.6599,2.598,2.5066,2.4151,2.3144,2.2137,2.1059,1.9981,1.8926,1.787,1.6818,1.5766,1.4752,1.3738,1.2029,1.1094,1.0185,0.92765,0.84382,0.75999,0.68114,0.6023,0.53002,0.45773,0.39687,0.33601,0.29239,0.24876,0.21888,0.18899,0.16812,0.14725,0.13254,0.11783,0.10672,0.095612,0.086889,0.078166,0.071428,0.06469,0.059423,0.054156,0.050676,0.047197
0.044888,0.04968,0.054472,0.059724,0.064975,0.071491,0.078008,0.086469,0.094931,0.10599,0.11704,0.13153,0.14602,0.16642,0.18683,0.21579,0.24475,0.28702,0.3293,0.38577,0.44223,0.51262,0.583,0.66667,0.75034,0.84666,0.94299,1.0474,1.1518,1.2506,1.4217,1.5132,1.6047,1.6852,1.7657,1.8381,1.9106,1.9789,2.0472,2.1138,2.1803,2.2241,2.2678,2.2978,2.3278,2.3336,2.3393,2.3288,2.3184,2.2975,2.2766,2.2627,2.2488,2.2475,2.2463,2.2591,2.2719,2.297,2.3222,2.3568,2.3915,2.4192,2.4468,2.4541,2.4614,2.4466,2.4317,2.3871,2.3424,2.2645,2.1866,2.0982,2.0098,1.9175,1.8252,1.7317,1.6382,1.5418,1.4454,1.3519,1.2583,1.0985,1.0132,0.92844,0.84366,0.7641,0.68454,0.61005,0.53555,0.46912,0.40269,0.35009,0.29748,0.26061,0.22374,0.19847,0.17319,0.1551,0.137,0.12405,0.1111,0.10082,0.090534,0.082468,0.074401,0.06817,0.061938,0.057019,0.0521,0.049538,0.046975
0.042483,0.04654,0.050597,0.056386,0.062175,0.068272,0.07437,0.082246,0.090123,0.10018,0.11024,0.12344,0.13664,0.1504,0.16416,0.19418,0.2242,0.26081,0.29742,0.34697,0.39652,0.45931,0.52211,0.59676,0.67142,0.75959,0.84777,0.94433,1.0409,1.1352,1.2987,1.3883,1.4779,1.5552,1.6325,1.6986,1.7648,1.8271,1.8894,1.9438,1.9982,2.0363,2.0744,2.0949,2.1154,2.1125,2.1097,2.0924,2.0751,2.0513,2.0274,2.011,1.9946,1.9889,1.9831,1.9895,1.9959,2.0139,2.032,2.0615,2.0911,2.1175,2.1438,2.1556,2.1675,2.1626,2.1577,2.1255,2.0932,2.0311,1.9691,1.8943,1.8194,1.737,1.6545,1.5686,1.4826,1.3958,1.3091,1.2246,1.1402,0.99052,0.91262,0.83456,0.75651,0.6832,0.60989,0.54156,0.47323,0.41504,0.35685,0.31204,0.26722,0.23568,0.20413,0.18218,0.16022,0.14411,0.128,0.11624,0.10448,0.095082,0.085679,0.078261,0.070843,0.06507,0.059297,0.05467,0.050044,0.047315,0.044587
0.040079,0.043401,0.046722,0.053049,0.059376,0.065054,0.070732,0.078023,0.085315,0.094378,0.10344,0.11535,0.12726,0.13438,0.1415,0.17258,0.20365,0.23459,0.26553,0.30817,0.35081,0.40601,0.46121,0.52685,0.59249,0.67252,0.75256,0.84129,0.93002,1.0197,1.1756,1.2634,1.3512,1.4252,1.4993,1.5591,1.619,1.6753,1.7317,1.7739,1.8161,1.8485,1.881,1.892,1.9029,1.8915,1.8801,1.856,1.8319,1.805,1.7781,1.7593,1.7405,1.7302,1.7199,1.7199,1.7199,1.7308,1.7417,1.7662,1.7908,1.8157,1.8407,1.8572,1.8736,1.8787,1.8837,1.8638,1.844,1.7978,1.7516,1.6903,1.6291,1.5564,1.4837,1.4054,1.327,1.2499,1.1727,1.0974,1.022,0.88257,0.81203,0.74069,0.66936,0.6023,0.53523,0.47308,0.41092,0.36097,0.31102,0.27399,0.23696,0.21074,0.18452,0.16588,0.14725,0.13313,0.119,0.10844,0.097873,0.089348,0.080823,0.074053,0.067284,0.06197,0.056655,0.052321,0.047988,0.045093,0.042199
0.039288,0.042507,0.045726,0.05093,0.056133,0.06174,0.067347,0.074085,0.080823,0.089158,0.097494,0.10834,0.11919,0.12902,0.13885,0.1627,0.18654,0.21321,0.23987,0.2762,0.31252,0.36029,0.40807,0.46556,0.52306,0.59312,0.66319,0.74196,0.82072,0.90345,1.0496,1.1322,1.2148,1.2842,1.3535,1.4111,1.4687,1.5174,1.566,1.6051,1.6442,1.6689,1.6936,1.6989,1.7042,1.6885,1.6727,1.6459,1.619,1.593,1.567,1.5463,1.5257,1.5137,1.5016,1.498,1.4944,1.5031,1.5119,1.5329,1.554,1.5737,1.5935,1.6106,1.6277,1.632,1.6363,1.6265,1.6166,1.5837,1.5507,1.4994,1.4481,1.3846,1.3211,1.2514,1.1817,1.1126,1.0435,0.97555,0.90759,0.77731,0.71317,0.6503,0.58743,0.52772,0.46801,0.41466,0.3613,0.31902,0.27674,0.24543,0.21413,0.19155,0.16897,0.1526,0.13623,0.1238,0.11136,0.10175,0.092132,0.084311,0.076489,0.070234,0.063978,0.059036,0.054093,0.050898,0.047703,0.044548,0.041392
0.038498,0.041614,0.044729,0.04881,0.052891,0.058427,0.063962,0.070147,0.076331,0.083939,0.091547,0.10134,0.11113,0.12367,0.13621,0.15282,0.16943,0.19182,0.21422,0.24422,0.27423,0.31458,0.35493,0.40427,0.45362,0.51372,0.57383,0.64263,0.71143,0.78719,0.92356,1.001,1.0785,1.1431,1.2077,1.2631,1.3184,1.3594,1.4003,1.4363,1.4723,1.4892,1.5062,1.5059,1.5056,1.4855,1.4654,1.4358,1.4062,1.381,1.3558,1.3333,1.3109,1.2971,1.2834,1.2761,1.2688,1.2755,1.2821,1.2997,1.3172,1.3317,1.3462,1.364,1.3818,1.3854,1.3889,1.3891,1.3893,1.3695,1.3498,1.3084,1.2671,1.2128,1.1584,1.0974,1.0364,0.97535,0.9143,0.85372,0.79314,0.67205,0.61432,0.55991,0.5055,0.45315,0.40079,0.35624,0.31168,0.27708,0.24247,0.21688,0.19129,0.17235,0.15342,0.13931,0.1252,0.11446,0.10373,0.095058,0.08639,0.079273,0.072155,0.066414,0.060673,0.056102,0.051531,0.049474,0.047418,0.044002,0.040585
0.036347,0.039154,0.041962,0.046098,0.050234,0.055524,0.060815,0.066485,0.072155,0.079186,0.086216,0.095058,0.1039,0.11509,0.12628,0.1409,0.15552,0.17488,0.19424,0.21946,0.24467,0.27836,0.31206,0.35406,0.39605,0.44698,0.49791,0.55659,0.61527,0.68051,0.80361,0.87177,0.93993,0.99817,1.0564,1.108,1.1595,1.198,1.2365,1.2666,1.2967,1.3101,1.3235,1.3209,1.3182,1.3001,1.2819,1.2542,1.2265,1.204,1.1815,1.1601,1.1388,1.1267,1.1146,1.1081,1.1016,1.1053,1.1091,1.1219,1.1348,1.1466,1.1584,1.1723,1.1863,1.1921,1.1978,1.2008,1.2037,1.1857,1.1677,1.1338,1.0999,1.0538,1.0077,0.95566,0.90359,0.85135,0.79912,0.74537,0.69161,0.58087,0.53081,0.48391,0.43701,0.39317,0.34933,0.31211,0.27489,0.24601,0.21713,0.19537,0.17362,0.15738,0.14115,0.12876,0.11638,0.10664,0.096908,0.089024,0.081139,0.074631,0.068122,0.062887,0.057652,0.053397,0.049142,0.046841,0.04454,0.04144,0.03834
0.034196,0.036695,0.039194,0.043385,0.047576,0.052622,0.057667,0.062824,0.06798,0.074433,0.080886,0.088779,0.096671,0.10651,0.11635,0.12898,0.14162,0.15794,0.17427,0.19469,0.21511,0.24215,0.2692,0.30384,0.33848,0.38023,0.42199,0.47054,0.5191,0.57383,0.68366,0.74253,0.8014,0.85326,0.90512,0.95286,1.0006,1.0366,1.0726,1.0969,1.1211,1.131,1.1408,1.1358,1.1309,1.1147,1.0984,1.0726,1.0468,1.027,1.0072,0.98694,0.96671,0.95627,0.94583,0.94014,0.93445,0.93524,0.93603,0.94419,0.95235,0.96141,0.97048,0.9806,0.99072,0.99874,1.0068,1.0124,1.0181,1.0018,0.9856,0.95914,0.93267,0.89486,0.85704,0.81391,0.77078,0.72736,0.68394,0.63701,0.59009,0.48968,0.44729,0.40791,0.36853,0.33319,0.29786,0.26798,0.2381,0.21495,0.19179,0.17387,0.15595,0.14241,0.12887,0.11821,0.10755,0.098822,0.090091,0.08299,0.075888,0.069989,0.064089,0.05936,0.054631,0.050692,0.046754,0.044207,0.041661,0.038877,0.036094
0.033515,0.035951,0.038387,0.041384,0.044381,0.048478,0.052574,0.058474,0.064374,0.070242,0.07611,0.083211,0.090313,0.099226,0.10814,0.1193,0.13046,0.14459,0.15872,0.17606,0.19341,0.21616,0.23891,0.26751,0.29612,0.33043,0.36473,0.40483,0.44492,0.48929,0.5862,0.63542,0.68464,0.72929,0.77394,0.81482,0.8557,0.88772,0.91975,0.94131,0.96287,0.97174,0.98061,0.97733,0.97405,0.96031,0.94658,0.92671,0.90685,0.89035,0.87385,0.85778,0.8417,0.83222,0.82275,0.81747,0.81218,0.81295,0.81372,0.81856,0.8234,0.82967,0.83594,0.84301,0.85008,0.85557,0.86106,0.86384,0.86662,0.85475,0.84288,0.81938,0.79588,0.76457,0.73326,0.69834,0.66341,0.62633,0.58925,0.54915,0.50906,0.41906,0.38387,0.35128,0.31869,0.28948,0.26028,0.23595,0.21163,0.19239,0.17314,0.15771,0.14227,0.13051,0.11875,0.10926,0.099771,0.091958,0.084144,0.077699,0.071254,0.065924,0.060593,0.056236,0.051879,0.049166,0.046453,0.043606,0.040759,0.038071,0.035382
0.032835,0.035208,0.03758,0.039383,0.041186,0.044334,0.047482,0.054124,0.060767,0.06605,0.071333,0.077644,0.083955,0.091942,0.099929,0.10961,0.11929,0.13123,0.14317,0.15744,0.17171,0.19016,0.20862,0.23119,0.25376,0.28062,0.30748,0.33911,0.37074,0.40475,0.48873,0.52831,0.56788,0.60532,0.64276,0.67678,0.7108,0.73884,0.76688,0.78575,0.80462,0.81253,0.82044,0.81883,0.81721,0.80597,0.79472,0.78082,0.76692,0.75373,0.74053,0.72861,0.71668,0.70817,0.69966,0.69479,0.68992,0.69066,0.69141,0.69293,0.69444,0.69792,0.7014,0.70542,0.70944,0.7124,0.71535,0.71528,0.7152,0.70768,0.70017,0.67962,0.65908,0.63428,0.60948,0.58276,0.55605,0.5253,0.49455,0.46129,0.42803,0.34844,0.32044,0.29465,0.26885,0.24577,0.2227,0.20392,0.18515,0.16982,0.1545,0.14154,0.12859,0.11861,0.10863,0.10031,0.091989,0.085093,0.078197,0.072409,0.06662,0.061859,0.057098,0.053112,0.049126,0.04764,0.046153,0.043005,0.039858,0.037264,0.03467
0.030893,0.033058,0.035224,0.037731,0.040237,0.043258,0.046279,0.051507,0.056734,0.061938,0.067142,0.072867,0.078593,0.08575,0.092907,0.10149,0.11007,0.12048,0.1309,0.14306,0.15522,0.16479,0.17435,0.19934,0.22433,0.24663,0.26893,0.29415,0.31937,0.34658,0.42135,0.45297,0.48459,0.51552,0.54645,0.57435,0.60225,0.62495,0.64766,0.66424,0.68083,0.68898,0.69713,0.69799,0.69884,0.69165,0.68445,0.67505,0.66566,0.65522,0.64478,0.6353,0.62582,0.61966,0.61351,0.6092,0.60489,0.60501,0.60513,0.60529,0.60546,0.60754,0.60962,0.61149,0.61337,0.61397,0.61457,0.61283,0.61109,0.60415,0.5972,0.57983,0.56246,0.542,0.52155,0.49906,0.47657,0.45122,0.42586,0.39843,0.37099,0.29961,0.27722,0.25628,0.23534,0.21636,0.19739,0.18191,0.16644,0.15329,0.14014,0.12908,0.11802,0.10914,0.10026,0.092859,0.085457,0.079257,0.073057,0.06783,0.062602,0.058276,0.053951,0.051183,0.048415,0.045702,0.04299,0.040158,0.037327,0.034972,0.032617
0.028951,0.030909,0.032867,0.036078,0.039288,0.042183,0.045077,0.048889,0.052701,0.057826,0.06295,0.068091,0.073231,0.079558,0.085884,0.093366,0.10085,0.10974,0.11862,0.12868,0.13874,0.13941,0.14007,0.16748,0.19489,0.21264,0.23038,0.24919,0.268,0.28842,0.35398,0.37764,0.4013,0.42572,0.45014,0.47192,0.4937,0.51107,0.52843,0.54273,0.55703,0.56543,0.57383,0.57715,0.58047,0.57732,0.57418,0.56929,0.5644,0.55671,0.54903,0.54199,0.53495,0.53115,0.52736,0.52361,0.51986,0.51935,0.51885,0.51766,0.51648,0.51716,0.51784,0.51757,0.5173,0.51554,0.51379,0.51039,0.50699,0.50061,0.49424,0.48003,0.46583,0.44973,0.43363,0.41536,0.39709,0.37713,0.35717,0.33557,0.31396,0.25079,0.23399,0.21791,0.20182,0.18695,0.17208,0.15991,0.14773,0.13675,0.12577,0.11662,0.10746,0.099676,0.091895,0.08541,0.078925,0.073421,0.067917,0.063251,0.058585,0.054694,0.050803,0.049253,0.047703,0.043765,0.039826,0.037311,0.034797,0.03268,0.030564
0.028339,0.030242,0.032146,0.034365,0.036584,0.039154,0.041724,0.045615,0.049506,0.054014,0.058522,0.063535,0.068549,0.074212,0.079874,0.086501,0.093128,0.10096,0.10879,0.11755,0.12631,0.13138,0.13645,0.14951,0.16256,0.18327,0.20397,0.21957,0.23518,0.25176,0.31317,0.33132,0.34947,0.36938,0.38929,0.40681,0.42433,0.43904,0.45375,0.4662,0.47864,0.48647,0.4943,0.49789,0.50148,0.49984,0.49821,0.49555,0.49289,0.48758,0.48226,0.47751,0.47276,0.46922,0.46567,0.4628,0.45993,0.45908,0.45822,0.45154,0.44486,0.45022,0.45558,0.45446,0.45334,0.45043,0.44753,0.44354,0.43954,0.43293,0.42632,0.41462,0.40293,0.38941,0.3759,0.36038,0.34487,0.32776,0.31065,0.29305,0.27545,0.21859,0.20492,0.19168,0.17844,0.16624,0.15404,0.1437,0.13337,0.12416,0.11496,0.10682,0.09868,0.091839,0.084999,0.07921,0.073421,0.068423,0.063425,0.059241,0.055058,0.051515,0.047972,0.0462,0.044429,0.041637,0.038846,0.036434,0.034022,0.031964,0.029906
0.027727,0.029576,0.031424,0.032652,0.033879,0.036125,0.038371,0.042341,0.046311,0.050202,0.054093,0.05898,0.063868,0.068866,0.073864,0.079637,0.08541,0.092179,0.098949,0.10641,0.11388,0.12335,0.13283,0.13153,0.13023,0.1539,0.17756,0.18996,0.20236,0.21511,0.27236,0.285,0.29764,0.31304,0.32845,0.3417,0.35496,0.36701,0.37906,0.38966,0.40026,0.40752,0.41478,0.41863,0.42249,0.42237,0.42224,0.42181,0.42139,0.41844,0.4155,0.41304,0.41057,0.40728,0.40399,0.402,0.4,0.3988,0.3976,0.38542,0.37324,0.38328,0.39333,0.39135,0.38937,0.38532,0.38128,0.37669,0.3721,0.36525,0.3584,0.34922,0.34003,0.3291,0.31817,0.3054,0.29264,0.27839,0.26414,0.25054,0.23693,0.18638,0.17585,0.16546,0.15507,0.14553,0.13599,0.1275,0.119,0.11157,0.10414,0.097019,0.089902,0.084002,0.078102,0.07301,0.067917,0.063425,0.058933,0.055232,0.051531,0.048336,0.045141,0.043148,0.041155,0.03951,0.037865,0.035556,0.033247,0.031247,0.029248
0.025993,0.027662,0.029332,0.031194,0.033057,0.035239,0.037422,0.04,0.042578,0.046517,0.050455,0.054488,0.058522,0.063614,0.068707,0.073903,0.079099,0.08507,0.09104,0.097715,0.10439,0.11256,0.12073,0.1238,0.12687,0.14283,0.1588,0.16288,0.16696,0.18373,0.24176,0.25391,0.26607,0.27784,0.28962,0.30064,0.31167,0.32183,0.33199,0.34112,0.35024,0.35657,0.3629,0.36668,0.37047,0.37111,0.37174,0.37205,0.37237,0.3706,0.36883,0.36716,0.36549,0.36328,0.36108,0.35324,0.3454,0.3502,0.355,0.34827,0.34153,0.34546,0.34939,0.34733,0.34526,0.34139,0.33751,0.33303,0.32856,0.32232,0.31608,0.30825,0.30042,0.29065,0.28087,0.27006,0.25925,0.24747,0.2357,0.22426,0.21283,0.16516,0.15657,0.14774,0.13892,0.1308,0.12267,0.11548,0.10828,0.10169,0.09509,0.088897,0.082705,0.07747,0.072235,0.067735,0.063235,0.059217,0.0552,0.051855,0.04851,0.046643,0.044777,0.042428,0.040079,0.037667,0.035255,0.033154,0.031053,0.029243,0.027434
0.02426,0.025749,0.027239,0.029737,0.032234,0.034354,0.036473,0.037659,0.038846,0.042831,0.046817,0.049996,0.053175,0.058363,0.063551,0.06817,0.072788,0.07796,0.083132,0.089016,0.0949,0.10176,0.10863,0.11606,0.1235,0.13177,0.14004,0.1358,0.13156,0.15236,0.21115,0.22282,0.2345,0.24264,0.25079,0.25958,0.26838,0.27665,0.28492,0.29258,0.30023,0.30562,0.31102,0.31474,0.31845,0.31984,0.32124,0.3223,0.32336,0.32275,0.32215,0.32128,0.32041,0.31929,0.31817,0.30449,0.2908,0.30161,0.31241,0.31111,0.30982,0.30763,0.30545,0.3033,0.30115,0.29745,0.29375,0.28938,0.28502,0.27938,0.27375,0.26729,0.26082,0.2522,0.24358,0.23472,0.22586,0.21656,0.20726,0.19799,0.18872,0.14393,0.13729,0.13003,0.12277,0.11606,0.10936,0.10346,0.097557,0.0918,0.086042,0.080776,0.075509,0.070938,0.066367,0.06246,0.058553,0.05501,0.051467,0.048478,0.045489,0.044951,0.044413,0.041708,0.039004,0.035825,0.032646,0.030752,0.028859,0.027239,0.02562
0.023723,0.025163,0.026604,0.028294,0.029985,0.031835,0.033685,0.035743,0.037802,0.040301,0.0428,0.045544,0.048288,0.05331,0.058332,0.062974,0.067616,0.072258,0.0769,0.082017,0.087134,0.093065,0.098996,0.10547,0.11195,0.11897,0.126,0.12694,0.12788,0.14108,0.19125,0.20035,0.20944,0.21135,0.21326,0.21922,0.22518,0.23208,0.23897,0.25299,0.267,0.27181,0.27662,0.28004,0.28347,0.28509,0.28671,0.28087,0.27504,0.27555,0.27606,0.28201,0.28796,0.28689,0.28582,0.27857,0.27132,0.27601,0.2807,0.27954,0.27839,0.27621,0.27402,0.27182,0.26961,0.26632,0.26303,0.25886,0.2547,0.24963,0.24456,0.23831,0.23206,0.22487,0.21768,0.20938,0.20108,0.19329,0.1855,0.1777,0.1699,0.12864,0.1228,0.11692,0.11103,0.10533,0.099629,0.094315,0.089,0.083978,0.078957,0.07437,0.069783,0.065718,0.061653,0.058102,0.054552,0.051396,0.048241,0.046683,0.045125,0.043005,0.040886,0.038506,0.036125,0.033973,0.03182,0.030001,0.028182,0.026619,0.025057
0.023187,0.024577,0.025968,0.026852,0.027736,0.029316,0.030896,0.033827,0.036758,0.03777,0.038782,0.041092,0.043401,0.048257,0.053112,0.057778,0.062444,0.066556,0.070669,0.075018,0.079368,0.084366,0.089364,0.094884,0.1004,0.10618,0.11195,0.11807,0.12419,0.12979,0.17136,0.17787,0.18439,0.18006,0.17572,0.17885,0.18199,0.18751,0.19303,0.2134,0.23377,0.23799,0.24222,0.24535,0.24848,0.25033,0.25218,0.23945,0.22672,0.22834,0.22997,0.24274,0.2555,0.25449,0.25348,0.25265,0.25183,0.25041,0.24899,0.24797,0.24696,0.24478,0.2426,0.24033,0.23807,0.23519,0.23231,0.22834,0.22437,0.21987,0.21536,0.20933,0.20331,0.19755,0.19179,0.18404,0.17629,0.17001,0.16373,0.15741,0.15108,0.11334,0.10831,0.1038,0.099297,0.094599,0.089902,0.085173,0.080443,0.076157,0.071871,0.067964,0.064057,0.060499,0.05694,0.053745,0.05055,0.047782,0.045014,0.044888,0.044761,0.04106,0.037359,0.035303,0.033247,0.03212,0.030994,0.02925,0.027505,0.025999,0.024494
0.021694,0.022941,0.024188,0.025643,0.027099,0.028598,0.030097,0.031936,0.033775,0.035733,0.037691,0.039858,0.042025,0.045663,0.0493,0.052986,0.056671,0.061036,0.065402,0.069253,0.073104,0.077501,0.081898,0.086738,0.091578,0.096584,0.10159,0.10675,0.1119,0.11683,0.15501,0.16159,0.16816,0.16811,0.16805,0.17292,0.17779,0.18147,0.18515,0.19751,0.20987,0.21363,0.21738,0.22026,0.22314,0.22509,0.22703,0.22108,0.21514,0.21642,0.2177,0.22418,0.23067,0.23019,0.2297,0.22895,0.2282,0.22649,0.22477,0.22389,0.22301,0.22108,0.21914,0.21707,0.215,0.21224,0.20949,0.20589,0.20228,0.19771,0.19314,0.18815,0.18317,0.1775,0.17183,0.16624,0.16065,0.15535,0.15005,0.14429,0.13852,0.10248,0.098285,0.094243,0.090202,0.08605,0.081898,0.077857,0.073816,0.07002,0.066224,0.062721,0.059217,0.056109,0.053002,0.050131,0.04726,0.045963,0.044666,0.042831,0.040997,0.038648,0.036299,0.034329,0.032359,0.030562,0.028766,0.027204,0.025642,0.024288,0.022934
0.020201,0.021305,0.022409,0.024435,0.026461,0.02788,0.029299,0.030045,0.030792,0.033696,0.0366,0.038624,0.040649,0.043069,0.045489,0.048193,0.050898,0.055516,0.060135,0.063488,0.066841,0.070637,0.074433,0.078593,0.082753,0.086991,0.09123,0.095422,0.099613,0.10387,0.13867,0.1453,0.15193,0.15616,0.16038,0.16699,0.1736,0.17544,0.17727,0.18162,0.18597,0.18926,0.19255,0.19518,0.1978,0.19984,0.20188,0.20272,0.20356,0.20449,0.20543,0.20563,0.20584,0.20589,0.20593,0.20525,0.20457,0.20256,0.20055,0.19981,0.19907,0.19738,0.19568,0.1938,0.19192,0.18929,0.18667,0.18343,0.18018,0.17555,0.17091,0.16698,0.16304,0.15745,0.15187,0.14844,0.14501,0.14069,0.13637,0.13117,0.12596,0.091626,0.088257,0.084682,0.081108,0.077501,0.073895,0.070542,0.067189,0.063883,0.060578,0.057478,0.054378,0.05172,0.049063,0.046517,0.04397,0.044144,0.044318,0.040775,0.037232,0.036236,0.035239,0.033356,0.031472,0.029005,0.026537,0.025158,0.023779,0.022577,0.021375
0.020791,0.021932,0.023073,0.024885,0.026697,0.028479,0.03026,0.03099,0.031719,0.034729,0.037738,0.039644,0.04155,0.043915,0.046279,0.048241,0.050202,0.053436,0.056671,0.059763,0.062855,0.06624,0.069625,0.073286,0.076948,0.080712,0.084477,0.088178,0.091879,0.095556,0.12895,0.13407,0.1392,0.14388,0.14857,0.15328,0.15799,0.16141,0.16483,0.16854,0.17226,0.17401,0.17575,0.17806,0.18036,0.18214,0.18393,0.18481,0.18569,0.18643,0.18717,0.18734,0.18751,0.18754,0.18757,0.18692,0.18627,0.18481,0.18335,0.18236,0.18137,0.17977,0.17817,0.17632,0.17447,0.17176,0.16905,0.16646,0.16388,0.15976,0.15564,0.15185,0.14806,0.14377,0.13947,0.13571,0.13196,0.12792,0.12389,0.11999,0.11609,0.083069,0.080143,0.077003,0.073864,0.070756,0.067648,0.064737,0.061827,0.058941,0.056054,0.05327,0.050487,0.048676,0.046865,0.045212,0.043559,0.042009,0.040459,0.038284,0.036109,0.0343,0.032491,0.030814,0.029137,0.027498,0.025859,0.024531,0.023203,0.02204,0.020876
0.021381,0.022559,0.023738,0.025335,0.026933,0.029077,0.031222,0.031934,0.032646,0.035761,0.038877,0.040665,0.042452,0.044761,0.04707,0.048288,0.049506,0.051357,0.053207,0.056038,0.058869,0.061843,0.064817,0.06798,0.071143,0.074433,0.077723,0.080934,0.084144,0.087245,0.11923,0.12284,0.12646,0.1316,0.13675,0.13957,0.14238,0.14738,0.15238,0.15546,0.15855,0.15875,0.15896,0.16093,0.16291,0.16445,0.16598,0.1669,0.16781,0.16837,0.16892,0.16905,0.16917,0.16919,0.16921,0.16859,0.16797,0.16706,0.16614,0.1649,0.16367,0.16217,0.16067,0.15885,0.15703,0.15423,0.15143,0.1495,0.14757,0.14396,0.14036,0.13672,0.13308,0.13008,0.12707,0.12299,0.11891,0.11516,0.1114,0.10881,0.10622,0.074512,0.072029,0.069324,0.06662,0.06401,0.0614,0.058933,0.056465,0.053998,0.051531,0.049063,0.046596,0.045631,0.044666,0.043907,0.043148,0.039874,0.0366,0.035793,0.034986,0.032364,0.029742,0.028272,0.026803,0.025991,0.02518,0.023904,0.022627,0.021503,0.020378
