0.020095,0.021104,0.022114,0.023302,0.024491,0.025818,0.027145,0.028606,0.030068,0.031697,0.033326,0.033895,0.034464,0.037504,0.040544,0.042559,0.044575,0.04494,0.045305,0.049408,0.053511,0.053517,0.053523,0.055488,0.057452,0.059453,0.061453,0.066544,0.071635,0.073732,0.098936,0.10101,0.10309,0.1021,0.1011,0.10661,0.11211,0.10856,0.105,0.10675,0.10849,0.11019,0.1119,0.1135,0.1151,0.11673,0.11835,0.11951,0.12067,0.12138,0.12209,0.12821,0.13433,0.13534,0.13634,0.1357,0.13506,0.1338,0.13255,0.12863,0.1247,0.12428,0.12385,0.12398,0.1241,0.12221,0.12032,0.11651,0.11269,0.11084,0.10899,0.10702,0.10505,0.10408,0.1031,0.10021,0.097319,0.095678,0.094037,0.091647,0.089257,0.060489,0.059225,0.056952,0.054679,0.053346,0.052014,0.050289,0.048564,0.047905,0.047246,0.044281,0.041316,0.040016,0.038717,0.037618,0.036519,0.034353,0.032188,0.031065,0.029942,0.028439,0.026935,0.026267,0.0256,0.024479,0.023359,0.022347,0.021335,0.01917,0.017004
0.019206,0.020941,0.022677,0.023921,0.025165,0.026559,0.027953,0.02949,0.031026,0.032745,0.034464,0.036403,0.038342,0.040226,0.04211,0.044253,0.046395,0.048902,0.051409,0.05365,0.055892,0.058667,0.061441,0.063966,0.06649,0.069018,0.071546,0.07204,0.072534,0.074705,0.099993,0.10296,0.10592,0.107,0.10807,0.1123,0.11653,0.11553,0.11452,0.11726,0.11999,0.12177,0.12355,0.12527,0.12699,0.12761,0.12822,0.12926,0.1303,0.13208,0.13387,0.13729,0.14072,0.13953,0.13833,0.13763,0.13692,0.13738,0.13785,0.1383,0.13875,0.13738,0.13602,0.13368,0.13135,0.12923,0.12711,0.12514,0.12317,0.12084,0.11851,0.11601,0.11351,0.11084,0.10816,0.10564,0.10312,0.10069,0.098259,0.095043,0.091826,0.062019,0.060549,0.057168,0.053787,0.05361,0.053433,0.051578,0.049723,0.048294,0.046866,0.043651,0.040436,0.039814,0.039193,0.037701,0.03621,0.033807,0.031403,0.030721,0.030038,0.028142,0.026246,0.025701,0.025156,0.023271,0.021386,0.021098,0.020811,0.019285,0.017759
0.018316,0.020778,0.02324,0.024539,0.025839,0.027301,0.028762,0.030373,0.031984,0.033793,0.035602,0.038911,0.042221,0.042948,0.043676,0.045946,0.048216,0.052864,0.057512,0.057892,0.058273,0.063816,0.069359,0.072444,0.075529,0.078583,0.081638,0.077535,0.073432,0.075678,0.10105,0.1049,0.10875,0.1119,0.11504,0.118,0.12095,0.12249,0.12403,0.12776,0.1315,0.13335,0.1352,0.13704,0.13888,0.13849,0.13809,0.13901,0.13993,0.14279,0.14565,0.14638,0.1471,0.14371,0.14032,0.13955,0.13878,0.14096,0.14315,0.14797,0.15279,0.15049,0.14818,0.14339,0.1386,0.13625,0.13391,0.13377,0.13364,0.13083,0.12803,0.12501,0.12198,0.1176,0.11322,0.11107,0.10892,0.1057,0.10248,0.098439,0.094396,0.06355,0.061872,0.057383,0.052894,0.053873,0.054853,0.052867,0.050882,0.048683,0.046485,0.04302,0.039555,0.039612,0.039669,0.037785,0.035902,0.03326,0.030619,0.030376,0.030134,0.027846,0.025558,0.025135,0.024713,0.022063,0.019412,0.019849,0.020287,0.0194,0.018514
0.021182,0.023145,0.025108,0.026597,0.028085,0.029767,0.031448,0.033347,0.035246,0.037371,0.039495,0.041661,0.043826,0.046494,0.049163,0.051879,0.054595,0.057338,0.060082,0.063566,0.06705,0.069987,0.072923,0.07472,0.076517,0.079632,0.082746,0.082252,0.081758,0.084363,0.11212,0.11571,0.1193,0.12286,0.12642,0.12974,0.13306,0.13613,0.13921,0.14199,0.14477,0.14684,0.14891,0.15077,0.15263,0.15432,0.156,0.15717,0.15834,0.15877,0.15919,0.15965,0.1601,0.15968,0.15926,0.15847,0.15768,0.1561,0.15453,0.15597,0.15741,0.15515,0.15288,0.15246,0.15205,0.14911,0.14617,0.14301,0.13986,0.13689,0.13392,0.13072,0.12752,0.12444,0.12136,0.11757,0.11378,0.11035,0.10692,0.1036,0.10028,0.066619,0.064867,0.063237,0.061606,0.059379,0.057153,0.055025,0.052897,0.050633,0.048369,0.046599,0.044829,0.042932,0.041035,0.039094,0.037153,0.035596,0.034039,0.032528,0.031017,0.029557,0.028097,0.026751,0.025405,0.023476,0.021548,0.02122,0.020892,0.01996,0.019029
0.024048,0.025513,0.026977,0.028654,0.030331,0.032233,0.034135,0.036321,0.038507,0.040948,0.043389,0.04441,0.045431,0.05004,0.054649,0.057812,0.060974,0.061813,0.062651,0.06924,0.075828,0.076158,0.076487,0.076996,0.077505,0.08068,0.083854,0.086969,0.090083,0.093048,0.12319,0.12652,0.12984,0.13382,0.1378,0.14148,0.14516,0.14977,0.15438,0.15622,0.15805,0.16033,0.16261,0.1645,0.16638,0.17015,0.17392,0.17534,0.17675,0.17475,0.17274,0.17292,0.1731,0.17564,0.17819,0.17738,0.17657,0.17124,0.16591,0.16396,0.16202,0.1598,0.15759,0.16154,0.16549,0.16196,0.15842,0.15226,0.14609,0.14294,0.1398,0.13643,0.13305,0.13128,0.1295,0.12407,0.11864,0.11499,0.11135,0.10876,0.10616,0.069689,0.067862,0.06909,0.070318,0.064885,0.059453,0.057183,0.054913,0.052583,0.050253,0.050178,0.050103,0.046252,0.0424,0.040403,0.038405,0.037932,0.037459,0.03468,0.031901,0.031269,0.030637,0.028367,0.026097,0.02489,0.023683,0.02259,0.021497,0.02052,0.019544
0.024626,0.026152,0.027678,0.029431,0.031185,0.033184,0.035183,0.037483,0.039783,0.042364,0.044946,0.047938,0.050929,0.053906,0.056883,0.060291,0.063699,0.067862,0.072025,0.074391,0.076757,0.079018,0.081279,0.083675,0.08607,0.089829,0.093587,0.097271,0.10095,0.10449,0.13592,0.14082,0.14572,0.15038,0.15503,0.1594,0.16378,0.16774,0.1717,0.17541,0.17911,0.18194,0.18477,0.18709,0.18941,0.191,0.19259,0.19389,0.1952,0.19611,0.19703,0.19715,0.19727,0.19607,0.19487,0.19682,0.19876,0.19659,0.19442,0.19248,0.19053,0.18831,0.1861,0.18665,0.1872,0.18393,0.18065,0.17856,0.17648,0.17258,0.16867,0.16456,0.16044,0.15614,0.15185,0.14739,0.14293,0.1384,0.13388,0.12731,0.12075,0.082641,0.080201,0.076966,0.073732,0.07142,0.069108,0.066251,0.063394,0.060597,0.0578,0.054974,0.052148,0.049995,0.047842,0.045504,0.043167,0.040963,0.038759,0.037014,0.03527,0.033422,0.031574,0.030072,0.02857,0.027363,0.026157,0.024646,0.023135,0.022018,0.020901
0.025204,0.026791,0.028379,0.030208,0.032038,0.034135,0.036231,0.038645,0.041059,0.043781,0.046503,0.051466,0.056428,0.057773,0.059117,0.062771,0.066425,0.073912,0.081399,0.079542,0.077685,0.081878,0.08607,0.090353,0.094635,0.098978,0.10332,0.10757,0.11183,0.11593,0.14866,0.15513,0.16161,0.16694,0.17227,0.17733,0.18239,0.18571,0.18902,0.1946,0.20017,0.20355,0.20693,0.20969,0.21245,0.21185,0.21125,0.21245,0.21365,0.21748,0.22132,0.22138,0.22144,0.21649,0.21155,0.21625,0.22096,0.22194,0.22293,0.22099,0.21904,0.21682,0.21461,0.21176,0.20892,0.20589,0.20287,0.20487,0.20688,0.20221,0.19754,0.19269,0.18783,0.18101,0.17419,0.1707,0.16722,0.16181,0.1564,0.14587,0.13535,0.095594,0.092539,0.084843,0.077146,0.077954,0.078763,0.075319,0.071875,0.068611,0.065346,0.05977,0.054194,0.053739,0.053283,0.050606,0.047929,0.043994,0.040058,0.039349,0.038639,0.035575,0.032511,0.031778,0.031044,0.029837,0.02863,0.026702,0.024773,0.023515,0.022257
0.027064,0.028856,0.030649,0.032747,0.034844,0.037272,0.039699,0.04252,0.045341,0.048564,0.051786,0.055199,0.058611,0.062847,0.067083,0.071171,0.075259,0.078823,0.082387,0.084124,0.085861,0.090787,0.095714,0.10076,0.10581,0.11099,0.11617,0.12124,0.12632,0.13141,0.16764,0.17416,0.18068,0.18609,0.1915,0.19796,0.20442,0.20993,0.21543,0.21994,0.22445,0.22816,0.23187,0.23495,0.23803,0.24033,0.24264,0.2439,0.24515,0.24797,0.25078,0.25227,0.25375,0.25096,0.24818,0.25001,0.25183,0.25141,0.25099,0.24876,0.24653,0.244,0.24147,0.23839,0.2353,0.2319,0.2285,0.22732,0.22614,0.22262,0.2191,0.21372,0.20835,0.20302,0.19769,0.19161,0.18554,0.17948,0.17342,0.16521,0.15699,0.11305,0.10913,0.10268,0.096223,0.092809,0.089395,0.082357,0.075319,0.0718,0.068281,0.065313,0.062346,0.058896,0.055446,0.052599,0.049753,0.047318,0.044883,0.042409,0.039936,0.037902,0.035869,0.03391,0.031951,0.030469,0.028987,0.027259,0.025531,0.024223,0.022916
0.028924,0.030921,0.032919,0.035285,0.037651,0.040409,0.043167,0.046395,0.049624,0.053346,0.057069,0.058932,0.060794,0.067922,0.07505,0.079572,0.084094,0.083734,0.083375,0.088706,0.094037,0.099697,0.10536,0.11117,0.11698,0.123,0.12902,0.13492,0.14082,0.14689,0.18662,0.19319,0.19975,0.20524,0.21073,0.21859,0.22645,0.23415,0.24185,0.24529,0.24874,0.25278,0.25682,0.26021,0.2636,0.26881,0.27402,0.27534,0.27666,0.27846,0.28025,0.28316,0.28606,0.28543,0.2848,0.28376,0.28271,0.28088,0.27905,0.27654,0.27402,0.27118,0.26833,0.26501,0.26169,0.25791,0.25414,0.24977,0.24539,0.24303,0.24066,0.23476,0.22886,0.22503,0.2212,0.21253,0.20386,0.19715,0.19044,0.18454,0.17864,0.13051,0.12572,0.12051,0.1153,0.10766,0.10003,0.089395,0.078763,0.07499,0.071216,0.070857,0.070497,0.064053,0.057608,0.054592,0.051576,0.050642,0.049708,0.04547,0.041232,0.040229,0.039226,0.036042,0.032859,0.031101,0.029343,0.027816,0.026288,0.024932,0.023575
0.029595,0.031674,0.033754,0.036227,0.038699,0.041596,0.044494,0.047893,0.051292,0.055202,0.059111,0.063771,0.068431,0.072145,0.075858,0.080934,0.08601,0.089035,0.09206,0.098334,0.10461,0.11136,0.11811,0.12518,0.13225,0.13947,0.14669,0.15372,0.16076,0.16822,0.21025,0.21949,0.22873,0.23681,0.24489,0.25383,0.26277,0.27013,0.27749,0.28418,0.29088,0.29621,0.30154,0.30546,0.30939,0.31373,0.31808,0.32037,0.32266,0.32351,0.32437,0.32523,0.3261,0.32492,0.32374,0.32212,0.3205,0.31862,0.31673,0.31384,0.31095,0.30776,0.30457,0.30098,0.29738,0.29315,0.28891,0.28424,0.27956,0.27528,0.271,0.26688,0.26276,0.25555,0.24833,0.24058,0.23283,0.22461,0.21639,0.20769,0.199,0.14847,0.14252,0.13638,0.13024,0.12268,0.11512,0.10623,0.097331,0.090368,0.083405,0.078538,0.073672,0.069866,0.066059,0.062335,0.058611,0.055085,0.051558,0.048758,0.045958,0.043218,0.040478,0.038245,0.036012,0.033977,0.031942,0.030171,0.0284,0.0268,0.025201
0.030265,0.032428,0.03459,0.037168,0.039747,0.042784,0.04582,0.04939,0.05296,0.057057,0.061154,0.068611,0.076068,0.076367,0.076667,0.082297,0.087927,0.094336,0.10074,0.10796,0.11518,0.12303,0.13087,0.1392,0.14752,0.15594,0.16435,0.17253,0.18071,0.18954,0.23387,0.24579,0.25771,0.26838,0.27905,0.28907,0.29909,0.30611,0.31313,0.32308,0.33302,0.33964,0.34626,0.35072,0.35518,0.35866,0.36213,0.36539,0.36866,0.36857,0.36848,0.36731,0.36614,0.36441,0.36267,0.36048,0.3583,0.35635,0.3544,0.35114,0.34788,0.34434,0.34081,0.33694,0.33308,0.32838,0.32368,0.31871,0.31373,0.30754,0.30134,0.299,0.29666,0.28606,0.27546,0.26863,0.2618,0.25207,0.24234,0.23084,0.21935,0.16642,0.15932,0.15226,0.14519,0.1377,0.13021,0.12306,0.1159,0.10575,0.095594,0.08622,0.076846,0.075678,0.07451,0.070078,0.065646,0.059528,0.053409,0.052047,0.050684,0.046207,0.041729,0.040448,0.039166,0.036854,0.034542,0.032526,0.030511,0.028669,0.026827
0.032404,0.034838,0.037273,0.040214,0.043155,0.046648,0.050142,0.054303,0.058464,0.063358,0.068251,0.072534,0.076816,0.080201,0.083585,0.090113,0.096642,0.10422,0.1118,0.1205,0.1292,0.13885,0.14851,0.15857,0.16864,0.17942,0.1902,0.20101,0.21182,0.22341,0.2735,0.2874,0.3013,0.31495,0.32859,0.34116,0.35373,0.36539,0.37704,0.38628,0.39552,0.40346,0.41139,0.4189,0.4264,0.43007,0.43374,0.4345,0.43526,0.43306,0.43086,0.42784,0.42481,0.42204,0.41927,0.41598,0.41268,0.40961,0.40654,0.40286,0.39918,0.39558,0.39199,0.37396,0.35593,0.35018,0.34443,0.33828,0.33212,0.32507,0.31802,0.31249,0.30697,0.29894,0.29091,0.28126,0.2716,0.27376,0.27593,0.26361,0.25128,0.19257,0.1837,0.17473,0.16576,0.15661,0.14746,0.13876,0.13006,0.12038,0.11069,0.10197,0.093258,0.085561,0.077865,0.073073,0.068281,0.064294,0.060306,0.056389,0.052472,0.049326,0.04618,0.043255,0.040331,0.037904,0.035476,0.033371,0.031266,0.029837,0.028409
0.034542,0.037249,0.039957,0.04326,0.046563,0.050513,0.054463,0.059216,0.063969,0.069659,0.075349,0.076457,0.077565,0.084034,0.090503,0.09793,0.10536,0.1141,0.12285,0.13303,0.14321,0.15468,0.16615,0.17795,0.18975,0.2029,0.21604,0.22949,0.24294,0.25728,0.31313,0.32901,0.34489,0.36151,0.37813,0.39326,0.40838,0.42466,0.44095,0.44949,0.45802,0.46728,0.47653,0.48707,0.49761,0.50148,0.50534,0.5036,0.50187,0.49756,0.49324,0.48836,0.48348,0.47968,0.47587,0.47147,0.46707,0.46288,0.45868,0.45458,0.45048,0.44682,0.44317,0.41098,0.37878,0.37198,0.36519,0.35785,0.35051,0.3426,0.3347,0.32598,0.31727,0.31182,0.30637,0.29388,0.28139,0.29546,0.30952,0.29637,0.28322,0.21871,0.20808,0.19721,0.18634,0.17552,0.16471,0.15447,0.14423,0.13501,0.12578,0.11773,0.10967,0.095444,0.081219,0.076068,0.070917,0.06906,0.067203,0.060731,0.05426,0.052445,0.05063,0.046063,0.041496,0.038953,0.036411,0.034216,0.03202,0.031005,0.02999
0.035309,0.038125,0.040942,0.044375,0.047809,0.051948,0.056087,0.061091,0.066095,0.071066,0.076038,0.080096,0.084154,0.091596,0.099038,0.10775,0.11647,0.12702,0.13758,0.15002,0.16247,0.17725,0.19203,0.20844,0.22485,0.24243,0.26001,0.27786,0.29571,0.31514,0.37717,0.4012,0.42523,0.44753,0.46983,0.4892,0.50858,0.52499,0.5414,0.55422,0.56703,0.57855,0.59006,0.59968,0.60929,0.61383,0.61837,0.61476,0.61115,0.60288,0.59462,0.58515,0.57569,0.56861,0.56152,0.54182,0.52211,0.51391,0.5057,0.51669,0.52768,0.52397,0.52026,0.50292,0.48558,0.4818,0.47803,0.47138,0.46473,0.45531,0.44589,0.43541,0.42493,0.41509,0.40526,0.39148,0.3777,0.37324,0.36877,0.33159,0.29441,0.22756,0.21604,0.21639,0.21673,0.20273,0.18873,0.17596,0.16319,0.15205,0.14091,0.13138,0.12186,0.10988,0.0979,0.089664,0.081428,0.075619,0.069809,0.065315,0.060821,0.056555,0.052289,0.048909,0.04553,0.042565,0.0396,0.037083,0.034566,0.032863,0.031161
0.036075,0.039001,0.041927,0.045491,0.049055,0.053382,0.05771,0.062966,0.068221,0.072474,0.076727,0.083734,0.090742,0.099158,0.10757,0.11758,0.12758,0.13995,0.15232,0.16702,0.18172,0.19981,0.2179,0.23892,0.25995,0.28196,0.30397,0.32622,0.34847,0.373,0.44121,0.47339,0.50558,0.53355,0.56152,0.58515,0.60878,0.62531,0.64184,0.65894,0.67604,0.68982,0.7036,0.71228,0.72097,0.72618,0.73139,0.72591,0.72043,0.70821,0.69599,0.68194,0.6679,0.65754,0.64718,0.61217,0.57716,0.56494,0.55272,0.5788,0.60489,0.60112,0.59734,0.59486,0.59237,0.59162,0.59087,0.58491,0.57895,0.56802,0.55709,0.54484,0.53259,0.51837,0.50414,0.48908,0.47402,0.45102,0.42802,0.36681,0.30559,0.23641,0.22401,0.23557,0.24713,0.22994,0.21275,0.19745,0.18214,0.16909,0.15603,0.14504,0.13405,0.12431,0.11458,0.10326,0.09194,0.082177,0.072414,0.069898,0.067383,0.060666,0.053948,0.051756,0.049564,0.046177,0.04279,0.039951,0.037111,0.034722,0.032332
0.038474,0.041743,0.045012,0.049029,0.053047,0.057961,0.062876,0.068993,0.075109,0.078823,0.082537,0.090518,0.098499,0.10835,0.1182,0.13027,0.14234,0.15735,0.17235,0.19204,0.21173,0.23618,0.26064,0.28822,0.3158,0.34406,0.37231,0.40064,0.42897,0.46111,0.54053,0.5813,0.62206,0.65961,0.69716,0.72672,0.75628,0.77766,0.79904,0.8169,0.83477,0.84735,0.85993,0.86994,0.87996,0.88535,0.89074,0.88532,0.8799,0.86494,0.84998,0.81972,0.78946,0.78615,0.78284,0.75728,0.73172,0.71933,0.70695,0.71692,0.7269,0.72532,0.72375,0.7247,0.72564,0.72449,0.72333,0.7157,0.70806,0.6938,0.67955,0.66448,0.64942,0.63259,0.61576,0.59602,0.57629,0.54925,0.5222,0.47393,0.42565,0.34129,0.3182,0.30769,0.29717,0.25894,0.22072,0.21567,0.21062,0.19402,0.17741,0.16377,0.15013,0.13848,0.12683,0.11554,0.10425,0.093318,0.082387,0.076098,0.069809,0.064848,0.059887,0.055471,0.051055,0.0475,0.043946,0.040984,0.038022,0.035538,0.033054
0.040873,0.044485,0.048096,0.052568,0.057039,0.06254,0.068042,0.07502,0.081997,0.085172,0.088346,0.097301,0.10626,0.11755,0.12884,0.14297,0.15711,0.17475,0.19239,0.21706,0.24174,0.27256,0.30337,0.33751,0.37165,0.40615,0.44065,0.47506,0.50947,0.54922,0.63986,0.6892,0.73855,0.78567,0.83279,0.86828,0.90377,0.93,0.95624,0.97487,0.99349,1.0049,1.0163,1.0276,1.039,1.0445,1.0501,1.0447,1.0394,1.0217,1.004,0.9575,0.91102,0.91476,0.9185,0.90239,0.88628,0.87373,0.86118,0.85504,0.8489,0.84953,0.85016,0.85453,0.85891,0.85735,0.85579,0.84648,0.83716,0.81959,0.80201,0.78413,0.76625,0.74681,0.72738,0.70297,0.67856,0.64747,0.61639,0.58105,0.54571,0.44616,0.41238,0.3798,0.34722,0.28795,0.22868,0.23389,0.2391,0.21895,0.19879,0.1825,0.16621,0.15264,0.13908,0.12782,0.11656,0.10446,0.092359,0.082297,0.072234,0.06903,0.065826,0.059186,0.052547,0.048824,0.045102,0.042017,0.038932,0.036354,0.033775
0.041717,0.045452,0.049186,0.0538,0.058413,0.064171,0.069928,0.076307,0.082686,0.088856,0.095025,0.10534,0.11566,0.12905,0.14243,0.15958,0.17672,0.20007,0.22341,0.25561,0.2878,0.3263,0.3648,0.40557,0.44634,0.48787,0.52939,0.5731,0.61681,0.66872,0.77282,0.83474,0.89666,0.95105,1.0054,1.0456,1.0858,1.1151,1.1443,1.164,1.1837,1.1957,1.2077,1.2202,1.2326,1.2414,1.2502,1.2483,1.2463,1.2312,1.2162,1.1815,1.1468,1.1361,1.1254,1.1034,1.0814,1.0649,1.0484,1.0416,1.0349,1.0382,1.0415,1.0475,1.0536,1.0498,1.0459,1.0328,1.0197,0.99863,0.97756,0.9558,0.93405,0.90955,0.88505,0.85632,0.82758,0.79118,0.75478,0.71072,0.66667,0.55715,0.51495,0.4718,0.42864,0.3746,0.32056,0.30318,0.28579,0.25872,0.23165,0.21037,0.18909,0.17205,0.15501,0.14144,0.12788,0.11561,0.10335,0.09221,0.081069,0.074496,0.067922,0.06276,0.057599,0.053294,0.048989,0.045462,0.041936,0.039036,0.036135
0.042562,0.046419,0.050277,0.055032,0.059788,0.065802,0.071815,0.077595,0.083375,0.092539,0.1017,0.11338,0.12506,0.14055,0.15603,0.17618,0.19634,0.22539,0.25444,0.29415,0.33386,0.38004,0.42622,0.47363,0.52103,0.56958,0.61813,0.67113,0.72414,0.78823,0.90579,0.98028,1.0548,1.1164,1.1781,1.223,1.2678,1.3001,1.3324,1.3531,1.3738,1.3865,1.3992,1.4128,1.4263,1.4383,1.4503,1.4518,1.4533,1.4408,1.4283,1.4055,1.3826,1.3574,1.3323,1.3044,1.2766,1.2561,1.2357,1.2282,1.2208,1.2268,1.2328,1.2405,1.2482,1.2422,1.2361,1.2192,1.2022,1.1777,1.1531,1.1275,1.1018,1.0723,1.0427,1.0097,0.9766,0.93488,0.89317,0.8404,0.78763,0.66814,0.61753,0.5638,0.51007,0.46126,0.41244,0.37246,0.33248,0.29849,0.2645,0.23824,0.21197,0.19146,0.17094,0.15507,0.1392,0.12677,0.11434,0.10212,0.089904,0.079961,0.070018,0.066335,0.062651,0.057764,0.052876,0.048908,0.04494,0.041717,0.038495
0.045123,0.049386,0.053649,0.058947,0.064244,0.071025,0.077805,0.083225,0.088646,0.098888,0.10913,0.12256,0.13599,0.15363,0.17127,0.19788,0.22449,0.26236,0.30023,0.34898,0.39774,0.44995,0.50217,0.55489,0.60761,0.66228,0.71695,0.78164,0.84633,0.92359,1.0584,1.1396,1.2208,1.2869,1.353,1.4031,1.4532,1.4882,1.5232,1.5451,1.5671,1.5839,1.6008,1.6181,1.6354,1.6526,1.6698,1.6823,1.6948,1.6946,1.6943,1.6758,1.6573,1.6266,1.596,1.5599,1.5238,1.4965,1.4692,1.4628,1.4564,1.4608,1.4653,1.473,1.4807,1.4786,1.4765,1.4613,1.446,1.4189,1.3917,1.3553,1.319,1.2793,1.2396,1.1971,1.1546,1.1041,1.0535,0.99542,0.93731,0.80425,0.74481,0.68051,0.61621,0.55724,0.49827,0.44878,0.3993,0.35741,0.31553,0.26766,0.21979,0.20654,0.19328,0.17352,0.15375,0.13897,0.12419,0.11177,0.099337,0.088376,0.077415,0.070947,0.064478,0.059363,0.054248,0.050118,0.045988,0.042652,0.039316
0.047683,0.052352,0.057021,0.062861,0.068701,0.076247,0.083794,0.088856,0.093917,0.10524,0.11656,0.13174,0.14692,0.16672,0.18652,0.21958,0.25264,0.29933,0.34602,0.40382,0.46162,0.51987,0.57812,0.63615,0.69419,0.75499,0.81578,0.89215,0.96852,1.059,1.2111,1.299,1.3868,1.4574,1.5279,1.5832,1.6385,1.6762,1.7139,1.7371,1.7603,1.7814,1.8024,1.8235,1.8446,1.8669,1.8893,1.9128,1.9363,1.9483,1.9603,1.9461,1.9319,1.8959,1.8598,1.8154,1.7711,1.737,1.7028,1.6974,1.6921,1.6949,1.6977,1.7054,1.7131,1.715,1.7169,1.7034,1.6898,1.66,1.6302,1.5832,1.5361,1.4863,1.4365,1.3846,1.3327,1.2733,1.2139,1.1505,1.087,0.94037,0.87208,0.79721,0.72234,0.65322,0.5841,0.52511,0.46611,0.41634,0.36656,0.29708,0.2276,0.22161,0.21563,0.19197,0.16831,0.15118,0.13405,0.12141,0.10877,0.096792,0.084813,0.075559,0.066305,0.060962,0.055619,0.051328,0.047036,0.043586,0.040136
0.048552,0.053352,0.058153,0.06419,0.070228,0.077281,0.084333,0.091955,0.099577,0.11214,0.1247,0.14212,0.15953,0.18442,0.20931,0.24996,0.29061,0.34762,0.40463,0.46925,0.53388,0.5937,0.65352,0.71219,0.77086,0.83869,0.90652,0.99562,1.0847,1.1837,1.3458,1.4397,1.5336,1.6094,1.6853,1.749,1.8127,1.8663,1.9198,1.9543,1.9887,2.0114,2.0342,2.0557,2.0772,2.1006,2.124,2.1551,2.1862,2.2149,2.2437,2.2375,2.2313,2.1894,2.1476,2.0976,2.0475,2.0122,1.9769,1.9701,1.9634,1.9663,1.9692,1.9781,1.987,1.9936,2.0001,1.9886,1.9772,1.9422,1.9072,1.8509,1.7946,1.7292,1.6638,1.5956,1.5273,1.4561,1.3848,1.3117,1.2386,1.0826,1.0066,0.92285,0.83914,0.75966,0.68018,0.6122,0.54421,0.48649,0.42876,0.36562,0.30247,0.26266,0.22284,0.20493,0.18702,0.16639,0.14576,0.13114,0.11653,0.10377,0.091012,0.081593,0.072175,0.066104,0.060034,0.055205,0.050375,0.046529,0.042682
0.04942,0.054353,0.059285,0.06552,0.071755,0.078314,0.084872,0.095055,0.10524,0.11904,0.13285,0.15249,0.17214,0.20212,0.2321,0.28034,0.32859,0.39591,0.46323,0.53469,0.60615,0.66754,0.72893,0.78823,0.84753,0.9224,0.99727,1.0991,1.2009,1.3084,1.4805,1.5804,1.6803,1.7614,1.8426,1.9148,1.9869,2.0564,2.1258,2.1714,2.217,2.2415,2.2659,2.2878,2.3098,2.3342,2.3586,2.3974,2.4361,2.4815,2.527,2.5288,2.5306,2.483,2.4354,2.3797,2.324,2.2874,2.2509,2.2428,2.2347,2.2377,2.2407,2.2508,2.2609,2.2721,2.2834,2.2739,2.2645,2.2243,2.1842,2.1186,2.0531,1.9721,1.8911,1.8065,1.722,1.6388,1.5556,1.4729,1.3902,1.2249,1.141,1.0485,0.95594,0.86609,0.77625,0.69928,0.62232,0.55664,0.49097,0.43416,0.37734,0.3037,0.23006,0.2179,0.20574,0.1816,0.15747,0.14088,0.12428,0.11075,0.097211,0.087628,0.078044,0.071246,0.064448,0.059081,0.053715,0.049471,0.045227
0.051999,0.057322,0.062645,0.069491,0.076337,0.082686,0.089035,0.10009,0.11114,0.12641,0.14168,0.16295,0.18421,0.22097,0.25773,0.31615,0.37456,0.45009,0.52562,0.59927,0.67293,0.73298,0.79302,0.85651,0.92,1.0098,1.0997,1.2166,1.3336,1.448,1.6313,1.7304,1.8295,1.9188,2.008,2.0983,2.1886,2.2795,2.3703,2.4309,2.4916,2.5196,2.5477,2.5694,2.5912,2.6181,2.645,2.6874,2.7298,2.7777,2.8256,2.832,2.8385,2.7961,2.7537,2.7016,2.6495,2.6137,2.5779,2.5692,2.5605,2.5665,2.5725,2.5882,2.6039,2.6095,2.6152,2.5972,2.5792,2.5374,2.4956,2.4279,2.3603,2.2675,2.1748,2.0675,1.9603,1.8519,1.7434,1.6433,1.5431,1.3676,1.2755,1.1777,1.0799,0.98154,0.88316,0.79557,0.70797,0.63365,0.55934,0.49474,0.43014,0.36143,0.29271,0.26143,0.23015,0.20088,0.1716,0.15229,0.13297,0.11862,0.10428,0.092195,0.080111,0.073013,0.065915,0.06038,0.054844,0.050468,0.046093
0.054577,0.060291,0.066005,0.073462,0.080919,0.087059,0.093198,0.10512,0.11704,0.13378,0.15052,0.1734,0.19628,0.23982,0.28337,0.35195,0.42053,0.50426,0.588,0.66386,0.73971,0.79841,0.85711,0.92479,0.99247,1.0973,1.2021,1.3342,1.4663,1.5875,1.7821,1.8804,1.9787,2.0761,2.1734,2.2819,2.3903,2.5025,2.6148,2.6905,2.7661,2.7978,2.8294,2.851,2.8726,2.902,2.9313,2.9774,3.0235,3.0738,3.1242,3.1352,3.1463,3.1092,3.0721,3.0235,2.975,2.94,2.905,2.8957,2.8864,2.8954,2.9044,2.9256,2.9469,2.9469,2.947,2.9205,2.8939,2.8504,2.807,2.7372,2.6675,2.5629,2.4584,2.3285,2.1985,2.0649,1.9313,1.8136,1.696,1.5103,1.4099,1.3069,1.2039,1.097,0.99008,0.89185,0.79362,0.71066,0.62771,0.55532,0.48294,0.41915,0.35536,0.30496,0.25456,0.22015,0.18574,0.1637,0.14165,0.1265,0.11135,0.096762,0.082177,0.07478,0.067383,0.061678,0.055973,0.051466,0.046958
0.055413,0.061263,0.067113,0.074211,0.081309,0.08938,0.097451,0.11024,0.12303,0.14125,0.15947,0.18611,0.21275,0.26209,0.31143,0.3878,0.46416,0.55278,0.6414,0.71691,0.79242,0.85501,0.9176,1.0021,1.0865,1.2135,1.3405,1.486,1.6316,1.7572,1.9576,2.0674,2.1773,2.2913,2.4052,2.5323,2.6594,2.7867,2.914,3.0059,3.0978,3.1356,3.1734,3.2086,3.2438,3.2739,3.3039,3.3491,3.3943,3.4434,3.4925,3.5009,3.5093,3.4801,3.4509,3.4063,3.3617,3.3236,3.2856,3.2688,3.252,3.2634,3.2748,3.2961,3.3173,3.307,3.2967,3.2563,3.216,3.1711,3.1262,3.0564,2.9866,2.8665,2.7463,2.5932,2.44,2.2856,2.1312,1.9926,1.8539,1.6522,1.5387,1.4314,1.324,1.2123,1.1006,0.99277,0.88496,0.79182,0.69869,0.61795,0.53721,0.46618,0.39516,0.33925,0.28334,0.24286,0.20239,0.17687,0.15136,0.13444,0.11752,0.1038,0.090083,0.081069,0.072055,0.065743,0.059432,0.054486,0.04954
0.056248,0.062235,0.068221,0.07496,0.081698,0.091701,0.1017,0.11536,0.12902,0.14872,0.16843,0.19882,0.22922,0.28436,0.33949,0.42364,0.5078,0.60129,0.69479,0.76996,0.84513,0.91162,0.9781,1.0793,1.1805,1.3297,1.4788,1.6379,1.7969,1.9269,2.1331,2.2545,2.3759,2.5064,2.637,2.7827,2.9285,3.0708,3.2131,3.3213,3.4295,3.4734,3.5173,3.5661,3.615,3.6458,3.6766,3.7208,3.7651,3.813,3.8609,3.8666,3.8723,3.851,3.8297,3.789,3.7483,3.7073,3.6662,3.642,3.6177,3.6315,3.6453,3.6665,3.6878,3.6671,3.6463,3.5922,3.538,3.4917,3.4455,3.3756,3.3058,3.17,3.0343,2.8578,2.6814,2.5063,2.3312,2.1715,2.0118,1.7942,1.6675,1.5558,1.4441,1.3276,1.2111,1.0937,0.9763,0.87298,0.76966,0.68057,0.59147,0.51322,0.43496,0.37354,0.31212,0.26558,0.21904,0.19005,0.16106,0.14237,0.12368,0.11084,0.09799,0.087358,0.076727,0.069809,0.062891,0.057506,0.052121
0.058641,0.065018,0.071396,0.078044,0.084693,0.095249,0.10581,0.12039,0.13498,0.15618,0.17738,0.21098,0.24458,0.30527,0.36596,0.45462,0.54329,0.6406,0.73792,0.81863,0.89934,0.98199,1.0646,1.1895,1.3144,1.4832,1.6519,1.821,1.99,2.1303,2.3514,2.4894,2.6274,2.7833,2.9391,3.11,3.2809,3.4367,3.5925,3.7151,3.8378,3.9081,3.9783,4.0285,4.0787,4.1089,4.1391,4.1777,4.2164,4.2574,4.2984,4.3059,4.3134,4.296,4.2787,4.2397,4.2008,4.1455,4.0903,4.0511,4.0118,4.024,4.0361,4.0488,4.0615,4.0265,3.9914,3.9288,3.8661,3.8136,3.761,3.6734,3.5857,3.4313,3.2769,3.0824,2.8879,2.6975,2.5072,2.3361,2.1651,1.9312,1.7909,1.6693,1.5477,1.43,1.3123,1.1903,1.0682,0.95429,0.84034,0.74353,0.64673,0.56097,0.47521,0.40801,0.34081,0.28934,0.23788,0.20468,0.17148,0.15077,0.13006,0.11614,0.10221,0.090233,0.078254,0.071126,0.063999,0.058482,0.052966
0.061034,0.067802,0.07457,0.081129,0.087688,0.098798,0.10991,0.12542,0.14094,0.16364,0.18634,0.22314,0.25995,0.32619,0.39244,0.48561,0.57877,0.67991,0.78104,0.86729,0.95354,1.0524,1.1512,1.2997,1.4483,1.6367,1.825,2.0041,2.1832,2.3338,2.5698,2.7244,2.879,3.0601,3.2413,3.4372,3.6332,3.8025,3.9718,4.109,4.2461,4.3427,4.4392,4.4908,4.5424,4.572,4.6016,4.6346,4.6677,4.7018,4.736,4.7453,4.7545,4.7411,4.7276,4.6904,4.6533,4.5838,4.5144,4.4601,4.4059,4.4164,4.4269,4.4311,4.4353,4.3859,4.3365,4.2653,4.1942,4.1354,4.0766,3.9711,3.8655,3.6925,3.5195,3.307,3.0945,2.8888,2.6831,2.5007,2.3184,2.0682,1.9143,1.7828,1.6513,1.5324,1.4135,1.2869,1.1602,1.0356,0.91102,0.8065,0.70198,0.60872,0.51546,0.44248,0.3695,0.31311,0.25671,0.21931,0.1819,0.15917,0.13644,0.12144,0.10643,0.093108,0.079781,0.072444,0.065107,0.059459,0.05381
0.061633,0.068551,0.075469,0.082986,0.090503,0.10212,0.11374,0.13009,0.14645,0.17055,0.19466,0.23439,0.27411,0.34415,0.41418,0.51275,0.61133,0.72164,0.83195,0.93213,1.0323,1.1502,1.268,1.4359,1.6037,1.8008,1.9978,2.1877,2.3776,2.5453,2.8022,2.9784,3.1545,3.3615,3.5685,3.7934,4.0183,4.2085,4.3988,4.5578,4.7169,4.8266,4.9363,4.9971,5.0578,5.0991,5.1404,5.1687,5.1969,5.2159,5.2349,5.2377,5.2406,5.2232,5.2059,5.1639,5.122,5.0386,4.9552,4.8905,4.8258,4.83,4.8342,4.8305,4.8267,4.7688,4.7108,4.6409,4.571,4.494,4.4171,4.2829,4.1487,3.9575,3.7663,3.5466,3.327,3.1068,2.8865,2.6881,2.4896,2.2227,2.0544,1.9069,1.7594,1.6313,1.5031,1.3722,1.2413,1.1109,0.9805,0.86714,0.75379,0.65385,0.55392,0.47451,0.3951,0.33477,0.27444,0.23344,0.19245,0.16756,0.14267,0.12659,0.11051,0.097361,0.084214,0.076262,0.068311,0.062271,0.05623
0.062232,0.0693,0.076367,0.084843,0.093318,0.10545,0.11758,0.13477,0.15196,0.17747,0.20299,0.24563,0.28828,0.3621,0.43592,0.5399,0.64388,0.76337,0.88287,0.99697,1.1111,1.2479,1.3848,1.572,1.7591,1.9649,2.1706,2.3713,2.5719,2.7567,3.0346,3.2323,3.4301,3.6629,3.8958,4.1496,4.4033,4.6145,4.8257,5.0067,5.1876,5.3105,5.4333,5.5033,5.5733,5.6263,5.6793,5.7027,5.726,5.7299,5.7338,5.7302,5.7266,5.7054,5.6841,5.6374,5.5907,5.4934,5.396,5.3209,5.2457,5.2436,5.2415,5.2298,5.2181,5.1516,5.0852,5.0165,4.9478,4.8527,4.7576,4.5947,4.4318,4.2224,4.013,3.7863,3.5596,3.3248,3.0899,2.8754,2.6609,2.3773,2.1946,2.0311,1.8676,1.7301,1.5926,1.4576,1.3225,1.1862,1.05,0.92779,0.8056,0.69898,0.59237,0.50654,0.42071,0.35644,0.29217,0.24758,0.20299,0.17594,0.1489,0.13174,0.11458,0.10161,0.088646,0.080081,0.071516,0.065083,0.05865
0.063939,0.071321,0.078703,0.087208,0.095714,0.10834,0.12096,0.13887,0.15678,0.18342,0.21005,0.25502,0.29999,0.37815,0.45632,0.57031,0.68431,0.81818,0.95205,1.0781,1.2042,1.3556,1.507,1.6994,1.8918,2.1008,2.3099,2.5242,2.7384,2.9407,3.2386,3.454,3.6693,3.9221,4.1749,4.4541,4.7332,4.9729,5.2126,5.4372,5.6619,5.826,5.9902,6.0756,6.1611,6.2032,6.2453,6.2605,6.2756,6.2709,6.2663,6.26,6.2537,6.2178,6.1819,6.1179,6.054,5.9532,5.8524,5.7773,5.7021,5.6928,5.6835,5.6654,5.6473,5.5893,5.5314,5.4541,5.3769,5.2651,5.1534,4.9795,4.8056,4.5797,4.3538,4.1072,3.8606,3.6044,3.3483,3.1117,2.875,2.5695,2.3668,2.1834,1.9999,1.8437,1.6876,1.5435,1.3995,1.2596,1.1198,0.98948,0.85921,0.74496,0.6307,0.53731,0.44392,0.37567,0.30742,0.2599,0.21239,0.18345,0.1545,0.1364,0.11829,0.1053,0.0923,0.082417,0.072534,0.065978,0.059423
0.065646,0.073343,0.081039,0.089574,0.098109,0.11123,0.12434,0.14297,0.1616,0.18936,0.21712,0.26441,0.3117,0.3942,0.47671,0.60073,0.72474,0.87298,1.0212,1.1593,1.2973,1.4633,1.6292,1.8268,2.0245,2.2368,2.4491,2.677,2.905,3.1248,3.4426,3.6756,3.9086,4.1812,4.4539,4.7585,5.0632,5.3314,5.5995,5.8678,6.1361,6.3416,6.5472,6.648,6.7489,6.7801,6.8114,6.8182,6.8251,6.812,6.7988,6.7898,6.7808,6.7302,6.6796,6.5984,6.5173,6.4131,6.3088,6.2337,6.1585,6.142,6.1256,6.101,6.0764,6.027,5.9776,5.8918,5.8061,5.6776,5.5492,5.3642,5.1793,4.9369,4.6946,4.428,4.1615,3.8841,3.6068,3.348,3.0892,2.7618,2.539,2.3356,2.1323,1.9574,1.7825,1.6295,1.4764,1.333,1.1895,1.0512,0.91281,0.79093,0.66904,0.56808,0.46713,0.39489,0.32266,0.27223,0.22179,0.19095,0.1601,0.14105,0.12201,0.10898,0.095953,0.084753,0.073552,0.066874,0.060195
0.066035,0.073807,0.081578,0.090802,0.10003,0.11359,0.12716,0.14646,0.16576,0.19454,0.22332,0.27248,0.32164,0.40919,0.49675,0.63216,0.76757,0.92809,1.0886,1.2343,1.38,1.5494,1.7187,1.917,2.1152,2.3388,2.5623,2.8096,3.0568,3.2949,3.6331,3.8796,4.126,4.4114,4.6968,5.0135,5.3303,5.6419,5.9534,6.2543,6.5552,6.7982,7.0412,7.1726,7.3039,7.3396,7.3753,7.3687,7.3621,7.3368,7.3115,7.28,7.2486,7.1902,7.1318,7.0397,6.9476,6.8488,6.75,6.6959,6.6419,6.6192,6.5966,6.5853,6.5739,6.5285,6.4831,6.3885,6.2939,6.154,6.0141,5.807,5.5999,5.339,5.0781,4.7944,4.5106,4.2047,3.8987,3.6137,3.3286,2.9758,2.7289,2.5054,2.282,2.0851,1.8882,1.7202,1.5522,1.4055,1.2587,1.1144,0.97001,0.83764,0.70527,0.59671,0.48815,0.41147,0.33479,0.28205,0.22931,0.19701,0.16471,0.1449,0.12509,0.1116,0.098109,0.087163,0.076218,0.069195,0.062172
0.066425,0.074271,0.082117,0.09203,0.10194,0.11596,0.12997,0.14995,0.16992,0.19972,0.22952,0.28055,0.33158,0.42418,0.51678,0.66359,0.81039,0.98319,1.156,1.3093,1.4627,1.6355,1.8083,2.0071,2.206,2.4408,2.6755,2.9421,3.2086,3.465,3.8236,4.0835,4.3434,4.6415,4.9396,5.2685,5.5974,5.9524,6.3073,6.6408,6.9744,7.2549,7.5353,7.6971,7.8589,7.8991,7.9392,7.9191,7.8991,7.8616,7.8242,7.7703,7.7164,7.6502,7.584,7.481,7.378,7.2845,7.1911,7.1582,7.1252,7.0965,7.0677,7.0695,7.0713,7.03,6.9887,6.8852,6.7818,6.6304,6.4791,6.2497,6.0204,5.741,5.4615,5.1607,4.8598,4.5253,4.1907,3.8794,3.568,3.1898,2.9187,2.6752,2.4318,2.2129,1.9939,1.811,1.628,1.4779,1.3279,1.1776,1.0272,0.88436,0.74151,0.62534,0.50917,0.42805,0.34692,0.29187,0.23683,0.20308,0.16933,0.14875,0.12818,0.11422,0.10027,0.089574,0.078883,0.071516,0.064148
0.067353,0.075319,0.083285,0.093333,0.10338,0.11774,0.1321,0.15273,0.17337,0.20407,0.23476,0.28784,0.34093,0.43839,0.53586,0.69034,0.84483,1.0277,1.2105,1.3685,1.5264,1.6973,1.8682,2.0696,2.271,2.5195,2.7681,3.0533,3.3386,3.6158,3.997,4.2763,4.5557,4.8621,5.1685,5.5244,5.8803,6.2592,6.6381,6.99,7.342,7.6381,7.9342,8.1073,8.2803,8.3368,8.3932,8.3715,8.3498,8.286,8.2222,8.1388,8.0554,7.9668,7.8781,7.7989,7.7197,7.6505,7.5813,7.5674,7.5535,7.5574,7.5613,7.5677,7.5741,7.5365,7.499,7.3863,7.2736,7.0971,6.9205,6.6776,6.4348,6.1335,5.8322,5.4923,5.1524,4.7991,4.4458,4.1048,3.7638,3.3615,3.0673,2.8093,2.5513,2.3202,2.0892,1.8971,1.7049,1.5506,1.3962,1.2398,1.0835,0.92884,0.77415,0.65011,0.52607,0.441,0.35593,0.29903,0.24213,0.20743,0.17274,0.15163,0.13051,0.11621,0.10191,0.090772,0.079632,0.07213,0.064628
0.068281,0.076367,0.084453,0.094635,0.10482,0.11952,0.13423,0.15552,0.17681,0.20841,0.24,0.29514,0.35027,0.4526,0.55494,0.7171,0.87927,1.0721,1.265,1.4276,1.5902,1.7591,1.928,2.132,2.3359,2.5983,2.8606,3.1646,3.4686,3.7666,4.1703,4.4691,4.768,5.0826,5.3973,5.7802,6.1631,6.566,6.9689,7.3393,7.7096,8.0213,8.3331,8.5174,8.7017,8.7744,8.8472,8.8239,8.8005,8.7104,8.6202,8.5073,8.3944,8.2833,8.1722,8.1168,8.0614,8.0165,7.9715,7.9766,7.9817,8.0183,8.0548,8.0659,8.077,8.0431,8.0093,7.8874,7.7655,7.5637,7.3619,7.1055,6.8492,6.526,6.2028,5.8239,5.445,5.073,4.7009,4.3303,3.9596,3.5333,3.2158,2.9433,2.6708,2.4276,2.1844,1.9832,1.7819,1.6232,1.4645,1.3021,1.1398,0.97331,0.8068,0.67488,0.54296,0.45395,0.36495,0.30619,0.24743,0.21179,0.17615,0.1545,0.13285,0.1182,0.10356,0.09197,0.08038,0.072744,0.065107
0.068371,0.076472,0.084573,0.0951,0.10563,0.12054,0.13545,0.15721,0.17897,0.21149,0.24402,0.30128,0.35854,0.46343,0.56832,0.73278,0.89724,1.0965,1.2958,1.4666,1.6373,1.7946,1.952,2.153,2.3539,2.624,2.8942,3.2088,3.5234,3.8368,4.2572,4.5874,4.9176,5.2576,5.5977,5.997,6.3963,6.8155,7.2346,7.602,7.9693,8.2643,8.5592,8.7435,8.9278,9.0071,9.0865,9.07,9.0536,8.9402,8.8269,8.6855,8.5441,8.433,8.3219,8.2935,8.265,8.2436,8.2222,8.2704,8.3186,8.3995,8.4804,8.4998,8.5193,8.4682,8.4172,8.2702,8.1233,7.9078,7.6922,7.4283,7.1645,6.8083,6.452,6.0496,5.6471,5.2517,4.8563,4.4639,4.0715,3.6312,3.3003,3.0183,2.7363,2.4858,2.2353,2.0372,1.8391,1.6858,1.5324,1.3631,1.1937,1.0152,0.83675,0.69668,0.55661,0.46349,0.37037,0.31026,0.25016,0.21426,0.17837,0.15637,0.13438,0.11952,0.10467,0.093288,0.081908,0.074091,0.066275
0.068461,0.076577,0.084693,0.095564,0.10643,0.12156,0.13668,0.1589,0.18113,0.21458,0.24803,0.30742,0.3668,0.47426,0.58171,0.74846,0.91521,1.121,1.3267,1.5055,1.6843,1.8301,1.976,2.1739,2.3719,2.6498,2.9277,3.2529,3.5782,3.907,4.3441,4.7057,5.0673,5.4326,5.798,6.2138,6.6296,7.0649,7.5003,7.8647,8.229,8.5072,8.7853,8.9696,9.1539,9.2398,9.3258,9.3162,9.3066,9.1701,9.0335,8.8637,8.6939,8.5828,8.4717,8.4702,8.4687,8.4708,8.4729,8.5642,8.6556,8.7807,8.9059,8.9338,8.9616,8.8933,8.8251,8.6531,8.4811,8.2518,8.0225,7.7512,7.4798,7.0906,6.7013,6.2753,5.8492,5.4304,5.0116,4.5975,4.1833,3.7291,3.3847,3.0933,2.8019,2.5441,2.2862,2.0913,1.8963,1.7484,1.6004,1.424,1.2476,1.0572,0.86669,0.71848,0.57027,0.47303,0.37579,0.31433,0.25288,0.21673,0.18059,0.15824,0.1359,0.12084,0.10578,0.094606,0.083435,0.075439,0.067443
0.068251,0.076337,0.084423,0.095504,0.10658,0.12178,0.13698,0.15935,0.18172,0.21597,0.25022,0.31095,0.37168,0.478,0.58431,0.74782,0.91132,1.1184,1.3255,1.507,1.6885,1.8285,1.9685,2.1615,2.3545,2.629,2.9035,3.2252,3.547,3.8844,4.3307,4.7155,5.1003,5.4905,5.8806,6.3056,6.7307,7.1635,7.5964,7.9392,8.282,8.544,8.8059,8.995,9.1841,9.2704,9.3566,9.3427,9.3288,9.1858,9.0428,8.874,8.7053,8.6211,8.537,8.5362,8.5355,8.5651,8.5948,8.7243,8.8538,8.9911,9.1284,9.1515,9.1746,9.0971,9.0197,8.8368,8.6538,8.4163,8.1788,7.8825,7.5862,7.1764,6.7665,6.3364,5.9062,5.4893,5.0725,4.6614,4.2503,3.7955,3.4503,3.1454,2.8406,2.5761,2.3117,2.1202,1.9286,1.7876,1.6465,1.4663,1.286,1.0865,0.88706,0.73283,0.57859,0.47739,0.37618,0.31441,0.25264,0.21705,0.18145,0.15902,0.13659,0.12142,0.10626,0.095025,0.083794,0.075768,0.067742
0.068042,0.076098,0.084154,0.095444,0.10673,0.12201,0.13728,0.1598,0.18232,0.21736,0.2524,0.31448,0.37657,0.48174,0.58692,0.74717,0.90742,1.1159,1.3243,1.5085,1.6927,1.8268,1.961,2.1491,2.3371,2.6082,2.8792,3.1975,3.5159,3.8618,4.3173,4.7253,5.1334,5.5483,5.9632,6.3974,6.8317,7.2622,7.6926,8.0138,8.3351,8.5808,8.8265,9.0204,9.2144,9.3009,9.3875,9.3692,9.3509,9.2015,9.0521,8.8844,8.7166,8.6594,8.6022,8.6022,8.6022,8.6594,8.7166,8.8844,9.0521,9.2015,9.3509,9.3692,9.3875,9.3009,9.2144,9.0204,8.8265,8.5808,8.3351,8.0138,7.6926,7.2622,6.8317,6.3974,5.9632,5.5483,5.1334,4.7253,4.3173,3.8618,3.5159,3.1975,2.8792,2.6082,2.3371,2.1491,1.961,1.8268,1.6927,1.5085,1.3243,1.1159,0.90742,0.74717,0.58692,0.48174,0.37657,0.31448,0.2524,0.21736,0.18232,0.1598,0.13728,0.12201,0.10673,0.095444,0.084154,0.076098,0.068042
0.067742,0.075768,0.083794,0.095025,0.10626,0.12142,0.13659,0.15902,0.18145,0.21705,0.25264,0.31441,0.37618,0.47739,0.57859,0.73283,0.88706,1.0865,1.286,1.4663,1.6465,1.7876,1.9286,2.1202,2.3117,2.5761,2.8406,3.1454,3.4503,3.7955,4.2503,4.6614,5.0725,5.4893,5.9062,6.3364,6.7665,7.1764,7.5862,7.8825,8.1788,8.4163,8.6538,8.8368,9.0197,9.0971,9.1746,9.1515,9.1284,8.9911,8.8538,8.7243,8.5948,8.5651,8.5355,8.5362,8.537,8.6211,8.7053,8.874,9.0428,9.1858,9.3288,9.3427,9.3566,9.2704,9.1841,8.995,8.8059,8.544,8.282,7.9392,7.5964,7.1635,6.7307,6.3056,5.8806,5.4905,5.1003,4.7155,4.3307,3.8844,3.547,3.2252,2.9035,2.629,2.3545,2.1615,1.9685,1.8285,1.6885,1.507,1.3255,1.1184,0.91132,0.74782,0.58431,0.478,0.37168,0.31095,0.25022,0.21597,0.18172,0.15935,0.13698,0.12178,0.10658,0.095504,0.084423,0.076337,0.068251
0.067443,0.075439,0.083435,0.094606,0.10578,0.12084,0.1359,0.15824,0.18059,0.21673,0.25288,0.31433,0.37579,0.47303,0.57027,0.71848,0.86669,1.0572,1.2476,1.424,1.6004,1.7484,1.8963,2.0913,2.2862,2.5441,2.8019,3.0933,3.3847,3.7291,4.1833,4.5975,5.0116,5.4304,5.8492,6.2753,6.7013,7.0906,7.4798,7.7512,8.0225,8.2518,8.4811,8.6531,8.8251,8.8933,8.9616,8.9338,8.9059,8.7807,8.6556,8.5642,8.4729,8.4708,8.4687,8.4702,8.4717,8.5828,8.6939,8.8637,9.0335,9.1701,9.3066,9.3162,9.3258,9.2398,9.1539,8.9696,8.7853,8.5072,8.229,7.8647,7.5003,7.0649,6.6296,6.2138,5.798,5.4326,5.0673,4.7057,4.3441,3.907,3.5782,3.2529,2.9277,2.6498,2.3719,2.1739,1.976,1.8301,1.6843,1.5055,1.3267,1.121,0.91521,0.74846,0.58171,0.47426,0.3668,0.30742,0.24803,0.21458,0.18113,0.1589,0.13668,0.12156,0.10643,0.095564,0.084693,0.076577,0.068461
0.066275,0.074091,0.081908,0.093288,0.10467,0.11952,0.13438,0.15637,0.17837,0.21426,0.25016,0.31026,0.37037,0.46349,0.55661,0.69668,0.83675,1.0152,1.1937,1.3631,1.5324,1.6858,1.8391,2.0372,2.2353,2.4858,2.7363,3.0183,3.3003,3.6312,4.0715,4.4639,4.8563,5.2517,5.6471,6.0496,6.452,6.8083,7.1645,7.4283,7.6922,7.9078,8.1233,8.2702,8.4172,8.4682,8.5193,8.4998,8.4804,8.3995,8.3186,8.2704,8.2222,8.2436,8.265,8.2935,8.3219,8.433,8.5441,8.6855,8.8269,8.9402,9.0536,9.07,9.0865,9.0071,8.9278,8.7435,8.5592,8.2643,7.9693,7.602,7.2346,6.8155,6.3963,5.997,5.5977,5.2576,4.9176,4.5874,4.2572,3.8368,3.5234,3.2088,2.8942,2.624,2.3539,2.153,1.952,1.7946,1.6373,1.4666,1.2958,1.0965,0.89724,0.73278,0.56832,0.46343,0.35854,0.30128,0.24402,0.21149,0.17897,0.15721,0.13545,0.12054,0.10563,0.0951,0.084573,0.076472,0.068371
0.065107,0.072744,0.08038,0.09197,0.10356,0.1182,0.13285,0.1545,0.17615,0.21179,0.24743,0.30619,0.36495,0.45395,0.54296,0.67488,0.8068,0.97331,1.1398,1.3021,1.4645,1.6232,1.7819,1.9832,2.1844,2.4276,2.6708,2.9433,3.2158,3.5333,3.9596,4.3303,4.7009,5.073,5.445,5.8239,6.2028,6.526,6.8492,7.1055,7.3619,7.5637,7.7655,7.8874,8.0093,8.0431,8.077,8.0659,8.0548,8.0183,7.9817,7.9766,7.9715,8.0165,8.0614,8.1168,8.1722,8.2833,8.3944,8.5073,8.6202,8.7104,8.8005,8.8239,8.8472,8.7744,8.7017,8.5174,8.3331,8.0213,7.7096,7.3393,6.9689,6.566,6.1631,5.7802,5.3973,5.0826,4.768,4.4691,4.1703,3.7666,3.4686,3.1646,2.8606,2.5983,2.3359,2.132,1.928,1.7591,1.5902,1.4276,1.265,1.0721,0.87927,0.7171,0.55494,0.4526,0.35027,0.29514,0.24,0.20841,0.17681,0.15552,0.13423,0.11952,0.10482,0.094635,0.084453,0.076367,0.068281
0.064628,0.07213,0.079632,0.090772,0.10191,0.11621,0.13051,0.15163,0.17274,0.20743,0.24213,0.29903,0.35593,0.441,0.52607,0.65011,0.77415,0.92884,1.0835,1.2398,1.3962,1.5506,1.7049,1.8971,2.0892,2.3202,2.5513,2.8093,3.0673,3.3615,3.7638,4.1048,4.4458,4.7991,5.1524,5.4923,5.8322,6.1335,6.4348,6.6776,6.9205,7.0971,7.2736,7.3863,7.499,7.5365,7.5741,7.5677,7.5613,7.5574,7.5535,7.5674,7.5813,7.6505,7.7197,7.7989,7.8781,7.9668,8.0554,8.1388,8.2222,8.286,8.3498,8.3715,8.3932,8.3368,8.2803,8.1073,7.9342,7.6381,7.342,6.99,6.6381,6.2592,5.8803,5.5244,5.1685,4.8621,4.5557,4.2763,3.997,3.6158,3.3386,3.0533,2.7681,2.5195,2.271,2.0696,1.8682,1.6973,1.5264,1.3685,1.2105,1.0277,0.84483,0.69034,0.53586,0.43839,0.34093,0.28784,0.23476,0.20407,0.17337,0.15273,0.1321,0.11774,0.10338,0.093333,0.083285,0.075319,0.067353
0.064148,0.071516,0.078883,0.089574,0.10027,0.11422,0.12818,0.14875,0.16933,0.20308,0.23683,0.29187,0.34692,0.42805,0.50917,0.62534,0.74151,0.88436,1.0272,1.1776,1.3279,1.4779,1.628,1.811,1.9939,2.2129,2.4318,2.6752,2.9187,3.1898,3.568,3.8794,4.1907,4.5253,4.8598,5.1607,5.4615,5.741,6.0204,6.2497,6.4791,6.6304,6.7818,6.8852,6.9887,7.03,7.0713,7.0695,7.0677,7.0965,7.1252,7.1582,7.1911,7.2845,7.378,7.481,7.584,7.6502,7.7164,7.7703,7.8242,7.8616,7.8991,7.9191,7.9392,7.8991,7.8589,7.6971,7.5353,7.2549,6.9744,6.6408,6.3073,5.9524,5.5974,5.2685,4.9396,4.6415,4.3434,4.0835,3.8236,3.465,3.2086,2.9421,2.6755,2.4408,2.206,2.0071,1.8083,1.6355,1.4627,1.3093,1.156,0.98319,0.81039,0.66359,0.51678,0.42418,0.33158,0.28055,0.22952,0.19972,0.16992,0.14995,0.12997,0.11596,0.10194,0.09203,0.082117,0.074271,0.066425
0.062172,0.069195,0.076218,0.087163,0.098109,0.1116,0.12509,0.1449,0.16471,0.19701,0.22931,0.28205,0.33479,0.41147,0.48815,0.59671,0.70527,0.83764,0.97001,1.1144,1.2587,1.4055,1.5522,1.7202,1.8882,2.0851,2.282,2.5054,2.7289,2.9758,3.3286,3.6137,3.8987,4.2047,4.5106,4.7944,5.0781,5.339,5.5999,5.807,6.0141,6.154,6.2939,6.3885,6.4831,6.5285,6.5739,6.5853,6.5966,6.6192,6.6419,6.6959,6.75,6.8488,6.9476,7.0397,7.1318,7.1902,7.2486,7.28,7.3115,7.3368,7.3621,7.3687,7.3753,7.3396,7.3039,7.1726,7.0412,6.7982,6.5552,6.2543,5.9534,5.6419,5.3303,5.0135,4.6968,4.4114,4.126,3.8796,3.6331,3.2949,3.0568,2.8096,2.5623,2.3388,2.1152,1.917,1.7187,1.5494,1.38,1.2343,1.0886,0.92809,0.76757,0.63216,0.49675,0.40919,0.32164,0.27248,0.22332,0.19454,0.16576,0.14646,0.12716,0.11359,0.10003,0.090802,0.081578,0.073807,0.066035
0.060195,0.066874,0.073552,0.084753,0.095953,0.10898,0.12201,0.14105,0.1601,0.19095,0.22179,0.27223,0.32266,0.39489,0.46713,0.56808,0.66904,0.79093,0.91281,1.0512,1.1895,1.333,1.4764,1.6295,1.7825,1.9574,2.1323,2.3356,2.539,2.7618,3.0892,3.348,3.6068,3.8841,4.1615,4.428,4.6946,4.9369,5.1793,5.3642,5.5492,5.6776,5.8061,5.8918,5.9776,6.027,6.0764,6.101,6.1256,6.142,6.1585,6.2337,6.3088,6.4131,6.5173,6.5984,6.6796,6.7302,6.7808,6.7898,6.7988,6.812,6.8251,6.8182,6.8114,6.7801,6.7489,6.648,6.5472,6.3416,6.1361,5.8678,5.5995,5.3314,5.0632,4.7585,4.4539,4.1812,3.9086,3.6756,3.4426,3.1248,2.905,2.677,2.4491,2.2368,2.0245,1.8268,1.6292,1.4633,1.2973,1.1593,1.0212,0.87298,0.72474,0.60073,0.47671,0.3942,0.3117,0.26441,0.21712,0.18936,0.1616,0.14297,0.12434,0.11123,0.098109,0.089574,0.081039,0.073343,0.065646
0.059423,0.065978,0.072534,0.082417,0.0923,0.1053,0.11829,0.1364,0.1545,0.18345,0.21239,0.2599,0.30742,0.37567,0.44392,0.53731,0.6307,0.74496,0.85921,0.98948,1.1198,1.2596,1.3995,1.5435,1.6876,1.8437,1.9999,2.1834,2.3668,2.5695,2.875,3.1117,3.3483,3.6044,3.8606,4.1072,4.3538,4.5797,4.8056,4.9795,5.1534,5.2651,5.3769,5.4541,5.5314,5.5893,5.6473,5.6654,5.6835,5.6928,5.7021,5.7773,5.8524,5.9532,6.054,6.1179,6.1819,6.2178,6.2537,6.26,6.2663,6.2709,6.2756,6.2605,6.2453,6.2032,6.1611,6.0756,5.9902,5.826,5.6619,5.4372,5.2126,4.9729,4.7332,4.4541,4.1749,3.9221,3.6693,3.454,3.2386,2.9407,2.7384,2.5242,2.3099,2.1008,1.8918,1.6994,1.507,1.3556,1.2042,1.0781,0.95205,0.81818,0.68431,0.57031,0.45632,0.37815,0.29999,0.25502,0.21005,0.18342,0.15678,0.13887,0.12096,0.10834,0.095714,0.087208,0.078703,0.071321,0.063939
0.05865,0.065083,0.071516,0.080081,0.088646,0.10161,0.11458,0.13174,0.1489,0.17594,0.20299,0.24758,0.29217,0.35644,0.42071,0.50654,0.59237,0.69898,0.8056,0.92779,1.05,1.1862,1.3225,1.4576,1.5926,1.7301,1.8676,2.0311,2.1946,2.3773,2.6609,2.8754,3.0899,3.3248,3.5596,3.7863,4.013,4.2224,4.4318,4.5947,4.7576,4.8527,4.9478,5.0165,5.0852,5.1516,5.2181,5.2298,5.2415,5.2436,5.2457,5.3209,5.396,5.4934,5.5907,5.6374,5.6841,5.7054,5.7266,5.7302,5.7338,5.7299,5.726,5.7027,5.6793,5.6263,5.5733,5.5033,5.4333,5.3105,5.1876,5.0067,4.8257,4.6145,4.4033,4.1496,3.8958,3.6629,3.4301,3.2323,3.0346,2.7567,2.5719,2.3713,2.1706,1.9649,1.7591,1.572,1.3848,1.2479,1.1111,0.99697,0.88287,0.76337,0.64388,0.5399,0.43592,0.3621,0.28828,0.24563,0.20299,0.17747,0.15196,0.13477,0.11758,0.10545,0.093318,0.084843,0.076367,0.0693,0.062232
0.05623,0.062271,0.068311,0.076262,0.084214,0.097361,0.11051,0.12659,0.14267,0.16756,0.19245,0.23344,0.27444,0.33477,0.3951,0.47451,0.55392,0.65385,0.75379,0.86714,0.9805,1.1109,1.2413,1.3722,1.5031,1.6313,1.7594,1.9069,2.0544,2.2227,2.4896,2.6881,2.8865,3.1068,3.327,3.5466,3.7663,3.9575,4.1487,4.2829,4.4171,4.494,4.571,4.6409,4.7108,4.7688,4.8267,4.8305,4.8342,4.83,4.8258,4.8905,4.9552,5.0386,5.122,5.1639,5.2059,5.2232,5.2406,5.2377,5.2349,5.2159,5.1969,5.1687,5.1404,5.0991,5.0578,4.9971,4.9363,4.8266,4.7169,4.5578,4.3988,4.2085,4.0183,3.7934,3.5685,3.3615,3.1545,2.9784,2.8022,2.5453,2.3776,2.1877,1.9978,1.8008,1.6037,1.4359,1.268,1.1502,1.0323,0.93213,0.83195,0.72164,0.61133,0.51275,0.41418,0.34415,0.27411,0.23439,0.19466,0.17055,0.14645,0.13009,0.11374,0.10212,0.090503,0.082986,0.075469,0.068551,0.061633
0.05381,0.059459,0.065107,0.072444,0.079781,0.093108,0.10643,0.12144,0.13644,0.15917,0.1819,0.21931,0.25671,0.31311,0.3695,0.44248,0.51546,0.60872,0.70198,0.8065,0.91102,1.0356,1.1602,1.2869,1.4135,1.5324,1.6513,1.7828,1.9143,2.0682,2.3184,2.5007,2.6831,2.8888,3.0945,3.307,3.5195,3.6925,3.8655,3.9711,4.0766,4.1354,4.1942,4.2653,4.3365,4.3859,4.4353,4.4311,4.4269,4.4164,4.4059,4.4601,4.5144,4.5838,4.6533,4.6904,4.7276,4.7411,4.7545,4.7453,4.736,4.7018,4.6677,4.6346,4.6016,4.572,4.5424,4.4908,4.4392,4.3427,4.2461,4.109,3.9718,3.8025,3.6332,3.4372,3.2413,3.0601,2.879,2.7244,2.5698,2.3338,2.1832,2.0041,1.825,1.6367,1.4483,1.2997,1.1512,1.0524,0.95354,0.86729,0.78104,0.67991,0.57877,0.48561,0.39244,0.32619,0.25995,0.22314,0.18634,0.16364,0.14094,0.12542,0.10991,0.098798,0.087688,0.081129,0.07457,0.067802,0.061034
0.052966,0.058482,0.063999,0.071126,0.078254,0.090233,0.10221,0.11614,0.13006,0.15077,0.17148,0.20468,0.23788,0.28934,0.34081,0.40801,0.47521,0.56097,0.64673,0.74353,0.84034,0.95429,1.0682,1.1903,1.3123,1.43,1.5477,1.6693,1.7909,1.9312,2.1651,2.3361,2.5072,2.6975,2.8879,3.0824,3.2769,3.4313,3.5857,3.6734,3.761,3.8136,3.8661,3.9288,3.9914,4.0265,4.0615,4.0488,4.0361,4.024,4.0118,4.0511,4.0903,4.1455,4.2008,4.2397,4.2787,4.296,4.3134,4.3059,4.2984,4.2574,4.2164,4.1777,4.1391,4.1089,4.0787,4.0285,3.9783,3.9081,3.8378,3.7151,3.5925,3.4367,3.2809,3.11,2.9391,2.7833,2.6274,2.4894,2.3514,2.1303,1.99,1.821,1.6519,1.4832,1.3144,1.1895,1.0646,0.98199,0.89934,0.81863,0.73792,0.6406,0.54329,0.45462,0.36596,0.30527,0.24458,0.21098,0.17738,0.15618,0.13498,0.12039,0.10581,0.095249,0.084693,0.078044,0.071396,0.065018,0.058641
0.052121,0.057506,0.062891,0.069809,0.076727,0.087358,0.09799,0.11084,0.12368,0.14237,0.16106,0.19005,0.21904,0.26558,0.31212,0.37354,0.43496,0.51322,0.59147,0.68057,0.76966,0.87298,0.9763,1.0937,1.2111,1.3276,1.4441,1.5558,1.6675,1.7942,2.0118,2.1715,2.3312,2.5063,2.6814,2.8578,3.0343,3.17,3.3058,3.3756,3.4455,3.4917,3.538,3.5922,3.6463,3.6671,3.6878,3.6665,3.6453,3.6315,3.6177,3.642,3.6662,3.7073,3.7483,3.789,3.8297,3.851,3.8723,3.8666,3.8609,3.813,3.7651,3.7208,3.6766,3.6458,3.615,3.5661,3.5173,3.4734,3.4295,3.3213,3.2131,3.0708,2.9285,2.7827,2.637,2.5064,2.3759,2.2545,2.1331,1.9269,1.7969,1.6379,1.4788,1.3297,1.1805,1.0793,0.9781,0.91162,0.84513,0.76996,0.69479,0.60129,0.5078,0.42364,0.33949,0.28436,0.22922,0.19882,0.16843,0.14872,0.12902,0.11536,0.1017,0.091701,0.081698,0.07496,0.068221,0.062235,0.056248
0.04954,0.054486,0.059432,0.065743,0.072055,0.081069,0.090083,0.1038,0.11752,0.13444,0.15136,0.17687,0.20239,0.24286,0.28334,0.33925,0.39516,0.46618,0.53721,0.61795,0.69869,0.79182,0.88496,0.99277,1.1006,1.2123,1.324,1.4314,1.5387,1.6522,1.8539,1.9926,2.1312,2.2856,2.44,2.5932,2.7463,2.8665,2.9866,3.0564,3.1262,3.1711,3.216,3.2563,3.2967,3.307,3.3173,3.2961,3.2748,3.2634,3.252,3.2688,3.2856,3.3236,3.3617,3.4063,3.4509,3.4801,3.5093,3.5009,3.4925,3.4434,3.3943,3.3491,3.3039,3.2739,3.2438,3.2086,3.1734,3.1356,3.0978,3.0059,2.914,2.7867,2.6594,2.5323,2.4052,2.2913,2.1773,2.0674,1.9576,1.7572,1.6316,1.486,1.3405,1.2135,1.0865,1.0021,0.9176,0.85501,0.79242,0.71691,0.6414,0.55278,0.46416,0.3878,0.31143,0.26209,0.21275,0.18611,0.15947,0.14125,0.12303,0.11024,0.097451,0.08938,0.081309,0.074211,0.067113,0.061263,0.055413
0.046958,0.051466,0.055973,0.061678,0.067383,0.07478,0.082177,0.096762,0.11135,0.1265,0.14165,0.1637,0.18574,0.22015,0.25456,0.30496,0.35536,0.41915,0.48294,0.55532,0.62771,0.71066,0.79362,0.89185,0.99008,1.097,1.2039,1.3069,1.4099,1.5103,1.696,1.8136,1.9313,2.0649,2.1985,2.3285,2.4584,2.5629,2.6675,2.7372,2.807,2.8504,2.8939,2.9205,2.947,2.9469,2.9469,2.9256,2.9044,2.8954,2.8864,2.8957,2.905,2.94,2.975,3.0235,3.0721,3.1092,3.1463,3.1352,3.1242,3.0738,3.0235,2.9774,2.9313,2.902,2.8726,2.851,2.8294,2.7978,2.7661,2.6905,2.6148,2.5025,2.3903,2.2819,2.1734,2.0761,1.9787,1.8804,1.7821,1.5875,1.4663,1.3342,1.2021,1.0973,0.99247,0.92479,0.85711,0.79841,0.73971,0.66386,0.588,0.50426,0.42053,0.35195,0.28337,0.23982,0.19628,0.1734,0.15052,0.13378,0.11704,0.10512,0.093198,0.087059,0.080919,0.073462,0.066005,0.060291,0.054577
0.046093,0.050468,0.054844,0.06038,0.065915,0.073013,0.080111,0.092195,0.10428,0.11862,0.13297,0.15229,0.1716,0.20088,0.23015,0.26143,0.29271,0.36143,0.43014,0.49474,0.55934,0.63365,0.70797,0.79557,0.88316,0.98154,1.0799,1.1777,1.2755,1.3676,1.5431,1.6433,1.7434,1.8519,1.9603,2.0675,2.1748,2.2675,2.3603,2.4279,2.4956,2.5374,2.5792,2.5972,2.6152,2.6095,2.6039,2.5882,2.5725,2.5665,2.5605,2.5692,2.5779,2.6137,2.6495,2.7016,2.7537,2.7961,2.8385,2.832,2.8256,2.7777,2.7298,2.6874,2.645,2.6181,2.5912,2.5694,2.5477,2.5196,2.4916,2.4309,2.3703,2.2795,2.1886,2.0983,2.008,1.9188,1.8295,1.7304,1.6313,1.448,1.3336,1.2166,1.0997,1.0098,0.92,0.85651,0.79302,0.73298,0.67293,0.59927,0.52562,0.45009,0.37456,0.31615,0.25773,0.22097,0.18421,0.16295,0.14168,0.12641,0.11114,0.10009,0.089035,0.082686,0.076337,0.069491,0.062645,0.057322,0.051999
0.045227,0.049471,0.053715,0.059081,0.064448,0.071246,0.078044,0.087628,0.097211,0.11075,0.12428,0.14088,0.15747,0.1816,0.20574,0.2179,0.23006,0.3037,0.37734,0.43416,0.49097,0.55664,0.62232,0.69928,0.77625,0.86609,0.95594,1.0485,1.141,1.2249,1.3902,1.4729,1.5556,1.6388,1.722,1.8065,1.8911,1.9721,2.0531,2.1186,2.1842,2.2243,2.2645,2.2739,2.2834,2.2721,2.2609,2.2508,2.2407,2.2377,2.2347,2.2428,2.2509,2.2874,2.324,2.3797,2.4354,2.483,2.5306,2.5288,2.527,2.4815,2.4361,2.3974,2.3586,2.3342,2.3098,2.2878,2.2659,2.2415,2.217,2.1714,2.1258,2.0564,1.9869,1.9148,1.8426,1.7614,1.6803,1.5804,1.4805,1.3084,1.2009,1.0991,0.99727,0.9224,0.84753,0.78823,0.72893,0.66754,0.60615,0.53469,0.46323,0.39591,0.32859,0.28034,0.2321,0.20212,0.17214,0.15249,0.13285,0.11904,0.10524,0.095055,0.084872,0.078314,0.071755,0.06552,0.059285,0.054353,0.04942
0.042682,0.046529,0.050375,0.055205,0.060034,0.066104,0.072175,0.081593,0.091012,0.10377,0.11653,0.13114,0.14576,0.16639,0.18702,0.20493,0.22284,0.26266,0.30247,0.36562,0.42876,0.48649,0.54421,0.6122,0.68018,0.75966,0.83914,0.92285,1.0066,1.0826,1.2386,1.3117,1.3848,1.4561,1.5273,1.5956,1.6638,1.7292,1.7946,1.8509,1.9072,1.9422,1.9772,1.9886,2.0001,1.9936,1.987,1.9781,1.9692,1.9663,1.9634,1.9701,1.9769,2.0122,2.0475,2.0976,2.1476,2.1894,2.2313,2.2375,2.2437,2.2149,2.1862,2.1551,2.124,2.1006,2.0772,2.0557,2.0342,2.0114,1.9887,1.9543,1.9198,1.8663,1.8127,1.749,1.6853,1.6094,1.5336,1.4397,1.3458,1.1837,1.0847,0.99562,0.90652,0.83869,0.77086,0.71219,0.65352,0.5937,0.53388,0.46925,0.40463,0.34762,0.29061,0.24996,0.20931,0.18442,0.15953,0.14212,0.1247,0.11214,0.099577,0.091955,0.084333,0.077281,0.070228,0.06419,0.058153,0.053352,0.048552
0.040136,0.043586,0.047036,0.051328,0.055619,0.060962,0.066305,0.075559,0.084813,0.096792,0.10877,0.12141,0.13405,0.15118,0.16831,0.19197,0.21563,0.22161,0.2276,0.29708,0.36656,0.41634,0.46611,0.52511,0.5841,0.65322,0.72234,0.79721,0.87208,0.94037,1.087,1.1505,1.2139,1.2733,1.3327,1.3846,1.4365,1.4863,1.5361,1.5832,1.6302,1.66,1.6898,1.7034,1.7169,1.715,1.7131,1.7054,1.6977,1.6949,1.6921,1.6974,1.7028,1.737,1.7711,1.8154,1.8598,1.8959,1.9319,1.9461,1.9603,1.9483,1.9363,1.9128,1.8893,1.8669,1.8446,1.8235,1.8024,1.7814,1.7603,1.7371,1.7139,1.6762,1.6385,1.5832,1.5279,1.4574,1.3868,1.299,1.2111,1.059,0.96852,0.89215,0.81578,0.75499,0.69419,0.63615,0.57812,0.51987,0.46162,0.40382,0.34602,0.29933,0.25264,0.21958,0.18652,0.16672,0.14692,0.13174,0.11656,0.10524,0.093917,0.088856,0.083794,0.076247,0.068701,0.062861,0.057021,0.052352,0.047683
0.039316,0.042652,0.045988,0.050118,0.054248,0.059363,0.064478,0.070947,0.077415,0.088376,0.099337,0.11177,0.12419,0.13897,0.15375,0.17352,0.19328,0.20654,0.21979,0.26766,0.31553,0.35741,0.3993,0.44878,0.49827,0.55724,0.61621,0.68051,0.74481,0.80425,0.93731,0.99542,1.0535,1.1041,1.1546,1.1971,1.2396,1.2793,1.319,1.3553,1.3917,1.4189,1.446,1.4613,1.4765,1.4786,1.4807,1.473,1.4653,1.4608,1.4564,1.4628,1.4692,1.4965,1.5238,1.5599,1.596,1.6266,1.6573,1.6758,1.6943,1.6946,1.6948,1.6823,1.6698,1.6526,1.6354,1.6181,1.6008,1.5839,1.5671,1.5451,1.5232,1.4882,1.4532,1.4031,1.353,1.2869,1.2208,1.1396,1.0584,0.92359,0.84633,0.78164,0.71695,0.66228,0.60761,0.55489,0.50217,0.44995,0.39774,0.34898,0.30023,0.26236,0.22449,0.19788,0.17127,0.15363,0.13599,0.12256,0.10913,0.098888,0.088646,0.083225,0.077805,0.071025,0.064244,0.058947,0.053649,0.049386,0.045123
0.038495,0.041717,0.04494,0.048908,0.052876,0.057764,0.062651,0.066335,0.070018,0.079961,0.089904,0.10212,0.11434,0.12677,0.1392,0.15507,0.17094,0.19146,0.21197,0.23824,0.2645,0.29849,0.33248,0.37246,0.41244,0.46126,0.51007,0.5638,0.61753,0.66814,0.78763,0.8404,0.89317,0.93488,0.9766,1.0097,1.0427,1.0723,1.1018,1.1275,1.1531,1.1777,1.2022,1.2192,1.2361,1.2422,1.2482,1.2405,1.2328,1.2268,1.2208,1.2282,1.2357,1.2561,1.2766,1.3044,1.3323,1.3574,1.3826,1.4055,1.4283,1.4408,1.4533,1.4518,1.4503,1.4383,1.4263,1.4128,1.3992,1.3865,1.3738,1.3531,1.3324,1.3001,1.2678,1.223,1.1781,1.1164,1.0548,0.98028,0.90579,0.78823,0.72414,0.67113,0.61813,0.56958,0.52103,0.47363,0.42622,0.38004,0.33386,0.29415,0.25444,0.22539,0.19634,0.17618,0.15603,0.14055,0.12506,0.11338,0.1017,0.092539,0.083375,0.077595,0.071815,0.065802,0.059788,0.055032,0.050277,0.046419,0.042562
0.036135,0.039036,0.041936,0.045462,0.048989,0.053294,0.057599,0.06276,0.067922,0.074496,0.081069,0.09221,0.10335,0.11561,0.12788,0.14144,0.15501,0.17205,0.18909,0.21037,0.23165,0.25872,0.28579,0.30318,0.32056,0.3746,0.42864,0.4718,0.51495,0.55715,0.66667,0.71072,0.75478,0.79118,0.82758,0.85632,0.88505,0.90955,0.93405,0.9558,0.97756,0.99863,1.0197,1.0328,1.0459,1.0498,1.0536,1.0475,1.0415,1.0382,1.0349,1.0416,1.0484,1.0649,1.0814,1.1034,1.1254,1.1361,1.1468,1.1815,1.2162,1.2312,1.2463,1.2483,1.2502,1.2414,1.2326,1.2202,1.2077,1.1957,1.1837,1.164,1.1443,1.1151,1.0858,1.0456,1.0054,0.95105,0.89666,0.83474,0.77282,0.66872,0.61681,0.5731,0.52939,0.48787,0.44634,0.40557,0.3648,0.3263,0.2878,0.25561,0.22341,0.20007,0.17672,0.15958,0.14243,0.12905,0.11566,0.10534,0.095025,0.088856,0.082686,0.076307,0.069928,0.064171,0.058413,0.0538,0.049186,0.045452,0.041717
0.033775,0.036354,0.038932,0.042017,0.045102,0.048824,0.052547,0.059186,0.065826,0.06903,0.072234,0.082297,0.092359,0.10446,0.11656,0.12782,0.13908,0.15264,0.16621,0.1825,0.19879,0.21895,0.2391,0.23389,0.22868,0.28795,0.34722,0.3798,0.41238,0.44616,0.54571,0.58105,0.61639,0.64747,0.67856,0.70297,0.72738,0.74681,0.76625,0.78413,0.80201,0.81959,0.83716,0.84648,0.85579,0.85735,0.85891,0.85453,0.85016,0.84953,0.8489,0.85504,0.86118,0.87373,0.88628,0.90239,0.9185,0.91476,0.91102,0.9575,1.004,1.0217,1.0394,1.0447,1.0501,1.0445,1.039,1.0276,1.0163,1.0049,0.99349,0.97487,0.95624,0.93,0.90377,0.86828,0.83279,0.78567,0.73855,0.6892,0.63986,0.54922,0.50947,0.47506,0.44065,0.40615,0.37165,0.33751,0.30337,0.27256,0.24174,0.21706,0.19239,0.17475,0.15711,0.14297,0.12884,0.11755,0.10626,0.097301,0.088346,0.085172,0.081997,0.07502,0.068042,0.06254,0.057039,0.052568,0.048096,0.044485,0.040873
0.033054,0.035538,0.038022,0.040984,0.043946,0.0475,0.051055,0.055471,0.059887,0.064848,0.069809,0.076098,0.082387,0.093318,0.10425,0.11554,0.12683,0.13848,0.15013,0.16377,0.17741,0.19402,0.21062,0.21567,0.22072,0.25894,0.29717,0.30769,0.3182,0.34129,0.42565,0.47393,0.5222,0.54925,0.57629,0.59602,0.61576,0.63259,0.64942,0.66448,0.67955,0.6938,0.70806,0.7157,0.72333,0.72449,0.72564,0.7247,0.72375,0.72532,0.7269,0.71692,0.70695,0.71933,0.73172,0.75728,0.78284,0.78615,0.78946,0.81972,0.84998,0.86494,0.8799,0.88532,0.89074,0.88535,0.87996,0.86994,0.85993,0.84735,0.83477,0.8169,0.79904,0.77766,0.75628,0.72672,0.69716,0.65961,0.62206,0.5813,0.54053,0.46111,0.42897,0.40064,0.37231,0.34406,0.3158,0.28822,0.26064,0.23618,0.21173,0.19204,0.17235,0.15735,0.14234,0.13027,0.1182,0.10835,0.098499,0.090518,0.082537,0.078823,0.075109,0.068993,0.062876,0.057961,0.053047,0.049029,0.045012,0.041743,0.038474
0.032332,0.034722,0.037111,0.039951,0.04279,0.046177,0.049564,0.051756,0.053948,0.060666,0.067383,0.069898,0.072414,0.082177,0.09194,0.10326,0.11458,0.12431,0.13405,0.14504,0.15603,0.16909,0.18214,0.19745,0.21275,0.22994,0.24713,0.23557,0.22401,0.23641,0.30559,0.36681,0.42802,0.45102,0.47402,0.48908,0.50414,0.51837,0.53259,0.54484,0.55709,0.56802,0.57895,0.58491,0.59087,0.59162,0.59237,0.59486,0.59734,0.60112,0.60489,0.5788,0.55272,0.56494,0.57716,0.61217,0.64718,0.65754,0.6679,0.68194,0.69599,0.70821,0.72043,0.72591,0.73139,0.72618,0.72097,0.71228,0.7036,0.68982,0.67604,0.65894,0.64184,0.62531,0.60878,0.58515,0.56152,0.53355,0.50558,0.47339,0.44121,0.373,0.34847,0.32622,0.30397,0.28196,0.25995,0.23892,0.2179,0.19981,0.18172,0.16702,0.15232,0.13995,0.12758,0.11758,0.10757,0.099158,0.090742,0.083734,0.076727,0.072474,0.068221,0.062966,0.05771,0.053382,0.049055,0.045491,0.041927,0.039001,0.036075
0.031161,0.032863,0.034566,0.037083,0.0396,0.042565,0.04553,0.048909,0.052289,0.056555,0.060821,0.065315,0.069809,0.075619,0.081428,0.089664,0.0979,0.10988,0.12186,0.13138,0.14091,0.15205,0.16319,0.17596,0.18873,0.20273,0.21673,0.21639,0.21604,0.22756,0.29441,0.33159,0.36877,0.37324,0.3777,0.39148,0.40526,0.41509,0.42493,0.43541,0.44589,0.45531,0.46473,0.47138,0.47803,0.4818,0.48558,0.50292,0.52026,0.52397,0.52768,0.51669,0.5057,0.51391,0.52211,0.54182,0.56152,0.56861,0.57569,0.58515,0.59462,0.60288,0.61115,0.61476,0.61837,0.61383,0.60929,0.59968,0.59006,0.57855,0.56703,0.55422,0.5414,0.52499,0.50858,0.4892,0.46983,0.44753,0.42523,0.4012,0.37717,0.31514,0.29571,0.27786,0.26001,0.24243,0.22485,0.20844,0.19203,0.17725,0.16247,0.15002,0.13758,0.12702,0.11647,0.10775,0.099038,0.091596,0.084154,0.080096,0.076038,0.071066,0.066095,0.061091,0.056087,0.051948,0.047809,0.044375,0.040942,0.038125,0.035309
0.02999,0.031005,0.03202,0.034216,0.036411,0.038953,0.041496,0.046063,0.05063,0.052445,0.05426,0.060731,0.067203,0.06906,0.070917,0.076068,0.081219,0.095444,0.10967,0.11773,0.12578,0.13501,0.14423,0.15447,0.16471,0.17552,0.18634,0.19721,0.20808,0.21871,0.28322,0.29637,0.30952,0.29546,0.28139,0.29388,0.30637,0.31182,0.31727,0.32598,0.3347,0.3426,0.35051,0.35785,0.36519,0.37198,0.37878,0.41098,0.44317,0.44682,0.45048,0.45458,0.45868,0.46288,0.46707,0.47147,0.47587,0.47968,0.48348,0.48836,0.49324,0.49756,0.50187,0.5036,0.50534,0.50148,0.49761,0.48707,0.47653,0.46728,0.45802,0.44949,0.44095,0.42466,0.40838,0.39326,0.37813,0.36151,0.34489,0.32901,0.31313,0.25728,0.24294,0.22949,0.21604,0.2029,0.18975,0.17795,0.16615,0.15468,0.14321,0.13303,0.12285,0.1141,0.10536,0.09793,0.090503,0.084034,0.077565,0.076457,0.075349,0.069659,0.063969,0.059216,0.054463,0.050513,0.046563,0.04326,0.039957,0.037249,0.034542
0.028409,0.029837,0.031266,0.033371,0.035476,0.037904,0.040331,0.043255,0.04618,0.049326,0.052472,0.056389,0.060306,0.064294,0.068281,0.073073,0.077865,0.085561,0.093258,0.10197,0.11069,0.12038,0.13006,0.13876,0.14746,0.15661,0.16576,0.17473,0.1837,0.19257,0.25128,0.26361,0.27593,0.27376,0.2716,0.28126,0.29091,0.29894,0.30697,0.31249,0.31802,0.32507,0.33212,0.33828,0.34443,0.35018,0.35593,0.37396,0.39199,0.39558,0.39918,0.40286,0.40654,0.40961,0.41268,0.41598,0.41927,0.42204,0.42481,0.42784,0.43086,0.43306,0.43526,0.4345,0.43374,0.43007,0.4264,0.4189,0.41139,0.40346,0.39552,0.38628,0.37704,0.36539,0.35373,0.34116,0.32859,0.31495,0.3013,0.2874,0.2735,0.22341,0.21182,0.20101,0.1902,0.17942,0.16864,0.15857,0.14851,0.13885,0.1292,0.1205,0.1118,0.10422,0.096642,0.090113,0.083585,0.080201,0.076816,0.072534,0.068251,0.063358,0.058464,0.054303,0.050142,0.046648,0.043155,0.040214,0.037273,0.034838,0.032404
0.026827,0.028669,0.030511,0.032526,0.034542,0.036854,0.039166,0.040448,0.041729,0.046207,0.050684,0.052047,0.053409,0.059528,0.065646,0.070078,0.07451,0.075678,0.076846,0.08622,0.095594,0.10575,0.1159,0.12306,0.13021,0.1377,0.14519,0.15226,0.15932,0.16642,0.21935,0.23084,0.24234,0.25207,0.2618,0.26863,0.27546,0.28606,0.29666,0.299,0.30134,0.30754,0.31373,0.31871,0.32368,0.32838,0.33308,0.33694,0.34081,0.34434,0.34788,0.35114,0.3544,0.35635,0.3583,0.36048,0.36267,0.36441,0.36614,0.36731,0.36848,0.36857,0.36866,0.36539,0.36213,0.35866,0.35518,0.35072,0.34626,0.33964,0.33302,0.32308,0.31313,0.30611,0.29909,0.28907,0.27905,0.26838,0.25771,0.24579,0.23387,0.18954,0.18071,0.17253,0.16435,0.15594,0.14752,0.1392,0.13087,0.12303,0.11518,0.10796,0.10074,0.094336,0.087927,0.082297,0.076667,0.076367,0.076068,0.068611,0.061154,0.057057,0.05296,0.04939,0.04582,0.042784,0.039747,0.037168,0.03459,0.032428,0.030265
0.025201,0.0268,0.0284,0.030171,0.031942,0.033977,0.036012,0.038245,0.040478,0.043218,0.045958,0.048758,0.051558,0.055085,0.058611,0.062335,0.066059,0.069866,0.073672,0.078538,0.083405,0.090368,0.097331,0.10623,0.11512,0.12268,0.13024,0.13638,0.14252,0.14847,0.199,0.20769,0.21639,0.22461,0.23283,0.24058,0.24833,0.25555,0.26276,0.26688,0.271,0.27528,0.27956,0.28424,0.28891,0.29315,0.29738,0.30098,0.30457,0.30776,0.31095,0.31384,0.31673,0.31862,0.3205,0.32212,0.32374,0.32492,0.3261,0.32523,0.32437,0.32351,0.32266,0.32037,0.31808,0.31373,0.30939,0.30546,0.30154,0.29621,0.29088,0.28418,0.27749,0.27013,0.26277,0.25383,0.24489,0.23681,0.22873,0.21949,0.21025,0.16822,0.16076,0.15372,0.14669,0.13947,0.13225,0.12518,0.11811,0.11136,0.10461,0.098334,0.09206,0.089035,0.08601,0.080934,0.075858,0.072145,0.068431,0.063771,0.059111,0.055202,0.051292,0.047893,0.044494,0.041596,0.038699,0.036227,0.033754,0.031674,0.029595
0.023575,0.024932,0.026288,0.027816,0.029343,0.031101,0.032859,0.036042,0.039226,0.040229,0.041232,0.04547,0.049708,0.050642,0.051576,0.054592,0.057608,0.064053,0.070497,0.070857,0.071216,0.07499,0.078763,0.089395,0.10003,0.10766,0.1153,0.12051,0.12572,0.13051,0.17864,0.18454,0.19044,0.19715,0.20386,0.21253,0.2212,0.22503,0.22886,0.23476,0.24066,0.24303,0.24539,0.24977,0.25414,0.25791,0.26169,0.26501,0.26833,0.27118,0.27402,0.27654,0.27905,0.28088,0.28271,0.28376,0.2848,0.28543,0.28606,0.28316,0.28025,0.27846,0.27666,0.27534,0.27402,0.26881,0.2636,0.26021,0.25682,0.25278,0.24874,0.24529,0.24185,0.23415,0.22645,0.21859,0.21073,0.20524,0.19975,0.19319,0.18662,0.14689,0.14082,0.13492,0.12902,0.123,0.11698,0.11117,0.10536,0.099697,0.094037,0.088706,0.083375,0.083734,0.084094,0.079572,0.07505,0.067922,0.060794,0.058932,0.057069,0.053346,0.049624,0.046395,0.043167,0.040409,0.037651,0.035285,0.032919,0.030921,0.028924
0.022916,0.024223,0.025531,0.027259,0.028987,0.030469,0.031951,0.03391,0.035869,0.037902,0.039936,0.042409,0.044883,0.047318,0.049753,0.052599,0.055446,0.058896,0.062346,0.065313,0.068281,0.0718,0.075319,0.082357,0.089395,0.092809,0.096223,0.10268,0.10913,0.11305,0.15699,0.16521,0.17342,0.17948,0.18554,0.19161,0.19769,0.20302,0.20835,0.21372,0.2191,0.22262,0.22614,0.22732,0.2285,0.2319,0.2353,0.23839,0.24147,0.244,0.24653,0.24876,0.25099,0.25141,0.25183,0.25001,0.24818,0.25096,0.25375,0.25227,0.25078,0.24797,0.24515,0.2439,0.24264,0.24033,0.23803,0.23495,0.23187,0.22816,0.22445,0.21994,0.21543,0.20993,0.20442,0.19796,0.1915,0.18609,0.18068,0.17416,0.16764,0.13141,0.12632,0.12124,0.11617,0.11099,0.10581,0.10076,0.095714,0.090787,0.085861,0.084124,0.082387,0.078823,0.075259,0.071171,0.067083,0.062847,0.058611,0.055199,0.051786,0.048564,0.045341,0.04252,0.039699,0.037272,0.034844,0.032747,0.030649,0.028856,0.027064
0.022257,0.023515,0.024773,0.026702,0.02863,0.029837,0.031044,0.031778,0.032511,0.035575,0.038639,0.039349,0.040058,0.043994,0.047929,0.050606,0.053283,0.053739,0.054194,0.05977,0.065346,0.068611,0.071875,0.075319,0.078763,0.077954,0.077146,0.084843,0.092539,0.095594,0.13535,0.14587,0.1564,0.16181,0.16722,0.1707,0.17419,0.18101,0.18783,0.19269,0.19754,0.20221,0.20688,0.20487,0.20287,0.20589,0.20892,0.21176,0.21461,0.21682,0.21904,0.22099,0.22293,0.22194,0.22096,0.21625,0.21155,0.21649,0.22144,0.22138,0.22132,0.21748,0.21365,0.21245,0.21125,0.21185,0.21245,0.20969,0.20693,0.20355,0.20017,0.1946,0.18902,0.18571,0.18239,0.17733,0.17227,0.16694,0.16161,0.15513,0.14866,0.11593,0.11183,0.10757,0.10332,0.098978,0.094635,0.090353,0.08607,0.081878,0.077685,0.079542,0.081399,0.073912,0.066425,0.062771,0.059117,0.057773,0.056428,0.051466,0.046503,0.043781,0.041059,0.038645,0.036231,0.034135,0.032038,0.030208,0.028379,0.026791,0.025204
0.020901,0.022018,0.023135,0.024646,0.026157,0.027363,0.02857,0.030072,0.031574,0.033422,0.03527,0.037014,0.038759,0.040963,0.043167,0.045504,0.047842,0.049995,0.052148,0.054974,0.0578,0.060597,0.063394,0.066251,0.069108,0.07142,0.073732,0.076966,0.080201,0.082641,0.12075,0.12731,0.13388,0.1384,0.14293,0.14739,0.15185,0.15614,0.16044,0.16456,0.16867,0.17258,0.17648,0.17856,0.18065,0.18393,0.1872,0.18665,0.1861,0.18831,0.19053,0.19248,0.19442,0.19659,0.19876,0.19682,0.19487,0.19607,0.19727,0.19715,0.19703,0.19611,0.1952,0.19389,0.19259,0.191,0.18941,0.18709,0.18477,0.18194,0.17911,0.17541,0.1717,0.16774,0.16378,0.1594,0.15503,0.15038,0.14572,0.14082,0.13592,0.10449,0.10095,0.097271,0.093587,0.089829,0.08607,0.083675,0.081279,0.079018,0.076757,0.074391,0.072025,0.067862,0.063699,0.060291,0.056883,0.053906,0.050929,0.047938,0.044946,0.042364,0.039783,0.037483,0.035183,0.033184,0.031185,0.029431,0.027678,0.026152,0.024626
0.019544,0.02052,0.021497,0.02259,0.023683,0.02489,0.026097,0.028367,0.030637,0.031269,0.031901,0.03468,0.037459,0.037932,0.038405,0.040403,0.0424,0.046252,0.050103,0.050178,0.050253,0.052583,0.054913,0.057183,0.059453,0.064885,0.070318,0.06909,0.067862,0.069689,0.10616,0.10876,0.11135,0.11499,0.11864,0.12407,0.1295,0.13128,0.13305,0.13643,0.1398,0.14294,0.14609,0.15226,0.15842,0.16196,0.16549,0.16154,0.15759,0.1598,0.16202,0.16396,0.16591,0.17124,0.17657,0.17738,0.17819,0.17564,0.1731,0.17292,0.17274,0.17475,0.17675,0.17534,0.17392,0.17015,0.16638,0.1645,0.16261,0.16033,0.15805,0.15622,0.15438,0.14977,0.14516,0.14148,0.1378,0.13382,0.12984,0.12652,0.12319,0.093048,0.090083,0.086969,0.083854,0.08068,0.077505,0.076996,0.076487,0.076158,0.075828,0.06924,0.062651,0.061813,0.060974,0.057812,0.054649,0.05004,0.045431,0.04441,0.043389,0.040948,0.038507,0.036321,0.034135,0.032233,0.030331,0.028654,0.026977,0.025513,0.024048
0.019029,0.01996,0.020892,0.02122,0.021548,0.023476,0.025405,0.026751,0.028097,0.029557,0.031017,0.032528,0.034039,0.035596,0.037153,0.039094,0.041035,0.042932,0.044829,0.046599,0.048369,0.050633,0.052897,0.055025,0.057153,0.059379,0.061606,0.063237,0.064867,0.066619,0.10028,0.1036,0.10692,0.11035,0.11378,0.11757,0.12136,0.12444,0.12752,0.13072,0.13392,0.13689,0.13986,0.14301,0.14617,0.14911,0.15205,0.15246,0.15288,0.15515,0.15741,0.15597,0.15453,0.1561,0.15768,0.15847,0.15926,0.15968,0.1601,0.15965,0.15919,0.15877,0.15834,0.15717,0.156,0.15432,0.15263,0.15077,0.14891,0.14684,0.14477,0.14199,0.13921,0.13613,0.13306,0.12974,0.12642,0.12286,0.1193,0.11571,0.11212,0.084363,0.081758,0.082252,0.082746,0.079632,0.076517,0.07472,0.072923,0.069987,0.06705,0.063566,0.060082,0.057338,0.054595,0.051879,0.049163,0.046494,0.043826,0.041661,0.039495,0.037371,0.035246,0.033347,0.031448,0.029767,0.028085,0.026597,0.025108,0.023145,0.021182
0.018514,0.0194,0.020287,0.019849,0.019412,0.022063,0.024713,0.025135,0.025558,0.027846,0.030134,0.030376,0.030619,0.03326,0.035902,0.037785,0.039669,0.039612,0.039555,0.04302,0.046485,0.048683,0.050882,0.052867,0.054853,0.053873,0.052894,0.057383,0.061872,0.06355,0.094396,0.098439,0.10248,0.1057,0.10892,0.11107,0.11322,0.1176,0.12198,0.12501,0.12803,0.13083,0.13364,0.13377,0.13391,0.13625,0.1386,0.14339,0.14818,0.15049,0.15279,0.14797,0.14315,0.14096,0.13878,0.13955,0.14032,0.14371,0.1471,0.14638,0.14565,0.14279,0.13993,0.13901,0.13809,0.13849,0.13888,0.13704,0.1352,0.13335,0.1315,0.12776,0.12403,0.12249,0.12095,0.118,0.11504,0.1119,0.10875,0.1049,0.10105,0.075678,0.073432,0.077535,0.081638,0.078583,0.075529,0.072444,0.069359,0.063816,0.058273,0.057892,0.057512,0.052864,0.048216,0.045946,0.043676,0.042948,0.042221,0.038911,0.035602,0.033793,0.031984,0.030373,0.028762,0.027301,0.025839,0.024539,0.02324,0.020778,0.018316
0.017759,0.019285,0.020811,0.021098,0.021386,0.023271,0.025156,0.025701,0.026246,0.028142,0.030038,0.030721,0.031403,0.033807,0.03621,0.037701,0.039193,0.039814,0.040436,0.043651,0.046866,0.048294,0.049723,0.051578,0.053433,0.05361,0.053787,0.057168,0.060549,0.062019,0.091826,0.095043,0.098259,0.10069,0.10312,0.10564,0.10816,0.11084,0.11351,0.11601,0.11851,0.12084,0.12317,0.12514,0.12711,0.12923,0.13135,0.13368,0.13602,0.13738,0.13875,0.1383,0.13785,0.13738,0.13692,0.13763,0.13833,0.13953,0.14072,0.13729,0.13387,0.13208,0.1303,0.12926,0.12822,0.12761,0.12699,0.12527,0.12355,0.12177,0.11999,0.11726,0.11452,0.11553,0.11653,0.1123,0.10807,0.107,0.10592,0.10296,0.099993,0.074705,0.072534,0.07204,0.071546,0.069018,0.06649,0.063966,0.061441,0.058667,0.055892,0.05365,0.051409,0.048902,0.046395,0.044253,0.04211,0.040226,0.038342,0.036403,0.034464,0.032745,0.031026,0.02949,0.027953,0.026559,0.025165,0.023921,0.022677,0.020941,0.019206
0.017004,0.01917,0.021335,0.022347,0.023359,0.024479,0.0256,0.026267,0.026935,0.028439,0.029942,0.031065,0.032188,0.034353,0.036519,0.037618,0.038717,0.040016,0.041316,0.044281,0.047246,0.047905,0.048564,0.050289,0.052014,0.053346,0.054679,0.056952,0.059225,0.060489,0.089257,0.091647,0.094037,0.095678,0.097319,0.10021,0.1031,0.10408,0.10505,0.10702,0.10899,0.11084,0.11269,0.11651,0.12032,0.12221,0.1241,0.12398,0.12385,0.12428,0.1247,0.12863,0.13255,0.1338,0.13506,0.1357,0.13634,0.13534,0.13433,0.12821,0.12209,0.12138,0.12067,0.11951,0.11835,0.11673,0.1151,0.1135,0.1119,0.11019,0.10849,0.10675,0.105,0.10856,0.11211,0.10661,0.1011,0.1021,0.10309,0.10101,0.098936,0.073732,0.071635,0.066544,0.061453,0.059453,0.057452,0.055488,0.053523,0.053517,0.053511,0.049408,0.045305,0.04494,0.044575,0.042559,0.040544,0.037504,0.034464,0.033895,0.033326,0.031697,0.030068,0.028606,0.027145,0.025818,0.024491,0.023302,0.022114,0.021104,0.020095
