0.011758,0.012368,0.012978,0.013653,0.014328,0.014753,0.015179,0.016399,0.017619,0.016763,0.015906,0.016739,0.017572,0.019805,0.022037,0.024041,0.026045,0.026277,0.026508,0.028958,0.031407,0.032842,0.034277,0.035641,0.037005,0.036638,0.036271,0.039302,0.042332,0.043479,0.057581,0.058796,0.06001,0.061683,0.063355,0.064804,0.066253,0.066494,0.066734,0.067594,0.068453,0.070765,0.073077,0.074124,0.075171,0.075805,0.076439,0.076879,0.077319,0.078023,0.078727,0.078794,0.078862,0.078615,0.078369,0.075999,0.073628,0.073402,0.073176,0.072578,0.07198,0.072763,0.073546,0.072651,0.071757,0.069468,0.06718,0.067192,0.067204,0.065127,0.06305,0.062742,0.062434,0.059324,0.056214,0.056745,0.057276,0.055883,0.054489,0.053061,0.051632,0.035121,0.03386,0.032983,0.032106,0.031305,0.030504,0.029829,0.029154,0.028101,0.027048,0.025534,0.024021,0.023759,0.023498,0.021905,0.020312,0.018447,0.016581,0.015886,0.01519,0.015537,0.015883,0.015202,0.014521,0.013999,0.013477,0.013096,0.012714,0.012157,0.0116
0.012069,0.012716,0.013363,0.014076,0.014788,0.015613,0.016437,0.016692,0.016948,0.017614,0.018279,0.019664,0.021049,0.022871,0.024692,0.025902,0.027113,0.028628,0.030143,0.031498,0.032854,0.034387,0.035919,0.037389,0.038859,0.040582,0.042306,0.043482,0.044659,0.045903,0.060412,0.06197,0.063528,0.065084,0.06664,0.068191,0.069741,0.070611,0.071481,0.072832,0.074183,0.075953,0.077724,0.078334,0.078944,0.080197,0.081449,0.082004,0.082558,0.08241,0.082262,0.083072,0.083881,0.083817,0.083752,0.083642,0.083532,0.081773,0.080015,0.079038,0.078061,0.077908,0.077756,0.076672,0.075588,0.074461,0.073335,0.071931,0.070527,0.069294,0.06806,0.066589,0.065118,0.062755,0.060392,0.059217,0.058042,0.057187,0.056332,0.05474,0.053149,0.035365,0.033388,0.032484,0.031581,0.031459,0.031337,0.0303,0.029263,0.028148,0.027033,0.025267,0.023501,0.022533,0.021565,0.019666,0.017766,0.017757,0.017748,0.01699,0.016232,0.015827,0.015422,0.014763,0.014105,0.013688,0.013272,0.012779,0.012286,0.011754,0.011221
0.01238,0.013063,0.013747,0.014498,0.015249,0.016472,0.017696,0.016986,0.016276,0.018464,0.020653,0.022589,0.024525,0.025936,0.027347,0.027764,0.02818,0.030979,0.033778,0.034039,0.0343,0.035931,0.037562,0.039138,0.040713,0.044527,0.04834,0.047663,0.046985,0.048326,0.063243,0.065144,0.067045,0.068486,0.069926,0.071578,0.073229,0.074728,0.076227,0.07807,0.079912,0.081141,0.08237,0.082544,0.082717,0.084588,0.08646,0.087129,0.087798,0.086797,0.085797,0.087349,0.088901,0.089018,0.089135,0.091286,0.093436,0.090145,0.086853,0.085498,0.084142,0.083054,0.081966,0.080692,0.079419,0.079454,0.07949,0.07667,0.073851,0.073461,0.073071,0.070436,0.067802,0.066186,0.064569,0.061688,0.058808,0.058491,0.058174,0.05642,0.054665,0.035608,0.032915,0.031985,0.031055,0.031613,0.03217,0.030771,0.029372,0.028195,0.027019,0.025,0.022982,0.021307,0.019632,0.017426,0.01522,0.017068,0.018916,0.018095,0.017273,0.016117,0.014962,0.014325,0.013688,0.013377,0.013066,0.012462,0.011858,0.01135,0.010843
0.013195,0.013966,0.014736,0.015595,0.016455,0.01673,0.017006,0.018147,0.019289,0.021094,0.0229,0.024176,0.025452,0.026947,0.028442,0.030194,0.031947,0.033636,0.035324,0.037433,0.039542,0.041577,0.043611,0.045636,0.04766,0.049357,0.051054,0.05335,0.055645,0.057416,0.073156,0.075526,0.077897,0.080173,0.08245,0.084575,0.086701,0.087947,0.089194,0.090768,0.092342,0.093683,0.095023,0.096222,0.09742,0.098184,0.098948,0.099544,0.10014,0.10103,0.10191,0.10166,0.10141,0.10112,0.10083,0.099589,0.09835,0.097181,0.096012,0.094715,0.093419,0.092022,0.090626,0.088976,0.087325,0.085386,0.083447,0.081903,0.080358,0.078472,0.076585,0.074849,0.073112,0.071242,0.069372,0.066856,0.06434,0.063091,0.061841,0.059921,0.058001,0.039314,0.038451,0.037226,0.036002,0.034746,0.03349,0.032046,0.030601,0.029352,0.028104,0.027067,0.02603,0.024037,0.022043,0.020744,0.019444,0.019529,0.019614,0.018739,0.017863,0.017062,0.016261,0.015523,0.014785,0.014096,0.013407,0.012786,0.012166,0.011632,0.011098
0.014011,0.014868,0.015724,0.016692,0.01766,0.016989,0.016317,0.019309,0.022301,0.023724,0.025147,0.025763,0.026379,0.027957,0.029536,0.032625,0.035714,0.036292,0.03687,0.040827,0.044785,0.047223,0.04966,0.052134,0.054607,0.054187,0.053768,0.059036,0.064305,0.066505,0.083069,0.085908,0.088748,0.091861,0.094973,0.097573,0.10017,0.10117,0.10216,0.10347,0.10477,0.10622,0.10768,0.1099,0.11212,0.11178,0.11144,0.11196,0.11248,0.11526,0.11803,0.11598,0.11392,0.11322,0.11252,0.10789,0.10326,0.10422,0.10517,0.10393,0.10269,0.10099,0.099286,0.097259,0.095232,0.091318,0.087405,0.087135,0.086865,0.083482,0.0801,0.079261,0.078422,0.076298,0.074174,0.072024,0.069873,0.067691,0.065508,0.063422,0.061336,0.043019,0.043987,0.042467,0.040948,0.037879,0.03481,0.03332,0.03183,0.03051,0.02919,0.029134,0.029078,0.026766,0.024455,0.024062,0.023669,0.02199,0.020312,0.019382,0.018453,0.018007,0.017561,0.016722,0.015883,0.014815,0.013747,0.01311,0.012474,0.011913,0.011353
0.014407,0.015311,0.016214,0.017237,0.018259,0.018753,0.019248,0.021138,0.023029,0.024541,0.026054,0.027811,0.029568,0.031476,0.033385,0.035347,0.03731,0.03985,0.042391,0.044723,0.047055,0.049665,0.052274,0.05497,0.057666,0.060786,0.063906,0.066115,0.068324,0.069028,0.085225,0.088258,0.091292,0.094084,0.096877,0.099578,0.10228,0.10401,0.10573,0.1082,0.11066,0.11214,0.11363,0.11487,0.11611,0.11721,0.11832,0.1191,0.11987,0.12046,0.12106,0.12118,0.12131,0.12077,0.12024,0.1208,0.12136,0.11988,0.1184,0.11659,0.11478,0.11294,0.11111,0.1091,0.10708,0.10512,0.10315,0.10079,0.098435,0.096295,0.094155,0.091689,0.089223,0.086856,0.084489,0.08204,0.079592,0.077094,0.074596,0.071496,0.068395,0.04804,0.046225,0.044619,0.043013,0.041659,0.040305,0.038554,0.036802,0.035121,0.03344,0.031858,0.030275,0.029207,0.028139,0.026439,0.024739,0.023601,0.022463,0.021361,0.02026,0.019237,0.018215,0.017325,0.016434,0.01561,0.014785,0.014059,0.013333,0.0127,0.012066
0.014803,0.015754,0.016704,0.017781,0.018857,0.020518,0.022178,0.022967,0.023757,0.025358,0.02696,0.029858,0.032757,0.034995,0.037234,0.03807,0.038906,0.043409,0.047912,0.048619,0.049326,0.052107,0.054888,0.057807,0.060726,0.067385,0.074045,0.073194,0.072343,0.071551,0.087381,0.090608,0.093835,0.096308,0.098781,0.10158,0.10438,0.10685,0.10931,0.11292,0.11654,0.11806,0.11957,0.11983,0.12009,0.12265,0.12521,0.12623,0.12726,0.12567,0.12409,0.12639,0.12869,0.12832,0.12796,0.13371,0.13946,0.13554,0.13162,0.12924,0.12686,0.12489,0.12293,0.12093,0.11894,0.11891,0.11889,0.11445,0.11001,0.10911,0.10821,0.10412,0.10003,0.097414,0.094803,0.092057,0.089311,0.086498,0.083685,0.079569,0.075453,0.053061,0.048464,0.046771,0.045078,0.045439,0.0458,0.043787,0.041775,0.039733,0.037691,0.034582,0.031472,0.031648,0.031824,0.028817,0.02581,0.025212,0.024613,0.02334,0.022067,0.020468,0.018869,0.017927,0.016986,0.016405,0.015824,0.015008,0.014193,0.013486,0.012779
0.015809,0.01688,0.017951,0.019149,0.020348,0.021611,0.022874,0.024579,0.026285,0.028175,0.030064,0.03207,0.034077,0.036475,0.038874,0.041776,0.044679,0.047504,0.050329,0.053998,0.057666,0.061272,0.064877,0.068053,0.071229,0.073165,0.075101,0.076494,0.077888,0.079164,0.097631,0.10133,0.10502,0.10861,0.1122,0.11548,0.11875,0.12209,0.12542,0.12797,0.13053,0.13241,0.1343,0.13618,0.13806,0.13908,0.1401,0.14094,0.14177,0.14229,0.14282,0.14252,0.14223,0.14152,0.14081,0.14294,0.14507,0.14415,0.14323,0.14114,0.13906,0.13808,0.13709,0.13436,0.13163,0.12852,0.1254,0.12283,0.12027,0.11714,0.11402,0.11112,0.10822,0.10519,0.10215,0.099028,0.095906,0.092761,0.089617,0.085771,0.081925,0.059343,0.057793,0.055567,0.053342,0.050712,0.048082,0.045913,0.043743,0.041599,0.039454,0.037759,0.036063,0.034357,0.032651,0.030888,0.029125,0.026869,0.024613,0.023803,0.022994,0.021823,0.020653,0.019564,0.018476,0.017404,0.016332,0.015471,0.014609,0.013866,0.013122
0.016816,0.018007,0.019198,0.020518,0.021838,0.022703,0.023569,0.026191,0.028814,0.030991,0.033168,0.034282,0.035397,0.037955,0.040513,0.045483,0.050453,0.0516,0.052747,0.059377,0.066007,0.070436,0.074866,0.078299,0.081731,0.078944,0.076157,0.079795,0.083432,0.086777,0.10788,0.11205,0.11621,0.12091,0.12561,0.12937,0.13312,0.13733,0.14154,0.14302,0.14451,0.14677,0.14903,0.15253,0.15602,0.15551,0.155,0.15564,0.15629,0.15892,0.16154,0.15866,0.15577,0.15472,0.15366,0.15217,0.15067,0.15275,0.15484,0.15305,0.15126,0.15126,0.15126,0.1478,0.14433,0.13812,0.1319,0.13122,0.13053,0.12518,0.11982,0.11812,0.11642,0.11296,0.10949,0.106,0.1025,0.099025,0.095548,0.091972,0.088396,0.065625,0.067121,0.064364,0.061606,0.055985,0.050365,0.048038,0.045712,0.043465,0.041218,0.040936,0.040654,0.037066,0.033479,0.032959,0.03244,0.028527,0.024613,0.024267,0.023921,0.023179,0.022436,0.021201,0.019966,0.018403,0.016839,0.015933,0.015026,0.014246,0.013465
0.017276,0.017828,0.018379,0.020415,0.022451,0.024176,0.025901,0.02785,0.0298,0.032109,0.034417,0.037188,0.039959,0.043107,0.046255,0.049572,0.05289,0.057204,0.061518,0.06564,0.069762,0.072871,0.075981,0.080088,0.084195,0.08531,0.086425,0.090811,0.095196,0.099333,0.12267,0.12771,0.13275,0.13769,0.14263,0.14765,0.15268,0.15671,0.16074,0.16413,0.16752,0.17039,0.17326,0.17524,0.17721,0.17876,0.1803,0.18103,0.18176,0.18153,0.18131,0.18118,0.18106,0.17992,0.17878,0.17715,0.17552,0.17631,0.1771,0.17501,0.17291,0.17341,0.17391,0.17091,0.16792,0.16637,0.16481,0.16102,0.15724,0.15375,0.15026,0.14606,0.14187,0.13791,0.13395,0.12972,0.12549,0.11863,0.11178,0.10746,0.10314,0.074485,0.070847,0.067928,0.065009,0.06236,0.059711,0.0567,0.053688,0.050841,0.047994,0.045215,0.042435,0.040358,0.038281,0.035984,0.033687,0.031347,0.029008,0.028032,0.027057,0.025191,0.023325,0.021999,0.020673,0.019444,0.018215,0.017187,0.016158,0.015237,0.014316
0.017737,0.017649,0.017561,0.020312,0.023064,0.025649,0.028233,0.029509,0.030786,0.033226,0.035667,0.040094,0.044521,0.048258,0.051996,0.053662,0.055328,0.062809,0.07029,0.071903,0.073517,0.075306,0.077096,0.081878,0.086659,0.091676,0.096692,0.10183,0.10696,0.11189,0.13746,0.14338,0.14929,0.15447,0.15964,0.16594,0.17223,0.17609,0.17995,0.18524,0.19053,0.19401,0.19749,0.19795,0.1984,0.202,0.20561,0.20642,0.20723,0.20415,0.20107,0.20371,0.20635,0.20512,0.20389,0.20213,0.20037,0.19987,0.19937,0.19696,0.19456,0.19556,0.19655,0.19403,0.19151,0.19462,0.19773,0.19083,0.18394,0.18232,0.18069,0.17401,0.16732,0.16287,0.15841,0.15344,0.14847,0.13824,0.12801,0.12294,0.11788,0.083344,0.074573,0.071493,0.068412,0.068735,0.069058,0.065361,0.061665,0.058218,0.054771,0.049493,0.044216,0.043649,0.043083,0.039008,0.034934,0.034168,0.033402,0.031798,0.030193,0.027204,0.024214,0.022797,0.02138,0.020486,0.019591,0.018441,0.017291,0.016229,0.015167
0.018881,0.019635,0.020389,0.02274,0.025091,0.027094,0.029096,0.031586,0.034077,0.036987,0.039897,0.043141,0.046384,0.050369,0.054354,0.059286,0.064217,0.067738,0.071258,0.07494,0.078621,0.082714,0.086806,0.092659,0.098511,0.10467,0.11083,0.11714,0.12345,0.12951,0.15693,0.16326,0.16959,0.17709,0.1846,0.19177,0.19893,0.20444,0.20996,0.21492,0.21989,0.22371,0.22753,0.23027,0.23301,0.23411,0.23521,0.23549,0.23578,0.23557,0.23537,0.23355,0.23173,0.23358,0.23542,0.23501,0.2346,0.23319,0.23179,0.22944,0.22709,0.22627,0.22545,0.22269,0.21993,0.21979,0.21964,0.21718,0.21471,0.20972,0.20473,0.19955,0.19437,0.18891,0.18345,0.17745,0.17146,0.16256,0.15367,0.14731,0.14095,0.10513,0.097543,0.09037,0.083198,0.078049,0.072901,0.068911,0.064921,0.061203,0.057484,0.054494,0.051503,0.048217,0.044931,0.04235,0.039768,0.037204,0.03464,0.032707,0.030774,0.02897,0.027165,0.025231,0.023296,0.021776,0.020257,0.019039,0.017822,0.016732,0.015642
0.020025,0.021621,0.023217,0.025168,0.027118,0.028538,0.029958,0.033663,0.037369,0.040748,0.044128,0.046187,0.048246,0.05248,0.056713,0.06491,0.073106,0.072666,0.072226,0.077976,0.083726,0.090121,0.096516,0.10344,0.11036,0.11767,0.12497,0.13245,0.13993,0.14712,0.17639,0.18314,0.18989,0.19972,0.20956,0.21759,0.22563,0.2328,0.23997,0.24461,0.24925,0.25341,0.25757,0.2626,0.26762,0.26622,0.26481,0.26456,0.26432,0.26699,0.26966,0.26338,0.2571,0.26203,0.26696,0.2679,0.26884,0.26652,0.2642,0.26191,0.25963,0.25699,0.25435,0.25135,0.24836,0.24496,0.24156,0.24352,0.24549,0.23713,0.22876,0.22509,0.22142,0.21495,0.20848,0.20146,0.19445,0.18689,0.17933,0.17167,0.16401,0.12691,0.12051,0.10925,0.097983,0.087364,0.076744,0.072461,0.068178,0.064188,0.060198,0.059494,0.05879,0.052785,0.04678,0.045691,0.044603,0.040241,0.035878,0.033616,0.031355,0.030736,0.030117,0.027664,0.025212,0.023067,0.020923,0.019638,0.018353,0.017235,0.016117
0.019083,0.021429,0.023774,0.025812,0.027849,0.030313,0.032777,0.035699,0.038621,0.042202,0.045782,0.050193,0.054604,0.059859,0.065115,0.069565,0.074016,0.077272,0.080528,0.087393,0.094258,0.102,0.10975,0.11828,0.12682,0.13594,0.14507,0.15404,0.16302,0.17209,0.20514,0.21498,0.22483,0.23533,0.24584,0.25581,0.26577,0.27497,0.28416,0.29227,0.30038,0.30595,0.31152,0.31436,0.31719,0.3181,0.31901,0.31795,0.31689,0.31724,0.31759,0.31454,0.31149,0.31231,0.31314,0.31202,0.31091,0.30755,0.30419,0.30224,0.30029,0.29738,0.29448,0.29147,0.28846,0.28487,0.28128,0.28016,0.27905,0.27478,0.27051,0.26332,0.25613,0.24885,0.24156,0.23321,0.22486,0.21589,0.20693,0.1976,0.18827,0.14871,0.14078,0.13,0.11922,0.10919,0.099157,0.090635,0.082112,0.076802,0.071493,0.066564,0.061636,0.057856,0.054076,0.05026,0.046445,0.043491,0.040537,0.037797,0.035057,0.032851,0.030645,0.02878,0.026916,0.024811,0.022706,0.021241,0.019776,0.018505,0.017235
0.018142,0.021237,0.024332,0.026455,0.028579,0.032088,0.035597,0.037735,0.039874,0.043655,0.047437,0.054199,0.060961,0.067239,0.073517,0.074221,0.074925,0.081878,0.08883,0.09681,0.10479,0.11388,0.12298,0.13313,0.14328,0.15422,0.16516,0.17564,0.18611,0.19705,0.23389,0.24683,0.25977,0.27095,0.28213,0.29402,0.30591,0.31714,0.32836,0.33994,0.35152,0.3585,0.36547,0.36612,0.36676,0.36999,0.37322,0.37134,0.36946,0.3675,0.36553,0.36571,0.36588,0.3626,0.35931,0.35614,0.35297,0.34857,0.34417,0.34256,0.34095,0.33778,0.33461,0.33159,0.32857,0.32478,0.321,0.3168,0.31261,0.31243,0.31226,0.30155,0.29084,0.28274,0.27464,0.26495,0.25527,0.2449,0.23454,0.22353,0.21252,0.1705,0.16106,0.15076,0.14046,0.13102,0.12157,0.10881,0.096047,0.089417,0.082787,0.073634,0.064481,0.062926,0.061372,0.05483,0.048288,0.046742,0.045196,0.041977,0.038759,0.034966,0.031173,0.029897,0.028621,0.026555,0.02449,0.022844,0.021198,0.019776,0.018353
0.020799,0.023456,0.026112,0.028521,0.030929,0.03379,0.03665,0.040296,0.043943,0.048424,0.052905,0.058224,0.063542,0.06897,0.074397,0.078709,0.083022,0.091207,0.099391,0.10907,0.11875,0.13009,0.14143,0.15402,0.1666,0.18074,0.19488,0.20899,0.2231,0.23803,0.28057,0.29662,0.31267,0.32897,0.34526,0.36167,0.37808,0.39449,0.41089,0.42547,0.44006,0.4497,0.45935,0.46285,0.46636,0.46542,0.46448,0.45932,0.45416,0.44821,0.44227,0.43836,0.43444,0.42937,0.42429,0.41979,0.41528,0.41031,0.40534,0.38834,0.37134,0.3665,0.36166,0.35702,0.35239,0.36754,0.38269,0.37901,0.37533,0.37245,0.36958,0.36176,0.35394,0.32246,0.29098,0.28051,0.27003,0.25854,0.24705,0.24819,0.24933,0.20153,0.18925,0.17649,0.16373,0.15211,0.14049,0.12789,0.11529,0.10523,0.095167,0.085721,0.076274,0.07026,0.064247,0.059831,0.055416,0.051183,0.04695,0.043547,0.040144,0.037341,0.034538,0.032491,0.030445,0.027886,0.025326,0.023604,0.021882,0.020368,0.018854
0.023457,0.025675,0.027893,0.030586,0.033279,0.035491,0.037703,0.042857,0.048012,0.053193,0.058373,0.062249,0.066124,0.0707,0.075277,0.083198,0.091119,0.10054,0.10995,0.12133,0.13272,0.1463,0.15988,0.1749,0.18992,0.20726,0.2246,0.24235,0.2601,0.27902,0.32726,0.34642,0.36558,0.38699,0.4084,0.42932,0.45024,0.47183,0.49342,0.51101,0.52859,0.54091,0.55322,0.55959,0.56596,0.56085,0.55575,0.5473,0.53885,0.52893,0.51902,0.51101,0.503,0.49614,0.48927,0.48343,0.4776,0.47205,0.46651,0.43412,0.40173,0.39522,0.38871,0.38246,0.37621,0.4103,0.44439,0.44122,0.43805,0.43248,0.4269,0.42197,0.41704,0.36219,0.30733,0.29606,0.28479,0.27218,0.25957,0.27285,0.28613,0.23255,0.21744,0.20222,0.18699,0.1732,0.15941,0.14697,0.13454,0.12104,0.10755,0.097807,0.088068,0.077595,0.067121,0.064833,0.062545,0.055625,0.048704,0.045116,0.041528,0.039715,0.037903,0.035086,0.03227,0.029216,0.026162,0.024364,0.022565,0.020961,0.019356
0.023918,0.026219,0.028521,0.031318,0.034115,0.037597,0.04108,0.045344,0.049608,0.055063,0.060518,0.067223,0.073927,0.078211,0.082494,0.091793,0.10109,0.11252,0.12395,0.13731,0.15067,0.1689,0.18714,0.20855,0.22997,0.25524,0.28051,0.30668,0.33285,0.35918,0.4165,0.44493,0.47336,0.50119,0.52902,0.55987,0.59071,0.62116,0.65161,0.67613,0.70064,0.71682,0.733,0.7403,0.74761,0.7413,0.73499,0.71562,0.69624,0.67249,0.64874,0.63223,0.61571,0.60346,0.59121,0.56714,0.54307,0.55102,0.55897,0.54026,0.52154,0.51735,0.51315,0.51086,0.50857,0.5282,0.54783,0.54992,0.55202,0.54744,0.54287,0.53401,0.52515,0.48943,0.45372,0.43297,0.41223,0.3881,0.36397,0.35411,0.34425,0.26573,0.22677,0.22401,0.22125,0.20343,0.18561,0.17019,0.15478,0.14045,0.12612,0.11482,0.10353,0.091163,0.078797,0.072065,0.065332,0.060317,0.055302,0.050928,0.046554,0.042847,0.03914,0.036188,0.033235,0.030822,0.028409,0.026293,0.024176,0.022392,0.020609
0.024378,0.026764,0.029149,0.03205,0.034951,0.039704,0.044456,0.04783,0.051204,0.056933,0.062662,0.072197,0.081731,0.085721,0.08971,0.10039,0.11107,0.1245,0.13794,0.15328,0.16863,0.19151,0.21439,0.2422,0.27001,0.30322,0.33643,0.37102,0.4056,0.43934,0.50575,0.54344,0.58113,0.61539,0.64965,0.69042,0.73118,0.77049,0.80979,0.84124,0.8727,0.89273,0.91277,0.92101,0.92926,0.92175,0.91424,0.88393,0.85363,0.81605,0.77847,0.75344,0.72842,0.71079,0.69316,0.65086,0.60855,0.63,0.65144,0.6464,0.64135,0.63947,0.6376,0.63927,0.64094,0.6461,0.65127,0.65863,0.66599,0.66241,0.65883,0.64604,0.63325,0.61668,0.6001,0.56989,0.53968,0.50402,0.46837,0.43537,0.40237,0.29891,0.2361,0.24581,0.25552,0.23366,0.21181,0.19341,0.17502,0.15985,0.14469,0.13184,0.11899,0.10473,0.090473,0.079296,0.068119,0.065009,0.0619,0.056739,0.051579,0.045979,0.040378,0.037289,0.0342,0.032428,0.030656,0.028222,0.025787,0.023824,0.021861
0.025898,0.028521,0.031143,0.034373,0.037603,0.04163,0.045656,0.050884,0.056112,0.062819,0.069527,0.076436,0.083344,0.090869,0.098394,0.11102,0.12365,0.13936,0.15507,0.17699,0.1989,0.23058,0.26227,0.30486,0.34746,0.39688,0.44629,0.49191,0.53753,0.58183,0.65972,0.71648,0.77324,0.83131,0.88937,0.94281,0.99626,1.0363,1.0764,1.103,1.1296,1.1537,1.1778,1.1924,1.2069,1.2016,1.1962,1.1624,1.1285,1.0754,1.0222,0.96563,0.90907,0.89025,0.87143,0.83312,0.79481,0.79704,0.79927,0.79449,0.7897,0.79179,0.79387,0.80427,0.81467,0.83371,0.85275,0.86659,0.88044,0.87503,0.86962,0.85313,0.83664,0.816,0.79537,0.75661,0.71786,0.66716,0.61646,0.56633,0.51621,0.41225,0.3523,0.33329,0.31428,0.26728,0.22029,0.21248,0.20468,0.1853,0.16593,0.15016,0.13439,0.11972,0.10505,0.091984,0.078915,0.071683,0.064452,0.058956,0.05346,0.049075,0.044691,0.041046,0.037401,0.034439,0.031478,0.029405,0.027333,0.024896,0.02246
0.027418,0.030278,0.033138,0.036697,0.040255,0.043556,0.046856,0.053938,0.06102,0.068706,0.076392,0.080675,0.084958,0.096018,0.10708,0.12166,0.13624,0.15422,0.1722,0.20069,0.22918,0.26966,0.31014,0.36753,0.42491,0.49053,0.55616,0.61281,0.66945,0.72431,0.81369,0.88951,0.96534,1.0472,1.1291,1.1952,1.2613,1.3022,1.3431,1.3648,1.3866,1.4147,1.4429,1.4637,1.4846,1.4814,1.4781,1.4408,1.4034,1.3347,1.2659,1.1778,1.0897,1.0697,1.0497,1.0154,0.98106,0.96408,0.94709,0.94258,0.93806,0.9441,0.95014,0.96927,0.9884,1.0213,1.0542,1.0746,1.0949,1.0876,1.0804,1.0602,1.04,1.0153,0.99063,0.94334,0.89605,0.8303,0.76455,0.6973,0.63004,0.52559,0.4685,0.42077,0.37304,0.3009,0.22876,0.23155,0.23434,0.21075,0.18717,0.16848,0.14979,0.13471,0.11963,0.10467,0.08971,0.078357,0.067004,0.061172,0.05534,0.052172,0.049003,0.044802,0.040601,0.03645,0.032299,0.030589,0.028879,0.025968,0.023058
0.027911,0.030859,0.033807,0.03749,0.041174,0.045913,0.050652,0.056731,0.062809,0.069908,0.077008,0.084371,0.091735,0.10442,0.11711,0.13446,0.15182,0.17567,0.19952,0.23836,0.2772,0.33704,0.39689,0.47336,0.54982,0.62766,0.70551,0.7727,0.8399,0.91265,1.0229,1.1309,1.2389,1.3496,1.4604,1.5299,1.5994,1.6255,1.6517,1.6645,1.6773,1.7038,1.7304,1.7667,1.8031,1.8221,1.8411,1.8133,1.7854,1.6974,1.6095,1.5274,1.4452,1.3941,1.343,1.297,1.2509,1.2203,1.1896,1.1805,1.1713,1.1867,1.202,1.2437,1.2853,1.3271,1.3689,1.3864,1.4039,1.3922,1.3806,1.3528,1.3249,1.2895,1.254,1.2037,1.1533,1.0774,1.0014,0.91586,0.83026,0.70108,0.62032,0.55289,0.48546,0.41382,0.34218,0.31403,0.28588,0.25222,0.21856,0.19412,0.16968,0.15142,0.13316,0.11765,0.10215,0.089094,0.07604,0.068929,0.061817,0.056186,0.050555,0.046168,0.041781,0.038353,0.034925,0.032513,0.030102,0.027289,0.024475
0.028403,0.03144,0.034476,0.038284,0.042092,0.04827,0.054448,0.059523,0.064599,0.071111,0.077624,0.088068,0.098511,0.11283,0.12714,0.14727,0.16739,0.19711,0.22683,0.27603,0.32522,0.40443,0.48364,0.57919,0.67474,0.7648,0.85486,0.9326,1.0103,1.101,1.2321,1.3723,1.5125,1.6521,1.7916,1.8646,1.9375,1.9489,1.9603,1.9641,1.968,1.9929,2.0179,2.0697,2.1216,2.1629,2.2042,2.1858,2.1674,2.0602,1.953,1.8769,1.8007,1.7186,1.6364,1.5786,1.5208,1.4765,1.4322,1.4184,1.4046,1.4292,1.4538,1.5181,1.5823,1.6329,1.6835,1.6982,1.7129,1.6968,1.6807,1.6453,1.6099,1.5637,1.5174,1.464,1.4105,1.3244,1.2383,1.1344,1.0305,0.87657,0.77213,0.685,0.59787,0.52673,0.45559,0.39651,0.33743,0.29369,0.24995,0.21976,0.18957,0.16813,0.14668,0.13063,0.11459,0.099831,0.085075,0.076685,0.068295,0.060201,0.052107,0.047534,0.04296,0.040255,0.03755,0.034438,0.031325,0.028609,0.025892
0.029923,0.033217,0.036512,0.040691,0.04487,0.050291,0.055713,0.062869,0.070026,0.076392,0.082758,0.09436,0.10596,0.12223,0.1385,0.16217,0.18585,0.22472,0.26359,0.33436,0.40513,0.50815,0.61116,0.71497,0.81878,0.90356,0.98834,1.0697,1.1512,1.2672,1.4247,1.6043,1.784,1.9479,2.1118,2.1856,2.2594,2.2647,2.27,2.2768,2.2836,2.3073,2.331,2.3879,2.4447,2.503,2.5612,2.5649,2.5687,2.4953,2.422,2.3242,2.2265,2.1245,2.0224,1.9362,1.8499,1.7842,1.7185,1.6975,1.6765,1.7196,1.7626,1.8516,1.9407,2.0155,2.0904,2.1168,2.1433,2.0962,2.0491,1.9844,1.9196,1.8664,1.8132,1.7544,1.6955,1.6031,1.5106,1.3936,1.2767,1.0963,0.96868,0.85955,0.75042,0.66483,0.57925,0.50331,0.42737,0.36496,0.30255,0.2601,0.21765,0.19028,0.1629,0.14403,0.12515,0.10991,0.094668,0.082611,0.070554,0.063852,0.05715,0.051889,0.046627,0.042545,0.038463,0.035227,0.031991,0.029653,0.027315
0.031443,0.034995,0.038548,0.043098,0.047648,0.052313,0.056977,0.066215,0.075453,0.081672,0.087892,0.10065,0.11341,0.13163,0.14985,0.17707,0.2043,0.25232,0.30035,0.3927,0.48505,0.61187,0.73869,0.85075,0.96282,1.0423,1.1218,1.2069,1.292,1.4334,1.6173,1.8364,2.0554,2.2437,2.432,2.5067,2.5814,2.5805,2.5797,2.5894,2.5992,2.6216,2.6441,2.706,2.7679,2.8431,2.9183,2.9441,2.9699,2.9304,2.8909,2.7716,2.6522,2.5304,2.4085,2.2938,2.1791,2.092,2.0048,1.9767,1.9485,2.0099,2.0713,2.1852,2.2991,2.3982,2.4973,2.5354,2.5736,2.4956,2.4175,2.3234,2.2294,2.1692,2.109,2.0448,1.9805,1.8817,1.7828,1.6528,1.5229,1.316,1.1652,1.0341,0.90297,0.80293,0.7029,0.61011,0.51732,0.43623,0.35515,0.30043,0.24572,0.21242,0.17913,0.15742,0.13571,0.11999,0.10426,0.088537,0.072813,0.067503,0.062193,0.056244,0.050294,0.044835,0.039375,0.036016,0.032657,0.030698,0.028738
0.031915,0.035559,0.039202,0.043868,0.048534,0.054646,0.060758,0.069,0.077242,0.085193,0.093143,0.10715,0.12116,0.14165,0.16214,0.19416,0.22618,0.28805,0.34992,0.46799,0.58605,0.72471,0.86337,0.9612,1.059,1.1297,1.2004,1.3043,1.4081,1.588,1.8135,2.0432,2.2729,2.457,2.6411,2.7402,2.8393,2.8871,2.935,2.9554,2.9758,2.9897,3.0037,3.0478,3.0919,3.1586,3.2252,3.291,3.3568,3.3331,3.3093,3.1993,3.0892,2.9509,2.8125,2.6706,2.5288,2.4398,2.3507,2.3275,2.3044,2.3811,2.4579,2.5928,2.7277,2.8604,2.9931,3.0353,3.0776,2.9831,2.8885,2.7739,2.6593,2.5729,2.4865,2.3907,2.2948,2.1694,2.044,1.9022,1.7603,1.5416,1.38,1.2252,1.0705,0.95152,0.83256,0.72896,0.62536,0.52836,0.43136,0.35911,0.28685,0.24321,0.19957,0.17361,0.14765,0.12984,0.11204,0.096252,0.080469,0.072211,0.063953,0.057754,0.051556,0.046841,0.042127,0.038409,0.03469,0.032062,0.029433
0.032387,0.036122,0.039856,0.044638,0.04942,0.05698,0.06454,0.071786,0.079032,0.088713,0.098394,0.11365,0.1289,0.15167,0.17443,0.21125,0.24807,0.32378,0.3995,0.54328,0.68706,0.83755,0.98805,1.0717,1.1553,1.2172,1.2791,1.4017,1.5243,1.7426,2.0097,2.25,2.4903,2.6702,2.8501,2.9737,3.0973,3.1938,3.2903,3.3213,3.3524,3.3578,3.3632,3.3896,3.416,3.474,3.5321,3.6379,3.7437,3.7357,3.7278,3.627,3.5262,3.3713,3.2164,3.0475,2.8785,2.7875,2.6966,2.6784,2.6602,2.7523,2.8444,3.0004,3.1564,3.3226,3.4888,3.5352,3.5816,3.4706,3.3595,3.2244,3.0893,2.9766,2.864,2.7366,2.6092,2.4572,2.3052,2.1515,1.9978,1.7672,1.5947,1.4164,1.238,1.1001,0.96223,0.84782,0.73341,0.62049,0.50758,0.41778,0.32798,0.274,0.22002,0.18981,0.15959,0.1397,0.11981,0.10397,0.088126,0.07692,0.065713,0.059265,0.052817,0.048848,0.044879,0.040801,0.036723,0.033426,0.030128
0.033757,0.037734,0.04171,0.046856,0.052002,0.058887,0.065772,0.073531,0.081291,0.092439,0.10359,0.12015,0.13671,0.16104,0.18538,0.22869,0.27201,0.36279,0.45357,0.61226,0.77096,0.91412,1.0573,1.1327,1.2081,1.2934,1.3788,1.5448,1.7109,1.9545,2.248,2.4886,2.7292,2.9181,3.107,3.2656,3.4242,3.5785,3.7327,3.7907,3.8486,3.8536,3.8585,3.8697,3.8808,3.9335,3.9861,4.0902,4.1943,4.1981,4.202,4.1036,4.0053,3.8513,3.6973,3.5179,3.3385,3.2384,3.1384,3.1261,3.1138,3.216,3.3182,3.5073,3.6965,3.8836,4.0708,4.1156,4.1604,4.0681,3.9757,3.8319,3.6881,3.5377,3.3873,3.1994,3.0114,2.8124,2.6133,2.4286,2.244,2.0016,1.82,1.6249,1.4299,1.2663,1.1028,0.97133,0.8399,0.71391,0.58793,0.48506,0.38219,0.30414,0.22609,0.19963,0.17317,0.15063,0.12808,0.11182,0.095548,0.083315,0.071082,0.063853,0.056625,0.051207,0.045788,0.041592,0.037395,0.034011,0.030627
0.035127,0.039346,0.043564,0.049074,0.054583,0.060794,0.067004,0.075277,0.08355,0.096164,0.10878,0.12664,0.14451,0.17041,0.19632,0.24613,0.29594,0.40179,0.50764,0.68125,0.85486,0.99069,1.1265,1.1937,1.2609,1.3697,1.4785,1.688,1.8975,2.1665,2.4864,2.7273,2.9681,3.166,3.3639,3.5575,3.7512,3.9632,4.1751,4.26,4.3448,4.3493,4.3538,4.3497,4.3456,4.3929,4.4401,4.5425,4.6448,4.6605,4.6762,4.5803,4.4843,4.3312,4.1781,3.9883,3.7985,3.6893,3.5802,3.5737,3.5673,3.6797,3.792,4.0143,4.2366,4.4447,4.6528,4.696,4.7392,4.6656,4.592,4.4394,4.2869,4.0987,3.9106,3.6621,3.4137,3.1675,2.9213,2.7057,2.4902,2.236,2.0453,1.8335,1.6217,1.4325,1.2433,1.0948,0.94639,0.80734,0.66828,0.55234,0.43641,0.33429,0.23217,0.20946,0.18675,0.16156,0.13636,0.11966,0.10297,0.08971,0.07645,0.068442,0.060433,0.053565,0.046698,0.042382,0.038067,0.034596,0.031126
0.035512,0.039806,0.044101,0.049725,0.055349,0.062893,0.070436,0.078724,0.087011,0.10043,0.11385,0.133,0.15214,0.18101,0.20987,0.2642,0.31853,0.43432,0.55011,0.72845,0.90679,1.0429,1.179,1.2663,1.3536,1.5047,1.6557,1.9025,2.1492,2.4387,2.7823,3.042,3.3016,3.5299,3.7582,3.9926,4.2271,4.4816,4.7361,4.874,5.012,5.0382,5.0643,5.0508,5.0373,5.0729,5.1084,5.1847,5.261,5.2571,5.2533,5.1438,5.0344,4.876,4.7176,4.5125,4.3074,4.1779,4.0484,4.042,4.0355,4.158,4.2805,4.5153,4.7502,4.9484,5.1465,5.191,5.2354,5.1946,5.1537,5.0076,4.8614,4.627,4.3926,4.0869,3.7812,3.4987,3.2162,2.9697,2.7233,2.4591,2.2592,2.0431,1.8271,1.6085,1.39,1.2186,1.0473,0.89652,0.74573,0.61804,0.49036,0.387,0.28365,0.24248,0.20131,0.173,0.14469,0.1265,0.10831,0.093289,0.078269,0.069982,0.061694,0.055544,0.049394,0.044711,0.040029,0.036302,0.032575
0.035896,0.040267,0.044638,0.050376,0.056114,0.064992,0.073869,0.082171,0.090473,0.1047,0.11893,0.13935,0.15977,0.1916,0.22343,0.28227,0.34112,0.46686,0.59259,0.77565,0.95871,1.0951,1.2315,1.3389,1.4463,1.6396,1.8329,2.1169,2.4009,2.711,3.0782,3.3567,3.6351,3.8938,4.1524,4.4277,4.703,5,5.297,5.4881,5.6792,5.727,5.7749,5.7519,5.729,5.7529,5.7768,5.827,5.8771,5.8537,5.8303,5.7074,5.5845,5.4208,5.2571,5.0368,4.8164,4.6665,4.5166,4.5102,4.5037,4.6363,4.7689,5.0164,5.2639,5.452,5.6402,5.686,5.7317,5.7236,5.7155,5.5757,5.436,5.1553,4.8745,4.5116,4.1487,3.8299,3.511,3.2337,2.9563,2.6822,2.4731,2.2527,2.0324,1.7845,1.5366,1.3424,1.1482,0.9857,0.82318,0.68374,0.54431,0.43972,0.33514,0.2755,0.21586,0.18444,0.15302,0.13333,0.11365,0.096868,0.080088,0.071522,0.062956,0.057523,0.05209,0.047041,0.041992,0.038008,0.034024
0.037061,0.041611,0.046161,0.052158,0.058156,0.066467,0.074778,0.084166,0.093553,0.10853,0.12351,0.14513,0.16675,0.2004,0.23405,0.29646,0.35887,0.49084,0.62281,0.82068,1.0186,1.1718,1.3251,1.468,1.6109,1.8351,2.0594,2.3714,2.6834,3.0312,3.4372,3.7537,4.0703,4.3554,4.6404,4.968,5.2955,5.6626,6.0297,6.2843,6.5389,6.6112,6.6836,6.6635,6.6434,6.6464,6.6494,6.6604,6.6713,6.6009,6.5306,6.3424,6.1542,5.9657,5.7772,5.5336,5.2899,5.1226,4.9552,4.9691,4.9831,5.1324,5.2817,5.5254,5.7692,5.9437,6.1183,6.1651,6.2119,6.2206,6.2293,6.0915,5.9537,5.6079,5.2622,4.8635,4.4648,4.1313,3.7978,3.4982,3.1987,2.8876,2.6432,2.4122,2.1812,1.9321,1.683,1.4665,1.25,1.0725,0.89505,0.74231,0.58957,0.47671,0.36386,0.29678,0.2297,0.19525,0.16079,0.1397,0.11861,0.1026,0.086601,0.076553,0.066505,0.059736,0.052967,0.047792,0.042617,0.038563,0.034508
0.038225,0.042954,0.047683,0.053941,0.060198,0.067943,0.075688,0.086161,0.096634,0.11236,0.12808,0.15091,0.17373,0.2092,0.24466,0.31064,0.37662,0.51482,0.65303,0.86571,1.0784,1.2486,1.4187,1.5971,1.7754,2.0307,2.2859,2.6259,2.9659,3.3514,3.7961,4.1508,4.5055,4.817,5.1285,5.5082,5.888,6.3252,6.7625,7.0805,7.3985,7.4954,7.5924,7.5751,7.5578,7.5399,7.5221,7.4938,7.4655,7.3482,7.2308,6.9773,6.7239,6.5106,6.2973,6.0304,5.7634,5.5786,5.3938,5.4281,5.4624,5.6285,5.7945,6.0345,6.2744,6.4354,6.5964,6.6443,6.6921,6.7176,6.7431,6.6072,6.4714,6.0606,5.6499,5.2154,4.781,4.4328,4.0846,3.7628,3.441,3.0929,2.8134,2.5716,2.3299,2.0797,1.8294,1.5906,1.3518,1.1594,0.96692,0.80088,0.63484,0.51371,0.39258,0.31806,0.24355,0.20606,0.16857,0.14607,0.12356,0.10834,0.093113,0.081584,0.070055,0.061949,0.053844,0.048543,0.043242,0.039117,0.034992
0.038536,0.043302,0.048068,0.054382,0.060697,0.069395,0.078093,0.088625,0.099157,0.11551,0.13187,0.15561,0.17936,0.21631,0.25326,0.32109,0.38891,0.53241,0.67591,0.9128,1.1497,1.3589,1.568,1.7823,1.9966,2.2627,2.5288,2.8719,3.215,3.6232,4.0931,4.4796,4.866,5.2368,5.6075,6.0464,6.4854,7.0005,7.5156,7.9081,8.3006,8.4331,8.5656,8.5751,8.5846,8.548,8.5113,8.4261,8.3409,8.1549,7.9689,7.6458,7.3226,7.0542,6.7858,6.5102,6.2346,6.0569,5.8793,5.9422,6.0051,6.1991,6.393,6.6238,6.8547,7.0147,7.1747,7.2313,7.2878,7.2888,7.2899,7.1255,6.9612,6.5459,6.1307,5.6647,5.1988,4.8205,4.4422,4.097,3.7517,3.3558,3.0287,2.7396,2.4505,2.2012,1.952,1.7105,1.4689,1.255,1.0411,0.85765,0.67415,0.54397,0.41379,0.33436,0.25493,0.21508,0.17523,0.15155,0.12788,0.11196,0.096047,0.083638,0.071229,0.063718,0.056208,0.050563,0.044917,0.040591,0.036266
0.038847,0.043649,0.048452,0.054824,0.061196,0.070847,0.080499,0.091089,0.10168,0.11867,0.13565,0.16032,0.18499,0.22343,0.26186,0.33153,0.4012,0.55,0.69879,0.95988,1.221,1.4692,1.7173,1.9676,2.2178,2.4948,2.7717,3.1179,3.464,3.895,4.3902,4.8084,5.2266,5.6566,6.0866,6.5847,7.0828,7.6758,8.2688,8.7357,9.2027,9.3707,9.5388,9.5751,9.6115,9.556,9.5006,9.3585,9.2163,8.9617,8.707,8.3142,7.9214,7.5978,7.2742,6.99,6.7057,6.5352,6.3648,6.4563,6.5479,6.7696,6.9914,7.2132,7.435,7.594,7.753,7.8183,7.8835,7.8601,7.8366,7.6438,7.451,7.0312,6.6115,6.114,5.6166,5.2082,4.7998,4.4311,4.0624,3.6186,3.244,2.9075,2.571,2.3228,2.0747,1.8303,1.5859,1.3506,1.1154,0.91441,0.71346,0.57423,0.435,0.35066,0.26631,0.2241,0.18189,0.15704,0.13219,0.11559,0.098981,0.085691,0.072402,0.065487,0.058573,0.052582,0.046592,0.042065,0.037539
0.039498,0.044392,0.049285,0.055827,0.062369,0.071639,0.08091,0.092263,0.10362,0.12103,0.13844,0.16384,0.18925,0.22898,0.26872,0.34002,0.41132,0.56386,0.71639,1.0027,1.289,1.5894,1.8898,2.1534,2.417,2.6835,2.9501,3.3,3.65,4.1062,4.6274,5.0741,5.5209,6.0057,6.4906,7.0463,7.602,8.2352,8.8685,9.3761,9.8838,10.1,10.317,10.384,10.452,10.345,10.238,10.028,9.8186,9.5105,9.2025,8.8019,8.4013,8.0624,7.7234,7.4501,7.1768,7.034,6.8911,7.0026,7.1141,7.3926,7.6712,7.9239,8.1766,8.3236,8.4706,8.5235,8.5764,8.4909,8.4054,8.1681,7.9308,7.5285,7.1262,6.6216,6.117,5.6748,5.2326,4.8348,4.437,3.9416,3.5162,3.1267,2.7371,2.4638,2.1905,1.9478,1.705,1.4428,1.1805,0.96135,0.74221,0.59544,0.44867,0.36151,0.27435,0.23064,0.18693,0.1612,0.13548,0.11833,0.10118,0.088156,0.07513,0.067214,0.059297,0.053206,0.047114,0.042522,0.037929
0.04015,0.045134,0.050118,0.05683,0.063542,0.072431,0.08132,0.093436,0.10555,0.12339,0.14122,0.16736,0.1935,0.23454,0.27559,0.34852,0.42145,0.57772,0.73399,1.0455,1.3571,1.7097,2.0623,2.3393,2.6162,2.8723,3.1284,3.4822,3.836,4.3174,4.8646,5.3399,5.8152,6.3549,6.8946,7.5079,8.1212,8.7947,9.4681,10.016,10.565,10.83,11.095,11.193,11.292,11.133,10.975,10.698,10.421,10.059,9.698,9.2896,8.8813,8.5269,8.1725,7.9102,7.648,7.5327,7.4174,7.5488,7.6802,8.0156,8.3509,8.6346,8.9182,9.0532,9.1881,9.2287,9.2693,9.1217,8.9742,8.6924,8.4107,8.0258,7.641,7.1292,6.6174,6.1414,5.6654,5.2385,4.8115,4.2646,3.7885,3.3458,2.9031,2.6048,2.3064,2.0653,1.8241,1.5349,1.2456,1.0083,0.77096,0.61665,0.46234,0.37237,0.28239,0.23718,0.19198,0.16537,0.13876,0.12107,0.10338,0.09062,0.077859,0.06894,0.060022,0.053829,0.047636,0.042978,0.038319
0.040205,0.045212,0.050218,0.056954,0.063689,0.072739,0.08179,0.094199,0.10661,0.12469,0.14278,0.16952,0.19626,0.23846,0.28066,0.35608,0.43151,0.59214,0.75277,1.0719,1.3911,1.7782,2.1653,2.4626,2.76,3.0159,3.2719,3.6541,4.0364,4.5328,5.0965,5.6056,6.1146,6.6667,7.2188,7.8487,8.4785,9.1246,9.7706,10.32,10.869,11.171,11.472,11.607,11.742,11.561,11.379,10.991,10.602,10.199,9.7957,9.4211,9.0464,8.7544,8.4624,8.2447,8.027,7.9498,7.8727,8.0616,8.2505,8.6414,9.0324,9.3746,9.7168,9.8206,9.9245,9.9214,9.9183,9.7106,9.5029,9.1728,8.8426,8.4621,8.0816,7.605,7.1284,6.6346,6.1408,5.6466,5.1524,4.5612,4.0408,3.5698,3.0988,2.7881,2.4775,2.2159,1.9544,1.6274,1.3005,1.045,0.78944,0.62833,0.46721,0.37674,0.28626,0.24069,0.19512,0.16802,0.14093,0.1229,0.10488,0.091749,0.078621,0.070026,0.06143,0.05506,0.048689,0.043889,0.039088
0.040261,0.045289,0.050318,0.057077,0.063836,0.073047,0.082259,0.094962,0.10766,0.126,0.14433,0.17168,0.19902,0.24238,0.28574,0.36365,0.44157,0.60656,0.77154,1.0984,1.4252,1.8467,2.2683,2.586,2.9037,3.1595,3.4153,3.826,4.2367,4.7481,5.3284,5.8713,6.4141,6.9786,7.5431,8.1894,8.8357,9.4544,10.073,10.623,11.173,11.511,11.85,12.021,12.192,11.988,11.784,11.284,10.783,10.338,9.8934,9.5525,9.2116,8.9819,8.7522,8.5791,8.406,8.367,8.328,8.5744,8.8208,9.2673,9.7138,10.115,10.515,10.588,10.661,10.614,10.567,10.299,10.032,9.6531,9.2746,8.8984,8.5223,8.0808,7.6394,7.1278,6.6162,6.0547,5.4933,4.8578,4.2931,3.7938,3.2945,2.9715,2.6485,2.3666,2.0846,1.72,1.3553,1.0816,0.80792,0.64,0.47208,0.38111,0.29014,0.2442,0.19825,0.17068,0.1431,0.12474,0.10637,0.092879,0.079384,0.071111,0.062838,0.056291,0.049743,0.044799,0.039856
0.040205,0.045228,0.05025,0.05694,0.06363,0.072827,0.082024,0.094888,0.10775,0.12619,0.14463,0.17223,0.19984,0.24408,0.28832,0.36997,0.45163,0.62024,0.78885,1.105,1.4211,1.8451,2.2692,2.602,2.9348,3.2022,3.4696,3.9029,4.3362,4.8726,5.4784,6.0656,6.6528,7.2187,7.7847,8.3548,8.925,9.4633,10.002,10.516,11.029,11.376,11.722,11.863,12.004,11.832,11.659,11.16,10.66,10.204,9.7479,9.4238,9.0998,8.9461,8.7924,8.7058,8.6193,8.6387,8.658,8.9348,9.2116,9.6682,10.125,10.575,11.025,11.132,11.238,11.16,11.081,10.77,10.459,10.031,9.6024,9.1853,8.7682,8.3005,7.8328,7.2933,6.7539,6.1574,5.5609,4.9275,4.3644,3.8868,3.4092,3.1082,2.8072,2.4923,2.1773,1.7817,1.3861,1.0966,0.80704,0.63696,0.46689,0.3787,0.29052,0.24499,0.19946,0.17173,0.14401,0.12556,0.10711,0.093847,0.080587,0.071859,0.063132,0.056547,0.049963,0.044983,0.040003
0.04015,0.045166,0.050183,0.056804,0.063425,0.072607,0.08179,0.094815,0.10784,0.12638,0.14492,0.17279,0.20066,0.24578,0.2909,0.3763,0.46169,0.63393,0.80616,1.1116,1.4169,1.8435,2.27,2.618,2.9659,3.2449,3.5239,3.9798,4.4356,4.9971,5.6285,6.26,6.8916,7.4589,8.0262,8.5202,9.0142,9.4722,9.9302,10.408,10.886,11.24,11.595,11.706,11.816,11.675,11.534,11.035,10.536,10.069,9.6024,9.2952,8.9881,8.9103,8.8326,8.8326,8.8326,8.9103,8.9881,9.2952,9.6024,10.069,10.536,11.035,11.534,11.675,11.816,11.706,11.595,11.24,10.886,10.408,9.9302,9.4722,9.0142,8.5202,8.0262,7.4589,6.8916,6.26,5.6285,4.9971,4.4356,3.9798,3.5239,3.2449,2.9659,2.618,2.27,1.8435,1.4169,1.1116,0.80616,0.63393,0.46169,0.3763,0.2909,0.24578,0.20066,0.17279,0.14492,0.12638,0.10784,0.094815,0.08179,0.072607,0.063425,0.056804,0.050183,0.045166,0.04015
0.040003,0.044983,0.049963,0.056547,0.063132,0.071859,0.080587,0.093847,0.10711,0.12556,0.14401,0.17173,0.19946,0.24499,0.29052,0.3787,0.46689,0.63696,0.80704,1.0966,1.3861,1.7817,2.1773,2.4923,2.8072,3.1082,3.4092,3.8868,4.3644,4.9275,5.5609,6.1574,6.7539,7.2933,7.8328,8.3005,8.7682,9.1853,9.6024,10.031,10.459,10.77,11.081,11.16,11.238,11.132,11.025,10.575,10.125,9.6682,9.2116,8.9348,8.658,8.6387,8.6193,8.7058,8.7924,8.9461,9.0998,9.4238,9.7479,10.204,10.66,11.16,11.659,11.832,12.004,11.863,11.722,11.376,11.029,10.516,10.002,9.4633,8.925,8.3548,7.7847,7.2187,6.6528,6.0656,5.4784,4.8726,4.3362,3.9029,3.4696,3.2022,2.9348,2.602,2.2692,1.8451,1.4211,1.105,0.78885,0.62024,0.45163,0.36997,0.28832,0.24408,0.19984,0.17223,0.14463,0.12619,0.10775,0.094888,0.082024,0.072827,0.06363,0.05694,0.05025,0.045228,0.040205
0.039856,0.044799,0.049743,0.056291,0.062838,0.071111,0.079384,0.092879,0.10637,0.12474,0.1431,0.17068,0.19825,0.2442,0.29014,0.38111,0.47208,0.64,0.80792,1.0816,1.3553,1.72,2.0846,2.3666,2.6485,2.9715,3.2945,3.7938,4.2931,4.8578,5.4933,6.0547,6.6162,7.1278,7.6394,8.0808,8.5223,8.8984,9.2746,9.6531,10.032,10.299,10.567,10.614,10.661,10.588,10.515,10.115,9.7138,9.2673,8.8208,8.5744,8.328,8.367,8.406,8.5791,8.7522,8.9819,9.2116,9.5525,9.8934,10.338,10.783,11.284,11.784,11.988,12.192,12.021,11.85,11.511,11.173,10.623,10.073,9.4544,8.8357,8.1894,7.5431,6.9786,6.4141,5.8713,5.3284,4.7481,4.2367,3.826,3.4153,3.1595,2.9037,2.586,2.2683,1.8467,1.4252,1.0984,0.77154,0.60656,0.44157,0.36365,0.28574,0.24238,0.19902,0.17168,0.14433,0.126,0.10766,0.094962,0.082259,0.073047,0.063836,0.057077,0.050318,0.045289,0.040261
0.039088,0.043889,0.048689,0.05506,0.06143,0.070026,0.078621,0.091749,0.10488,0.1229,0.14093,0.16802,0.19512,0.24069,0.28626,0.37674,0.46721,0.62833,0.78944,1.045,1.3005,1.6274,1.9544,2.2159,2.4775,2.7881,3.0988,3.5698,4.0408,4.5612,5.1524,5.6466,6.1408,6.6346,7.1284,7.605,8.0816,8.4621,8.8426,9.1728,9.5029,9.7106,9.9183,9.9214,9.9245,9.8206,9.7168,9.3746,9.0324,8.6414,8.2505,8.0616,7.8727,7.9498,8.027,8.2447,8.4624,8.7544,9.0464,9.4211,9.7957,10.199,10.602,10.991,11.379,11.561,11.742,11.607,11.472,11.171,10.869,10.32,9.7706,9.1246,8.4785,7.8487,7.2188,6.6667,6.1146,5.6056,5.0965,4.5328,4.0364,3.6541,3.2719,3.0159,2.76,2.4626,2.1653,1.7782,1.3911,1.0719,0.75277,0.59214,0.43151,0.35608,0.28066,0.23846,0.19626,0.16952,0.14278,0.12469,0.10661,0.094199,0.08179,0.072739,0.063689,0.056954,0.050218,0.045212,0.040205
0.038319,0.042978,0.047636,0.053829,0.060022,0.06894,0.077859,0.09062,0.10338,0.12107,0.13876,0.16537,0.19198,0.23718,0.28239,0.37237,0.46234,0.61665,0.77096,1.0083,1.2456,1.5349,1.8241,2.0653,2.3064,2.6048,2.9031,3.3458,3.7885,4.2646,4.8115,5.2385,5.6654,6.1414,6.6174,7.1292,7.641,8.0258,8.4107,8.6924,8.9742,9.1217,9.2693,9.2287,9.1881,9.0532,8.9182,8.6346,8.3509,8.0156,7.6802,7.5488,7.4174,7.5327,7.648,7.9102,8.1725,8.5269,8.8813,9.2896,9.698,10.059,10.421,10.698,10.975,11.133,11.292,11.193,11.095,10.83,10.565,10.016,9.4681,8.7947,8.1212,7.5079,6.8946,6.3549,5.8152,5.3399,4.8646,4.3174,3.836,3.4822,3.1284,2.8723,2.6162,2.3393,2.0623,1.7097,1.3571,1.0455,0.73399,0.57772,0.42145,0.34852,0.27559,0.23454,0.1935,0.16736,0.14122,0.12339,0.10555,0.093436,0.08132,0.072431,0.063542,0.05683,0.050118,0.045134,0.04015
0.037929,0.042522,0.047114,0.053206,0.059297,0.067214,0.07513,0.088156,0.10118,0.11833,0.13548,0.1612,0.18693,0.23064,0.27435,0.36151,0.44867,0.59544,0.74221,0.96135,1.1805,1.4428,1.705,1.9478,2.1905,2.4638,2.7371,3.1267,3.5162,3.9416,4.437,4.8348,5.2326,5.6748,6.117,6.6216,7.1262,7.5285,7.9308,8.1681,8.4054,8.4909,8.5764,8.5235,8.4706,8.3236,8.1766,7.9239,7.6712,7.3926,7.1141,7.0026,6.8911,7.034,7.1768,7.4501,7.7234,8.0624,8.4013,8.8019,9.2025,9.5105,9.8186,10.028,10.238,10.345,10.452,10.384,10.317,10.1,9.8838,9.3761,8.8685,8.2352,7.602,7.0463,6.4906,6.0057,5.5209,5.0741,4.6274,4.1062,3.65,3.3,2.9501,2.6835,2.417,2.1534,1.8898,1.5894,1.289,1.0027,0.71639,0.56386,0.41132,0.34002,0.26872,0.22898,0.18925,0.16384,0.13844,0.12103,0.10362,0.092263,0.08091,0.071639,0.062369,0.055827,0.049285,0.044392,0.039498
0.037539,0.042065,0.046592,0.052582,0.058573,0.065487,0.072402,0.085691,0.098981,0.11559,0.13219,0.15704,0.18189,0.2241,0.26631,0.35066,0.435,0.57423,0.71346,0.91441,1.1154,1.3506,1.5859,1.8303,2.0747,2.3228,2.571,2.9075,3.244,3.6186,4.0624,4.4311,4.7998,5.2082,5.6166,6.114,6.6115,7.0312,7.451,7.6438,7.8366,7.8601,7.8835,7.8183,7.753,7.594,7.435,7.2132,6.9914,6.7696,6.5479,6.4563,6.3648,6.5352,6.7057,6.99,7.2742,7.5978,7.9214,8.3142,8.707,8.9617,9.2163,9.3585,9.5006,9.556,9.6115,9.5751,9.5388,9.3707,9.2027,8.7357,8.2688,7.6758,7.0828,6.5847,6.0866,5.6566,5.2266,4.8084,4.3902,3.895,3.464,3.1179,2.7717,2.4948,2.2178,1.9676,1.7173,1.4692,1.221,0.95988,0.69879,0.55,0.4012,0.33153,0.26186,0.22343,0.18499,0.16032,0.13565,0.11867,0.10168,0.091089,0.080499,0.070847,0.061196,0.054824,0.048452,0.043649,0.038847
0.036266,0.040591,0.044917,0.050563,0.056208,0.063718,0.071229,0.083638,0.096047,0.11196,0.12788,0.15155,0.17523,0.21508,0.25493,0.33436,0.41379,0.54397,0.67415,0.85765,1.0411,1.255,1.4689,1.7105,1.952,2.2012,2.4505,2.7396,3.0287,3.3558,3.7517,4.097,4.4422,4.8205,5.1988,5.6647,6.1307,6.5459,6.9612,7.1255,7.2899,7.2888,7.2878,7.2313,7.1747,7.0147,6.8547,6.6238,6.393,6.1991,6.0051,5.9422,5.8793,6.0569,6.2346,6.5102,6.7858,7.0542,7.3226,7.6458,7.9689,8.1549,8.3409,8.4261,8.5113,8.548,8.5846,8.5751,8.5656,8.4331,8.3006,7.9081,7.5156,7.0005,6.4854,6.0464,5.6075,5.2368,4.866,4.4796,4.0931,3.6232,3.215,2.8719,2.5288,2.2627,1.9966,1.7823,1.568,1.3589,1.1497,0.9128,0.67591,0.53241,0.38891,0.32109,0.25326,0.21631,0.17936,0.15561,0.13187,0.11551,0.099157,0.088625,0.078093,0.069395,0.060697,0.054382,0.048068,0.043302,0.038536
0.034992,0.039117,0.043242,0.048543,0.053844,0.061949,0.070055,0.081584,0.093113,0.10834,0.12356,0.14607,0.16857,0.20606,0.24355,0.31806,0.39258,0.51371,0.63484,0.80088,0.96692,1.1594,1.3518,1.5906,1.8294,2.0797,2.3299,2.5716,2.8134,3.0929,3.441,3.7628,4.0846,4.4328,4.781,5.2154,5.6499,6.0606,6.4714,6.6072,6.7431,6.7176,6.6921,6.6443,6.5964,6.4354,6.2744,6.0345,5.7945,5.6285,5.4624,5.4281,5.3938,5.5786,5.7634,6.0304,6.2973,6.5106,6.7239,6.9773,7.2308,7.3482,7.4655,7.4938,7.5221,7.5399,7.5578,7.5751,7.5924,7.4954,7.3985,7.0805,6.7625,6.3252,5.888,5.5082,5.1285,4.817,4.5055,4.1508,3.7961,3.3514,2.9659,2.6259,2.2859,2.0307,1.7754,1.5971,1.4187,1.2486,1.0784,0.86571,0.65303,0.51482,0.37662,0.31064,0.24466,0.2092,0.17373,0.15091,0.12808,0.11236,0.096634,0.086161,0.075688,0.067943,0.060198,0.053941,0.047683,0.042954,0.038225
0.034508,0.038563,0.042617,0.047792,0.052967,0.059736,0.066505,0.076553,0.086601,0.1026,0.11861,0.1397,0.16079,0.19525,0.2297,0.29678,0.36386,0.47671,0.58957,0.74231,0.89505,1.0725,1.25,1.4665,1.683,1.9321,2.1812,2.4122,2.6432,2.8876,3.1987,3.4982,3.7978,4.1313,4.4648,4.8635,5.2622,5.6079,5.9537,6.0915,6.2293,6.2206,6.2119,6.1651,6.1183,5.9437,5.7692,5.5254,5.2817,5.1324,4.9831,4.9691,4.9552,5.1226,5.2899,5.5336,5.7772,5.9657,6.1542,6.3424,6.5306,6.6009,6.6713,6.6604,6.6494,6.6464,6.6434,6.6635,6.6836,6.6112,6.5389,6.2843,6.0297,5.6626,5.2955,4.968,4.6404,4.3554,4.0703,3.7537,3.4372,3.0312,2.6834,2.3714,2.0594,1.8351,1.6109,1.468,1.3251,1.1718,1.0186,0.82068,0.62281,0.49084,0.35887,0.29646,0.23405,0.2004,0.16675,0.14513,0.12351,0.10853,0.093553,0.084166,0.074778,0.066467,0.058156,0.052158,0.046161,0.041611,0.037061
0.034024,0.038008,0.041992,0.047041,0.05209,0.057523,0.062956,0.071522,0.080088,0.096868,0.11365,0.13333,0.15302,0.18444,0.21586,0.2755,0.33514,0.43972,0.54431,0.68374,0.82318,0.9857,1.1482,1.3424,1.5366,1.7845,2.0324,2.2527,2.4731,2.6822,2.9563,3.2337,3.511,3.8299,4.1487,4.5116,4.8745,5.1553,5.436,5.5757,5.7155,5.7236,5.7317,5.686,5.6402,5.452,5.2639,5.0164,4.7689,4.6363,4.5037,4.5102,4.5166,4.6665,4.8164,5.0368,5.2571,5.4208,5.5845,5.7074,5.8303,5.8537,5.8771,5.827,5.7768,5.7529,5.729,5.7519,5.7749,5.727,5.6792,5.4881,5.297,5,4.703,4.4277,4.1524,3.8938,3.6351,3.3567,3.0782,2.711,2.4009,2.1169,1.8329,1.6396,1.4463,1.3389,1.2315,1.0951,0.95871,0.77565,0.59259,0.46686,0.34112,0.28227,0.22343,0.1916,0.15977,0.13935,0.11893,0.1047,0.090473,0.082171,0.073869,0.064992,0.056114,0.050376,0.044638,0.040267,0.035896
0.032575,0.036302,0.040029,0.044711,0.049394,0.055544,0.061694,0.069982,0.078269,0.093289,0.10831,0.1265,0.14469,0.173,0.20131,0.24248,0.28365,0.387,0.49036,0.61804,0.74573,0.89652,1.0473,1.2186,1.39,1.6085,1.8271,2.0431,2.2592,2.4591,2.7233,2.9697,3.2162,3.4987,3.7812,4.0869,4.3926,4.627,4.8614,5.0076,5.1537,5.1946,5.2354,5.191,5.1465,4.9484,4.7502,4.5153,4.2805,4.158,4.0355,4.042,4.0484,4.1779,4.3074,4.5125,4.7176,4.876,5.0344,5.1438,5.2533,5.2571,5.261,5.1847,5.1084,5.0729,5.0373,5.0508,5.0643,5.0382,5.012,4.874,4.7361,4.4816,4.2271,3.9926,3.7582,3.5299,3.3016,3.042,2.7823,2.4387,2.1492,1.9025,1.6557,1.5047,1.3536,1.2663,1.179,1.0429,0.90679,0.72845,0.55011,0.43432,0.31853,0.2642,0.20987,0.18101,0.15214,0.133,0.11385,0.10043,0.087011,0.078724,0.070436,0.062893,0.055349,0.049725,0.044101,0.039806,0.035512
0.031126,0.034596,0.038067,0.042382,0.046698,0.053565,0.060433,0.068442,0.07645,0.08971,0.10297,0.11966,0.13636,0.16156,0.18675,0.20946,0.23217,0.33429,0.43641,0.55234,0.66828,0.80734,0.94639,1.0948,1.2433,1.4325,1.6217,1.8335,2.0453,2.236,2.4902,2.7057,2.9213,3.1675,3.4137,3.6621,3.9106,4.0987,4.2869,4.4394,4.592,4.6656,4.7392,4.696,4.6528,4.4447,4.2366,4.0143,3.792,3.6797,3.5673,3.5737,3.5802,3.6893,3.7985,3.9883,4.1781,4.3312,4.4843,4.5803,4.6762,4.6605,4.6448,4.5425,4.4401,4.3929,4.3456,4.3497,4.3538,4.3493,4.3448,4.26,4.1751,3.9632,3.7512,3.5575,3.3639,3.166,2.9681,2.7273,2.4864,2.1665,1.8975,1.688,1.4785,1.3697,1.2609,1.1937,1.1265,0.99069,0.85486,0.68125,0.50764,0.40179,0.29594,0.24613,0.19632,0.17041,0.14451,0.12664,0.10878,0.096164,0.08355,0.075277,0.067004,0.060794,0.054583,0.049074,0.043564,0.039346,0.035127
0.030627,0.034011,0.037395,0.041592,0.045788,0.051207,0.056625,0.063853,0.071082,0.083315,0.095548,0.11182,0.12808,0.15063,0.17317,0.19963,0.22609,0.30414,0.38219,0.48506,0.58793,0.71391,0.8399,0.97133,1.1028,1.2663,1.4299,1.6249,1.82,2.0016,2.244,2.4286,2.6133,2.8124,3.0114,3.1994,3.3873,3.5377,3.6881,3.8319,3.9757,4.0681,4.1604,4.1156,4.0708,3.8836,3.6965,3.5073,3.3182,3.216,3.1138,3.1261,3.1384,3.2384,3.3385,3.5179,3.6973,3.8513,4.0053,4.1036,4.202,4.1981,4.1943,4.0902,3.9861,3.9335,3.8808,3.8697,3.8585,3.8536,3.8486,3.7907,3.7327,3.5785,3.4242,3.2656,3.107,2.9181,2.7292,2.4886,2.248,1.9545,1.7109,1.5448,1.3788,1.2934,1.2081,1.1327,1.0573,0.91412,0.77096,0.61226,0.45357,0.36279,0.27201,0.22869,0.18538,0.16104,0.13671,0.12015,0.10359,0.092439,0.081291,0.073531,0.065772,0.058887,0.052002,0.046856,0.04171,0.037734,0.033757
0.030128,0.033426,0.036723,0.040801,0.044879,0.048848,0.052817,0.059265,0.065713,0.07692,0.088126,0.10397,0.11981,0.1397,0.15959,0.18981,0.22002,0.274,0.32798,0.41778,0.50758,0.62049,0.73341,0.84782,0.96223,1.1001,1.238,1.4164,1.5947,1.7672,1.9978,2.1515,2.3052,2.4572,2.6092,2.7366,2.864,2.9766,3.0893,3.2244,3.3595,3.4706,3.5816,3.5352,3.4888,3.3226,3.1564,3.0004,2.8444,2.7523,2.6602,2.6784,2.6966,2.7875,2.8785,3.0475,3.2164,3.3713,3.5262,3.627,3.7278,3.7357,3.7437,3.6379,3.5321,3.474,3.416,3.3896,3.3632,3.3578,3.3524,3.3213,3.2903,3.1938,3.0973,2.9737,2.8501,2.6702,2.4903,2.25,2.0097,1.7426,1.5243,1.4017,1.2791,1.2172,1.1553,1.0717,0.98805,0.83755,0.68706,0.54328,0.3995,0.32378,0.24807,0.21125,0.17443,0.15167,0.1289,0.11365,0.098394,0.088713,0.079032,0.071786,0.06454,0.05698,0.04942,0.044638,0.039856,0.036122,0.032387
0.029433,0.032062,0.03469,0.038409,0.042127,0.046841,0.051556,0.057754,0.063953,0.072211,0.080469,0.096252,0.11204,0.12984,0.14765,0.17361,0.19957,0.24321,0.28685,0.35911,0.43136,0.52836,0.62536,0.72896,0.83256,0.95152,1.0705,1.2252,1.38,1.5416,1.7603,1.9022,2.044,2.1694,2.2948,2.3907,2.4865,2.5729,2.6593,2.7739,2.8885,2.9831,3.0776,3.0353,2.9931,2.8604,2.7277,2.5928,2.4579,2.3811,2.3044,2.3275,2.3507,2.4398,2.5288,2.6706,2.8125,2.9509,3.0892,3.1993,3.3093,3.3331,3.3568,3.291,3.2252,3.1586,3.0919,3.0478,3.0037,2.9897,2.9758,2.9554,2.935,2.8871,2.8393,2.7402,2.6411,2.457,2.2729,2.0432,1.8135,1.588,1.4081,1.3043,1.2004,1.1297,1.059,0.9612,0.86337,0.72471,0.58605,0.46799,0.34992,0.28805,0.22618,0.19416,0.16214,0.14165,0.12116,0.10715,0.093143,0.085193,0.077242,0.069,0.060758,0.054646,0.048534,0.043868,0.039202,0.035559,0.031915
0.028738,0.030698,0.032657,0.036016,0.039375,0.044835,0.050294,0.056244,0.062193,0.067503,0.072813,0.088537,0.10426,0.11999,0.13571,0.15742,0.17913,0.21242,0.24572,0.30043,0.35515,0.43623,0.51732,0.61011,0.7029,0.80293,0.90297,1.0341,1.1652,1.316,1.5229,1.6528,1.7828,1.8817,1.9805,2.0448,2.109,2.1692,2.2294,2.3234,2.4175,2.4956,2.5736,2.5354,2.4973,2.3982,2.2991,2.1852,2.0713,2.0099,1.9485,1.9767,2.0048,2.092,2.1791,2.2938,2.4085,2.5304,2.6522,2.7716,2.8909,2.9304,2.9699,2.9441,2.9183,2.8431,2.7679,2.706,2.6441,2.6216,2.5992,2.5894,2.5797,2.5805,2.5814,2.5067,2.432,2.2437,2.0554,1.8364,1.6173,1.4334,1.292,1.2069,1.1218,1.0423,0.96282,0.85075,0.73869,0.61187,0.48505,0.3927,0.30035,0.25232,0.2043,0.17707,0.14985,0.13163,0.11341,0.10065,0.087892,0.081672,0.075453,0.066215,0.056977,0.052313,0.047648,0.043098,0.038548,0.034995,0.031443
0.027315,0.029653,0.031991,0.035227,0.038463,0.042545,0.046627,0.051889,0.05715,0.063852,0.070554,0.082611,0.094668,0.10991,0.12515,0.14403,0.1629,0.19028,0.21765,0.2601,0.30255,0.36496,0.42737,0.50331,0.57925,0.66483,0.75042,0.85955,0.96868,1.0963,1.2767,1.3936,1.5106,1.6031,1.6955,1.7544,1.8132,1.8664,1.9196,1.9844,2.0491,2.0962,2.1433,2.1168,2.0904,2.0155,1.9407,1.8516,1.7626,1.7196,1.6765,1.6975,1.7185,1.7842,1.8499,1.9362,2.0224,2.1245,2.2265,2.3242,2.422,2.4953,2.5687,2.5649,2.5612,2.503,2.4447,2.3879,2.331,2.3073,2.2836,2.2768,2.27,2.2647,2.2594,2.1856,2.1118,1.9479,1.784,1.6043,1.4247,1.2672,1.1512,1.0697,0.98834,0.90356,0.81878,0.71497,0.61116,0.50815,0.40513,0.33436,0.26359,0.22472,0.18585,0.16217,0.1385,0.12223,0.10596,0.09436,0.082758,0.076392,0.070026,0.062869,0.055713,0.050291,0.04487,0.040691,0.036512,0.033217,0.029923
0.025892,0.028609,0.031325,0.034438,0.03755,0.040255,0.04296,0.047534,0.052107,0.060201,0.068295,0.076685,0.085075,0.099831,0.11459,0.13063,0.14668,0.16813,0.18957,0.21976,0.24995,0.29369,0.33743,0.39651,0.45559,0.52673,0.59787,0.685,0.77213,0.87657,1.0305,1.1344,1.2383,1.3244,1.4105,1.464,1.5174,1.5637,1.6099,1.6453,1.6807,1.6968,1.7129,1.6982,1.6835,1.6329,1.5823,1.5181,1.4538,1.4292,1.4046,1.4184,1.4322,1.4765,1.5208,1.5786,1.6364,1.7186,1.8007,1.8769,1.953,2.0602,2.1674,2.1858,2.2042,2.1629,2.1216,2.0697,2.0179,1.9929,1.968,1.9641,1.9603,1.9489,1.9375,1.8646,1.7916,1.6521,1.5125,1.3723,1.2321,1.101,1.0103,0.9326,0.85486,0.7648,0.67474,0.57919,0.48364,0.40443,0.32522,0.27603,0.22683,0.19711,0.16739,0.14727,0.12714,0.11283,0.098511,0.088068,0.077624,0.071111,0.064599,0.059523,0.054448,0.04827,0.042092,0.038284,0.034476,0.03144,0.028403
0.024475,0.027289,0.030102,0.032513,0.034925,0.038353,0.041781,0.046168,0.050555,0.056186,0.061817,0.068929,0.07604,0.089094,0.10215,0.11765,0.13316,0.15142,0.16968,0.19412,0.21856,0.25222,0.28588,0.31403,0.34218,0.41382,0.48546,0.55289,0.62032,0.70108,0.83026,0.91586,1.0014,1.0774,1.1533,1.2037,1.254,1.2895,1.3249,1.3528,1.3806,1.3922,1.4039,1.3864,1.3689,1.3271,1.2853,1.2437,1.202,1.1867,1.1713,1.1805,1.1896,1.2203,1.2509,1.297,1.343,1.3941,1.4452,1.5274,1.6095,1.6974,1.7854,1.8133,1.8411,1.8221,1.8031,1.7667,1.7304,1.7038,1.6773,1.6645,1.6517,1.6255,1.5994,1.5299,1.4604,1.3496,1.2389,1.1309,1.0229,0.91265,0.8399,0.7727,0.70551,0.62766,0.54982,0.47336,0.39689,0.33704,0.2772,0.23836,0.19952,0.17567,0.15182,0.13446,0.11711,0.10442,0.091735,0.084371,0.077008,0.069908,0.062809,0.056731,0.050652,0.045913,0.041174,0.03749,0.033807,0.030859,0.027911
0.023058,0.025968,0.028879,0.030589,0.032299,0.03645,0.040601,0.044802,0.049003,0.052172,0.05534,0.061172,0.067004,0.078357,0.08971,0.10467,0.11963,0.13471,0.14979,0.16848,0.18717,0.21075,0.23434,0.23155,0.22876,0.3009,0.37304,0.42077,0.4685,0.52559,0.63004,0.6973,0.76455,0.8303,0.89605,0.94334,0.99063,1.0153,1.04,1.0602,1.0804,1.0876,1.0949,1.0746,1.0542,1.0213,0.9884,0.96927,0.95014,0.9441,0.93806,0.94258,0.94709,0.96408,0.98106,1.0154,1.0497,1.0697,1.0897,1.1778,1.2659,1.3347,1.4034,1.4408,1.4781,1.4814,1.4846,1.4637,1.4429,1.4147,1.3866,1.3648,1.3431,1.3022,1.2613,1.1952,1.1291,1.0472,0.96534,0.88951,0.81369,0.72431,0.66945,0.61281,0.55616,0.49053,0.42491,0.36753,0.31014,0.26966,0.22918,0.20069,0.1722,0.15422,0.13624,0.12166,0.10708,0.096018,0.084958,0.080675,0.076392,0.068706,0.06102,0.053938,0.046856,0.043556,0.040255,0.036697,0.033138,0.030278,0.027418
0.02246,0.024896,0.027333,0.029405,0.031478,0.034439,0.037401,0.041046,0.044691,0.049075,0.05346,0.058956,0.064452,0.071683,0.078915,0.091984,0.10505,0.11972,0.13439,0.15016,0.16593,0.1853,0.20468,0.21248,0.22029,0.26728,0.31428,0.33329,0.3523,0.41225,0.51621,0.56633,0.61646,0.66716,0.71786,0.75661,0.79537,0.816,0.83664,0.85313,0.86962,0.87503,0.88044,0.86659,0.85275,0.83371,0.81467,0.80427,0.79387,0.79179,0.7897,0.79449,0.79927,0.79704,0.79481,0.83312,0.87143,0.89025,0.90907,0.96563,1.0222,1.0754,1.1285,1.1624,1.1962,1.2016,1.2069,1.1924,1.1778,1.1537,1.1296,1.103,1.0764,1.0363,0.99626,0.94281,0.88937,0.83131,0.77324,0.71648,0.65972,0.58183,0.53753,0.49191,0.44629,0.39688,0.34746,0.30486,0.26227,0.23058,0.1989,0.17699,0.15507,0.13936,0.12365,0.11102,0.098394,0.090869,0.083344,0.076436,0.069527,0.062819,0.056112,0.050884,0.045656,0.04163,0.037603,0.034373,0.031143,0.028521,0.025898
0.021861,0.023824,0.025787,0.028222,0.030656,0.032428,0.0342,0.037289,0.040378,0.045979,0.051579,0.056739,0.0619,0.065009,0.068119,0.079296,0.090473,0.10473,0.11899,0.13184,0.14469,0.15985,0.17502,0.19341,0.21181,0.23366,0.25552,0.24581,0.2361,0.29891,0.40237,0.43537,0.46837,0.50402,0.53968,0.56989,0.6001,0.61668,0.63325,0.64604,0.65883,0.66241,0.66599,0.65863,0.65127,0.6461,0.64094,0.63927,0.6376,0.63947,0.64135,0.6464,0.65144,0.63,0.60855,0.65086,0.69316,0.71079,0.72842,0.75344,0.77847,0.81605,0.85363,0.88393,0.91424,0.92175,0.92926,0.92101,0.91277,0.89273,0.8727,0.84124,0.80979,0.77049,0.73118,0.69042,0.64965,0.61539,0.58113,0.54344,0.50575,0.43934,0.4056,0.37102,0.33643,0.30322,0.27001,0.2422,0.21439,0.19151,0.16863,0.15328,0.13794,0.1245,0.11107,0.10039,0.08971,0.085721,0.081731,0.072197,0.062662,0.056933,0.051204,0.04783,0.044456,0.039704,0.034951,0.03205,0.029149,0.026764,0.024378
0.020609,0.022392,0.024176,0.026293,0.028409,0.030822,0.033235,0.036188,0.03914,0.042847,0.046554,0.050928,0.055302,0.060317,0.065332,0.072065,0.078797,0.091163,0.10353,0.11482,0.12612,0.14045,0.15478,0.17019,0.18561,0.20343,0.22125,0.22401,0.22677,0.26573,0.34425,0.35411,0.36397,0.3881,0.41223,0.43297,0.45372,0.48943,0.52515,0.53401,0.54287,0.54744,0.55202,0.54992,0.54783,0.5282,0.50857,0.51086,0.51315,0.51735,0.52154,0.54026,0.55897,0.55102,0.54307,0.56714,0.59121,0.60346,0.61571,0.63223,0.64874,0.67249,0.69624,0.71562,0.73499,0.7413,0.74761,0.7403,0.733,0.71682,0.70064,0.67613,0.65161,0.62116,0.59071,0.55987,0.52902,0.50119,0.47336,0.44493,0.4165,0.35918,0.33285,0.30668,0.28051,0.25524,0.22997,0.20855,0.18714,0.1689,0.15067,0.13731,0.12395,0.11252,0.10109,0.091793,0.082494,0.078211,0.073927,0.067223,0.060518,0.055063,0.049608,0.045344,0.04108,0.037597,0.034115,0.031318,0.028521,0.026219,0.023918
0.019356,0.020961,0.022565,0.024364,0.026162,0.029216,0.03227,0.035086,0.037903,0.039715,0.041528,0.045116,0.048704,0.055625,0.062545,0.064833,0.067121,0.077595,0.088068,0.097807,0.10755,0.12104,0.13454,0.14697,0.15941,0.1732,0.18699,0.20222,0.21744,0.23255,0.28613,0.27285,0.25957,0.27218,0.28479,0.29606,0.30733,0.36219,0.41704,0.42197,0.4269,0.43248,0.43805,0.44122,0.44439,0.4103,0.37621,0.38246,0.38871,0.39522,0.40173,0.43412,0.46651,0.47205,0.4776,0.48343,0.48927,0.49614,0.503,0.51101,0.51902,0.52893,0.53885,0.5473,0.55575,0.56085,0.56596,0.55959,0.55322,0.54091,0.52859,0.51101,0.49342,0.47183,0.45024,0.42932,0.4084,0.38699,0.36558,0.34642,0.32726,0.27902,0.2601,0.24235,0.2246,0.20726,0.18992,0.1749,0.15988,0.1463,0.13272,0.12133,0.10995,0.10054,0.091119,0.083198,0.075277,0.0707,0.066124,0.062249,0.058373,0.053193,0.048012,0.042857,0.037703,0.035491,0.033279,0.030586,0.027893,0.025675,0.023457
0.018854,0.020368,0.021882,0.023604,0.025326,0.027886,0.030445,0.032491,0.034538,0.037341,0.040144,0.043547,0.04695,0.051183,0.055416,0.059831,0.064247,0.07026,0.076274,0.085721,0.095167,0.10523,0.11529,0.12789,0.14049,0.15211,0.16373,0.17649,0.18925,0.20153,0.24933,0.24819,0.24705,0.25854,0.27003,0.28051,0.29098,0.32246,0.35394,0.36176,0.36958,0.37245,0.37533,0.37901,0.38269,0.36754,0.35239,0.35702,0.36166,0.3665,0.37134,0.38834,0.40534,0.41031,0.41528,0.41979,0.42429,0.42937,0.43444,0.43836,0.44227,0.44821,0.45416,0.45932,0.46448,0.46542,0.46636,0.46285,0.45935,0.4497,0.44006,0.42547,0.41089,0.39449,0.37808,0.36167,0.34526,0.32897,0.31267,0.29662,0.28057,0.23803,0.2231,0.20899,0.19488,0.18074,0.1666,0.15402,0.14143,0.13009,0.11875,0.10907,0.099391,0.091207,0.083022,0.078709,0.074397,0.06897,0.063542,0.058224,0.052905,0.048424,0.043943,0.040296,0.03665,0.03379,0.030929,0.028521,0.026112,0.023456,0.020799
0.018353,0.019776,0.021198,0.022844,0.02449,0.026555,0.028621,0.029897,0.031173,0.034966,0.038759,0.041977,0.045196,0.046742,0.048288,0.05483,0.061372,0.062926,0.064481,0.073634,0.082787,0.089417,0.096047,0.10881,0.12157,0.13102,0.14046,0.15076,0.16106,0.1705,0.21252,0.22353,0.23454,0.2449,0.25527,0.26495,0.27464,0.28274,0.29084,0.30155,0.31226,0.31243,0.31261,0.3168,0.321,0.32478,0.32857,0.33159,0.33461,0.33778,0.34095,0.34256,0.34417,0.34857,0.35297,0.35614,0.35931,0.3626,0.36588,0.36571,0.36553,0.3675,0.36946,0.37134,0.37322,0.36999,0.36676,0.36612,0.36547,0.3585,0.35152,0.33994,0.32836,0.31714,0.30591,0.29402,0.28213,0.27095,0.25977,0.24683,0.23389,0.19705,0.18611,0.17564,0.16516,0.15422,0.14328,0.13313,0.12298,0.11388,0.10479,0.09681,0.08883,0.081878,0.074925,0.074221,0.073517,0.067239,0.060961,0.054199,0.047437,0.043655,0.039874,0.037735,0.035597,0.032088,0.028579,0.026455,0.024332,0.021237,0.018142
0.017235,0.018505,0.019776,0.021241,0.022706,0.024811,0.026916,0.02878,0.030645,0.032851,0.035057,0.037797,0.040537,0.043491,0.046445,0.05026,0.054076,0.057856,0.061636,0.066564,0.071493,0.076802,0.082112,0.090635,0.099157,0.10919,0.11922,0.13,0.14078,0.14871,0.18827,0.1976,0.20693,0.21589,0.22486,0.23321,0.24156,0.24885,0.25613,0.26332,0.27051,0.27478,0.27905,0.28016,0.28128,0.28487,0.28846,0.29147,0.29448,0.29738,0.30029,0.30224,0.30419,0.30755,0.31091,0.31202,0.31314,0.31231,0.31149,0.31454,0.31759,0.31724,0.31689,0.31795,0.31901,0.3181,0.31719,0.31436,0.31152,0.30595,0.30038,0.29227,0.28416,0.27497,0.26577,0.25581,0.24584,0.23533,0.22483,0.21498,0.20514,0.17209,0.16302,0.15404,0.14507,0.13594,0.12682,0.11828,0.10975,0.102,0.094258,0.087393,0.080528,0.077272,0.074016,0.069565,0.065115,0.059859,0.054604,0.050193,0.045782,0.042202,0.038621,0.035699,0.032777,0.030313,0.027849,0.025812,0.023774,0.021429,0.019083
0.016117,0.017235,0.018353,0.019638,0.020923,0.023067,0.025212,0.027664,0.030117,0.030736,0.031355,0.033616,0.035878,0.040241,0.044603,0.045691,0.04678,0.052785,0.05879,0.059494,0.060198,0.064188,0.068178,0.072461,0.076744,0.087364,0.097983,0.10925,0.12051,0.12691,0.16401,0.17167,0.17933,0.18689,0.19445,0.20146,0.20848,0.21495,0.22142,0.22509,0.22876,0.23713,0.24549,0.24352,0.24156,0.24496,0.24836,0.25135,0.25435,0.25699,0.25963,0.26191,0.2642,0.26652,0.26884,0.2679,0.26696,0.26203,0.2571,0.26338,0.26966,0.26699,0.26432,0.26456,0.26481,0.26622,0.26762,0.2626,0.25757,0.25341,0.24925,0.24461,0.23997,0.2328,0.22563,0.21759,0.20956,0.19972,0.18989,0.18314,0.17639,0.14712,0.13993,0.13245,0.12497,0.11767,0.11036,0.10344,0.096516,0.090121,0.083726,0.077976,0.072226,0.072666,0.073106,0.06491,0.056713,0.05248,0.048246,0.046187,0.044128,0.040748,0.037369,0.033663,0.029958,0.028538,0.027118,0.025168,0.023217,0.021621,0.020025
0.015642,0.016732,0.017822,0.019039,0.020257,0.021776,0.023296,0.025231,0.027165,0.02897,0.030774,0.032707,0.03464,0.037204,0.039768,0.04235,0.044931,0.048217,0.051503,0.054494,0.057484,0.061203,0.064921,0.068911,0.072901,0.078049,0.083198,0.09037,0.097543,0.10513,0.14095,0.14731,0.15367,0.16256,0.17146,0.17745,0.18345,0.18891,0.19437,0.19955,0.20473,0.20972,0.21471,0.21718,0.21964,0.21979,0.21993,0.22269,0.22545,0.22627,0.22709,0.22944,0.23179,0.23319,0.2346,0.23501,0.23542,0.23358,0.23173,0.23355,0.23537,0.23557,0.23578,0.23549,0.23521,0.23411,0.23301,0.23027,0.22753,0.22371,0.21989,0.21492,0.20996,0.20444,0.19893,0.19177,0.1846,0.17709,0.16959,0.16326,0.15693,0.12951,0.12345,0.11714,0.11083,0.10467,0.098511,0.092659,0.086806,0.082714,0.078621,0.07494,0.071258,0.067738,0.064217,0.059286,0.054354,0.050369,0.046384,0.043141,0.039897,0.036987,0.034077,0.031586,0.029096,0.027094,0.025091,0.02274,0.020389,0.019635,0.018881
0.015167,0.016229,0.017291,0.018441,0.019591,0.020486,0.02138,0.022797,0.024214,0.027204,0.030193,0.031798,0.033402,0.034168,0.034934,0.039008,0.043083,0.043649,0.044216,0.049493,0.054771,0.058218,0.061665,0.065361,0.069058,0.068735,0.068412,0.071493,0.074573,0.083344,0.11788,0.12294,0.12801,0.13824,0.14847,0.15344,0.15841,0.16287,0.16732,0.17401,0.18069,0.18232,0.18394,0.19083,0.19773,0.19462,0.19151,0.19403,0.19655,0.19556,0.19456,0.19696,0.19937,0.19987,0.20037,0.20213,0.20389,0.20512,0.20635,0.20371,0.20107,0.20415,0.20723,0.20642,0.20561,0.202,0.1984,0.19795,0.19749,0.19401,0.19053,0.18524,0.17995,0.17609,0.17223,0.16594,0.15964,0.15447,0.14929,0.14338,0.13746,0.11189,0.10696,0.10183,0.096692,0.091676,0.086659,0.081878,0.077096,0.075306,0.073517,0.071903,0.07029,0.062809,0.055328,0.053662,0.051996,0.048258,0.044521,0.040094,0.035667,0.033226,0.030786,0.029509,0.028233,0.025649,0.023064,0.020312,0.017561,0.017649,0.017737
0.014316,0.015237,0.016158,0.017187,0.018215,0.019444,0.020673,0.021999,0.023325,0.025191,0.027057,0.028032,0.029008,0.031347,0.033687,0.035984,0.038281,0.040358,0.042435,0.045215,0.047994,0.050841,0.053688,0.0567,0.059711,0.06236,0.065009,0.067928,0.070847,0.074485,0.10314,0.10746,0.11178,0.11863,0.12549,0.12972,0.13395,0.13791,0.14187,0.14606,0.15026,0.15375,0.15724,0.16102,0.16481,0.16637,0.16792,0.17091,0.17391,0.17341,0.17291,0.17501,0.1771,0.17631,0.17552,0.17715,0.17878,0.17992,0.18106,0.18118,0.18131,0.18153,0.18176,0.18103,0.1803,0.17876,0.17721,0.17524,0.17326,0.17039,0.16752,0.16413,0.16074,0.15671,0.15268,0.14765,0.14263,0.13769,0.13275,0.12771,0.12267,0.099333,0.095196,0.090811,0.086425,0.08531,0.084195,0.080088,0.075981,0.072871,0.069762,0.06564,0.061518,0.057204,0.05289,0.049572,0.046255,0.043107,0.039959,0.037188,0.034417,0.032109,0.0298,0.02785,0.025901,0.024176,0.022451,0.020415,0.018379,0.017828,0.017276
0.013465,0.014246,0.015026,0.015933,0.016839,0.018403,0.019966,0.021201,0.022436,0.023179,0.023921,0.024267,0.024613,0.028527,0.03244,0.032959,0.033479,0.037066,0.040654,0.040936,0.041218,0.043465,0.045712,0.048038,0.050365,0.055985,0.061606,0.064364,0.067121,0.065625,0.088396,0.091972,0.095548,0.099025,0.1025,0.106,0.10949,0.11296,0.11642,0.11812,0.11982,0.12518,0.13053,0.13122,0.1319,0.13812,0.14433,0.1478,0.15126,0.15126,0.15126,0.15305,0.15484,0.15275,0.15067,0.15217,0.15366,0.15472,0.15577,0.15866,0.16154,0.15892,0.15629,0.15564,0.155,0.15551,0.15602,0.15253,0.14903,0.14677,0.14451,0.14302,0.14154,0.13733,0.13312,0.12937,0.12561,0.12091,0.11621,0.11205,0.10788,0.086777,0.083432,0.079795,0.076157,0.078944,0.081731,0.078299,0.074866,0.070436,0.066007,0.059377,0.052747,0.0516,0.050453,0.045483,0.040513,0.037955,0.035397,0.034282,0.033168,0.030991,0.028814,0.026191,0.023569,0.022703,0.021838,0.020518,0.019198,0.018007,0.016816
0.013122,0.013866,0.014609,0.015471,0.016332,0.017404,0.018476,0.019564,0.020653,0.021823,0.022994,0.023803,0.024613,0.026869,0.029125,0.030888,0.032651,0.034357,0.036063,0.037759,0.039454,0.041599,0.043743,0.045913,0.048082,0.050712,0.053342,0.055567,0.057793,0.059343,0.081925,0.085771,0.089617,0.092761,0.095906,0.099028,0.10215,0.10519,0.10822,0.11112,0.11402,0.11714,0.12027,0.12283,0.1254,0.12852,0.13163,0.13436,0.13709,0.13808,0.13906,0.14114,0.14323,0.14415,0.14507,0.14294,0.14081,0.14152,0.14223,0.14252,0.14282,0.14229,0.14177,0.14094,0.1401,0.13908,0.13806,0.13618,0.1343,0.13241,0.13053,0.12797,0.12542,0.12209,0.11875,0.11548,0.1122,0.10861,0.10502,0.10133,0.097631,0.079164,0.077888,0.076494,0.075101,0.073165,0.071229,0.068053,0.064877,0.061272,0.057666,0.053998,0.050329,0.047504,0.044679,0.041776,0.038874,0.036475,0.034077,0.03207,0.030064,0.028175,0.026285,0.024579,0.022874,0.021611,0.020348,0.019149,0.017951,0.01688,0.015809
0.012779,0.013486,0.014193,0.015008,0.015824,0.016405,0.016986,0.017927,0.018869,0.020468,0.022067,0.02334,0.024613,0.025212,0.02581,0.028817,0.031824,0.031648,0.031472,0.034582,0.037691,0.039733,0.041775,0.043787,0.0458,0.045439,0.045078,0.046771,0.048464,0.053061,0.075453,0.079569,0.083685,0.086498,0.089311,0.092057,0.094803,0.097414,0.10003,0.10412,0.10821,0.10911,0.11001,0.11445,0.11889,0.11891,0.11894,0.12093,0.12293,0.12489,0.12686,0.12924,0.13162,0.13554,0.13946,0.13371,0.12796,0.12832,0.12869,0.12639,0.12409,0.12567,0.12726,0.12623,0.12521,0.12265,0.12009,0.11983,0.11957,0.11806,0.11654,0.11292,0.10931,0.10685,0.10438,0.10158,0.098781,0.096308,0.093835,0.090608,0.087381,0.071551,0.072343,0.073194,0.074045,0.067385,0.060726,0.057807,0.054888,0.052107,0.049326,0.048619,0.047912,0.043409,0.038906,0.03807,0.037234,0.034995,0.032757,0.029858,0.02696,0.025358,0.023757,0.022967,0.022178,0.020518,0.018857,0.017781,0.016704,0.015754,0.014803
0.012066,0.0127,0.013333,0.014059,0.014785,0.01561,0.016434,0.017325,0.018215,0.019237,0.02026,0.021361,0.022463,0.023601,0.024739,0.026439,0.028139,0.029207,0.030275,0.031858,0.03344,0.035121,0.036802,0.038554,0.040305,0.041659,0.043013,0.044619,0.046225,0.04804,0.068395,0.071496,0.074596,0.077094,0.079592,0.08204,0.084489,0.086856,0.089223,0.091689,0.094155,0.096295,0.098435,0.10079,0.10315,0.10512,0.10708,0.1091,0.11111,0.11294,0.11478,0.11659,0.1184,0.11988,0.12136,0.1208,0.12024,0.12077,0.12131,0.12118,0.12106,0.12046,0.11987,0.1191,0.11832,0.11721,0.11611,0.11487,0.11363,0.11214,0.11066,0.1082,0.10573,0.10401,0.10228,0.099578,0.096877,0.094084,0.091292,0.088258,0.085225,0.069028,0.068324,0.066115,0.063906,0.060786,0.057666,0.05497,0.052274,0.049665,0.047055,0.044723,0.042391,0.03985,0.03731,0.035347,0.033385,0.031476,0.029568,0.027811,0.026054,0.024541,0.023029,0.021138,0.019248,0.018753,0.018259,0.017237,0.016214,0.015311,0.014407
0.011353,0.011913,0.012474,0.01311,0.013747,0.014815,0.015883,0.016722,0.017561,0.018007,0.018453,0.019382,0.020312,0.02199,0.023669,0.024062,0.024455,0.026766,0.029078,0.029134,0.02919,0.03051,0.03183,0.03332,0.03481,0.037879,0.040948,0.042467,0.043987,0.043019,0.061336,0.063422,0.065508,0.067691,0.069873,0.072024,0.074174,0.076298,0.078422,0.079261,0.0801,0.083482,0.086865,0.087135,0.087405,0.091318,0.095232,0.097259,0.099286,0.10099,0.10269,0.10393,0.10517,0.10422,0.10326,0.10789,0.11252,0.11322,0.11392,0.11598,0.11803,0.11526,0.11248,0.11196,0.11144,0.11178,0.11212,0.1099,0.10768,0.10622,0.10477,0.10347,0.10216,0.10117,0.10017,0.097573,0.094973,0.091861,0.088748,0.085908,0.083069,0.066505,0.064305,0.059036,0.053768,0.054187,0.054607,0.052134,0.04966,0.047223,0.044785,0.040827,0.03687,0.036292,0.035714,0.032625,0.029536,0.027957,0.026379,0.025763,0.025147,0.023724,0.022301,0.019309,0.016317,0.016989,0.01766,0.016692,0.015724,0.014868,0.014011
0.011098,0.011632,0.012166,0.012786,0.013407,0.014096,0.014785,0.015523,0.016261,0.017062,0.017863,0.018739,0.019614,0.019529,0.019444,0.020744,0.022043,0.024037,0.02603,0.027067,0.028104,0.029352,0.030601,0.032046,0.03349,0.034746,0.036002,0.037226,0.038451,0.039314,0.058001,0.059921,0.061841,0.063091,0.06434,0.066856,0.069372,0.071242,0.073112,0.074849,0.076585,0.078472,0.080358,0.081903,0.083447,0.085386,0.087325,0.088976,0.090626,0.092022,0.093419,0.094715,0.096012,0.097181,0.09835,0.099589,0.10083,0.10112,0.10141,0.10166,0.10191,0.10103,0.10014,0.099544,0.098948,0.098184,0.09742,0.096222,0.095023,0.093683,0.092342,0.090768,0.089194,0.087947,0.086701,0.084575,0.08245,0.080173,0.077897,0.075526,0.073156,0.057416,0.055645,0.05335,0.051054,0.049357,0.04766,0.045636,0.043611,0.041577,0.039542,0.037433,0.035324,0.033636,0.031947,0.030194,0.028442,0.026947,0.025452,0.024176,0.0229,0.021094,0.019289,0.018147,0.017006,0.01673,0.016455,0.015595,0.014736,0.013966,0.013195
0.010843,0.01135,0.011858,0.012462,0.013066,0.013377,0.013688,0.014325,0.014962,0.016117,0.017273,0.018095,0.018916,0.017068,0.01522,0.017426,0.019632,0.021307,0.022982,0.025,0.027019,0.028195,0.029372,0.030771,0.03217,0.031613,0.031055,0.031985,0.032915,0.035608,0.054665,0.05642,0.058174,0.058491,0.058808,0.061688,0.064569,0.066186,0.067802,0.070436,0.073071,0.073461,0.073851,0.07667,0.07949,0.079454,0.079419,0.080692,0.081966,0.083054,0.084142,0.085498,0.086853,0.090145,0.093436,0.091286,0.089135,0.089018,0.088901,0.087349,0.085797,0.086797,0.087798,0.087129,0.08646,0.084588,0.082717,0.082544,0.08237,0.081141,0.079912,0.07807,0.076227,0.074728,0.073229,0.071578,0.069926,0.068486,0.067045,0.065144,0.063243,0.048326,0.046985,0.047663,0.04834,0.044527,0.040713,0.039138,0.037562,0.035931,0.0343,0.034039,0.033778,0.030979,0.02818,0.027764,0.027347,0.025936,0.024525,0.022589,0.020653,0.018464,0.016276,0.016986,0.017696,0.016472,0.015249,0.014498,0.013747,0.013063,0.01238
0.011221,0.011754,0.012286,0.012779,0.013272,0.013688,0.014105,0.014763,0.015422,0.015827,0.016232,0.01699,0.017748,0.017757,0.017766,0.019666,0.021565,0.022533,0.023501,0.025267,0.027033,0.028148,0.029263,0.0303,0.031337,0.031459,0.031581,0.032484,0.033388,0.035365,0.053149,0.05474,0.056332,0.057187,0.058042,0.059217,0.060392,0.062755,0.065118,0.066589,0.06806,0.069294,0.070527,0.071931,0.073335,0.074461,0.075588,0.076672,0.077756,0.077908,0.078061,0.079038,0.080015,0.081773,0.083532,0.083642,0.083752,0.083817,0.083881,0.083072,0.082262,0.08241,0.082558,0.082004,0.081449,0.080197,0.078944,0.078334,0.077724,0.075953,0.074183,0.072832,0.071481,0.070611,0.069741,0.068191,0.06664,0.065084,0.063528,0.06197,0.060412,0.045903,0.044659,0.043482,0.042306,0.040582,0.038859,0.037389,0.035919,0.034387,0.032854,0.031498,0.030143,0.028628,0.027113,0.025902,0.024692,0.022871,0.021049,0.019664,0.018279,0.017614,0.016948,0.016692,0.016437,0.015613,0.014788,0.014076,0.013363,0.012716,0.012069
0.0116,0.012157,0.012714,0.013096,0.013477,0.013999,0.014521,0.015202,0.015883,0.015537,0.01519,0.015886,0.016581,0.018447,0.020312,0.021905,0.023498,0.023759,0.024021,0.025534,0.027048,0.028101,0.029154,0.029829,0.030504,0.031305,0.032106,0.032983,0.03386,0.035121,0.051632,0.053061,0.054489,0.055883,0.057276,0.056745,0.056214,0.059324,0.062434,0.062742,0.06305,0.065127,0.067204,0.067192,0.06718,0.069468,0.071757,0.072651,0.073546,0.072763,0.07198,0.072578,0.073176,0.073402,0.073628,0.075999,0.078369,0.078615,0.078862,0.078794,0.078727,0.078023,0.077319,0.076879,0.076439,0.075805,0.075171,0.074124,0.073077,0.070765,0.068453,0.067594,0.066734,0.066494,0.066253,0.064804,0.063355,0.061683,0.06001,0.058796,0.057581,0.043479,0.042332,0.039302,0.036271,0.036638,0.037005,0.035641,0.034277,0.032842,0.031407,0.028958,0.026508,0.026277,0.026045,0.024041,0.022037,0.019805,0.017572,0.016739,0.015906,0.016763,0.017619,0.016399,0.015179,0.014753,0.014328,0.013653,0.012978,0.012368,0.011758
