0.052167,0.055119,0.058071,0.061234,0.064397,0.067815,0.071232,0.074551,0.07787,0.081287,0.084705,0.088207,0.09171,0.094986,0.098262,0.10181,0.10535,0.10898,0.11261,0.11649,0.12038,0.12372,0.12707,0.13035,0.13362,0.13665,0.13967,0.14255,0.14543,0.14722,0.19511,0.19863,0.20215,0.20624,0.21034,0.2133,0.21627,0.21895,0.22163,0.22387,0.2261,0.22772,0.22934,0.23002,0.2307,0.23135,0.232,0.2323,0.23259,0.23258,0.23256,0.23227,0.23197,0.23098,0.22999,0.22886,0.22773,0.22607,0.2244,0.2225,0.22059,0.21752,0.21446,0.2122,0.20994,0.20665,0.20336,0.19986,0.19636,0.19274,0.18912,0.18509,0.18105,0.17685,0.17266,0.16852,0.16438,0.16005,0.15571,0.15156,0.14741,0.10213,0.099646,0.097034,0.094421,0.091526,0.088631,0.085552,0.082474,0.079494,0.076514,0.073647,0.070781,0.068013,0.065245,0.062561,0.059878,0.057379,0.054879,0.052506,0.050134,0.047917,0.045699,0.043666,0.041632,0.040446,0.03926,0.038271,0.037283,0.034924,0.032566
0.055486,0.058819,0.062152,0.065739,0.069326,0.073118,0.07691,0.080779,0.084649,0.088454,0.09226,0.096215,0.10017,0.10419,0.10822,0.11228,0.11634,0.1207,0.12507,0.12949,0.13392,0.13788,0.14184,0.14578,0.14971,0.15331,0.15691,0.16028,0.16365,0.16608,0.21704,0.22148,0.22591,0.23057,0.23523,0.23879,0.24235,0.24518,0.24801,0.25039,0.25277,0.2544,0.25602,0.25707,0.25813,0.25849,0.25886,0.25908,0.2593,0.25929,0.25928,0.25874,0.2582,0.25714,0.25609,0.24964,0.24318,0.2463,0.24941,0.24713,0.24485,0.24161,0.23837,0.23524,0.23211,0.2278,0.22348,0.21994,0.21639,0.21226,0.20813,0.2034,0.19866,0.19389,0.18912,0.18432,0.17951,0.17464,0.16976,0.16496,0.16016,0.11186,0.10895,0.10585,0.10275,0.099343,0.095932,0.092508,0.089083,0.085694,0.082304,0.079056,0.075808,0.07268,0.069552,0.066572,0.063592,0.060824,0.058056,0.055472,0.052888,0.050445,0.048001,0.044626,0.041251,0.039747,0.038243,0.037403,0.036562,0.03414,0.031718
0.058805,0.062519,0.066233,0.070244,0.074255,0.078421,0.082587,0.087007,0.091427,0.095621,0.099816,0.10422,0.10863,0.1134,0.11817,0.12275,0.12733,0.13242,0.13752,0.14249,0.14746,0.15204,0.15662,0.16121,0.16579,0.16997,0.17416,0.17801,0.18187,0.18493,0.23898,0.24433,0.24968,0.25491,0.26013,0.26428,0.26843,0.27141,0.27439,0.27692,0.27945,0.28107,0.2827,0.28412,0.28555,0.28564,0.28572,0.28586,0.286,0.286,0.286,0.28521,0.28442,0.28331,0.28219,0.27041,0.25863,0.26653,0.27442,0.27177,0.26911,0.2657,0.26228,0.25828,0.25428,0.24895,0.24361,0.24002,0.23643,0.23179,0.22714,0.2217,0.21627,0.21093,0.20559,0.20011,0.19463,0.18922,0.18381,0.17836,0.17291,0.12159,0.11826,0.11467,0.11109,0.10716,0.10323,0.099463,0.095692,0.091893,0.088094,0.084465,0.080836,0.077347,0.073859,0.070583,0.067306,0.06427,0.061234,0.058438,0.055642,0.052972,0.050303,0.045586,0.04087,0.039048,0.037226,0.036534,0.035842,0.033357,0.030871
0.062448,0.066572,0.070696,0.075208,0.07972,0.084437,0.089154,0.094075,0.098997,0.10397,0.10894,0.11411,0.11928,0.12485,0.13043,0.13579,0.14114,0.14713,0.15313,0.15885,0.16457,0.17023,0.17589,0.18168,0.18746,0.19238,0.1973,0.20246,0.20761,0.21134,0.26921,0.27565,0.28209,0.288,0.29391,0.29896,0.30401,0.30777,0.31154,0.31453,0.31752,0.31943,0.32134,0.32211,0.32289,0.3234,0.32391,0.32354,0.32317,0.31797,0.31276,0.31682,0.32088,0.31977,0.31865,0.31158,0.3045,0.30713,0.30976,0.30671,0.30366,0.29938,0.29511,0.29075,0.28638,0.28084,0.2753,0.2701,0.2649,0.25961,0.25431,0.24818,0.24204,0.23586,0.22968,0.2233,0.21692,0.21077,0.20462,0.19831,0.19201,0.13717,0.13327,0.1237,0.11412,0.11457,0.11501,0.11046,0.10592,0.10145,0.096977,0.092811,0.088645,0.084585,0.080525,0.07679,0.073054,0.069601,0.066148,0.062971,0.059793,0.056856,0.053919,0.050106,0.046293,0.043567,0.040841,0.038843,0.036845,0.035178,0.033512
0.066092,0.070625,0.075158,0.080172,0.085185,0.090453,0.09572,0.10114,0.10657,0.11231,0.11806,0.12399,0.12992,0.13631,0.14269,0.14882,0.15495,0.16184,0.16873,0.1752,0.18167,0.18842,0.19517,0.20215,0.20912,0.21478,0.22045,0.2269,0.23336,0.23775,0.29945,0.30697,0.3145,0.3211,0.32769,0.33364,0.33958,0.34413,0.34868,0.35214,0.3556,0.35779,0.35998,0.3601,0.36023,0.36116,0.36209,0.36122,0.36034,0.34993,0.33953,0.34844,0.35735,0.35623,0.35512,0.35274,0.35037,0.34773,0.34509,0.34164,0.3382,0.33307,0.32795,0.32321,0.31848,0.31274,0.30699,0.30018,0.29337,0.28743,0.28148,0.27465,0.26781,0.26079,0.25378,0.24649,0.2392,0.23231,0.22542,0.21826,0.2111,0.15275,0.14828,0.13272,0.11716,0.12197,0.12679,0.12147,0.11614,0.111,0.10586,0.10116,0.096455,0.091823,0.087191,0.082996,0.078802,0.074932,0.071063,0.067504,0.063945,0.06074,0.057534,0.054625,0.051716,0.048086,0.044457,0.041152,0.037848,0.037,0.036153
0.069877,0.07494,0.080002,0.085524,0.091046,0.096963,0.10288,0.10924,0.1156,0.12224,0.12888,0.13581,0.14273,0.15007,0.15741,0.16478,0.17215,0.18027,0.18839,0.19626,0.20414,0.21267,0.22121,0.22967,0.23813,0.24578,0.25342,0.26131,0.2692,0.27577,0.34323,0.352,0.36078,0.36867,0.37657,0.38351,0.39045,0.39624,0.40203,0.40564,0.40925,0.4123,0.41536,0.41095,0.40654,0.41166,0.41677,0.41588,0.415,0.40875,0.40251,0.40633,0.41015,0.40837,0.40659,0.40359,0.40059,0.39685,0.39311,0.38905,0.38499,0.37917,0.37335,0.36748,0.36161,0.35519,0.34876,0.34107,0.33337,0.32663,0.31988,0.31188,0.30388,0.29587,0.28787,0.27964,0.27141,0.26301,0.25461,0.24651,0.23841,0.17548,0.16978,0.1582,0.14662,0.14505,0.14348,0.13148,0.11949,0.11872,0.11795,0.11227,0.10659,0.10124,0.09589,0.090933,0.085976,0.081506,0.077037,0.073075,0.069114,0.065463,0.061813,0.058537,0.05526,0.05185,0.048439,0.044909,0.041378,0.039246,0.037113
0.073661,0.079254,0.084846,0.090876,0.096907,0.10347,0.11004,0.11734,0.12464,0.13217,0.1397,0.14762,0.15554,0.16383,0.17212,0.18074,0.18935,0.1987,0.20805,0.21733,0.2266,0.23693,0.24725,0.25719,0.26714,0.27677,0.2864,0.29572,0.30504,0.3138,0.38701,0.39703,0.40706,0.41625,0.42545,0.43338,0.44132,0.44835,0.45538,0.45914,0.4629,0.46682,0.47075,0.4618,0.45284,0.46215,0.47146,0.47055,0.46965,0.46757,0.4655,0.46423,0.46295,0.46051,0.45807,0.45444,0.45081,0.44597,0.44112,0.43645,0.43177,0.42526,0.41875,0.41175,0.40474,0.39764,0.39054,0.38195,0.37336,0.36582,0.35828,0.34912,0.33995,0.33095,0.32196,0.31279,0.30363,0.29371,0.2838,0.27476,0.26572,0.19822,0.19127,0.18367,0.17608,0.16812,0.16017,0.1415,0.12283,0.12644,0.13004,0.12339,0.11673,0.11066,0.10459,0.09887,0.09315,0.08808,0.08301,0.078647,0.074283,0.070187,0.066092,0.062448,0.058805,0.055613,0.052422,0.048665,0.044909,0.041491,0.038073
0.077672,0.08378,0.089888,0.096469,0.10305,0.11058,0.1181,0.12639,0.13468,0.14349,0.15229,0.16154,0.17079,0.18049,0.19018,0.20053,0.21087,0.22198,0.23309,0.24451,0.25594,0.26865,0.28137,0.29446,0.30755,0.32035,0.33314,0.34536,0.35757,0.36887,0.44863,0.46035,0.47206,0.48306,0.49407,0.50386,0.51365,0.52127,0.52889,0.53394,0.53899,0.54311,0.54724,0.54335,0.53947,0.54421,0.54896,0.54784,0.54673,0.54392,0.54112,0.53938,0.53765,0.53359,0.52954,0.52399,0.51844,0.51218,0.50593,0.49944,0.49295,0.48522,0.4775,0.46937,0.46125,0.45366,0.44608,0.43685,0.42762,0.41885,0.41008,0.40014,0.3902,0.37948,0.36877,0.35846,0.34814,0.33674,0.32535,0.31385,0.30236,0.22962,0.22115,0.21209,0.20303,0.19369,0.18434,0.16922,0.1541,0.15048,0.14686,0.13333,0.11981,0.11774,0.11566,0.10895,0.10224,0.096356,0.090467,0.085404,0.080341,0.075737,0.071134,0.067045,0.062957,0.059419,0.055882,0.052295,0.048707,0.04505,0.041392
0.081683,0.088306,0.094929,0.10206,0.10919,0.11768,0.12617,0.13545,0.14472,0.15481,0.16489,0.17547,0.18605,0.19715,0.20825,0.22032,0.2324,0.24526,0.25813,0.2717,0.28527,0.30038,0.31549,0.33173,0.34797,0.36393,0.37989,0.395,0.41011,0.42395,0.51026,0.52367,0.53707,0.54988,0.56269,0.57434,0.58599,0.59419,0.6024,0.60874,0.61508,0.6194,0.62372,0.62491,0.62609,0.62628,0.62646,0.62513,0.62381,0.62028,0.61675,0.61454,0.61234,0.60668,0.60101,0.59354,0.58607,0.5784,0.57073,0.56243,0.55413,0.54519,0.53625,0.527,0.51775,0.50968,0.50162,0.49175,0.48188,0.47188,0.46188,0.45116,0.44044,0.42802,0.41559,0.40412,0.39265,0.37977,0.36689,0.35294,0.33899,0.26102,0.25104,0.24052,0.22999,0.21925,0.2085,0.19693,0.18537,0.17452,0.16368,0.14328,0.12289,0.12481,0.12673,0.11904,0.11134,0.10463,0.097923,0.092162,0.0864,0.081287,0.076175,0.071642,0.067109,0.063225,0.059342,0.055924,0.052506,0.048609,0.044711
0.085877,0.09291,0.099943,0.10808,0.11621,0.12557,0.13492,0.1454,0.15587,0.16733,0.17879,0.19105,0.2033,0.21644,0.22958,0.24421,0.25883,0.27437,0.28991,0.3075,0.32509,0.34536,0.36562,0.3861,0.40658,0.4267,0.44683,0.46568,0.48453,0.50028,0.59295,0.60976,0.62657,0.64061,0.65465,0.66836,0.68207,0.68738,0.69269,0.70401,0.71533,0.72132,0.72731,0.72889,0.73047,0.73165,0.73283,0.73129,0.72975,0.72673,0.72371,0.71964,0.71557,0.70737,0.69918,0.68923,0.67928,0.66881,0.65834,0.64726,0.63619,0.62542,0.61466,0.60456,0.59447,0.58493,0.57538,0.56453,0.55368,0.54241,0.53114,0.51877,0.50639,0.49239,0.47839,0.46409,0.44979,0.43482,0.41985,0.40361,0.38737,0.30323,0.29131,0.27892,0.26653,0.25356,0.2406,0.22686,0.21312,0.19999,0.18687,0.16971,0.15255,0.147,0.14145,0.12774,0.11402,0.11061,0.1072,0.10051,0.093828,0.087939,0.08205,0.077037,0.072023,0.067652,0.063282,0.059518,0.055754,0.052026,0.048298
0.090071,0.097514,0.10496,0.11409,0.12323,0.13345,0.14368,0.15534,0.16701,0.17985,0.19268,0.20662,0.22056,0.23574,0.25092,0.2681,0.28527,0.30349,0.3217,0.34331,0.36492,0.39034,0.41576,0.44047,0.46519,0.48948,0.51377,0.53636,0.55896,0.57661,0.67563,0.69586,0.71608,0.73135,0.74661,0.76239,0.77816,0.78058,0.78299,0.79929,0.81559,0.82324,0.83089,0.83287,0.83485,0.83702,0.8392,0.83745,0.8357,0.83318,0.83067,0.82474,0.81881,0.80807,0.79734,0.78491,0.77248,0.75921,0.74594,0.7321,0.71826,0.70566,0.69306,0.68213,0.6712,0.66017,0.64914,0.63731,0.62547,0.61293,0.60039,0.58637,0.57234,0.55677,0.54119,0.52406,0.50693,0.48987,0.47281,0.45428,0.43575,0.34543,0.33159,0.31733,0.30306,0.28788,0.2727,0.25678,0.24087,0.22546,0.21005,0.19613,0.1822,0.16918,0.15616,0.13643,0.11671,0.11659,0.11648,0.10887,0.10126,0.094591,0.087925,0.082431,0.076938,0.07208,0.067222,0.063112,0.059003,0.055444,0.051885
0.094336,0.1025,0.11066,0.12058,0.13049,0.14189,0.15328,0.16916,0.18503,0.19662,0.2082,0.22426,0.24032,0.25851,0.27671,0.29709,0.31747,0.34077,0.36407,0.39231,0.42056,0.45191,0.48326,0.51419,0.54512,0.57371,0.60231,0.62872,0.65513,0.6749,0.78113,0.8032,0.82527,0.84269,0.8601,0.87317,0.88624,0.89875,0.91126,0.92424,0.93722,0.94622,0.95521,0.96057,0.96593,0.96935,0.97277,0.97231,0.97186,0.96919,0.96652,0.96066,0.9548,0.94245,0.93009,0.91385,0.89761,0.8813,0.86499,0.84705,0.82911,0.81335,0.79759,0.78344,0.76929,0.75639,0.74349,0.72953,0.71556,0.70094,0.68633,0.66988,0.65343,0.63551,0.61759,0.59768,0.57777,0.55709,0.53642,0.51432,0.49222,0.39521,0.37932,0.36322,0.34712,0.33007,0.31302,0.29475,0.27648,0.25868,0.24087,0.22453,0.20819,0.19261,0.17704,0.15917,0.14131,0.13038,0.11945,0.11494,0.11044,0.10281,0.095184,0.088892,0.082601,0.077171,0.071741,0.067201,0.06266,0.058727,0.054794
0.098601,0.10748,0.11637,0.12706,0.13775,0.15032,0.16289,0.18297,0.20305,0.21339,0.22372,0.2419,0.26007,0.28129,0.3025,0.32608,0.34967,0.37805,0.40644,0.44132,0.4762,0.51348,0.55077,0.58791,0.62505,0.65795,0.69086,0.72108,0.7513,0.77319,0.88662,0.91054,0.93447,0.95403,0.97359,0.98395,0.99432,1.0169,1.0395,1.0492,1.0589,1.0692,1.0795,1.0883,1.097,1.1017,1.1063,1.1072,1.108,1.1052,1.1024,1.0966,1.0908,1.0768,1.0628,1.0428,1.0227,1.0034,0.98404,0.962,0.93997,0.92105,0.90213,0.88476,0.86739,0.85261,0.83784,0.82174,0.80564,0.78895,0.77226,0.75339,0.73452,0.71426,0.69399,0.6713,0.6486,0.62431,0.60002,0.57435,0.54868,0.44499,0.42706,0.40912,0.39119,0.37226,0.35334,0.33272,0.3121,0.29189,0.27168,0.25293,0.23417,0.21604,0.19791,0.18191,0.16591,0.14416,0.12241,0.12101,0.11962,0.11103,0.10244,0.095353,0.088264,0.082262,0.07626,0.071289,0.066318,0.062011,0.057703
0.10288,0.11255,0.12221,0.13386,0.14552,0.15927,0.17303,0.19194,0.21086,0.22625,0.24165,0.26281,0.28397,0.30877,0.33357,0.36329,0.39302,0.42875,0.46448,0.50776,0.55105,0.59596,0.64087,0.68436,0.72786,0.76655,0.80525,0.8378,0.87035,0.89415,1.015,1.0403,1.0657,1.087,1.1083,1.1217,1.1352,1.1541,1.1729,1.1856,1.1982,1.2099,1.2215,1.2331,1.2447,1.2546,1.2645,1.2683,1.2721,1.2711,1.2702,1.2644,1.2587,1.2426,1.2265,1.2049,1.1833,1.1609,1.1385,1.1121,1.0856,1.0607,1.0359,1.0143,0.99279,0.97333,0.95387,0.93483,0.9158,0.89589,0.87599,0.85374,0.8315,0.80784,0.78418,0.75742,0.73067,0.70215,0.67363,0.64526,0.6169,0.50452,0.48298,0.46243,0.44188,0.42084,0.3998,0.37763,0.35546,0.33328,0.3111,0.28929,0.26749,0.24619,0.22488,0.20596,0.18703,0.16707,0.14711,0.13917,0.13122,0.12106,0.1109,0.1029,0.094901,0.088186,0.081471,0.075942,0.070413,0.065682,0.060951
0.10716,0.11761,0.12806,0.14067,0.15328,0.16822,0.18317,0.20092,0.21867,0.23912,0.25957,0.28372,0.30786,0.33625,0.36464,0.40051,0.43638,0.47945,0.52252,0.57421,0.6259,0.67843,0.73097,0.78082,0.83067,0.87515,0.91964,0.95452,0.9894,1.0151,1.1434,1.1701,1.1969,1.2199,1.243,1.2595,1.2761,1.2912,1.3064,1.3219,1.3375,1.3505,1.3636,1.378,1.3924,1.4076,1.4227,1.4294,1.4362,1.4371,1.4379,1.4323,1.4266,1.4084,1.3902,1.367,1.3439,1.3184,1.293,1.2621,1.2312,1.2004,1.1696,1.1439,1.1182,1.094,1.0699,1.0479,1.026,1.0028,0.97971,0.9541,0.92848,0.90142,0.87436,0.84355,0.81273,0.77998,0.74723,0.71618,0.68512,0.56404,0.5389,0.51574,0.49258,0.46942,0.44626,0.42254,0.39881,0.37466,0.35051,0.32566,0.3008,0.27633,0.25186,0.23001,0.20816,0.18999,0.17181,0.15732,0.14283,0.1311,0.11936,0.11045,0.10154,0.09411,0.086682,0.080595,0.074509,0.069354,0.0642
0.11182,0.12304,0.13426,0.14785,0.16143,0.17791,0.19439,0.21398,0.23357,0.25688,0.28018,0.30822,0.33625,0.37085,0.40545,0.4488,0.49216,0.54561,0.59906,0.66071,0.72235,0.78315,0.84394,0.89902,0.9541,1.0032,1.0522,1.0891,1.126,1.1526,1.2876,1.3112,1.3349,1.3606,1.3863,1.4026,1.419,1.4333,1.4476,1.4654,1.4831,1.5011,1.5191,1.5394,1.5598,1.5791,1.5984,1.6114,1.6245,1.6282,1.632,1.6266,1.6212,1.6023,1.5834,1.5602,1.5369,1.508,1.479,1.4443,1.4095,1.3754,1.3413,1.3081,1.275,1.2442,1.2134,1.1857,1.1579,1.1303,1.1027,1.0731,1.0435,1.0128,0.98196,0.94634,0.91071,0.87476,0.83882,0.8025,0.76619,0.63585,0.60669,0.57873,0.55077,0.52563,0.50049,0.47444,0.44838,0.42232,0.39627,0.36887,0.34148,0.31406,0.28664,0.26138,0.23612,0.21438,0.19264,0.17513,0.15762,0.14393,0.13025,0.11984,0.10943,0.1011,0.092769,0.085969,0.079169,0.073541,0.067914
0.11648,0.12847,0.14046,0.15502,0.16958,0.1876,0.20562,0.22704,0.24847,0.27463,0.3008,0.33272,0.36464,0.40545,0.44626,0.4971,0.54794,0.61177,0.67561,0.74721,0.81881,0.88786,0.95692,1.0172,1.0775,1.1312,1.1849,1.2237,1.2625,1.2901,1.4318,1.4523,1.4729,1.5012,1.5295,1.5457,1.5619,1.5754,1.5888,1.6088,1.6287,1.6517,1.6746,1.7009,1.7271,1.7506,1.774,1.7934,1.8127,1.8194,1.826,1.8209,1.8158,1.7962,1.7766,1.7533,1.73,1.6975,1.665,1.6265,1.5879,1.5505,1.5131,1.4724,1.4317,1.3943,1.3569,1.3234,1.2899,1.2578,1.2258,1.1922,1.1586,1.1241,1.0896,1.0491,1.0087,0.96955,0.9304,0.88882,0.84725,0.70766,0.67448,0.64171,0.60895,0.58184,0.55472,0.52633,0.49795,0.46999,0.44203,0.41209,0.38215,0.35178,0.32142,0.29275,0.26409,0.23878,0.21347,0.19294,0.1724,0.15677,0.14114,0.12923,0.11733,0.10809,0.098855,0.091342,0.083829,0.077729,0.071628
0.12117,0.13391,0.14666,0.16241,0.17815,0.19777,0.2174,0.24133,0.26527,0.29539,0.32552,0.36294,0.40036,0.44873,0.4971,0.55776,0.61841,0.69326,0.76811,0.84959,0.93108,1.0076,1.0842,1.1511,1.218,1.2738,1.3296,1.3694,1.4091,1.4353,1.5817,1.6036,1.6255,1.6479,1.6703,1.686,1.7018,1.7179,1.734,1.7571,1.7802,1.8084,1.8366,1.8699,1.9031,1.9342,1.9654,1.9908,2.0162,2.0296,2.0429,2.0406,2.0383,2.0208,2.0034,1.9771,1.9508,1.9173,1.8838,1.8422,1.8006,1.757,1.7134,1.6671,1.6208,1.5752,1.5296,1.4878,1.446,1.4092,1.3725,1.3338,1.2951,1.2552,1.2153,1.1715,1.1278,1.0831,1.0385,0.99098,0.94349,0.79303,0.75469,0.71698,0.67928,0.6468,0.61432,0.5836,0.55288,0.52231,0.49174,0.4601,0.42847,0.39542,0.36238,0.33025,0.29812,0.2689,0.23968,0.21565,0.19161,0.17283,0.15406,0.1368,0.11954,0.1126,0.10565,0.09726,0.088871,0.082241,0.07561
0.12586,0.13936,0.15286,0.16979,0.18672,0.20795,0.22918,0.25563,0.28208,0.31615,0.35023,0.39316,0.43609,0.49202,0.54794,0.61841,0.68888,0.77474,0.86061,0.95198,1.0433,1.1274,1.2114,1.285,1.3586,1.4165,1.4744,1.515,1.5557,1.5806,1.7316,1.7548,1.778,1.7945,1.811,1.8263,1.8417,1.8604,1.8792,1.9054,1.9316,1.9651,1.9986,2.0388,2.0791,2.1179,2.1567,2.1882,2.2197,2.2398,2.2598,2.2603,2.2607,2.2454,2.2302,2.2009,2.1717,2.1371,2.1025,2.0579,2.0133,1.9636,1.9138,1.8619,1.8099,1.7561,1.7023,1.6522,1.602,1.5606,1.5193,1.4754,1.4315,1.3863,1.341,1.2939,1.2469,1.1967,1.1466,1.0931,1.0397,0.8784,0.8349,0.79226,0.74961,0.71176,0.67391,0.64087,0.60782,0.57463,0.54145,0.50812,0.47479,0.43906,0.40333,0.36774,0.33215,0.29902,0.26589,0.23835,0.21082,0.1889,0.16698,0.14437,0.12176,0.1171,0.11244,0.10318,0.093913,0.086753,0.079593
0.1305,0.14486,0.15921,0.17739,0.19556,0.21877,0.24198,0.27165,0.30133,0.3399,0.37848,0.42819,0.4779,0.54265,0.6074,0.68761,0.76782,0.86336,0.9589,1.0596,1.1603,1.2527,1.3451,1.4249,1.5046,1.5646,1.6246,1.6662,1.7078,1.7295,1.8835,1.9027,1.9219,1.9361,1.9502,1.9666,1.9829,2.005,2.027,2.0573,2.0877,2.1265,2.1652,2.2122,2.2591,2.3052,2.3513,2.3923,2.4333,2.4602,2.4871,2.4951,2.5032,2.4919,2.4807,2.4521,2.4235,2.3855,2.3475,2.302,2.2564,2.2001,2.1438,2.0853,2.0268,1.9648,1.9028,1.8452,1.7876,1.736,1.6844,1.6365,1.5886,1.5371,1.4856,1.4338,1.382,1.3254,1.2688,1.2107,1.1526,0.9793,0.92981,0.88094,0.83208,0.7883,0.74452,0.70632,0.66812,0.63232,0.59652,0.56058,0.52464,0.48616,0.44767,0.40947,0.37127,0.33437,0.29747,0.26576,0.23405,0.20876,0.18348,0.16171,0.13994,0.13005,0.12017,0.10988,0.09959,0.091717,0.083844
0.13515,0.15036,0.16557,0.18499,0.2044,0.2296,0.25479,0.28768,0.32057,0.36365,0.40672,0.46321,0.5197,0.59327,0.66685,0.75681,0.84677,0.95198,1.0572,1.1672,1.2772,1.378,1.4789,1.5647,1.6506,1.7127,1.7749,1.8174,1.8599,1.8784,2.0354,2.0506,2.0658,2.0776,2.0895,2.1068,2.1241,2.1495,2.1748,2.2093,2.2437,2.2878,2.3319,2.3855,2.4392,2.4926,2.546,2.5964,2.6468,2.6805,2.7143,2.73,2.7456,2.7384,2.7312,2.7033,2.6753,2.6339,2.5926,2.5461,2.4996,2.4366,2.3737,2.3087,2.2437,2.1735,2.1034,2.0383,1.9732,1.9113,1.8494,1.7975,1.7456,1.6879,1.6301,1.5736,1.517,1.4541,1.3911,1.3283,1.2655,1.0802,1.0247,0.96963,0.91455,0.86484,0.81513,0.77178,0.72842,0.69001,0.6516,0.61305,0.57449,0.53325,0.49202,0.4512,0.41039,0.36972,0.32905,0.29316,0.25728,0.22862,0.19997,0.17904,0.15811,0.143,0.12789,0.11658,0.10527,0.096681,0.088094
0.13964,0.15578,0.17192,0.19279,0.21365,0.24113,0.2686,0.30504,0.34148,0.39006,0.43864,0.5019,0.56517,0.64673,0.72828,0.82664,0.925,1.0403,1.1556,1.2736,1.3916,1.4971,1.6026,1.6913,1.78,1.8462,1.9124,1.9561,1.9997,2.0201,2.1852,2.1968,2.2084,2.2179,2.2274,2.2458,2.2643,2.2931,2.3218,2.3631,2.4043,2.4543,2.5043,2.5628,2.6212,2.6815,2.7418,2.7989,2.8559,2.9009,2.9459,2.9689,2.9919,2.9919,2.9919,2.9667,2.9415,2.8979,2.8542,2.8047,2.7552,2.687,2.6187,2.5488,2.479,2.4017,2.3244,2.2508,2.1772,2.1105,2.0438,1.9826,1.9215,1.8574,1.7932,1.7271,1.661,1.5923,1.5235,1.4543,1.385,1.1875,1.1258,1.0657,1.0055,0.94929,0.89309,0.84295,0.79282,0.7501,0.70738,0.666,0.62463,0.58134,0.53806,0.49463,0.4512,0.40721,0.36322,0.32389,0.28455,0.25193,0.2193,0.19524,0.17118,0.15384,0.13651,0.12398,0.11145,0.10208,0.092712
0.14413,0.16121,0.17828,0.20059,0.2229,0.25266,0.28242,0.3224,0.36238,0.41646,0.47055,0.5406,0.61064,0.70018,0.78971,0.89648,1.0032,1.1286,1.2541,1.38,1.506,1.6161,1.7263,1.8178,1.9093,1.9797,2.05,2.0947,2.1395,2.1618,2.3349,2.3429,2.351,2.3581,2.3652,2.3848,2.4044,2.4366,2.4688,2.5169,2.5649,2.6208,2.6767,2.74,2.8033,2.8705,2.9377,3.0014,3.0651,3.1213,3.1775,3.2079,3.2382,3.2454,3.2526,3.2302,3.2077,3.1618,3.1159,3.0634,3.0109,2.9373,2.8637,2.789,2.7143,2.6298,2.5454,2.4633,2.3813,2.3097,2.2381,2.1678,2.0974,2.0268,1.9563,1.8806,1.805,1.7305,1.656,1.5802,1.5044,1.2949,1.2269,1.1617,1.0964,1.0337,0.97104,0.91413,0.85722,0.81019,0.76316,0.71896,0.67476,0.62943,0.58409,0.53806,0.49202,0.44471,0.3974,0.35461,0.31182,0.27523,0.23864,0.21144,0.18424,0.16468,0.14512,0.13138,0.11764,0.10748,0.09733
0.14852,0.1666,0.18468,0.20844,0.23221,0.26459,0.29698,0.34119,0.3854,0.44464,0.50388,0.57986,0.65584,0.75201,0.84818,0.96158,1.075,1.2062,1.3375,1.4688,1.6,1.7158,1.8315,1.9263,2.021,2.0938,2.1666,2.2167,2.2668,2.2897,2.4695,2.4807,2.4919,2.5015,2.5111,2.5332,2.5552,2.5923,2.6294,2.6824,2.7353,2.8009,2.8664,2.9371,3.0077,3.0791,3.1504,3.2177,3.285,3.3477,3.4104,3.4466,3.4828,3.4949,3.507,3.4914,3.4759,3.4325,3.3892,3.3321,3.2749,3.1966,3.1183,3.0373,2.9563,2.8669,2.7774,2.6887,2.6,2.5176,2.4352,2.3545,2.2737,2.1931,2.1126,2.0318,1.951,1.8696,1.7883,1.7071,1.6259,1.4072,1.3361,1.2647,1.1933,1.1246,1.0559,0.99216,0.92839,0.87565,0.8229,0.77517,0.72743,0.67907,0.6307,0.58198,0.53325,0.48354,0.43383,0.3878,0.34176,0.30106,0.26037,0.2298,0.19924,0.17731,0.15539,0.13999,0.1246,0.11344,0.10227
0.15292,0.17199,0.19107,0.2163,0.24152,0.27653,0.31154,0.35998,0.40841,0.47281,0.53721,0.61912,0.70103,0.80384,0.90665,1.0267,1.1467,1.2839,1.421,1.5575,1.6941,1.8154,1.9367,2.0347,2.1327,2.208,2.2833,2.3386,2.394,2.4176,2.604,2.6184,2.6329,2.6449,2.6569,2.6815,2.7061,2.748,2.79,2.8479,2.9058,2.9809,3.056,3.1341,3.2122,3.2877,3.3631,3.434,3.5048,3.574,3.6432,3.6853,3.7274,3.7444,3.7613,3.7527,3.7441,3.7033,3.6625,3.6007,3.539,3.456,3.3729,3.2857,3.1984,3.1039,3.0094,2.9141,2.8188,2.7256,2.6324,2.5412,2.4499,2.3594,2.2689,2.1829,2.097,2.0088,1.9206,1.834,1.7473,1.5195,1.4453,1.3677,1.2902,1.2155,1.1408,1.0702,0.99957,0.9411,0.88264,0.83137,0.78011,0.72871,0.6773,0.6259,0.57449,0.52238,0.47027,0.42098,0.3717,0.3269,0.28211,0.24817,0.21423,0.18994,0.16565,0.14861,0.13156,0.11939,0.10722
0.15705,0.17716,0.19727,0.22435,0.25143,0.28925,0.32707,0.3796,0.43214,0.50106,0.56997,0.6564,0.74283,0.8491,0.95537,1.0799,1.2043,1.3455,1.4866,1.6274,1.7682,1.8932,2.0181,2.1192,2.2203,2.3004,2.3804,2.4349,2.4893,2.5169,2.7131,2.7325,2.7519,2.7699,2.7879,2.8195,2.8511,2.8999,2.9486,3.0154,3.0823,3.1659,3.2495,3.3363,3.4231,3.5029,3.5827,3.6629,3.7431,3.8135,3.8839,3.9306,3.9774,3.9972,4.0171,4.0113,4.0055,3.9669,3.9282,3.865,3.8018,3.7169,3.6319,3.5339,3.4359,3.3336,3.2313,3.1295,3.0277,2.9224,2.8172,2.7145,2.6118,2.5144,2.417,2.3239,2.2307,2.1367,2.0427,1.9519,1.8611,1.6257,1.5495,1.4687,1.3879,1.3076,1.2274,1.1512,1.0751,1.0099,0.94478,0.88871,0.83265,0.77778,0.72292,0.66918,0.61545,0.56108,0.5067,0.45445,0.4022,0.35396,0.30572,0.26853,0.23134,0.2041,0.17687,0.15802,0.13917,0.12586,0.11255
0.16119,0.18233,0.20347,0.23241,0.26135,0.30198,0.3426,0.39923,0.45586,0.5293,0.60274,0.69368,0.78463,0.89436,1.0041,1.133,1.262,1.4071,1.5523,1.6973,1.8424,1.9709,2.0994,2.2036,2.3079,2.3927,2.4776,2.5311,2.5846,2.6163,2.8222,2.8465,2.8708,2.8949,2.919,2.9576,2.9962,3.0517,3.1072,3.183,3.2588,3.3509,3.443,3.5385,3.6339,3.7181,3.8023,3.8918,3.9813,4.0529,4.1245,4.1759,4.2273,4.2501,4.2728,4.2698,4.2669,4.2304,4.194,4.1293,4.0647,3.9778,3.891,3.7822,3.6735,3.5633,3.4532,3.3448,3.2365,3.1193,3.0021,2.8879,2.7736,2.6694,2.5652,2.4648,2.3644,2.2646,2.1648,2.0698,1.9748,1.7318,1.6537,1.5697,1.4857,1.3998,1.3139,1.2323,1.1507,1.0788,1.0069,0.94605,0.88518,0.82686,0.76853,0.71247,0.6564,0.59977,0.54314,0.48792,0.4327,0.38102,0.32933,0.28888,0.24844,0.21826,0.18808,0.16743,0.14679,0.13234,0.11789
0.16507,0.18732,0.20957,0.24046,0.27134,0.31481,0.35828,0.41823,0.47818,0.55514,0.63211,0.72588,0.81965,0.932,1.0443,1.176,1.3077,1.4554,1.6032,1.7506,1.898,2.0287,2.1593,2.2668,2.3744,2.4591,2.5438,2.6037,2.6636,2.6981,2.9121,2.9438,2.9756,3.0095,3.0434,3.0926,3.1418,3.2084,3.2749,3.3583,3.4417,3.5425,3.6432,3.746,3.8487,3.9405,4.0323,4.1202,4.208,4.2833,4.3587,4.4128,4.4669,4.495,4.5232,4.5235,4.5238,4.4862,4.4486,4.3821,4.3155,4.2222,4.1289,4.0134,3.8979,3.7779,3.6579,3.5374,3.4169,3.2911,3.1654,3.0433,2.9213,2.8126,2.704,2.5975,2.491,2.3866,2.2822,2.182,2.0817,1.8307,1.7502,1.6644,1.5786,1.4891,1.3997,1.313,1.2264,1.1503,1.0743,1.0067,0.93913,0.87649,0.81386,0.75462,0.69538,0.63656,0.57774,0.52005,0.46236,0.4082,0.35404,0.31017,0.26629,0.23346,0.20063,0.17786,0.15509,0.13931,0.12353
0.16896,0.19232,0.21567,0.24851,0.28134,0.32765,0.37396,0.43722,0.50049,0.58099,0.66148,0.75808,0.85468,0.96963,1.0846,1.219,1.3535,1.5037,1.654,1.8038,1.9537,2.0864,2.2192,2.33,2.4409,2.5255,2.6101,2.6763,2.7425,2.78,3.002,3.0411,3.0803,3.1241,3.1679,3.2276,3.2874,3.365,3.4427,3.5337,3.6246,3.7341,3.8435,3.9535,4.0635,4.1629,4.2624,4.3485,4.4347,4.5137,4.5928,4.6496,4.7064,4.74,4.7736,4.7771,4.7807,4.742,4.7033,4.6348,4.5663,4.4666,4.3669,4.2446,4.1223,3.9925,3.8627,3.73,3.5972,3.4629,3.3286,3.1988,3.069,2.9559,2.8428,2.7302,2.6176,2.5087,2.3997,2.2941,2.1885,1.9297,1.8466,1.7591,1.6715,1.5784,1.4854,1.3937,1.3021,1.2219,1.1416,1.0674,0.99307,0.92613,0.8592,0.79678,0.73435,0.67335,0.61234,0.55218,0.49202,0.43539,0.37876,0.33145,0.28414,0.24866,0.21319,0.18829,0.16339,0.14628,0.12916
0.17243,0.1969,0.22137,0.25608,0.29079,0.33972,0.38864,0.45495,0.52125,0.60408,0.6869,0.78548,0.88405,1.0007,1.1173,1.2525,1.3876,1.5379,1.6882,1.838,1.9878,2.1214,2.255,2.3655,2.4759,2.5673,2.6586,2.7281,2.7976,2.8382,3.068,3.1149,3.1617,3.2158,3.2699,3.343,3.4162,3.5027,3.5892,3.6888,3.7884,3.9067,4.025,4.1425,4.2601,4.3679,4.4756,4.5688,4.662,4.7461,4.8302,4.8847,4.9391,4.9683,4.9976,5.0049,5.0123,4.981,4.9498,4.878,4.8062,4.6983,4.5904,4.4574,4.3244,4.1853,4.0462,3.9071,3.7681,3.6266,3.4851,3.347,3.2088,3.086,2.9631,2.8435,2.7239,2.6145,2.5052,2.3966,2.2879,2.0215,1.936,1.8463,1.7567,1.6594,1.5621,1.4679,1.3737,1.2891,1.2045,1.1265,1.0484,0.97676,0.90509,0.83886,0.77263,0.70886,0.6451,0.58296,0.52083,0.4618,0.40277,0.35263,0.3025,0.26423,0.22597,0.19902,0.17206,0.15352,0.13498
0.17591,0.20148,0.22706,0.26365,0.30024,0.35178,0.40333,0.47267,0.54201,0.62717,0.71232,0.81287,0.91342,1.0318,1.1501,1.286,1.4218,1.5721,1.7223,1.8722,2.022,2.1565,2.2909,2.4009,2.5109,2.6091,2.7072,2.78,2.8527,2.8965,3.134,3.1886,3.2431,3.3075,3.3718,3.4584,3.545,3.6403,3.7356,3.8439,3.9522,4.0793,4.2064,4.3316,4.4567,4.5728,4.6889,4.7891,4.8894,4.9785,5.0676,5.1197,5.1718,5.1967,5.2215,5.2327,5.2439,5.2201,5.1964,5.1213,5.0461,4.9301,4.814,4.6702,4.5265,4.378,4.2296,4.0843,3.939,3.7903,3.6416,3.4951,3.3487,3.2161,3.0834,2.9568,2.8301,2.7204,2.6107,2.499,2.3873,2.1134,2.0254,1.9336,1.8418,1.7403,1.6387,1.542,1.4453,1.3563,1.2673,1.1856,1.1038,1.0274,0.95099,0.88094,0.8109,0.74438,0.67787,0.61375,0.54964,0.4882,0.42677,0.37381,0.32086,0.2798,0.23875,0.20974,0.18074,0.16077,0.1408
0.17887,0.20541,0.23194,0.27012,0.30829,0.36188,0.41548,0.48665,0.55783,0.64468,0.73153,0.83363,0.93574,1.0551,1.1744,1.309,1.4436,1.5906,1.7376,1.8842,2.0308,2.1651,2.2994,2.4119,2.5243,2.6267,2.729,2.8057,2.8823,2.9304,3.1759,3.2385,3.301,3.3761,3.4512,3.5447,3.6383,3.7455,3.8527,3.9719,4.0912,4.2268,4.3625,4.4967,4.631,4.756,4.8811,4.9945,5.1079,5.1998,5.2917,5.3426,5.3934,5.4187,5.444,5.455,5.466,5.4389,5.4118,5.334,5.2561,5.1324,5.0086,4.858,4.7075,4.5534,4.3994,4.2456,4.0919,3.9366,3.7814,3.6291,3.4769,3.3378,3.1987,3.0644,2.9302,2.8125,2.6948,2.5849,2.4751,2.1961,2.1076,2.0135,1.9193,1.8153,1.7112,1.6118,1.5123,1.4189,1.3254,1.2399,1.1543,1.0746,0.99491,0.92176,0.8486,0.77969,0.71077,0.64369,0.57661,0.51285,0.44909,0.3938,0.33851,0.29513,0.25176,0.22067,0.18958,0.16809,0.1466
0.18184,0.20933,0.23683,0.27658,0.31634,0.37198,0.42762,0.50063,0.57364,0.66219,0.75074,0.85439,0.95805,1.0784,1.1987,1.332,1.4653,1.6091,1.7528,1.8962,2.0395,2.1737,2.3079,2.4228,2.5378,2.6442,2.7507,2.8314,2.912,2.9643,3.2179,3.2884,3.3589,3.4447,3.5306,3.6311,3.7317,3.8507,3.9698,4.1,4.2302,4.3744,4.5185,4.6619,4.8052,4.9392,5.0733,5.1998,5.3263,5.4211,5.5159,5.5654,5.615,5.6407,5.6664,5.6773,5.6881,5.6576,5.6271,5.5466,5.4661,5.3347,5.2032,5.0459,4.8885,4.7288,4.5691,4.407,4.2449,4.083,3.9212,3.7631,3.6051,3.4595,3.3139,3.1721,3.0303,2.9046,2.7789,2.6709,2.5629,2.2788,2.1898,2.0933,1.9969,1.8903,1.7836,1.6815,1.5794,1.4814,1.3834,1.2942,1.2049,1.1219,1.0388,0.96257,0.88631,0.81499,0.74368,0.67363,0.60358,0.53749,0.4714,0.41378,0.35616,0.31046,0.26476,0.23159,0.19842,0.17541,0.15241
0.18404,0.21233,0.24063,0.28138,0.32213,0.37897,0.43581,0.5096,0.58339,0.67299,0.7626,0.86689,0.97118,1.0907,1.2101,1.3406,1.4711,1.6104,1.7497,1.889,2.0282,2.1601,2.292,2.4076,2.5231,2.6316,2.7401,2.8261,2.912,2.9727,3.2379,3.3191,3.4002,3.4917,3.5832,3.6917,3.8001,3.9277,4.0552,4.1965,4.3378,4.4918,4.6458,4.7979,4.95,5.0934,5.2368,5.3693,5.5019,5.5989,5.6959,5.7539,5.8119,5.8385,5.8652,5.8693,5.8733,5.8391,5.8049,5.7228,5.6407,5.5111,5.3814,5.2199,5.0584,4.8938,4.7291,4.5591,4.389,4.2189,4.0487,3.8805,3.7123,3.5604,3.4085,3.2645,3.1204,2.9894,2.8583,2.7454,2.6325,2.3479,2.2624,2.1653,2.0682,1.9594,1.8506,1.7451,1.6396,1.539,1.4383,1.3458,1.2533,1.1678,1.0822,1.003,0.92373,0.84931,0.77489,0.70223,0.62957,0.56093,0.4923,0.43228,0.37226,0.32456,0.27685,0.24172,0.20658,0.18223,0.15787
0.18624,0.21534,0.24443,0.28617,0.32792,0.38596,0.444,0.51857,0.59313,0.6838,0.77446,0.87939,0.98432,1.1029,1.2216,1.3492,1.4769,1.6118,1.7466,1.8818,2.0169,2.1466,2.2762,2.3923,2.5084,2.619,2.7295,2.8208,2.912,2.9812,3.258,3.3498,3.4416,3.5387,3.6359,3.7523,3.8686,4.0046,4.1406,4.293,4.4454,4.6092,4.773,4.9339,5.0947,5.2475,5.4003,5.5389,5.6774,5.7767,5.876,5.9423,6.0087,6.0364,6.0641,6.0613,6.0584,6.0206,5.9827,5.899,5.8152,5.6874,5.5596,5.394,5.2283,5.0587,4.8891,4.7112,4.5332,4.3547,4.1762,3.9979,3.8195,3.6613,3.5032,3.3568,3.2105,3.0741,2.9377,2.8199,2.702,2.417,2.335,2.2372,2.1395,2.0285,1.9175,1.8086,1.6997,1.5965,1.4933,1.3975,1.3018,1.2137,1.1255,1.0433,0.96116,0.88363,0.8061,0.73082,0.65555,0.58438,0.5132,0.45078,0.38836,0.33865,0.28894,0.25184,0.21474,0.18904,0.16334
0.18747,0.21709,0.2467,0.28915,0.33159,0.38991,0.44824,0.52309,0.59793,0.68839,0.77884,0.8825,0.98615,1.1022,1.2183,1.3426,1.4669,1.5979,1.7288,1.8581,1.9874,2.1126,2.2378,2.3556,2.4734,2.5803,2.6873,2.7834,2.8795,2.96,3.2503,3.349,3.4478,3.5559,3.664,3.7878,3.9116,4.0543,4.1971,4.3561,4.515,4.6847,4.8544,5.0243,5.1941,5.3556,5.5171,5.6595,5.802,5.9038,6.0056,6.0768,6.148,6.178,6.2081,6.2053,6.2025,6.1659,6.1293,6.0449,5.9604,5.8327,5.7049,5.538,5.3711,5.1951,5.019,4.833,4.6471,4.4611,4.2751,4.0935,3.912,3.747,3.5821,3.4337,3.2854,3.1495,3.0135,2.8953,2.7771,2.4871,2.403,2.3038,2.2046,2.0923,1.9799,1.8678,1.7557,1.6501,1.5445,1.4473,1.3501,1.2589,1.1678,1.0823,0.99675,0.91533,0.83392,0.75568,0.67744,0.60387,0.53029,0.46603,0.40178,0.35044,0.29911,0.26043,0.22175,0.19496,0.16817
0.1887,0.21884,0.24897,0.29212,0.33526,0.39387,0.45248,0.52761,0.60274,0.69298,0.78322,0.8856,0.98799,1.1015,1.2151,1.336,1.4568,1.5839,1.711,1.8345,1.9579,2.0786,2.1994,2.3189,2.4383,2.5417,2.6451,2.7461,2.847,2.9388,3.2426,3.3483,3.454,3.573,3.6921,3.8233,3.9545,4.1041,4.2536,4.4191,4.5846,4.7602,4.9357,5.1146,5.2936,5.4637,5.6339,5.7802,5.9265,6.0309,6.1353,6.2112,6.2872,6.3197,6.3522,6.3493,6.3465,6.3112,6.2759,6.1908,6.1056,5.9779,5.8503,5.6821,5.5139,5.3314,5.149,4.9549,4.7609,4.5674,4.3739,4.1892,4.0045,3.8328,3.661,3.5106,3.3602,3.2248,3.0893,2.9708,2.8523,2.5572,2.4711,2.3704,2.2697,2.156,2.0424,1.927,1.8116,1.7037,1.5958,1.4971,1.3984,1.3042,1.21,1.1212,1.0323,0.94704,0.86174,0.78053,0.69933,0.62335,0.54738,0.48128,0.41519,0.36223,0.30928,0.26901,0.22875,0.20087,0.173
0.18869,0.21911,0.24953,0.29303,0.33653,0.395,0.45346,0.52796,0.60245,0.69192,0.78138,0.88144,0.98149,1.0916,1.2018,1.3195,1.4372,1.5599,1.6825,1.8003,1.9181,2.0347,2.1512,2.2694,2.3876,2.4925,2.5974,2.702,2.8066,2.9024,3.2113,3.3244,3.4375,3.5628,3.6882,3.8246,3.961,4.1154,4.2698,4.4388,4.6078,4.7885,4.9692,5.1556,5.342,5.519,5.6961,5.8462,5.9963,6.105,6.2136,6.2921,6.3705,6.4094,6.4482,6.4475,6.4468,6.4044,6.3621,6.279,6.196,6.0716,5.9471,5.7785,5.6098,5.4246,5.2393,5.0408,4.8422,4.6443,4.4464,4.2593,4.0723,3.9028,3.7333,3.5796,3.4258,3.2925,3.1593,3.0387,2.9181,2.6165,2.5256,2.4262,2.3268,2.212,2.0973,1.9805,1.8637,1.755,1.6462,1.5457,1.4451,1.3476,1.2501,1.1572,1.0642,0.97493,0.8856,0.80158,0.71755,0.6391,0.56065,0.49315,0.42564,0.37127,0.3169,0.27559,0.23429,0.2056,0.17691
0.18867,0.21937,0.25008,0.29394,0.3378,0.39613,0.45445,0.52831,0.60217,0.69086,0.77955,0.87727,0.975,1.0818,1.1885,1.3031,1.4176,1.5358,1.654,1.7661,1.8783,1.9907,2.1031,2.22,2.3369,2.4433,2.5496,2.6579,2.7663,2.866,3.1801,3.3005,3.421,3.5526,3.6842,3.8258,3.9675,4.1268,4.2861,4.4585,4.631,4.8168,5.0027,5.1965,5.3904,5.5743,5.7582,5.9121,6.0661,6.179,6.292,6.3729,6.4538,6.499,6.5442,6.5456,6.5471,6.4976,6.4482,6.3673,6.2864,6.1652,6.044,5.8748,5.7057,5.5177,5.3297,5.1266,4.9236,4.7212,4.5188,4.3294,4.1401,3.9729,3.8057,3.6485,3.4913,3.3602,3.2292,3.1066,2.984,2.6757,2.5801,2.482,2.3838,2.268,2.1522,2.034,1.9158,1.8062,1.6966,1.5943,1.4919,1.391,1.2902,1.1932,1.0962,1.0028,0.90947,0.82262,0.73577,0.65485,0.57393,0.50501,0.43609,0.38031,0.32453,0.28218,0.23982,0.21032,0.18082
0.18736,0.21796,0.24855,0.29233,0.33611,0.39387,0.45163,0.5245,0.59737,0.68415,0.77093,0.86633,0.96172,1.065,1.1683,1.2786,1.3889,1.5027,1.6164,1.7255,1.8345,1.9455,2.0566,2.1735,2.2905,2.4018,2.5132,2.6176,2.7219,2.8226,3.1379,3.2584,3.3789,3.5106,3.6423,3.7896,3.9368,4.1004,4.2639,4.4404,4.6168,4.8088,5.0008,5.1987,5.3967,5.5835,5.7703,5.9295,6.0886,6.2042,6.3198,6.401,6.4821,6.5308,6.5795,6.5802,6.5809,6.5301,6.4793,6.3981,6.317,6.1973,6.0776,5.9109,5.7441,5.5552,5.3663,5.1638,4.9613,4.761,4.5608,4.3758,4.1909,4.0234,3.8559,3.7009,3.5458,3.4144,3.2829,3.1614,3.0398,2.7275,2.6288,2.5296,2.4303,2.3142,2.1981,2.0806,1.963,1.8533,1.7437,1.6395,1.5354,1.4303,1.3252,1.2237,1.1222,1.0256,0.92896,0.839,0.74904,0.66614,0.58325,0.51285,0.44245,0.38596,0.32947,0.28645,0.24342,0.21343,0.18343
0.18605,0.21654,0.24703,0.29072,0.33441,0.39161,0.4488,0.52069,0.59257,0.67744,0.76232,0.85538,0.94845,1.0483,1.1481,1.2542,1.3603,1.4696,1.5789,1.6848,1.7907,1.9004,2.0102,2.1271,2.244,2.3604,2.4768,2.5772,2.6776,2.7793,3.0956,3.2162,3.3367,3.4685,3.6003,3.7533,3.9062,4.074,4.2417,4.4222,4.6027,4.8008,4.999,5.2009,5.4029,5.5927,5.7825,5.9469,6.1112,6.2294,6.3477,6.429,6.5103,6.5626,6.6148,6.6148,6.6148,6.5626,6.5103,6.429,6.3477,6.2294,6.1112,5.9469,5.7825,5.5927,5.4029,5.2009,4.999,4.8008,4.6027,4.4222,4.2417,4.074,3.9062,3.7533,3.6003,3.4685,3.3367,3.2162,3.0956,2.7793,2.6776,2.5772,2.4768,2.3604,2.244,2.1271,2.0102,1.9004,1.7907,1.6848,1.5789,1.4696,1.3603,1.2542,1.1481,1.0483,0.94845,0.85538,0.76232,0.67744,0.59257,0.52069,0.4488,0.39161,0.33441,0.29072,0.24703,0.21654,0.18605
0.18343,0.21343,0.24342,0.28645,0.32947,0.38596,0.44245,0.51285,0.58325,0.66614,0.74904,0.839,0.92896,1.0256,1.1222,1.2237,1.3252,1.4303,1.5354,1.6395,1.7437,1.8533,1.963,2.0806,2.1981,2.3142,2.4303,2.5296,2.6288,2.7275,3.0398,3.1614,3.2829,3.4144,3.5458,3.7009,3.8559,4.0234,4.1909,4.3758,4.5608,4.761,4.9613,5.1638,5.3663,5.5552,5.7441,5.9109,6.0776,6.1973,6.317,6.3981,6.4793,6.5301,6.5809,6.5802,6.5795,6.5308,6.4821,6.401,6.3198,6.2042,6.0886,5.9295,5.7703,5.5835,5.3967,5.1987,5.0008,4.8088,4.6168,4.4404,4.2639,4.1004,3.9368,3.7896,3.6423,3.5106,3.3789,3.2584,3.1379,2.8226,2.7219,2.6176,2.5132,2.4018,2.2905,2.1735,2.0566,1.9455,1.8345,1.7255,1.6164,1.5027,1.3889,1.2786,1.1683,1.065,0.96172,0.86633,0.77093,0.68415,0.59737,0.5245,0.45163,0.39387,0.33611,0.29233,0.24855,0.21796,0.18736
0.18082,0.21032,0.23982,0.28218,0.32453,0.38031,0.43609,0.50501,0.57393,0.65485,0.73577,0.82262,0.90947,1.0028,1.0962,1.1932,1.2902,1.391,1.4919,1.5943,1.6966,1.8062,1.9158,2.034,2.1522,2.268,2.3838,2.482,2.5801,2.6757,2.984,3.1066,3.2292,3.3602,3.4913,3.6485,3.8057,3.9729,4.1401,4.3294,4.5188,4.7212,4.9236,5.1266,5.3297,5.5177,5.7057,5.8748,6.044,6.1652,6.2864,6.3673,6.4482,6.4976,6.5471,6.5456,6.5442,6.499,6.4538,6.3729,6.292,6.179,6.0661,5.9121,5.7582,5.5743,5.3904,5.1965,5.0027,4.8168,4.631,4.4585,4.2861,4.1268,3.9675,3.8258,3.6842,3.5526,3.421,3.3005,3.1801,2.866,2.7663,2.6579,2.5496,2.4433,2.3369,2.22,2.1031,1.9907,1.8783,1.7661,1.654,1.5358,1.4176,1.3031,1.1885,1.0818,0.975,0.87727,0.77955,0.69086,0.60217,0.52831,0.45445,0.39613,0.3378,0.29394,0.25008,0.21937,0.18867
0.17691,0.2056,0.23429,0.27559,0.3169,0.37127,0.42564,0.49315,0.56065,0.6391,0.71755,0.80158,0.8856,0.97493,1.0642,1.1572,1.2501,1.3476,1.4451,1.5457,1.6462,1.755,1.8637,1.9805,2.0973,2.212,2.3268,2.4262,2.5256,2.6165,2.9181,3.0387,3.1593,3.2925,3.4258,3.5796,3.7333,3.9028,4.0723,4.2593,4.4464,4.6443,4.8422,5.0408,5.2393,5.4246,5.6098,5.7785,5.9471,6.0716,6.196,6.279,6.3621,6.4044,6.4468,6.4475,6.4482,6.4094,6.3705,6.2921,6.2136,6.105,5.9963,5.8462,5.6961,5.519,5.342,5.1556,4.9692,4.7885,4.6078,4.4388,4.2698,4.1154,3.961,3.8246,3.6882,3.5628,3.4375,3.3244,3.2113,2.9024,2.8066,2.702,2.5974,2.4925,2.3876,2.2694,2.1512,2.0347,1.9181,1.8003,1.6825,1.5599,1.4372,1.3195,1.2018,1.0916,0.98149,0.88144,0.78138,0.69192,0.60245,0.52796,0.45346,0.395,0.33653,0.29303,0.24953,0.21911,0.18869
0.173,0.20087,0.22875,0.26901,0.30928,0.36223,0.41519,0.48128,0.54738,0.62335,0.69933,0.78053,0.86174,0.94704,1.0323,1.1212,1.21,1.3042,1.3984,1.4971,1.5958,1.7037,1.8116,1.927,2.0424,2.156,2.2697,2.3704,2.4711,2.5572,2.8523,2.9708,3.0893,3.2248,3.3602,3.5106,3.661,3.8328,4.0045,4.1892,4.3739,4.5674,4.7609,4.9549,5.149,5.3314,5.5139,5.6821,5.8503,5.9779,6.1056,6.1908,6.2759,6.3112,6.3465,6.3493,6.3522,6.3197,6.2872,6.2112,6.1353,6.0309,5.9265,5.7802,5.6339,5.4637,5.2936,5.1146,4.9357,4.7602,4.5846,4.4191,4.2536,4.1041,3.9545,3.8233,3.6921,3.573,3.454,3.3483,3.2426,2.9388,2.847,2.7461,2.6451,2.5417,2.4383,2.3189,2.1994,2.0786,1.9579,1.8345,1.711,1.5839,1.4568,1.336,1.2151,1.1015,0.98799,0.8856,0.78322,0.69298,0.60274,0.52761,0.45248,0.39387,0.33526,0.29212,0.24897,0.21884,0.1887
0.16817,0.19496,0.22175,0.26043,0.29911,0.35044,0.40178,0.46603,0.53029,0.60387,0.67744,0.75568,0.83392,0.91533,0.99675,1.0823,1.1678,1.2589,1.3501,1.4473,1.5445,1.6501,1.7557,1.8678,1.9799,2.0923,2.2046,2.3038,2.403,2.4871,2.7771,2.8953,3.0135,3.1495,3.2854,3.4337,3.5821,3.747,3.912,4.0935,4.2751,4.4611,4.6471,4.833,5.019,5.1951,5.3711,5.538,5.7049,5.8327,5.9604,6.0449,6.1293,6.1659,6.2025,6.2053,6.2081,6.178,6.148,6.0768,6.0056,5.9038,5.802,5.6595,5.5171,5.3556,5.1941,5.0243,4.8544,4.6847,4.515,4.3561,4.1971,4.0543,3.9116,3.7878,3.664,3.5559,3.4478,3.349,3.2503,2.96,2.8795,2.7834,2.6873,2.5803,2.4734,2.3556,2.2378,2.1126,1.9874,1.8581,1.7288,1.5979,1.4669,1.3426,1.2183,1.1022,0.98615,0.8825,0.77884,0.68839,0.59793,0.52309,0.44824,0.38991,0.33159,0.28915,0.2467,0.21709,0.18747
0.16334,0.18904,0.21474,0.25184,0.28894,0.33865,0.38836,0.45078,0.5132,0.58438,0.65555,0.73082,0.8061,0.88363,0.96116,1.0433,1.1255,1.2137,1.3018,1.3975,1.4933,1.5965,1.6997,1.8086,1.9175,2.0285,2.1395,2.2372,2.335,2.417,2.702,2.8199,2.9377,3.0741,3.2105,3.3568,3.5032,3.6613,3.8195,3.9979,4.1762,4.3547,4.5332,4.7112,4.8891,5.0587,5.2283,5.394,5.5596,5.6874,5.8152,5.899,5.9827,6.0206,6.0584,6.0613,6.0641,6.0364,6.0087,5.9423,5.876,5.7767,5.6774,5.5389,5.4003,5.2475,5.0947,4.9339,4.773,4.6092,4.4454,4.293,4.1406,4.0046,3.8686,3.7523,3.6359,3.5387,3.4416,3.3498,3.258,2.9812,2.912,2.8208,2.7295,2.619,2.5084,2.3923,2.2762,2.1466,2.0169,1.8818,1.7466,1.6118,1.4769,1.3492,1.2216,1.1029,0.98432,0.87939,0.77446,0.6838,0.59313,0.51857,0.444,0.38596,0.32792,0.28617,0.24443,0.21534,0.18624
0.15787,0.18223,0.20658,0.24172,0.27685,0.32456,0.37226,0.43228,0.4923,0.56093,0.62957,0.70223,0.77489,0.84931,0.92373,1.003,1.0822,1.1678,1.2533,1.3458,1.4383,1.539,1.6396,1.7451,1.8506,1.9594,2.0682,2.1653,2.2624,2.3479,2.6325,2.7454,2.8583,2.9894,3.1204,3.2645,3.4085,3.5604,3.7123,3.8805,4.0487,4.2189,4.389,4.5591,4.7291,4.8938,5.0584,5.2199,5.3814,5.5111,5.6407,5.7228,5.8049,5.8391,5.8733,5.8693,5.8652,5.8385,5.8119,5.7539,5.6959,5.5989,5.5019,5.3693,5.2368,5.0934,4.95,4.7979,4.6458,4.4918,4.3378,4.1965,4.0552,3.9277,3.8001,3.6917,3.5832,3.4917,3.4002,3.3191,3.2379,2.9727,2.912,2.8261,2.7401,2.6316,2.5231,2.4076,2.292,2.1601,2.0282,1.889,1.7497,1.6104,1.4711,1.3406,1.2101,1.0907,0.97118,0.86689,0.7626,0.67299,0.58339,0.5096,0.43581,0.37897,0.32213,0.28138,0.24063,0.21233,0.18404
0.15241,0.17541,0.19842,0.23159,0.26476,0.31046,0.35616,0.41378,0.4714,0.53749,0.60358,0.67363,0.74368,0.81499,0.88631,0.96257,1.0388,1.1219,1.2049,1.2942,1.3834,1.4814,1.5794,1.6815,1.7836,1.8903,1.9969,2.0933,2.1898,2.2788,2.5629,2.6709,2.7789,2.9046,3.0303,3.1721,3.3139,3.4595,3.6051,3.7631,3.9212,4.083,4.2449,4.407,4.5691,4.7288,4.8885,5.0459,5.2032,5.3347,5.4661,5.5466,5.6271,5.6576,5.6881,5.6773,5.6664,5.6407,5.615,5.5654,5.5159,5.4211,5.3263,5.1998,5.0733,4.9392,4.8052,4.6619,4.5185,4.3744,4.2302,4.1,3.9698,3.8507,3.7317,3.6311,3.5306,3.4447,3.3589,3.2884,3.2179,2.9643,2.912,2.8314,2.7507,2.6442,2.5378,2.4228,2.3079,2.1737,2.0395,1.8962,1.7528,1.6091,1.4653,1.332,1.1987,1.0784,0.95805,0.85439,0.75074,0.66219,0.57364,0.50063,0.42762,0.37198,0.31634,0.27658,0.23683,0.20933,0.18184
0.1466,0.16809,0.18958,0.22067,0.25176,0.29513,0.33851,0.3938,0.44909,0.51285,0.57661,0.64369,0.71077,0.77969,0.8486,0.92176,0.99491,1.0746,1.1543,1.2399,1.3254,1.4189,1.5123,1.6118,1.7112,1.8153,1.9193,2.0135,2.1076,2.1961,2.4751,2.5849,2.6948,2.8125,2.9302,3.0644,3.1987,3.3378,3.4769,3.6291,3.7814,3.9366,4.0919,4.2456,4.3994,4.5534,4.7075,4.858,5.0086,5.1324,5.2561,5.334,5.4118,5.4389,5.466,5.455,5.444,5.4187,5.3934,5.3426,5.2917,5.1998,5.1079,4.9945,4.8811,4.756,4.631,4.4967,4.3625,4.2268,4.0912,3.9719,3.8527,3.7455,3.6383,3.5447,3.4512,3.3761,3.301,3.2385,3.1759,2.9304,2.8823,2.8057,2.729,2.6267,2.5243,2.4119,2.2994,2.1651,2.0308,1.8842,1.7376,1.5906,1.4436,1.309,1.1744,1.0551,0.93574,0.83363,0.73153,0.64468,0.55783,0.48665,0.41548,0.36188,0.30829,0.27012,0.23194,0.20541,0.17887
0.1408,0.16077,0.18074,0.20974,0.23875,0.2798,0.32086,0.37381,0.42677,0.4882,0.54964,0.61375,0.67787,0.74438,0.8109,0.88094,0.95099,1.0274,1.1038,1.1856,1.2673,1.3563,1.4453,1.542,1.6387,1.7403,1.8418,1.9336,2.0254,2.1134,2.3873,2.499,2.6107,2.7204,2.8301,2.9568,3.0834,3.2161,3.3487,3.4951,3.6416,3.7903,3.939,4.0843,4.2296,4.378,4.5265,4.6702,4.814,4.9301,5.0461,5.1213,5.1964,5.2201,5.2439,5.2327,5.2215,5.1967,5.1718,5.1197,5.0676,4.9785,4.8894,4.7891,4.6889,4.5728,4.4567,4.3316,4.2064,4.0793,3.9522,3.8439,3.7356,3.6403,3.545,3.4584,3.3718,3.3075,3.2431,3.1886,3.134,2.8965,2.8527,2.78,2.7072,2.6091,2.5109,2.4009,2.2909,2.1565,2.022,1.8722,1.7223,1.5721,1.4218,1.286,1.1501,1.0318,0.91342,0.81287,0.71232,0.62717,0.54201,0.47267,0.40333,0.35178,0.30024,0.26365,0.22706,0.20148,0.17591
0.13498,0.15352,0.17206,0.19902,0.22597,0.26423,0.3025,0.35263,0.40277,0.4618,0.52083,0.58296,0.6451,0.70886,0.77263,0.83886,0.90509,0.97676,1.0484,1.1265,1.2045,1.2891,1.3737,1.4679,1.5621,1.6594,1.7567,1.8463,1.936,2.0215,2.2879,2.3966,2.5052,2.6145,2.7239,2.8435,2.9631,3.086,3.2088,3.347,3.4851,3.6266,3.7681,3.9071,4.0462,4.1853,4.3244,4.4574,4.5904,4.6983,4.8062,4.878,4.9498,4.981,5.0123,5.0049,4.9976,4.9683,4.9391,4.8847,4.8302,4.7461,4.662,4.5688,4.4756,4.3679,4.2601,4.1425,4.025,3.9067,3.7884,3.6888,3.5892,3.5027,3.4162,3.343,3.2699,3.2158,3.1617,3.1149,3.068,2.8382,2.7976,2.7281,2.6586,2.5673,2.4759,2.3655,2.255,2.1214,1.9878,1.838,1.6882,1.5379,1.3876,1.2525,1.1173,1.0007,0.88405,0.78548,0.6869,0.60408,0.52125,0.45495,0.38864,0.33972,0.29079,0.25608,0.22137,0.1969,0.17243
0.12916,0.14628,0.16339,0.18829,0.21319,0.24866,0.28414,0.33145,0.37876,0.43539,0.49202,0.55218,0.61234,0.67335,0.73435,0.79678,0.8592,0.92613,0.99307,1.0674,1.1416,1.2219,1.3021,1.3937,1.4854,1.5784,1.6715,1.7591,1.8466,1.9297,2.1885,2.2941,2.3997,2.5087,2.6176,2.7302,2.8428,2.9559,3.069,3.1988,3.3286,3.4629,3.5972,3.73,3.8627,3.9925,4.1223,4.2446,4.3669,4.4666,4.5663,4.6348,4.7033,4.742,4.7807,4.7771,4.7736,4.74,4.7064,4.6496,4.5928,4.5137,4.4347,4.3485,4.2624,4.1629,4.0635,3.9535,3.8435,3.7341,3.6246,3.5337,3.4427,3.365,3.2874,3.2276,3.1679,3.1241,3.0803,3.0411,3.002,2.78,2.7425,2.6763,2.6101,2.5255,2.4409,2.33,2.2192,2.0864,1.9537,1.8038,1.654,1.5037,1.3535,1.219,1.0846,0.96963,0.85468,0.75808,0.66148,0.58099,0.50049,0.43722,0.37396,0.32765,0.28134,0.24851,0.21567,0.19232,0.16896
0.12353,0.13931,0.15509,0.17786,0.20063,0.23346,0.26629,0.31017,0.35404,0.4082,0.46236,0.52005,0.57774,0.63656,0.69538,0.75462,0.81386,0.87649,0.93913,1.0067,1.0743,1.1503,1.2264,1.313,1.3997,1.4891,1.5786,1.6644,1.7502,1.8307,2.0817,2.182,2.2822,2.3866,2.491,2.5975,2.704,2.8126,2.9213,3.0433,3.1654,3.2911,3.4169,3.5374,3.6579,3.7779,3.8979,4.0134,4.1289,4.2222,4.3155,4.3821,4.4486,4.4862,4.5238,4.5235,4.5232,4.495,4.4669,4.4128,4.3587,4.2833,4.208,4.1202,4.0323,3.9405,3.8487,3.746,3.6432,3.5425,3.4417,3.3583,3.2749,3.2084,3.1418,3.0926,3.0434,3.0095,2.9756,2.9438,2.9121,2.6981,2.6636,2.6037,2.5438,2.4591,2.3744,2.2668,2.1593,2.0287,1.898,1.7506,1.6032,1.4554,1.3077,1.176,1.0443,0.932,0.81965,0.72588,0.63211,0.55514,0.47818,0.41823,0.35828,0.31481,0.27134,0.24046,0.20957,0.18732,0.16507
0.11789,0.13234,0.14679,0.16743,0.18808,0.21826,0.24844,0.28888,0.32933,0.38102,0.4327,0.48792,0.54314,0.59977,0.6564,0.71247,0.76853,0.82686,0.88518,0.94605,1.0069,1.0788,1.1507,1.2323,1.3139,1.3998,1.4857,1.5697,1.6537,1.7318,1.9748,2.0698,2.1648,2.2646,2.3644,2.4648,2.5652,2.6694,2.7736,2.8879,3.0021,3.1193,3.2365,3.3448,3.4532,3.5633,3.6735,3.7822,3.891,3.9778,4.0647,4.1293,4.194,4.2304,4.2669,4.2698,4.2728,4.2501,4.2273,4.1759,4.1245,4.0529,3.9813,3.8918,3.8023,3.7181,3.6339,3.5385,3.443,3.3509,3.2588,3.183,3.1072,3.0517,2.9962,2.9576,2.919,2.8949,2.8708,2.8465,2.8222,2.6163,2.5846,2.5311,2.4776,2.3927,2.3079,2.2036,2.0994,1.9709,1.8424,1.6973,1.5523,1.4071,1.262,1.133,1.0041,0.89436,0.78463,0.69368,0.60274,0.5293,0.45586,0.39923,0.3426,0.30198,0.26135,0.23241,0.20347,0.18233,0.16119
0.11255,0.12586,0.13917,0.15802,0.17687,0.2041,0.23134,0.26853,0.30572,0.35396,0.4022,0.45445,0.5067,0.56108,0.61545,0.66918,0.72292,0.77778,0.83265,0.88871,0.94478,1.0099,1.0751,1.1512,1.2274,1.3076,1.3879,1.4687,1.5495,1.6257,1.8611,1.9519,2.0427,2.1367,2.2307,2.3239,2.417,2.5144,2.6118,2.7145,2.8172,2.9224,3.0277,3.1295,3.2313,3.3336,3.4359,3.5339,3.6319,3.7169,3.8018,3.865,3.9282,3.9669,4.0055,4.0113,4.0171,3.9972,3.9774,3.9306,3.8839,3.8135,3.7431,3.6629,3.5827,3.5029,3.4231,3.3363,3.2495,3.1659,3.0823,3.0154,2.9486,2.8999,2.8511,2.8195,2.7879,2.7699,2.7519,2.7325,2.7131,2.5169,2.4893,2.4349,2.3804,2.3004,2.2203,2.1192,2.0181,1.8932,1.7682,1.6274,1.4866,1.3455,1.2043,1.0799,0.95537,0.8491,0.74283,0.6564,0.56997,0.50106,0.43214,0.3796,0.32707,0.28925,0.25143,0.22435,0.19727,0.17716,0.15705
0.10722,0.11939,0.13156,0.14861,0.16565,0.18994,0.21423,0.24817,0.28211,0.3269,0.3717,0.42098,0.47027,0.52238,0.57449,0.6259,0.6773,0.72871,0.78011,0.83137,0.88264,0.9411,0.99957,1.0702,1.1408,1.2155,1.2902,1.3677,1.4453,1.5195,1.7473,1.834,1.9206,2.0088,2.097,2.1829,2.2689,2.3594,2.4499,2.5412,2.6324,2.7256,2.8188,2.9141,3.0094,3.1039,3.1984,3.2857,3.3729,3.456,3.539,3.6007,3.6625,3.7033,3.7441,3.7527,3.7613,3.7444,3.7274,3.6853,3.6432,3.574,3.5048,3.434,3.3631,3.2877,3.2122,3.1341,3.056,2.9809,2.9058,2.8479,2.79,2.748,2.7061,2.6815,2.6569,2.6449,2.6329,2.6184,2.604,2.4176,2.394,2.3386,2.2833,2.208,2.1327,2.0347,1.9367,1.8154,1.6941,1.5575,1.421,1.2839,1.1467,1.0267,0.90665,0.80384,0.70103,0.61912,0.53721,0.47281,0.40841,0.35998,0.31154,0.27653,0.24152,0.2163,0.19107,0.17199,0.15292
0.10227,0.11344,0.1246,0.13999,0.15539,0.17731,0.19924,0.2298,0.26037,0.30106,0.34176,0.3878,0.43383,0.48354,0.53325,0.58198,0.6307,0.67907,0.72743,0.77517,0.8229,0.87565,0.92839,0.99216,1.0559,1.1246,1.1933,1.2647,1.3361,1.4072,1.6259,1.7071,1.7883,1.8696,1.951,2.0318,2.1126,2.1931,2.2737,2.3545,2.4352,2.5176,2.6,2.6887,2.7774,2.8669,2.9563,3.0373,3.1183,3.1966,3.2749,3.3321,3.3892,3.4325,3.4759,3.4914,3.507,3.4949,3.4828,3.4466,3.4104,3.3477,3.285,3.2177,3.1504,3.0791,3.0077,2.9371,2.8664,2.8009,2.7353,2.6824,2.6294,2.5923,2.5552,2.5332,2.5111,2.5015,2.4919,2.4807,2.4695,2.2897,2.2668,2.2167,2.1666,2.0938,2.021,1.9263,1.8315,1.7158,1.6,1.4688,1.3375,1.2062,1.075,0.96158,0.84818,0.75201,0.65584,0.57986,0.50388,0.44464,0.3854,0.34119,0.29698,0.26459,0.23221,0.20844,0.18468,0.1666,0.14852
0.09733,0.10748,0.11764,0.13138,0.14512,0.16468,0.18424,0.21144,0.23864,0.27523,0.31182,0.35461,0.3974,0.44471,0.49202,0.53806,0.58409,0.62943,0.67476,0.71896,0.76316,0.81019,0.85722,0.91413,0.97104,1.0337,1.0964,1.1617,1.2269,1.2949,1.5044,1.5802,1.656,1.7305,1.805,1.8806,1.9563,2.0268,2.0974,2.1678,2.2381,2.3097,2.3813,2.4633,2.5454,2.6298,2.7143,2.789,2.8637,2.9373,3.0109,3.0634,3.1159,3.1618,3.2077,3.2302,3.2526,3.2454,3.2382,3.2079,3.1775,3.1213,3.0651,3.0014,2.9377,2.8705,2.8033,2.74,2.6767,2.6208,2.5649,2.5169,2.4688,2.4366,2.4044,2.3848,2.3652,2.3581,2.351,2.3429,2.3349,2.1618,2.1395,2.0947,2.05,1.9797,1.9093,1.8178,1.7263,1.6161,1.506,1.38,1.2541,1.1286,1.0032,0.89648,0.78971,0.70018,0.61064,0.5406,0.47055,0.41646,0.36238,0.3224,0.28242,0.25266,0.2229,0.20059,0.17828,0.16121,0.14413
0.092712,0.10208,0.11145,0.12398,0.13651,0.15384,0.17118,0.19524,0.2193,0.25193,0.28455,0.32389,0.36322,0.40721,0.4512,0.49463,0.53806,0.58134,0.62463,0.666,0.70738,0.7501,0.79282,0.84295,0.89309,0.94929,1.0055,1.0657,1.1258,1.1875,1.385,1.4543,1.5235,1.5923,1.661,1.7271,1.7932,1.8574,1.9215,1.9826,2.0438,2.1105,2.1772,2.2508,2.3244,2.4017,2.479,2.5488,2.6187,2.687,2.7552,2.8047,2.8542,2.8979,2.9415,2.9667,2.9919,2.9919,2.9919,2.9689,2.9459,2.9009,2.8559,2.7989,2.7418,2.6815,2.6212,2.5628,2.5043,2.4543,2.4043,2.3631,2.3218,2.2931,2.2643,2.2458,2.2274,2.2179,2.2084,2.1968,2.1852,2.0201,1.9997,1.9561,1.9124,1.8462,1.78,1.6913,1.6026,1.4971,1.3916,1.2736,1.1556,1.0403,0.925,0.82664,0.72828,0.64673,0.56517,0.5019,0.43864,0.39006,0.34148,0.30504,0.2686,0.24113,0.21365,0.19279,0.17192,0.15578,0.13964
0.088094,0.096681,0.10527,0.11658,0.12789,0.143,0.15811,0.17904,0.19997,0.22862,0.25728,0.29316,0.32905,0.36972,0.41039,0.4512,0.49202,0.53325,0.57449,0.61305,0.6516,0.69001,0.72842,0.77178,0.81513,0.86484,0.91455,0.96963,1.0247,1.0802,1.2655,1.3283,1.3911,1.4541,1.517,1.5736,1.6301,1.6879,1.7456,1.7975,1.8494,1.9113,1.9732,2.0383,2.1034,2.1735,2.2437,2.3087,2.3737,2.4366,2.4996,2.5461,2.5926,2.6339,2.6753,2.7033,2.7312,2.7384,2.7456,2.73,2.7143,2.6805,2.6468,2.5964,2.546,2.4926,2.4392,2.3855,2.3319,2.2878,2.2437,2.2093,2.1748,2.1495,2.1241,2.1068,2.0895,2.0776,2.0658,2.0506,2.0354,1.8784,1.8599,1.8174,1.7749,1.7127,1.6506,1.5647,1.4789,1.378,1.2772,1.1672,1.0572,0.95198,0.84677,0.75681,0.66685,0.59327,0.5197,0.46321,0.40672,0.36365,0.32057,0.28768,0.25479,0.2296,0.2044,0.18499,0.16557,0.15036,0.13515
0.083844,0.091717,0.09959,0.10988,0.12017,0.13005,0.13994,0.16171,0.18348,0.20876,0.23405,0.26576,0.29747,0.33437,0.37127,0.40947,0.44767,0.48616,0.52464,0.56058,0.59652,0.63232,0.66812,0.70632,0.74452,0.7883,0.83208,0.88094,0.92981,0.9793,1.1526,1.2107,1.2688,1.3254,1.382,1.4338,1.4856,1.5371,1.5886,1.6365,1.6844,1.736,1.7876,1.8452,1.9028,1.9648,2.0268,2.0853,2.1438,2.2001,2.2564,2.302,2.3475,2.3855,2.4235,2.4521,2.4807,2.4919,2.5032,2.4951,2.4871,2.4602,2.4333,2.3923,2.3513,2.3052,2.2591,2.2122,2.1652,2.1265,2.0877,2.0573,2.027,2.005,1.9829,1.9666,1.9502,1.9361,1.9219,1.9027,1.8835,1.7295,1.7078,1.6662,1.6246,1.5646,1.5046,1.4249,1.3451,1.2527,1.1603,1.0596,0.9589,0.86336,0.76782,0.68761,0.6074,0.54265,0.4779,0.42819,0.37848,0.3399,0.30133,0.27165,0.24198,0.21877,0.19556,0.17739,0.15921,0.14486,0.1305
0.079593,0.086753,0.093913,0.10318,0.11244,0.1171,0.12176,0.14437,0.16698,0.1889,0.21082,0.23835,0.26589,0.29902,0.33215,0.36774,0.40333,0.43906,0.47479,0.50812,0.54145,0.57463,0.60782,0.64087,0.67391,0.71176,0.74961,0.79226,0.8349,0.8784,1.0397,1.0931,1.1466,1.1967,1.2469,1.2939,1.341,1.3863,1.4315,1.4754,1.5193,1.5606,1.602,1.6522,1.7023,1.7561,1.8099,1.8619,1.9138,1.9636,2.0133,2.0579,2.1025,2.1371,2.1717,2.2009,2.2302,2.2454,2.2607,2.2603,2.2598,2.2398,2.2197,2.1882,2.1567,2.1179,2.0791,2.0388,1.9986,1.9651,1.9316,1.9054,1.8792,1.8604,1.8417,1.8263,1.811,1.7945,1.778,1.7548,1.7316,1.5806,1.5557,1.515,1.4744,1.4165,1.3586,1.285,1.2114,1.1274,1.0433,0.95198,0.86061,0.77474,0.68888,0.61841,0.54794,0.49202,0.43609,0.39316,0.35023,0.31615,0.28208,0.25563,0.22918,0.20795,0.18672,0.16979,0.15286,0.13936,0.12586
0.07561,0.082241,0.088871,0.09726,0.10565,0.1126,0.11954,0.1368,0.15406,0.17283,0.19161,0.21565,0.23968,0.2689,0.29812,0.33025,0.36238,0.39542,0.42847,0.4601,0.49174,0.52231,0.55288,0.5836,0.61432,0.6468,0.67928,0.71698,0.75469,0.79303,0.94349,0.99098,1.0385,1.0831,1.1278,1.1715,1.2153,1.2552,1.2951,1.3338,1.3725,1.4092,1.446,1.4878,1.5296,1.5752,1.6208,1.6671,1.7134,1.757,1.8006,1.8422,1.8838,1.9173,1.9508,1.9771,2.0034,2.0208,2.0383,2.0406,2.0429,2.0296,2.0162,1.9908,1.9654,1.9342,1.9031,1.8699,1.8366,1.8084,1.7802,1.7571,1.734,1.7179,1.7018,1.686,1.6703,1.6479,1.6255,1.6036,1.5817,1.4353,1.4091,1.3694,1.3296,1.2738,1.218,1.1511,1.0842,1.0076,0.93108,0.84959,0.76811,0.69326,0.61841,0.55776,0.4971,0.44873,0.40036,0.36294,0.32552,0.29539,0.26527,0.24133,0.2174,0.19777,0.17815,0.16241,0.14666,0.13391,0.12117
0.071628,0.077729,0.083829,0.091342,0.098855,0.10809,0.11733,0.12923,0.14114,0.15677,0.1724,0.19294,0.21347,0.23878,0.26409,0.29275,0.32142,0.35178,0.38215,0.41209,0.44203,0.46999,0.49795,0.52633,0.55472,0.58184,0.60895,0.64171,0.67448,0.70766,0.84725,0.88882,0.9304,0.96955,1.0087,1.0491,1.0896,1.1241,1.1586,1.1922,1.2258,1.2578,1.2899,1.3234,1.3569,1.3943,1.4317,1.4724,1.5131,1.5505,1.5879,1.6265,1.665,1.6975,1.73,1.7533,1.7766,1.7962,1.8158,1.8209,1.826,1.8194,1.8127,1.7934,1.774,1.7506,1.7271,1.7009,1.6746,1.6517,1.6287,1.6088,1.5888,1.5754,1.5619,1.5457,1.5295,1.5012,1.4729,1.4523,1.4318,1.2901,1.2625,1.2237,1.1849,1.1312,1.0775,1.0172,0.95692,0.88786,0.81881,0.74721,0.67561,0.61177,0.54794,0.4971,0.44626,0.40545,0.36464,0.33272,0.3008,0.27463,0.24847,0.22704,0.20562,0.1876,0.16958,0.15502,0.14046,0.12847,0.11648
0.067914,0.073541,0.079169,0.085969,0.092769,0.1011,0.10943,0.11984,0.13025,0.14393,0.15762,0.17513,0.19264,0.21438,0.23612,0.26138,0.28664,0.31406,0.34148,0.36887,0.39627,0.42232,0.44838,0.47444,0.50049,0.52563,0.55077,0.57873,0.60669,0.63585,0.76619,0.8025,0.83882,0.87476,0.91071,0.94634,0.98196,1.0128,1.0435,1.0731,1.1027,1.1303,1.1579,1.1857,1.2134,1.2442,1.275,1.3081,1.3413,1.3754,1.4095,1.4443,1.479,1.508,1.5369,1.5602,1.5834,1.6023,1.6212,1.6266,1.632,1.6282,1.6245,1.6114,1.5984,1.5791,1.5598,1.5394,1.5191,1.5011,1.4831,1.4654,1.4476,1.4333,1.419,1.4026,1.3863,1.3606,1.3349,1.3112,1.2876,1.1526,1.126,1.0891,1.0522,1.0032,0.9541,0.89902,0.84394,0.78315,0.72235,0.66071,0.59906,0.54561,0.49216,0.4488,0.40545,0.37085,0.33625,0.30822,0.28018,0.25688,0.23357,0.21398,0.19439,0.17791,0.16143,0.14785,0.13426,0.12304,0.11182
0.0642,0.069354,0.074509,0.080595,0.086682,0.09411,0.10154,0.11045,0.11936,0.1311,0.14283,0.15732,0.17181,0.18999,0.20816,0.23001,0.25186,0.27633,0.3008,0.32566,0.35051,0.37466,0.39881,0.42254,0.44626,0.46942,0.49258,0.51574,0.5389,0.56404,0.68512,0.71618,0.74723,0.77998,0.81273,0.84355,0.87436,0.90142,0.92848,0.9541,0.97971,1.0028,1.026,1.0479,1.0699,1.094,1.1182,1.1439,1.1696,1.2004,1.2312,1.2621,1.293,1.3184,1.3439,1.367,1.3902,1.4084,1.4266,1.4323,1.4379,1.4371,1.4362,1.4294,1.4227,1.4076,1.3924,1.378,1.3636,1.3505,1.3375,1.3219,1.3064,1.2912,1.2761,1.2595,1.243,1.2199,1.1969,1.1701,1.1434,1.0151,0.9894,0.95452,0.91964,0.87515,0.83067,0.78082,0.73097,0.67843,0.6259,0.57421,0.52252,0.47945,0.43638,0.40051,0.36464,0.33625,0.30786,0.28372,0.25957,0.23912,0.21867,0.20092,0.18317,0.16822,0.15328,0.14067,0.12806,0.11761,0.10716
0.060951,0.065682,0.070413,0.075942,0.081471,0.088186,0.094901,0.1029,0.1109,0.12106,0.13122,0.13917,0.14711,0.16707,0.18703,0.20596,0.22488,0.24619,0.26749,0.28929,0.3111,0.33328,0.35546,0.37763,0.3998,0.42084,0.44188,0.46243,0.48298,0.50452,0.6169,0.64526,0.67363,0.70215,0.73067,0.75742,0.78418,0.80784,0.8315,0.85374,0.87599,0.89589,0.9158,0.93483,0.95387,0.97333,0.99279,1.0143,1.0359,1.0607,1.0856,1.1121,1.1385,1.1609,1.1833,1.2049,1.2265,1.2426,1.2587,1.2644,1.2702,1.2711,1.2721,1.2683,1.2645,1.2546,1.2447,1.2331,1.2215,1.2099,1.1982,1.1856,1.1729,1.1541,1.1352,1.1217,1.1083,1.087,1.0657,1.0403,1.015,0.89415,0.87035,0.8378,0.80525,0.76655,0.72786,0.68436,0.64087,0.59596,0.55105,0.50776,0.46448,0.42875,0.39302,0.36329,0.33357,0.30877,0.28397,0.26281,0.24165,0.22625,0.21086,0.19194,0.17303,0.15927,0.14552,0.13386,0.12221,0.11255,0.10288
0.057703,0.062011,0.066318,0.071289,0.07626,0.082262,0.088264,0.095353,0.10244,0.11103,0.11962,0.12101,0.12241,0.14416,0.16591,0.18191,0.19791,0.21604,0.23417,0.25293,0.27168,0.29189,0.3121,0.33272,0.35334,0.37226,0.39119,0.40912,0.42706,0.44499,0.54868,0.57435,0.60002,0.62431,0.6486,0.6713,0.69399,0.71426,0.73452,0.75339,0.77226,0.78895,0.80564,0.82174,0.83784,0.85261,0.86739,0.88476,0.90213,0.92105,0.93997,0.962,0.98404,1.0034,1.0227,1.0428,1.0628,1.0768,1.0908,1.0966,1.1024,1.1052,1.108,1.1072,1.1063,1.1017,1.097,1.0883,1.0795,1.0692,1.0589,1.0492,1.0395,1.0169,0.99432,0.98395,0.97359,0.95403,0.93447,0.91054,0.88662,0.77319,0.7513,0.72108,0.69086,0.65795,0.62505,0.58791,0.55077,0.51348,0.4762,0.44132,0.40644,0.37805,0.34967,0.32608,0.3025,0.28129,0.26007,0.2419,0.22372,0.21339,0.20305,0.18297,0.16289,0.15032,0.13775,0.12706,0.11637,0.10748,0.098601
0.054794,0.058727,0.06266,0.067201,0.071741,0.077171,0.082601,0.088892,0.095184,0.10281,0.11044,0.11494,0.11945,0.13038,0.14131,0.15917,0.17704,0.19261,0.20819,0.22453,0.24087,0.25868,0.27648,0.29475,0.31302,0.33007,0.34712,0.36322,0.37932,0.39521,0.49222,0.51432,0.53642,0.55709,0.57777,0.59768,0.61759,0.63551,0.65343,0.66988,0.68633,0.70094,0.71556,0.72953,0.74349,0.75639,0.76929,0.78344,0.79759,0.81335,0.82911,0.84705,0.86499,0.8813,0.89761,0.91385,0.93009,0.94245,0.9548,0.96066,0.96652,0.96919,0.97186,0.97231,0.97277,0.96935,0.96593,0.96057,0.95521,0.94622,0.93722,0.92424,0.91126,0.89875,0.88624,0.87317,0.8601,0.84269,0.82527,0.8032,0.78113,0.6749,0.65513,0.62872,0.60231,0.57371,0.54512,0.51419,0.48326,0.45191,0.42056,0.39231,0.36407,0.34077,0.31747,0.29709,0.27671,0.25851,0.24032,0.22426,0.2082,0.19662,0.18503,0.16916,0.15328,0.14189,0.13049,0.12058,0.11066,0.1025,0.094336
0.051885,0.055444,0.059003,0.063112,0.067222,0.07208,0.076938,0.082431,0.087925,0.094591,0.10126,0.10887,0.11648,0.11659,0.11671,0.13643,0.15616,0.16918,0.1822,0.19613,0.21005,0.22546,0.24087,0.25678,0.2727,0.28788,0.30306,0.31733,0.33159,0.34543,0.43575,0.45428,0.47281,0.48987,0.50693,0.52406,0.54119,0.55677,0.57234,0.58637,0.60039,0.61293,0.62547,0.63731,0.64914,0.66017,0.6712,0.68213,0.69306,0.70566,0.71826,0.7321,0.74594,0.75921,0.77248,0.78491,0.79734,0.80807,0.81881,0.82474,0.83067,0.83318,0.8357,0.83745,0.8392,0.83702,0.83485,0.83287,0.83089,0.82324,0.81559,0.79929,0.78299,0.78058,0.77816,0.76239,0.74661,0.73135,0.71608,0.69586,0.67563,0.57661,0.55896,0.53636,0.51377,0.48948,0.46519,0.44047,0.41576,0.39034,0.36492,0.34331,0.3217,0.30349,0.28527,0.2681,0.25092,0.23574,0.22056,0.20662,0.19268,0.17985,0.16701,0.15534,0.14368,0.13345,0.12323,0.11409,0.10496,0.097514,0.090071
0.048298,0.052026,0.055754,0.059518,0.063282,0.067652,0.072023,0.077037,0.08205,0.087939,0.093828,0.10051,0.1072,0.11061,0.11402,0.12774,0.14145,0.147,0.15255,0.16971,0.18687,0.19999,0.21312,0.22686,0.2406,0.25356,0.26653,0.27892,0.29131,0.30323,0.38737,0.40361,0.41985,0.43482,0.44979,0.46409,0.47839,0.49239,0.50639,0.51877,0.53114,0.54241,0.55368,0.56453,0.57538,0.58493,0.59447,0.60456,0.61466,0.62542,0.63619,0.64726,0.65834,0.66881,0.67928,0.68923,0.69918,0.70737,0.71557,0.71964,0.72371,0.72673,0.72975,0.73129,0.73283,0.73165,0.73047,0.72889,0.72731,0.72132,0.71533,0.70401,0.69269,0.68738,0.68207,0.66836,0.65465,0.64061,0.62657,0.60976,0.59295,0.50028,0.48453,0.46568,0.44683,0.4267,0.40658,0.3861,0.36562,0.34536,0.32509,0.3075,0.28991,0.27437,0.25883,0.24421,0.22958,0.21644,0.2033,0.19105,0.17879,0.16733,0.15587,0.1454,0.13492,0.12557,0.11621,0.10808,0.099943,0.09291,0.085877
0.044711,0.048609,0.052506,0.055924,0.059342,0.063225,0.067109,0.071642,0.076175,0.081287,0.0864,0.092162,0.097923,0.10463,0.11134,0.11904,0.12673,0.12481,0.12289,0.14328,0.16368,0.17452,0.18537,0.19693,0.2085,0.21925,0.22999,0.24052,0.25104,0.26102,0.33899,0.35294,0.36689,0.37977,0.39265,0.40412,0.41559,0.42802,0.44044,0.45116,0.46188,0.47188,0.48188,0.49175,0.50162,0.50968,0.51775,0.527,0.53625,0.54519,0.55413,0.56243,0.57073,0.5784,0.58607,0.59354,0.60101,0.60668,0.61234,0.61454,0.61675,0.62028,0.62381,0.62513,0.62646,0.62628,0.62609,0.62491,0.62372,0.6194,0.61508,0.60874,0.6024,0.59419,0.58599,0.57434,0.56269,0.54988,0.53707,0.52367,0.51026,0.42395,0.41011,0.395,0.37989,0.36393,0.34797,0.33173,0.31549,0.30038,0.28527,0.2717,0.25813,0.24526,0.2324,0.22032,0.20825,0.19715,0.18605,0.17547,0.16489,0.15481,0.14472,0.13545,0.12617,0.11768,0.10919,0.10206,0.094929,0.088306,0.081683
0.041392,0.04505,0.048707,0.052295,0.055882,0.059419,0.062957,0.067045,0.071134,0.075737,0.080341,0.085404,0.090467,0.096356,0.10224,0.10895,0.11566,0.11774,0.11981,0.13333,0.14686,0.15048,0.1541,0.16922,0.18434,0.19369,0.20303,0.21209,0.22115,0.22962,0.30236,0.31385,0.32535,0.33674,0.34814,0.35846,0.36877,0.37948,0.3902,0.40014,0.41008,0.41885,0.42762,0.43685,0.44608,0.45366,0.46125,0.46937,0.4775,0.48522,0.49295,0.49944,0.50593,0.51218,0.51844,0.52399,0.52954,0.53359,0.53765,0.53938,0.54112,0.54392,0.54673,0.54784,0.54896,0.54421,0.53947,0.54335,0.54724,0.54311,0.53899,0.53394,0.52889,0.52127,0.51365,0.50386,0.49407,0.48306,0.47206,0.46035,0.44863,0.36887,0.35757,0.34536,0.33314,0.32035,0.30755,0.29446,0.28137,0.26865,0.25594,0.24451,0.23309,0.22198,0.21087,0.20053,0.19018,0.18049,0.17079,0.16154,0.15229,0.14349,0.13468,0.12639,0.1181,0.11058,0.10305,0.096469,0.089888,0.08378,0.077672
0.038073,0.041491,0.044909,0.048665,0.052422,0.055613,0.058805,0.062448,0.066092,0.070187,0.074283,0.078647,0.08301,0.08808,0.09315,0.09887,0.10459,0.11066,0.11673,0.12339,0.13004,0.12644,0.12283,0.1415,0.16017,0.16812,0.17608,0.18367,0.19127,0.19822,0.26572,0.27476,0.2838,0.29371,0.30363,0.31279,0.32196,0.33095,0.33995,0.34912,0.35828,0.36582,0.37336,0.38195,0.39054,0.39764,0.40474,0.41175,0.41875,0.42526,0.43177,0.43645,0.44112,0.44597,0.45081,0.45444,0.45807,0.46051,0.46295,0.46423,0.4655,0.46757,0.46965,0.47055,0.47146,0.46215,0.45284,0.4618,0.47075,0.46682,0.4629,0.45914,0.45538,0.44835,0.44132,0.43338,0.42545,0.41625,0.40706,0.39703,0.38701,0.3138,0.30504,0.29572,0.2864,0.27677,0.26714,0.25719,0.24725,0.23693,0.2266,0.21733,0.20805,0.1987,0.18935,0.18074,0.17212,0.16383,0.15554,0.14762,0.1397,0.13217,0.12464,0.11734,0.11004,0.10347,0.096907,0.090876,0.084846,0.079254,0.073661
0.037113,0.039246,0.041378,0.044909,0.048439,0.05185,0.05526,0.058537,0.061813,0.065463,0.069114,0.073075,0.077037,0.081506,0.085976,0.090933,0.09589,0.10124,0.10659,0.11227,0.11795,0.11872,0.11949,0.13148,0.14348,0.14505,0.14662,0.1582,0.16978,0.17548,0.23841,0.24651,0.25461,0.26301,0.27141,0.27964,0.28787,0.29587,0.30388,0.31188,0.31988,0.32663,0.33337,0.34107,0.34876,0.35519,0.36161,0.36748,0.37335,0.37917,0.38499,0.38905,0.39311,0.39685,0.40059,0.40359,0.40659,0.40837,0.41015,0.40633,0.40251,0.40875,0.415,0.41588,0.41677,0.41166,0.40654,0.41095,0.41536,0.4123,0.40925,0.40564,0.40203,0.39624,0.39045,0.38351,0.37657,0.36867,0.36078,0.352,0.34323,0.27577,0.2692,0.26131,0.25342,0.24578,0.23813,0.22967,0.22121,0.21267,0.20414,0.19626,0.18839,0.18027,0.17215,0.16478,0.15741,0.15007,0.14273,0.13581,0.12888,0.12224,0.1156,0.10924,0.10288,0.096963,0.091046,0.085524,0.080002,0.07494,0.069877
0.036153,0.037,0.037848,0.041152,0.044457,0.048086,0.051716,0.054625,0.057534,0.06074,0.063945,0.067504,0.071063,0.074932,0.078802,0.082996,0.087191,0.091823,0.096455,0.10116,0.10586,0.111,0.11614,0.12147,0.12679,0.12197,0.11716,0.13272,0.14828,0.15275,0.2111,0.21826,0.22542,0.23231,0.2392,0.24649,0.25378,0.26079,0.26781,0.27465,0.28148,0.28743,0.29337,0.30018,0.30699,0.31274,0.31848,0.32321,0.32795,0.33307,0.3382,0.34164,0.34509,0.34773,0.35037,0.35274,0.35512,0.35623,0.35735,0.34844,0.33953,0.34993,0.36034,0.36122,0.36209,0.36116,0.36023,0.3601,0.35998,0.35779,0.3556,0.35214,0.34868,0.34413,0.33958,0.33364,0.32769,0.3211,0.3145,0.30697,0.29945,0.23775,0.23336,0.2269,0.22045,0.21478,0.20912,0.20215,0.19517,0.18842,0.18167,0.1752,0.16873,0.16184,0.15495,0.14882,0.14269,0.13631,0.12992,0.12399,0.11806,0.11231,0.10657,0.10114,0.09572,0.090453,0.085185,0.080172,0.075158,0.070625,0.066092
0.033512,0.035178,0.036845,0.038843,0.040841,0.043567,0.046293,0.050106,0.053919,0.056856,0.059793,0.062971,0.066148,0.069601,0.073054,0.07679,0.080525,0.084585,0.088645,0.092811,0.096977,0.10145,0.10592,0.11046,0.11501,0.11457,0.11412,0.1237,0.13327,0.13717,0.19201,0.19831,0.20462,0.21077,0.21692,0.2233,0.22968,0.23586,0.24204,0.24818,0.25431,0.25961,0.2649,0.2701,0.2753,0.28084,0.28638,0.29075,0.29511,0.29938,0.30366,0.30671,0.30976,0.30713,0.3045,0.31158,0.31865,0.31977,0.32088,0.31682,0.31276,0.31797,0.32317,0.32354,0.32391,0.3234,0.32289,0.32211,0.32134,0.31943,0.31752,0.31453,0.31154,0.30777,0.30401,0.29896,0.29391,0.288,0.28209,0.27565,0.26921,0.21134,0.20761,0.20246,0.1973,0.19238,0.18746,0.18168,0.17589,0.17023,0.16457,0.15885,0.15313,0.14713,0.14114,0.13579,0.13043,0.12485,0.11928,0.11411,0.10894,0.10397,0.098997,0.094075,0.089154,0.084437,0.07972,0.075208,0.070696,0.066572,0.062448
0.030871,0.033357,0.035842,0.036534,0.037226,0.039048,0.04087,0.045586,0.050303,0.052972,0.055642,0.058438,0.061234,0.06427,0.067306,0.070583,0.073859,0.077347,0.080836,0.084465,0.088094,0.091893,0.095692,0.099463,0.10323,0.10716,0.11109,0.11467,0.11826,0.12159,0.17291,0.17836,0.18381,0.18922,0.19463,0.20011,0.20559,0.21093,0.21627,0.2217,0.22714,0.23179,0.23643,0.24002,0.24361,0.24895,0.25428,0.25828,0.26228,0.2657,0.26911,0.27177,0.27442,0.26653,0.25863,0.27041,0.28219,0.28331,0.28442,0.28521,0.286,0.286,0.286,0.28586,0.28572,0.28564,0.28555,0.28412,0.2827,0.28107,0.27945,0.27692,0.27439,0.27141,0.26843,0.26428,0.26013,0.25491,0.24968,0.24433,0.23898,0.18493,0.18187,0.17801,0.17416,0.16997,0.16579,0.16121,0.15662,0.15204,0.14746,0.14249,0.13752,0.13242,0.12733,0.12275,0.11817,0.1134,0.10863,0.10422,0.099816,0.095621,0.091427,0.087007,0.082587,0.078421,0.074255,0.070244,0.066233,0.062519,0.058805
0.031718,0.03414,0.036562,0.037403,0.038243,0.039747,0.041251,0.044626,0.048001,0.050445,0.052888,0.055472,0.058056,0.060824,0.063592,0.066572,0.069552,0.07268,0.075808,0.079056,0.082304,0.085694,0.089083,0.092508,0.095932,0.099343,0.10275,0.10585,0.10895,0.11186,0.16016,0.16496,0.16976,0.17464,0.17951,0.18432,0.18912,0.19389,0.19866,0.2034,0.20813,0.21226,0.21639,0.21994,0.22348,0.2278,0.23211,0.23524,0.23837,0.24161,0.24485,0.24713,0.24941,0.2463,0.24318,0.24964,0.25609,0.25714,0.2582,0.25874,0.25928,0.25929,0.2593,0.25908,0.25886,0.25849,0.25813,0.25707,0.25602,0.2544,0.25277,0.25039,0.24801,0.24518,0.24235,0.23879,0.23523,0.23057,0.22591,0.22148,0.21704,0.16608,0.16365,0.16028,0.15691,0.15331,0.14971,0.14578,0.14184,0.13788,0.13392,0.12949,0.12507,0.1207,0.11634,0.11228,0.10822,0.10419,0.10017,0.096215,0.09226,0.088454,0.084649,0.080779,0.07691,0.073118,0.069326,0.065739,0.062152,0.058819,0.055486
0.032566,0.034924,0.037283,0.038271,0.03926,0.040446,0.041632,0.043666,0.045699,0.047917,0.050134,0.052506,0.054879,0.057379,0.059878,0.062561,0.065245,0.068013,0.070781,0.073647,0.076514,0.079494,0.082474,0.085552,0.088631,0.091526,0.094421,0.097034,0.099646,0.10213,0.14741,0.15156,0.15571,0.16005,0.16438,0.16852,0.17266,0.17685,0.18105,0.18509,0.18912,0.19274,0.19636,0.19986,0.20336,0.20665,0.20994,0.2122,0.21446,0.21752,0.22059,0.2225,0.2244,0.22607,0.22773,0.22886,0.22999,0.23098,0.23197,0.23227,0.23256,0.23258,0.23259,0.2323,0.232,0.23135,0.2307,0.23002,0.22934,0.22772,0.2261,0.22387,0.22163,0.21895,0.21627,0.2133,0.21034,0.20624,0.20215,0.19863,0.19511,0.14722,0.14543,0.14255,0.13967,0.13665,0.13362,0.13035,0.12707,0.12372,0.12038,0.11649,0.11261,0.10898,0.10535,0.10181,0.098262,0.094986,0.09171,0.088207,0.084705,0.081287,0.07787,0.074551,0.071232,0.067815,0.064397,0.061234,0.058071,0.055119,0.052167
