0.16272,0.16486,0.167,0.17396,0.18091,0.18656,0.19222,0.19767,0.20313,0.20968,0.21623,0.2236,0.23097,0.23974,0.24851,0.25505,0.26158,0.26848,0.27538,0.28529,0.29521,0.30227,0.30933,0.30964,0.30994,0.31584,0.32175,0.32795,0.33416,0.33986,0.50828,0.5149,0.52151,0.53285,0.54418,0.5527,0.56122,0.56798,0.57474,0.58139,0.58805,0.5947,0.60136,0.60775,0.61414,0.61817,0.6222,0.62526,0.62831,0.63517,0.64203,0.64378,0.64553,0.64211,0.63869,0.63875,0.63881,0.63985,0.64089,0.64302,0.64516,0.64431,0.64345,0.63682,0.63018,0.6276,0.62501,0.61764,0.61027,0.60338,0.59648,0.58732,0.57816,0.57057,0.56297,0.55294,0.54291,0.53568,0.52845,0.519,0.50954,0.34151,0.3362,0.33247,0.32875,0.32291,0.31706,0.31189,0.30673,0.30316,0.2996,0.29427,0.28894,0.27793,0.26691,0.26146,0.256,0.24733,0.23866,0.23166,0.22466,0.21621,0.20777,0.20256,0.19735,0.18982,0.18228,0.17891,0.17553,0.16912,0.16272
0.16912,0.17176,0.1744,0.18015,0.18589,0.19279,0.19969,0.20679,0.21389,0.22136,0.22883,0.23704,0.24524,0.2529,0.26056,0.26837,0.27617,0.28533,0.29449,0.30211,0.30974,0.31478,0.31983,0.32499,0.33015,0.33893,0.34772,0.35428,0.36084,0.36707,0.54242,0.55015,0.55788,0.56883,0.57979,0.59032,0.60085,0.60968,0.61852,0.62632,0.63413,0.64159,0.64905,0.65396,0.65888,0.66295,0.66702,0.67163,0.67624,0.6799,0.68357,0.68313,0.68269,0.68101,0.67933,0.68133,0.68332,0.68478,0.68623,0.68435,0.68247,0.68261,0.68275,0.67898,0.6752,0.67147,0.66773,0.65927,0.6508,0.64516,0.63952,0.62845,0.61738,0.60905,0.60073,0.58969,0.57865,0.56953,0.56041,0.54955,0.53869,0.36834,0.36286,0.35602,0.34918,0.34239,0.33561,0.3305,0.32539,0.31728,0.30917,0.30422,0.29928,0.29029,0.2813,0.27394,0.26657,0.25637,0.24617,0.2402,0.23423,0.2239,0.21357,0.20799,0.20241,0.19511,0.1878,0.18323,0.17866,0.17176,0.16486
0.17553,0.17866,0.1818,0.18633,0.19087,0.19902,0.20716,0.21591,0.22466,0.23305,0.24143,0.25047,0.25951,0.26606,0.27261,0.28169,0.29077,0.30219,0.3136,0.31894,0.32427,0.3273,0.33033,0.34035,0.35036,0.36203,0.37369,0.38061,0.38753,0.39429,0.57657,0.5854,0.59424,0.60482,0.6154,0.62794,0.64048,0.65139,0.6623,0.67125,0.68021,0.68847,0.69674,0.70018,0.70362,0.70773,0.71184,0.71801,0.72417,0.72464,0.72511,0.72248,0.71986,0.71992,0.71998,0.72391,0.72784,0.72971,0.73158,0.72568,0.71978,0.72092,0.72206,0.72114,0.72022,0.71534,0.71045,0.70089,0.69132,0.68695,0.68257,0.66958,0.6566,0.64754,0.63848,0.62644,0.61439,0.60338,0.59236,0.5801,0.56784,0.39518,0.38952,0.37957,0.36962,0.36188,0.35415,0.3491,0.34405,0.33139,0.31873,0.31417,0.30962,0.30265,0.29569,0.28641,0.27713,0.26541,0.25368,0.24874,0.24379,0.23158,0.21937,0.21343,0.20748,0.2004,0.19332,0.18756,0.1818,0.1744,0.167
0.17891,0.18323,0.18756,0.19361,0.19967,0.20846,0.21725,0.2243,0.23136,0.24182,0.25228,0.26087,0.26946,0.28064,0.29183,0.29918,0.30654,0.31764,0.32875,0.33843,0.3481,0.35748,0.36685,0.37695,0.38706,0.39722,0.40737,0.41468,0.42199,0.42921,0.61534,0.62665,0.63796,0.65118,0.66439,0.67956,0.69472,0.70496,0.7152,0.72608,0.73695,0.74377,0.75059,0.75736,0.76413,0.76506,0.766,0.7707,0.7754,0.77923,0.78305,0.78614,0.78922,0.79073,0.79223,0.79434,0.79645,0.79511,0.79378,0.7879,0.78202,0.77856,0.7751,0.77508,0.77506,0.77189,0.76873,0.76189,0.75505,0.7454,0.73575,0.72468,0.71361,0.70002,0.68644,0.67339,0.66034,0.64667,0.63299,0.62095,0.60891,0.42866,0.42237,0.41377,0.40517,0.39712,0.38907,0.38043,0.37179,0.35869,0.34558,0.33514,0.3247,0.31751,0.31033,0.30079,0.29126,0.28123,0.27121,0.26114,0.25108,0.24178,0.23248,0.22331,0.21414,0.20751,0.20089,0.19361,0.18633,0.18015,0.17396
0.18228,0.1878,0.19332,0.20089,0.20846,0.2179,0.22735,0.2327,0.23805,0.25059,0.26313,0.27127,0.27941,0.29523,0.31104,0.31668,0.32232,0.3331,0.34389,0.35791,0.37194,0.38765,0.40336,0.41356,0.42376,0.43241,0.44106,0.44875,0.45644,0.46414,0.65412,0.6679,0.68167,0.69753,0.71339,0.73117,0.74896,0.75853,0.76809,0.7809,0.7937,0.79907,0.80445,0.81454,0.82464,0.8224,0.82016,0.82339,0.82663,0.83382,0.841,0.84979,0.85859,0.86154,0.86449,0.86477,0.86506,0.86052,0.85598,0.85012,0.84426,0.8362,0.82814,0.82901,0.82989,0.82844,0.827,0.82289,0.81877,0.80386,0.78894,0.77978,0.77062,0.7525,0.73439,0.72035,0.7063,0.68996,0.67361,0.6618,0.64998,0.46214,0.45522,0.44798,0.44073,0.43237,0.424,0.41177,0.39954,0.38598,0.37243,0.3561,0.33978,0.33237,0.32496,0.31517,0.30538,0.29706,0.28873,0.27355,0.25837,0.25197,0.24558,0.23319,0.22079,0.21463,0.20846,0.19967,0.19087,0.18589,0.18091
0.18982,0.19511,0.2004,0.20751,0.21463,0.22613,0.23763,0.24557,0.25352,0.26734,0.28116,0.29018,0.29919,0.31228,0.32537,0.3346,0.34383,0.35878,0.37373,0.38949,0.40526,0.42085,0.43644,0.44825,0.46007,0.46947,0.47887,0.48726,0.49564,0.504,0.70217,0.71646,0.73075,0.74682,0.76288,0.78381,0.80473,0.8187,0.83268,0.84776,0.86284,0.86871,0.87458,0.8803,0.88602,0.88572,0.88541,0.8914,0.89738,0.90505,0.91273,0.92084,0.92895,0.93306,0.93717,0.93729,0.93741,0.93218,0.92695,0.92032,0.91368,0.90647,0.89925,0.89569,0.89213,0.88991,0.88769,0.88387,0.88006,0.86943,0.85881,0.84557,0.83233,0.81367,0.795,0.77724,0.75949,0.74108,0.72267,0.70835,0.69404,0.49999,0.49251,0.48481,0.4771,0.46782,0.45854,0.44492,0.43131,0.41632,0.40133,0.38512,0.3689,0.35639,0.34387,0.33223,0.32059,0.31074,0.3009,0.28902,0.27713,0.26704,0.25694,0.24564,0.23435,0.22613,0.2179,0.20846,0.19902,0.19279,0.18656
0.19735,0.20241,0.20748,0.21414,0.22079,0.23435,0.2479,0.25845,0.26899,0.28409,0.29919,0.30909,0.31898,0.32934,0.3397,0.35252,0.36534,0.38445,0.40357,0.42107,0.43857,0.45404,0.46951,0.48294,0.49638,0.50653,0.51669,0.52577,0.53485,0.54386,0.75022,0.76502,0.77982,0.7961,0.81238,0.83644,0.8605,0.87888,0.89726,0.91462,0.93198,0.93835,0.94472,0.94606,0.94741,0.94904,0.95066,0.9594,0.96813,0.97629,0.98445,0.99188,0.99931,1.0046,1.0099,1.0098,1.0098,1.0038,0.99792,0.99052,0.98311,0.97674,0.97037,0.96237,0.95437,0.95138,0.94838,0.94486,0.94134,0.93501,0.92868,0.91136,0.89404,0.87483,0.85561,0.83414,0.81267,0.79219,0.77172,0.75491,0.73809,0.53784,0.5298,0.52164,0.51347,0.50328,0.49308,0.47808,0.46308,0.44665,0.43023,0.41413,0.39803,0.3804,0.36278,0.34928,0.33579,0.32443,0.31308,0.30449,0.2959,0.2821,0.2683,0.2581,0.2479,0.23763,0.22735,0.21725,0.20716,0.19969,0.19222
0.20256,0.20799,0.21343,0.22331,0.23319,0.24564,0.2581,0.26949,0.28088,0.29441,0.30795,0.31865,0.32936,0.34497,0.36058,0.37601,0.39144,0.41016,0.42889,0.44861,0.46833,0.48676,0.50519,0.51999,0.53478,0.54655,0.55831,0.56873,0.57915,0.58923,0.80186,0.81719,0.83251,0.85223,0.87194,0.89577,0.91961,0.93961,0.95962,0.97711,0.99461,1.0021,1.0097,1.0154,1.0211,1.0245,1.0278,1.0358,1.0437,1.0529,1.0621,1.071,1.0799,1.0857,1.0916,1.0908,1.0901,1.0834,1.0767,1.0684,1.0601,1.0516,1.0431,1.0347,1.0263,1.0206,1.0149,1.009,1.0032,0.99841,0.99365,0.97725,0.96084,0.93993,0.91901,0.89405,0.86909,0.84992,0.83074,0.81108,0.79142,0.58423,0.57472,0.56576,0.55681,0.54428,0.53175,0.51462,0.4975,0.47916,0.46082,0.4424,0.42398,0.40575,0.38753,0.37044,0.35335,0.33889,0.32443,0.31571,0.30699,0.29376,0.28053,0.26949,0.25845,0.24557,0.2327,0.2243,0.21591,0.20679,0.19767
0.20777,0.21357,0.21937,0.23248,0.24558,0.25694,0.2683,0.28053,0.29276,0.30473,0.3167,0.32822,0.33974,0.3606,0.38146,0.3995,0.41753,0.43587,0.45421,0.47615,0.49809,0.51948,0.54087,0.55703,0.57319,0.58656,0.59994,0.6117,0.62346,0.6346,0.8535,0.86935,0.88521,0.90835,0.93149,0.9551,0.97871,1.0003,1.022,1.0396,1.0572,1.0659,1.0746,1.0848,1.0949,1.0999,1.105,1.1121,1.1193,1.1295,1.1397,1.1501,1.1605,1.1669,1.1733,1.1718,1.1704,1.1629,1.1554,1.1463,1.1371,1.1265,1.1158,1.107,1.0982,1.0898,1.0813,1.0732,1.065,1.0618,1.0586,1.0431,1.0276,1.005,0.98242,0.95396,0.92551,0.90764,0.88977,0.86726,0.84475,0.63063,0.61964,0.60989,0.60014,0.58528,0.57042,0.55117,0.53191,0.51166,0.49141,0.47067,0.44993,0.4311,0.41228,0.3916,0.37092,0.35335,0.33579,0.32694,0.31808,0.30542,0.29276,0.28088,0.26899,0.25352,0.23805,0.23136,0.22466,0.21389,0.20313
0.21621,0.2239,0.23158,0.24178,0.25197,0.26704,0.2821,0.29376,0.30542,0.31873,0.33204,0.34752,0.363,0.38329,0.40359,0.42267,0.44175,0.46177,0.48178,0.50599,0.5302,0.55438,0.57856,0.59633,0.6141,0.62994,0.64577,0.65925,0.67272,0.68438,0.91226,0.93114,0.95001,0.9707,0.99139,1.0184,1.0455,1.067,1.0886,1.1084,1.1283,1.1415,1.1547,1.165,1.1752,1.1803,1.1854,1.194,1.2026,1.215,1.2274,1.2385,1.2496,1.2555,1.2614,1.2597,1.2579,1.25,1.242,1.2312,1.2204,1.209,1.1976,1.1871,1.1766,1.1681,1.1596,1.1508,1.142,1.1355,1.129,1.1127,1.0964,1.0761,1.0557,1.025,0.9942,0.97401,0.95382,0.93034,0.90686,0.68411,0.67103,0.65918,0.64734,0.62972,0.61211,0.59071,0.5693,0.54684,0.52438,0.50176,0.47914,0.45817,0.43721,0.41669,0.39618,0.37752,0.35887,0.3458,0.33274,0.31873,0.30473,0.29441,0.28409,0.26734,0.25059,0.24182,0.23305,0.22136,0.20968
0.22466,0.23423,0.24379,0.25108,0.25837,0.27713,0.2959,0.30699,0.31808,0.33274,0.34739,0.36683,0.38627,0.40599,0.42571,0.44584,0.46597,0.48767,0.50936,0.53584,0.56232,0.58929,0.61626,0.63564,0.65501,0.67331,0.69161,0.70679,0.72197,0.73417,0.97102,0.99292,1.0148,1.0331,1.0513,1.0818,1.1122,1.1337,1.1551,1.1772,1.1993,1.217,1.2348,1.2452,1.2556,1.2607,1.2657,1.2758,1.2858,1.3004,1.3151,1.3269,1.3387,1.3441,1.3495,1.3475,1.3454,1.337,1.3287,1.3162,1.3037,1.2915,1.2794,1.2672,1.2551,1.2464,1.2378,1.2284,1.219,1.2092,1.1993,1.1823,1.1652,1.1472,1.1291,1.096,1.0629,1.0404,1.0179,0.99343,0.96898,0.73759,0.72242,0.70848,0.69454,0.67416,0.65379,0.63024,0.60669,0.58202,0.55736,0.53285,0.50835,0.48524,0.46214,0.44179,0.42144,0.40169,0.38195,0.36467,0.34739,0.33204,0.3167,0.30795,0.29919,0.28116,0.26313,0.25228,0.24143,0.22883,0.21623
0.23166,0.2402,0.24874,0.26114,0.27355,0.28902,0.30449,0.31571,0.32694,0.3458,0.36467,0.38534,0.40601,0.4268,0.44759,0.46969,0.4918,0.51567,0.53955,0.56838,0.59721,0.62568,0.65416,0.67691,0.69967,0.72106,0.74245,0.75903,0.77561,0.79019,1.0364,1.0586,1.0807,1.1057,1.1306,1.1575,1.1844,1.2057,1.2269,1.2461,1.2653,1.2918,1.3184,1.3308,1.3433,1.3504,1.3575,1.368,1.3785,1.395,1.4116,1.4231,1.4346,1.4402,1.4458,1.4439,1.4419,1.4327,1.4234,1.4113,1.3993,1.3863,1.3733,1.3604,1.3476,1.3364,1.3252,1.3145,1.3038,1.2857,1.2675,1.254,1.2406,1.2227,1.2048,1.1709,1.137,1.1132,1.0894,1.0637,1.038,0.79743,0.78049,0.76331,0.74613,0.72281,0.69948,0.67362,0.64777,0.62113,0.5945,0.56789,0.54128,0.51591,0.49054,0.46789,0.44525,0.42455,0.40385,0.38534,0.36683,0.34752,0.32822,0.31865,0.30909,0.29018,0.27127,0.26087,0.25047,0.23704,0.2236
0.23866,0.24617,0.25368,0.27121,0.28873,0.3009,0.31308,0.32443,0.33579,0.35887,0.38195,0.40385,0.42575,0.44761,0.46947,0.49355,0.51763,0.54368,0.56973,0.60091,0.63209,0.66207,0.69205,0.71819,0.74432,0.76881,0.79329,0.81126,0.82924,0.84621,1.1018,1.1242,1.1466,1.1783,1.21,1.2333,1.2566,1.2777,1.2987,1.315,1.3314,1.3666,1.4019,1.4165,1.431,1.4401,1.4493,1.4602,1.4711,1.4896,1.5081,1.5194,1.5306,1.5363,1.5421,1.5403,1.5385,1.5283,1.5181,1.5065,1.4948,1.481,1.4672,1.4537,1.4402,1.4264,1.4126,1.4006,1.3887,1.3622,1.3357,1.3258,1.3159,1.2982,1.2805,1.2458,1.2111,1.186,1.1609,1.1339,1.107,0.85728,0.83856,0.81814,0.79773,0.77145,0.74518,0.71701,0.68884,0.66024,0.63165,0.60293,0.57421,0.54657,0.51893,0.494,0.46906,0.44741,0.42575,0.40601,0.38627,0.363,0.33974,0.32936,0.31898,0.29919,0.27941,0.26946,0.25951,0.24524,0.23097
0.24733,0.25637,0.26541,0.28123,0.29706,0.31074,0.32443,0.33889,0.35335,0.37752,0.40169,0.42455,0.44741,0.47181,0.49621,0.52237,0.54852,0.57736,0.6062,0.63931,0.67241,0.70363,0.73484,0.76485,0.79486,0.82152,0.84819,0.86949,0.89078,0.90192,1.1604,1.1942,1.228,1.2598,1.2916,1.3159,1.3403,1.3653,1.3903,1.4144,1.4384,1.467,1.4956,1.5133,1.531,1.5421,1.5532,1.5579,1.5625,1.5892,1.6158,1.6269,1.6381,1.6442,1.6503,1.6467,1.643,1.6333,1.6236,1.6038,1.584,1.5782,1.5725,1.5588,1.5452,1.5285,1.5119,1.4982,1.4846,1.4636,1.4427,1.4258,1.4088,1.3865,1.3641,1.332,1.2999,1.2612,1.2224,1.2028,1.1831,0.9233,0.90324,0.87934,0.85543,0.82515,0.79486,0.76385,0.73284,0.70191,0.67097,0.6404,0.60983,0.58026,0.5507,0.52336,0.49601,0.47181,0.44761,0.4268,0.40599,0.38329,0.3606,0.34497,0.32934,0.31228,0.29523,0.28064,0.26606,0.2529,0.23974
0.256,0.26657,0.27713,0.29126,0.30538,0.32059,0.33579,0.35335,0.37092,0.39618,0.42144,0.44525,0.46906,0.49601,0.52296,0.55119,0.57942,0.61105,0.64268,0.67771,0.71273,0.74518,0.77762,0.81151,0.8454,0.87424,0.90308,0.92771,0.95233,0.95763,1.2189,1.2642,1.3095,1.3413,1.3731,1.3986,1.424,1.4529,1.4819,1.5137,1.5455,1.5674,1.5894,1.6101,1.6309,1.6441,1.6572,1.6556,1.654,1.6887,1.7234,1.7345,1.7455,1.752,1.7585,1.7531,1.7476,1.7384,1.7292,1.7012,1.6732,1.6755,1.6778,1.664,1.6502,1.6307,1.6112,1.5958,1.5804,1.5651,1.5498,1.5258,1.5018,1.4747,1.4477,1.4182,1.3888,1.3364,1.2839,1.2716,1.2592,0.98932,0.96792,0.94053,0.91313,0.87884,0.84454,0.81069,0.77685,0.74357,0.71029,0.67787,0.64545,0.61396,0.58247,0.55272,0.52296,0.49621,0.46947,0.44759,0.42571,0.40359,0.38146,0.36058,0.3397,0.32537,0.31104,0.29183,0.27261,0.26056,0.24851
0.26146,0.27394,0.28641,0.30079,0.31517,0.33223,0.34928,0.37044,0.3916,0.41669,0.44179,0.46789,0.494,0.52336,0.55272,0.58326,0.6138,0.64826,0.68273,0.72038,0.75802,0.79189,0.82576,0.86446,0.90316,0.92839,0.95362,0.98704,1.0205,1.036,1.313,1.3549,1.3968,1.4309,1.4651,1.492,1.5188,1.5518,1.5847,1.6149,1.6451,1.6689,1.6927,1.716,1.7392,1.7535,1.7678,1.7757,1.7836,1.8111,1.8386,1.8502,1.8617,1.8695,1.8773,1.8644,1.8515,1.8487,1.8458,1.8256,1.8054,1.7996,1.7938,1.7795,1.7652,1.743,1.7208,1.7037,1.6866,1.6679,1.6491,1.6237,1.5982,1.5686,1.539,1.5049,1.4707,1.4266,1.3826,1.3591,1.3356,1.0583,1.0359,1.005,0.97413,0.936,0.89787,0.86162,0.82537,0.78962,0.75387,0.71863,0.68338,0.64935,0.61532,0.58326,0.55119,0.52237,0.49355,0.46969,0.44584,0.42267,0.3995,0.37601,0.35252,0.3346,0.31668,0.29918,0.28169,0.26837,0.25505
0.26691,0.2813,0.29569,0.31033,0.32496,0.34387,0.36278,0.38753,0.41228,0.43721,0.46214,0.49054,0.51893,0.5507,0.58247,0.61532,0.64817,0.68548,0.72279,0.76305,0.80331,0.8386,0.87389,0.91741,0.96092,0.98254,1.0042,1.0464,1.0886,1.1144,1.4071,1.4456,1.4842,1.5206,1.557,1.5854,1.6137,1.6506,1.6875,1.7161,1.7446,1.7704,1.7961,1.8218,1.8476,1.863,1.8784,1.8959,1.9133,1.9336,1.9538,1.9658,1.9778,1.9869,1.9961,1.9757,1.9553,1.9589,1.9625,1.9501,1.9376,1.9237,1.9098,1.895,1.8802,1.8553,1.8303,1.8116,1.7928,1.7706,1.7485,1.7216,1.6947,1.6626,1.6304,1.5915,1.5526,1.5169,1.4813,1.4467,1.4121,1.1272,1.1039,1.0695,1.0351,0.99316,0.95119,0.91254,0.87389,0.83567,0.79744,0.75938,0.72132,0.68475,0.64817,0.6138,0.57942,0.54852,0.51763,0.4918,0.46597,0.44175,0.41753,0.39144,0.36534,0.34383,0.32232,0.30654,0.29077,0.27617,0.26158
0.27793,0.29029,0.30265,0.31751,0.33237,0.35639,0.3804,0.40575,0.4311,0.45817,0.48524,0.51591,0.54657,0.58026,0.61396,0.64935,0.68475,0.72522,0.76569,0.80928,0.85287,0.89294,0.93302,0.98215,1.0313,1.0621,1.093,1.1292,1.1654,1.1928,1.4982,1.5377,1.5771,1.6159,1.6546,1.6893,1.7239,1.7626,1.8012,1.8315,1.8618,1.8878,1.9137,1.9402,1.9666,1.9835,2.0003,2.0191,2.0379,2.06,2.0821,2.0965,2.1108,2.1239,2.1369,2.1156,2.0943,2.0956,2.0968,2.0832,2.0696,2.0545,2.0394,2.0236,2.0077,1.9811,1.9546,1.9342,1.9138,1.889,1.8642,1.8336,1.803,1.7701,1.7371,1.6929,1.6487,1.6115,1.5744,1.5361,1.4977,1.2035,1.1778,1.1417,1.1057,1.0535,1.0013,0.96637,0.93141,0.89036,0.8493,0.80713,0.76496,0.72522,0.68548,0.64826,0.61105,0.57736,0.54368,0.51567,0.48767,0.46177,0.43587,0.41016,0.38445,0.35878,0.3331,0.31764,0.30219,0.28533,0.26848
0.28894,0.29928,0.30962,0.3247,0.33978,0.3689,0.39803,0.42398,0.44993,0.47914,0.50835,0.54128,0.57421,0.60983,0.64545,0.68338,0.72132,0.76496,0.8086,0.85551,0.90243,0.94729,0.99214,1.0469,1.1016,1.1417,1.1818,1.212,1.2422,1.2713,1.5893,1.6297,1.6701,1.7111,1.7521,1.7932,1.8342,1.8746,1.915,1.947,1.979,2.0052,2.0313,2.0585,2.0857,2.1039,2.1222,2.1423,2.1624,2.1864,2.2105,2.2272,2.2439,2.2609,2.2778,2.2556,2.2333,2.2322,2.2312,2.2164,2.2015,2.1853,2.1691,2.1521,2.1351,2.107,2.0789,2.0568,2.0348,2.0074,1.98,1.9457,1.9113,1.8776,1.8438,1.7943,1.7448,1.7061,1.6674,1.6254,1.5834,1.2799,1.2517,1.214,1.1762,1.1138,1.0515,1.0202,0.98893,0.94505,0.90117,0.85488,0.8086,0.76569,0.72279,0.68273,0.64268,0.6062,0.56973,0.53955,0.50936,0.48178,0.45421,0.42889,0.40357,0.37373,0.34389,0.32875,0.3136,0.29449,0.27538
0.29427,0.30422,0.31417,0.33514,0.3561,0.38512,0.41413,0.4424,0.47067,0.50176,0.53285,0.56789,0.60293,0.6404,0.67787,0.71863,0.75938,0.80713,0.85488,0.90679,0.9587,1.0104,1.0621,1.1217,1.1813,1.2237,1.266,1.297,1.328,1.3588,1.6839,1.7257,1.7676,1.8174,1.8671,1.9112,1.9552,2.0011,2.047,2.0825,2.118,2.1433,2.1685,2.1946,2.2206,2.2395,2.2584,2.2782,2.2981,2.3242,2.3503,2.3722,2.394,2.4157,2.4374,2.4229,2.4083,2.3959,2.3835,2.3656,2.3477,2.3283,2.3089,2.2915,2.2741,2.2464,2.2188,2.198,2.1773,2.1491,2.121,2.0814,2.0417,2.0028,1.9638,1.9104,1.8569,1.8095,1.7622,1.7195,1.6769,1.3617,1.3319,1.294,1.2561,1.1992,1.1423,1.0989,1.0555,1.0068,0.95807,0.90679,0.85551,0.80928,0.76305,0.72038,0.67771,0.63931,0.60091,0.56838,0.53584,0.50599,0.47615,0.44861,0.42107,0.38949,0.35791,0.33843,0.31894,0.30211,0.28529
0.2996,0.30917,0.31873,0.34558,0.37243,0.40133,0.43023,0.46082,0.49141,0.52438,0.55736,0.5945,0.63165,0.67097,0.71029,0.75387,0.79744,0.8493,0.90117,0.95807,1.015,1.0736,1.1321,1.1966,1.261,1.3056,1.3502,1.382,1.4137,1.4463,1.7785,1.8218,1.8651,1.9236,1.9821,2.0291,2.0762,2.1276,2.1791,2.2181,2.257,2.2814,2.3057,2.3306,2.3555,2.3751,2.3946,2.4142,2.4338,2.4619,2.4901,2.5171,2.5442,2.5706,2.597,2.5901,2.5833,2.5596,2.5359,2.5149,2.4939,2.4713,2.4488,2.4309,2.413,2.3858,2.3587,2.3392,2.3198,2.2909,2.262,2.2171,2.1722,2.128,2.0838,2.0264,1.9691,1.913,1.8569,1.8136,1.7703,1.4436,1.4121,1.374,1.336,1.2846,1.2332,1.1777,1.1222,1.0686,1.015,0.9587,0.90243,0.85287,0.80331,0.75802,0.71273,0.67241,0.63209,0.59721,0.56232,0.5302,0.49809,0.46833,0.43857,0.40526,0.37194,0.3481,0.32427,0.30974,0.29521
0.30316,0.31728,0.33139,0.35869,0.38598,0.41632,0.44665,0.47916,0.51166,0.54684,0.58202,0.62113,0.66024,0.70191,0.74357,0.78962,0.83567,0.89036,0.94505,1.0068,1.0686,1.1328,1.1971,1.2653,1.3334,1.3806,1.4278,1.4626,1.4973,1.5321,1.87,1.9196,1.9692,2.0306,2.0921,2.1423,2.1924,2.2479,2.3034,2.3468,2.3903,2.4165,2.4427,2.4663,2.4898,2.5101,2.5304,2.5482,2.566,2.5955,2.6251,2.657,2.6889,2.7185,2.748,2.7418,2.7357,2.7125,2.6894,2.6649,2.6404,2.6127,2.5851,2.5649,2.5447,2.5178,2.491,2.4724,2.4538,2.4257,2.3976,2.3498,2.3019,2.2511,2.2003,2.1413,2.0824,2.0153,1.9483,1.9035,1.8587,1.5242,1.4919,1.4532,1.4146,1.3612,1.3079,1.25,1.1921,1.1328,1.0736,1.0104,0.94729,0.89294,0.8386,0.79189,0.74518,0.70363,0.66207,0.62568,0.58929,0.55438,0.51948,0.48676,0.45404,0.42085,0.38765,0.35748,0.3273,0.31478,0.30227
0.30673,0.32539,0.34405,0.37179,0.39954,0.43131,0.46308,0.4975,0.53191,0.5693,0.60669,0.64777,0.68884,0.73284,0.77685,0.82537,0.87389,0.93141,0.98893,1.0555,1.1222,1.1921,1.262,1.334,1.4059,1.4556,1.5054,1.5432,1.5809,1.6179,1.9615,2.0174,2.0733,2.1377,2.202,2.2554,2.3087,2.3682,2.4276,2.4756,2.5236,2.5516,2.5797,2.6019,2.6241,2.6452,2.6662,2.6822,2.6983,2.7292,2.76,2.7969,2.8337,2.8664,2.8991,2.8935,2.888,2.8655,2.843,2.815,2.7869,2.7542,2.7214,2.6989,2.6764,2.6498,2.6233,2.6055,2.5878,2.5605,2.5331,2.4824,2.4317,2.3742,2.3168,2.2562,2.1957,2.1177,2.0397,1.9934,1.9472,1.6048,1.5716,1.5324,1.4932,1.4379,1.3826,1.3223,1.262,1.1971,1.1321,1.0621,0.99214,0.93302,0.87389,0.82576,0.77762,0.73484,0.69205,0.65416,0.61626,0.57856,0.54087,0.50519,0.46951,0.43644,0.40336,0.36685,0.33033,0.31983,0.30933
0.31189,0.3305,0.3491,0.38043,0.41177,0.44492,0.47808,0.51462,0.55117,0.59071,0.63024,0.67362,0.71701,0.76385,0.81069,0.86162,0.91254,0.96637,1.0202,1.0989,1.1777,1.25,1.3223,1.3961,1.4699,1.5221,1.5743,1.6172,1.6602,1.7015,2.0548,2.1155,2.1762,2.2481,2.3199,2.3761,2.4322,2.4942,2.5562,2.6069,2.6576,2.689,2.7204,2.7428,2.7652,2.7864,2.8076,2.8184,2.8292,2.8685,2.9078,2.9446,2.9813,3.0125,3.0437,3.0381,3.0325,3.0133,2.9941,2.9668,2.9395,2.9067,2.874,2.8498,2.8255,2.7956,2.7656,2.7444,2.7232,2.6931,2.663,2.6117,2.5604,2.4989,2.4375,2.3731,2.3087,2.229,2.1494,2.0946,2.0398,1.6946,1.659,1.6164,1.5739,1.5161,1.4582,1.3961,1.334,1.2653,1.1966,1.1217,1.0469,0.98215,0.91741,0.86446,0.81151,0.76485,0.71819,0.67691,0.63564,0.59633,0.55703,0.51999,0.48294,0.44825,0.41356,0.37695,0.34035,0.32499,0.30964
0.31706,0.33561,0.35415,0.38907,0.424,0.45854,0.49308,0.53175,0.57042,0.61211,0.65379,0.69948,0.74518,0.79486,0.84454,0.89787,0.95119,1.0013,1.0515,1.1423,1.2332,1.3079,1.3826,1.4582,1.5338,1.5885,1.6432,1.6913,1.7394,1.7852,2.1481,2.2136,2.2792,2.3585,2.4378,2.4967,2.5557,2.6202,2.6847,2.7382,2.7917,2.8264,2.8611,2.8837,2.9063,2.9277,2.9491,2.9546,2.9602,3.0079,3.0556,3.0922,3.1289,3.1587,3.1884,3.1828,3.1771,3.1612,3.1453,3.1186,3.092,3.0593,3.0267,3.0007,2.9747,2.9413,2.908,2.8833,2.8586,2.8258,2.7929,2.741,2.6891,2.6236,2.5582,2.4899,2.4216,2.3404,2.2591,2.1957,2.1324,1.7844,1.7463,1.7004,1.6546,1.5942,1.5338,1.4699,1.4059,1.3334,1.261,1.1813,1.1016,1.0313,0.96092,0.90316,0.8454,0.79486,0.74432,0.69967,0.65501,0.6141,0.57319,0.53478,0.49638,0.46007,0.42376,0.38706,0.35036,0.33015,0.30994
0.32291,0.34239,0.36188,0.39712,0.43237,0.46782,0.50328,0.54428,0.58528,0.62972,0.67416,0.72281,0.77145,0.82515,0.87884,0.936,0.99316,1.0535,1.1138,1.1992,1.2846,1.3612,1.4379,1.5161,1.5942,1.6503,1.7064,1.7587,1.811,1.8615,2.2349,2.3055,2.3761,2.4572,2.5383,2.5996,2.6609,2.7285,2.7961,2.8505,2.9049,2.9429,2.9808,3.0081,3.0355,3.0596,3.0837,3.0965,3.1093,3.1496,3.1899,3.2225,3.2552,3.2807,3.3063,3.3006,3.2949,3.2808,3.2667,3.2421,3.2176,3.1867,3.1559,3.1222,3.0885,3.0602,3.0319,3.0057,2.9796,2.9418,2.904,2.85,2.7959,2.7295,2.6632,2.593,2.5229,2.4402,2.3575,2.2893,2.2211,1.8613,1.8173,1.7647,1.7121,1.6503,1.5885,1.5221,1.4556,1.3806,1.3056,1.2237,1.1417,1.0621,0.98254,0.92839,0.87424,0.82152,0.76881,0.72106,0.67331,0.62994,0.58656,0.54655,0.50653,0.46947,0.43241,0.39722,0.36203,0.33893,0.31584
0.32875,0.34918,0.36962,0.40517,0.44073,0.4771,0.51347,0.55681,0.60014,0.64734,0.69454,0.74613,0.79773,0.85543,0.91313,0.97413,1.0351,1.1057,1.1762,1.2561,1.336,1.4146,1.4932,1.5739,1.6546,1.7121,1.7695,1.8261,1.8827,1.9378,2.3217,2.3973,2.4729,2.5559,2.6389,2.7025,2.7662,2.8368,2.9074,2.9627,3.0181,3.0593,3.1005,3.1326,3.1646,3.1914,3.2182,3.2383,3.2583,3.2912,3.3241,3.3528,3.3815,3.4028,3.4241,3.4184,3.4128,3.4004,3.3881,3.3656,3.3432,3.3142,3.2852,3.2437,3.2023,3.1791,3.1558,3.1282,3.1005,3.0578,3.0151,2.9589,2.9027,2.8354,2.7682,2.6962,2.6242,2.54,2.4558,2.3828,2.3099,1.9382,1.8884,1.829,1.7695,1.7064,1.6432,1.5743,1.5054,1.4278,1.3502,1.266,1.1818,1.093,1.0042,0.95362,0.90308,0.84819,0.79329,0.74245,0.69161,0.64577,0.59994,0.55831,0.51669,0.47887,0.44106,0.40737,0.37369,0.34772,0.32175
0.33247,0.35602,0.37957,0.41377,0.44798,0.48481,0.52164,0.56576,0.60989,0.65918,0.70848,0.76331,0.81814,0.87934,0.94053,1.005,1.0695,1.1417,1.214,1.294,1.374,1.4532,1.5324,1.6164,1.7004,1.7647,1.829,1.8916,1.9543,2.0132,2.4044,2.4834,2.5623,2.6439,2.7255,2.7884,2.8513,2.9202,2.9892,3.0428,3.0963,3.1409,3.1854,3.2249,3.2643,3.2945,3.3247,3.3464,3.3682,3.4014,3.4346,3.4621,3.4896,3.5081,3.5265,3.5234,3.5203,3.5089,3.4975,3.4757,3.4539,3.4243,3.3947,3.3593,3.3239,3.2906,3.2574,3.224,3.1906,3.1426,3.0946,3.0368,2.979,2.9143,2.8495,2.7767,2.7039,2.6194,2.5348,2.4617,2.3885,2.0089,1.9572,1.8916,1.8261,1.7587,1.6913,1.6172,1.5432,1.4626,1.382,1.297,1.212,1.1292,1.0464,0.98704,0.92771,0.86949,0.81126,0.75903,0.70679,0.65925,0.6117,0.56873,0.52577,0.48726,0.44875,0.41468,0.38061,0.35428,0.32795
0.3362,0.36286,0.38952,0.42237,0.45522,0.49251,0.5298,0.57472,0.61964,0.67103,0.72242,0.78049,0.83856,0.90324,0.96792,1.0359,1.1039,1.1778,1.2517,1.3319,1.4121,1.4919,1.5716,1.659,1.7463,1.8173,1.8884,1.9572,2.026,2.0885,2.4871,2.5694,2.6516,2.7319,2.8121,2.8743,2.9364,3.0037,3.071,3.1228,3.1746,3.2225,3.2704,3.3171,3.3639,3.3975,3.4311,3.4546,3.478,3.5115,3.5451,3.5714,3.5976,3.6133,3.629,3.6284,3.6278,3.6173,3.6069,3.5858,3.5647,3.5345,3.5043,3.4749,3.4455,3.4022,3.3589,3.3198,3.2806,3.2274,3.1741,3.1147,3.0553,2.9931,2.9308,2.8572,2.7836,2.6987,2.6138,2.5405,2.4672,2.0795,2.026,1.9543,1.8827,1.811,1.7394,1.6602,1.5809,1.4973,1.4137,1.328,1.2422,1.1654,1.0886,1.0205,0.95233,0.89078,0.82924,0.77561,0.72197,0.67272,0.62346,0.57915,0.53485,0.49564,0.45644,0.42199,0.38753,0.36084,0.33416
0.34151,0.36834,0.39518,0.42866,0.46214,0.49999,0.53784,0.58423,0.63063,0.68411,0.73759,0.79743,0.85728,0.9233,0.98932,1.0583,1.1272,1.2035,1.2799,1.3617,1.4436,1.5242,1.6048,1.6946,1.7844,1.8613,1.9382,2.0089,2.0795,2.1429,2.5478,2.6319,2.7161,2.7978,2.8795,2.9432,3.0069,3.0749,3.1428,3.196,3.2492,3.2991,3.3489,3.3982,3.4474,3.4833,3.5191,3.545,3.5709,3.6059,3.6409,3.6671,3.6932,3.7077,3.7222,3.7228,3.7234,3.7104,3.6974,3.675,3.6526,3.6224,3.5922,3.562,3.5318,3.4792,3.4267,3.3926,3.3584,3.3021,3.2458,3.186,3.1263,3.0641,3.0019,2.929,2.8561,2.7707,2.6853,2.6112,2.5372,2.1429,2.0885,2.0132,1.9378,1.8615,1.7852,1.7015,1.6179,1.5321,1.4463,1.3588,1.2713,1.1928,1.1144,1.036,0.95763,0.90192,0.84621,0.79019,0.73417,0.68438,0.6346,0.58923,0.54386,0.504,0.46414,0.42921,0.39429,0.36707,0.33986
0.34682,0.37383,0.40084,0.43495,0.46906,0.50747,0.54588,0.59375,0.64162,0.69718,0.75275,0.81438,0.87601,0.94336,1.0107,1.0806,1.1505,1.2293,1.308,1.3916,1.4751,1.5565,1.6379,1.7302,1.8224,1.9053,1.9881,2.0606,2.133,2.1973,2.6085,2.6945,2.7806,2.8637,2.9469,3.0122,3.0774,3.1461,3.2147,3.2692,3.3238,3.3756,3.4275,3.4792,3.5309,3.569,3.6071,3.6354,3.6637,3.7002,3.7368,3.7628,3.7888,3.8021,3.8154,3.8173,3.8191,3.8035,3.7878,3.7642,3.7405,3.7103,3.6801,3.6491,3.618,3.5562,3.4945,3.4654,3.4363,3.3768,3.3174,3.2573,3.1972,3.1351,3.073,3.0008,2.9285,2.8426,2.7567,2.682,2.6072,2.2063,2.1509,2.072,1.993,1.912,1.831,1.7429,1.6548,1.5668,1.4789,1.3896,1.3004,1.2203,1.1402,1.0516,0.96292,0.91305,0.86319,0.80477,0.74636,0.69604,0.64573,0.5993,0.55288,0.51235,0.47183,0.43644,0.40104,0.3733,0.34556
0.34987,0.37779,0.4057,0.4408,0.4759,0.51556,0.55522,0.60429,0.65336,0.70898,0.76459,0.82665,0.88871,0.94985,1.011,1.0908,1.1705,1.2507,1.3309,1.4174,1.5038,1.5887,1.6736,1.7696,1.8656,1.9504,2.0351,2.1074,2.1796,2.2442,2.6586,2.7469,2.8353,2.9227,3.0101,3.0788,3.1474,3.2196,3.2918,3.3477,3.4036,3.4537,3.5037,3.5482,3.5926,3.6416,3.6907,3.7196,3.7485,3.7865,3.8245,3.8523,3.8801,3.8969,3.9137,3.9134,3.9131,3.8924,3.8717,3.8465,3.8213,3.7906,3.76,3.7293,3.6985,3.6442,3.5898,3.5531,3.5165,3.4571,3.3977,3.3342,3.2708,3.2075,3.1442,3.0722,3.0002,2.9123,2.8243,2.7475,2.6707,2.2636,2.2065,2.1273,2.0482,1.9631,1.878,1.785,1.692,1.6023,1.5126,1.4215,1.3304,1.2474,1.1643,1.081,0.99762,0.93784,0.87806,0.81838,0.75869,0.70724,0.65579,0.6092,0.56261,0.52135,0.48009,0.44342,0.40674,0.37839,0.35004
0.35293,0.38175,0.41057,0.44665,0.48274,0.52365,0.56456,0.61483,0.66511,0.72077,0.77644,0.83892,0.90141,0.95634,1.0113,1.1009,1.1905,1.2722,1.3538,1.4432,1.5326,1.621,1.7094,1.809,1.9087,1.9954,2.0821,2.1542,2.2262,2.291,2.7086,2.7993,2.89,2.9817,3.0733,3.1454,3.2174,3.2931,3.3688,3.4261,3.4834,3.5317,3.5799,3.6171,3.6544,3.7143,3.7742,3.8037,3.8333,3.8728,3.9123,3.9419,3.9714,3.9917,4.0121,4.0096,4.0072,3.9813,3.9555,3.9288,3.9021,3.871,3.8399,3.8095,3.779,3.7321,3.6852,3.6409,3.5967,3.5374,3.478,3.4112,3.3443,3.2799,3.2154,3.1437,3.072,2.9819,2.8919,2.8131,2.7342,2.3209,2.2621,2.1827,2.1033,2.0142,1.925,1.8271,1.7293,1.6378,1.5464,1.4534,1.3605,1.2745,1.1885,1.1104,1.0323,0.96263,0.89294,0.83198,0.77103,0.71843,0.66584,0.61909,0.57234,0.53035,0.48836,0.4504,0.41244,0.38348,0.35451
0.35677,0.3863,0.41582,0.45306,0.49029,0.53262,0.57494,0.62561,0.67628,0.73219,0.7881,0.85232,0.91653,0.98053,1.0445,1.1275,1.2104,1.2939,1.3774,1.4711,1.5649,1.6579,1.7508,1.8521,1.9533,2.043,2.1326,2.2047,2.2767,2.3414,2.7629,2.8552,2.9474,3.0431,3.1389,3.2138,3.2887,3.3663,3.4439,3.5032,3.5625,3.612,3.6616,3.7063,3.7509,3.8032,3.8555,3.8839,3.9124,3.953,3.9936,4.027,4.0603,4.0822,4.1041,4.103,4.102,4.0723,4.0426,4.0134,3.9842,3.9511,3.918,3.8884,3.8589,3.8113,3.7637,3.7192,3.6748,3.6155,3.5563,3.4886,3.4209,3.3546,3.2883,3.2151,3.1418,3.0476,2.9535,2.8706,2.7877,2.3691,2.3095,2.2301,2.1507,2.0601,1.9694,1.8676,1.7659,1.672,1.578,1.4822,1.3864,1.2983,1.2103,1.1302,1.05,0.97857,0.90711,0.84454,0.78198,0.72892,0.67587,0.62892,0.58196,0.5393,0.49664,0.45756,0.41849,0.38869,0.35889
0.36062,0.39085,0.42107,0.45946,0.49784,0.54158,0.58532,0.63639,0.68745,0.74361,0.79976,0.86571,0.93165,1.0047,1.0778,1.154,1.2302,1.3156,1.4009,1.499,1.5971,1.6947,1.7923,1.8951,1.9979,2.0905,2.1831,2.2552,2.3272,2.3919,2.8173,2.911,3.0047,3.1046,3.2044,3.2822,3.3599,3.4395,3.519,3.5803,3.6415,3.6924,3.7433,3.7954,3.8475,3.8922,3.9368,3.9641,3.9915,4.0332,4.0749,4.1121,4.1492,4.1726,4.196,4.1965,4.1969,4.1633,4.1297,4.098,4.0664,4.0312,3.996,3.9673,3.9387,3.8905,3.8423,3.7976,3.7528,3.6937,3.6347,3.5661,3.4975,3.4294,3.3613,3.2864,3.2115,3.1133,3.0151,2.9281,2.8411,2.4174,2.3569,2.2775,2.1982,2.106,2.0138,1.9081,1.8025,1.7061,1.6097,1.511,1.4124,1.3222,1.2321,1.1499,1.0677,0.99451,0.92127,0.8571,0.79293,0.73942,0.68591,0.63875,0.59159,0.54826,0.50493,0.46473,0.42453,0.3939,0.36327
0.36312,0.39458,0.42604,0.46588,0.50572,0.55112,0.59652,0.64848,0.70044,0.75763,0.81483,0.88071,0.94659,1.0197,1.0929,1.1703,1.2477,1.3341,1.4206,1.5209,1.6212,1.7205,1.8198,1.9248,2.0298,2.1236,2.2173,2.2894,2.3616,2.425,2.8515,2.9455,3.0394,3.1416,3.2439,3.3234,3.403,3.4815,3.5599,3.6222,3.6844,3.737,3.7896,3.8433,3.897,3.9426,3.9882,4.0153,4.0423,4.0841,4.1259,4.1637,4.2015,4.2284,4.2553,4.2554,4.2555,4.2206,4.1857,4.1509,4.1162,4.0769,4.0376,4.0086,3.9796,3.9321,3.8845,3.8382,3.7919,3.733,3.6742,3.6077,3.5411,3.4736,3.4062,3.33,3.2538,3.1522,3.0506,2.9607,2.8708,2.4432,2.3817,2.3036,2.2254,2.1318,2.0382,1.9311,1.8241,1.7259,1.6278,1.526,1.4243,1.3329,1.2415,1.1597,1.078,1.0052,0.93241,0.86852,0.80463,0.75139,0.69816,0.65013,0.60209,0.55768,0.51327,0.4711,0.42893,0.39753,0.36614
0.36563,0.39832,0.431,0.4723,0.5136,0.56065,0.60771,0.66057,0.71343,0.77166,0.82989,0.89571,0.96153,1.0347,1.108,1.1865,1.2651,1.3527,1.4402,1.5427,1.6452,1.7463,1.8473,1.9545,2.0618,2.1566,2.2515,2.3237,2.396,2.4581,2.8858,2.9799,3.0741,3.1787,3.2833,3.3647,3.4462,3.5235,3.6008,3.6641,3.7274,3.7816,3.8358,3.8911,3.9464,3.993,4.0397,4.0664,4.0931,4.1349,4.1768,4.2153,4.2539,4.2842,4.3145,4.3143,4.3141,4.2779,4.2416,4.2039,4.1661,4.1227,4.0793,4.0499,4.0206,3.9736,3.9267,3.8788,3.8309,3.7724,3.7138,3.6493,3.5847,3.5179,3.4511,3.3736,3.2962,3.1912,3.0862,2.9934,2.9006,2.4691,2.4066,2.3296,2.2527,2.1577,2.0626,1.9541,1.8456,1.7458,1.6459,1.5411,1.4362,1.3435,1.2509,1.1696,1.0882,1.0159,0.94354,0.87994,0.81633,0.76337,0.71041,0.6615,0.6126,0.56711,0.52162,0.47747,0.43332,0.40116,0.36901
0.36801,0.40106,0.43412,0.47672,0.51932,0.56802,0.61673,0.67044,0.72415,0.78168,0.83921,0.90403,0.96886,1.0415,1.1141,1.1926,1.2711,1.3599,1.4487,1.5542,1.6597,1.7644,1.869,1.979,2.0889,2.183,2.2771,2.3455,2.4139,2.4749,2.9038,2.9994,3.0949,3.2024,3.31,3.3915,3.4731,3.5554,3.6377,3.7062,3.7746,3.8252,3.8759,3.9265,3.977,4.0256,4.0742,4.1006,4.127,4.1695,4.212,4.255,4.298,4.3334,4.3688,4.3672,4.3656,4.3251,4.2846,4.2436,4.2026,4.157,4.1114,4.0825,4.0537,4.0048,3.956,3.9114,3.8668,3.8144,3.7621,3.6945,3.6269,3.5551,3.4833,3.4061,3.3289,3.2213,3.1138,3.0182,2.9226,2.4906,2.429,2.3545,2.28,2.1842,2.0885,1.9796,1.8707,1.7687,1.6668,1.5587,1.4506,1.3568,1.263,1.1813,1.0996,1.0264,0.95323,0.88996,0.82669,0.77325,0.71982,0.67012,0.62043,0.57313,0.52583,0.48065,0.43548,0.40289,0.37031
0.37039,0.40381,0.43723,0.48113,0.52504,0.57539,0.62574,0.68031,0.73488,0.7917,0.84853,0.91236,0.97619,1.0482,1.1203,1.1988,1.2772,1.3672,1.4571,1.5656,1.6741,1.7825,1.8908,2.0034,2.1159,2.2094,2.3028,2.3673,2.4318,2.4917,2.9219,3.0188,3.1157,3.2262,3.3366,3.4183,3.5,3.5874,3.6747,3.7482,3.8217,3.8689,3.916,3.9618,4.0076,4.0582,4.1088,4.1348,4.1608,4.204,4.2472,4.2947,4.3422,4.3827,4.4232,4.4201,4.4171,4.3723,4.3275,4.2834,4.2392,4.1914,4.1435,4.1152,4.0868,4.036,3.9853,3.944,3.9028,3.8565,3.8103,3.7397,3.6691,3.5923,3.5156,3.4386,3.3616,3.2515,3.1414,3.043,2.9447,2.5122,2.4514,2.3793,2.3073,2.2108,2.1143,2.005,1.8957,1.7917,1.6877,1.5764,1.465,1.3701,1.2752,1.1931,1.111,1.0369,0.96292,0.89998,0.83705,0.78314,0.72922,0.67874,0.62827,0.57915,0.53004,0.48384,0.43764,0.40462,0.37161
0.3711,0.40455,0.438,0.4829,0.5278,0.57853,0.62926,0.68349,0.73771,0.79396,0.85022,0.90651,0.9628,1.0425,1.1222,1.201,1.2799,1.3719,1.4639,1.5754,1.6869,1.7954,1.9039,2.0154,2.1269,2.22,2.3132,2.3776,2.442,2.5016,2.9324,3.0316,3.1308,3.2426,3.3545,3.4348,3.5152,3.6047,3.6942,3.767,3.8397,3.8795,3.9193,3.967,4.0146,4.0656,4.1165,4.1429,4.1692,4.2141,4.2589,4.3073,4.3556,4.399,4.4423,4.4408,4.4393,4.3938,4.3483,4.3016,4.2549,4.2078,4.1606,4.1331,4.1055,4.0545,4.0034,3.9581,3.9127,3.8733,3.834,3.7627,3.6914,3.6072,3.5229,3.4449,3.367,3.2553,3.1436,3.0437,2.9438,2.5119,2.4518,2.3836,2.3154,2.2208,2.1261,2.0162,1.9063,1.8,1.6937,1.5808,1.4678,1.3733,1.2788,1.1982,1.1175,1.0368,0.95616,0.90032,0.84448,0.78968,0.73488,0.6827,0.63053,0.58042,0.53031,0.48426,0.43821,0.40496,0.37171
0.37182,0.4053,0.43878,0.48467,0.53057,0.58168,0.63279,0.68666,0.74054,0.79622,0.85191,0.90066,0.9494,1.0367,1.1241,1.2033,1.2825,1.3766,1.4707,1.5852,1.6997,1.8083,1.9169,2.0274,2.1379,2.2307,2.3235,2.3879,2.4522,2.5116,2.9429,3.0443,3.1458,3.259,3.3723,3.4513,3.5303,3.622,3.7138,3.7857,3.8577,3.8902,3.9226,3.9721,4.0216,4.0729,4.1242,4.1509,4.1776,4.2242,4.2707,4.3199,4.3691,4.4153,4.4615,4.4615,4.4615,4.4153,4.3691,4.3199,4.2707,4.2242,4.1776,4.1509,4.1242,4.0729,4.0216,3.9721,3.9226,3.8902,3.8577,3.7857,3.7138,3.622,3.5303,3.4513,3.3723,3.259,3.1458,3.0443,2.9429,2.5116,2.4522,2.3879,2.3235,2.2307,2.1379,2.0274,1.9169,1.8083,1.6997,1.5852,1.4707,1.3766,1.2825,1.2033,1.1241,1.0367,0.9494,0.90066,0.85191,0.79622,0.74054,0.68666,0.63279,0.58168,0.53057,0.48467,0.43878,0.4053,0.37182
0.37171,0.40496,0.43821,0.48426,0.53031,0.58042,0.63053,0.6827,0.73488,0.78968,0.84448,0.90032,0.95616,1.0368,1.1175,1.1982,1.2788,1.3733,1.4678,1.5808,1.6937,1.8,1.9063,2.0162,2.1261,2.2208,2.3154,2.3836,2.4518,2.5119,2.9438,3.0437,3.1436,3.2553,3.367,3.4449,3.5229,3.6072,3.6914,3.7627,3.834,3.8733,3.9127,3.9581,4.0034,4.0545,4.1055,4.1331,4.1606,4.2078,4.2549,4.3016,4.3483,4.3938,4.4393,4.4408,4.4423,4.399,4.3556,4.3073,4.2589,4.2141,4.1692,4.1429,4.1165,4.0656,4.0146,3.967,3.9193,3.8795,3.8397,3.767,3.6942,3.6047,3.5152,3.4348,3.3545,3.2426,3.1308,3.0316,2.9324,2.5016,2.442,2.3776,2.3132,2.22,2.1269,2.0154,1.9039,1.7954,1.6869,1.5754,1.4639,1.3719,1.2799,1.201,1.1222,1.0425,0.9628,0.90651,0.85022,0.79396,0.73771,0.68349,0.62926,0.57853,0.5278,0.4829,0.438,0.40455,0.3711
0.37161,0.40462,0.43764,0.48384,0.53004,0.57915,0.62827,0.67874,0.72922,0.78314,0.83705,0.89998,0.96292,1.0369,1.111,1.1931,1.2752,1.3701,1.465,1.5764,1.6877,1.7917,1.8957,2.005,2.1143,2.2108,2.3073,2.3793,2.4514,2.5122,2.9447,3.043,3.1414,3.2515,3.3616,3.4386,3.5156,3.5923,3.6691,3.7397,3.8103,3.8565,3.9028,3.944,3.9853,4.036,4.0868,4.1152,4.1435,4.1914,4.2392,4.2834,4.3275,4.3723,4.4171,4.4201,4.4232,4.3827,4.3422,4.2947,4.2472,4.204,4.1608,4.1348,4.1088,4.0582,4.0076,3.9618,3.916,3.8689,3.8217,3.7482,3.6747,3.5874,3.5,3.4183,3.3366,3.2262,3.1157,3.0188,2.9219,2.4917,2.4318,2.3673,2.3028,2.2094,2.1159,2.0034,1.8908,1.7825,1.6741,1.5656,1.4571,1.3672,1.2772,1.1988,1.1203,1.0482,0.97619,0.91236,0.84853,0.7917,0.73488,0.68031,0.62574,0.57539,0.52504,0.48113,0.43723,0.40381,0.37039
0.37031,0.40289,0.43548,0.48065,0.52583,0.57313,0.62043,0.67012,0.71982,0.77325,0.82669,0.88996,0.95323,1.0264,1.0996,1.1813,1.263,1.3568,1.4506,1.5587,1.6668,1.7687,1.8707,1.9796,2.0885,2.1842,2.28,2.3545,2.429,2.4906,2.9226,3.0182,3.1138,3.2213,3.3289,3.4061,3.4833,3.5551,3.6269,3.6945,3.7621,3.8144,3.8668,3.9114,3.956,4.0048,4.0537,4.0825,4.1114,4.157,4.2026,4.2436,4.2846,4.3251,4.3656,4.3672,4.3688,4.3334,4.298,4.255,4.212,4.1695,4.127,4.1006,4.0742,4.0256,3.977,3.9265,3.8759,3.8252,3.7746,3.7062,3.6377,3.5554,3.4731,3.3915,3.31,3.2024,3.0949,2.9994,2.9038,2.4749,2.4139,2.3455,2.2771,2.183,2.0889,1.979,1.869,1.7644,1.6597,1.5542,1.4487,1.3599,1.2711,1.1926,1.1141,1.0415,0.96886,0.90403,0.83921,0.78168,0.72415,0.67044,0.61673,0.56802,0.51932,0.47672,0.43412,0.40106,0.36801
0.36901,0.40116,0.43332,0.47747,0.52162,0.56711,0.6126,0.6615,0.71041,0.76337,0.81633,0.87994,0.94354,1.0159,1.0882,1.1696,1.2509,1.3435,1.4362,1.5411,1.6459,1.7458,1.8456,1.9541,2.0626,2.1577,2.2527,2.3296,2.4066,2.4691,2.9006,2.9934,3.0862,3.1912,3.2962,3.3736,3.4511,3.5179,3.5847,3.6493,3.7138,3.7724,3.8309,3.8788,3.9267,3.9736,4.0206,4.0499,4.0793,4.1227,4.1661,4.2039,4.2416,4.2779,4.3141,4.3143,4.3145,4.2842,4.2539,4.2153,4.1768,4.1349,4.0931,4.0664,4.0397,3.993,3.9464,3.8911,3.8358,3.7816,3.7274,3.6641,3.6008,3.5235,3.4462,3.3647,3.2833,3.1787,3.0741,2.9799,2.8858,2.4581,2.396,2.3237,2.2515,2.1566,2.0618,1.9545,1.8473,1.7463,1.6452,1.5427,1.4402,1.3527,1.2651,1.1865,1.108,1.0347,0.96153,0.89571,0.82989,0.77166,0.71343,0.66057,0.60771,0.56065,0.5136,0.4723,0.431,0.39832,0.36563
0.36614,0.39753,0.42893,0.4711,0.51327,0.55768,0.60209,0.65013,0.69816,0.75139,0.80463,0.86852,0.93241,1.0052,1.078,1.1597,1.2415,1.3329,1.4243,1.526,1.6278,1.7259,1.8241,1.9311,2.0382,2.1318,2.2254,2.3036,2.3817,2.4432,2.8708,2.9607,3.0506,3.1522,3.2538,3.33,3.4062,3.4736,3.5411,3.6077,3.6742,3.733,3.7919,3.8382,3.8845,3.9321,3.9796,4.0086,4.0376,4.0769,4.1162,4.1509,4.1857,4.2206,4.2555,4.2554,4.2553,4.2284,4.2015,4.1637,4.1259,4.0841,4.0423,4.0153,3.9882,3.9426,3.897,3.8433,3.7896,3.737,3.6844,3.6222,3.5599,3.4815,3.403,3.3234,3.2439,3.1416,3.0394,2.9455,2.8515,2.425,2.3616,2.2894,2.2173,2.1236,2.0298,1.9248,1.8198,1.7205,1.6212,1.5209,1.4206,1.3341,1.2477,1.1703,1.0929,1.0197,0.94659,0.88071,0.81483,0.75763,0.70044,0.64848,0.59652,0.55112,0.50572,0.46588,0.42604,0.39458,0.36312
0.36327,0.3939,0.42453,0.46473,0.50493,0.54826,0.59159,0.63875,0.68591,0.73942,0.79293,0.8571,0.92127,0.99451,1.0677,1.1499,1.2321,1.3222,1.4124,1.511,1.6097,1.7061,1.8025,1.9081,2.0138,2.106,2.1982,2.2775,2.3569,2.4174,2.8411,2.9281,3.0151,3.1133,3.2115,3.2864,3.3613,3.4294,3.4975,3.5661,3.6347,3.6937,3.7528,3.7976,3.8423,3.8905,3.9387,3.9673,3.996,4.0312,4.0664,4.098,4.1297,4.1633,4.1969,4.1965,4.196,4.1726,4.1492,4.1121,4.0749,4.0332,3.9915,3.9641,3.9368,3.8922,3.8475,3.7954,3.7433,3.6924,3.6415,3.5803,3.519,3.4395,3.3599,3.2822,3.2044,3.1046,3.0047,2.911,2.8173,2.3919,2.3272,2.2552,2.1831,2.0905,1.9979,1.8951,1.7923,1.6947,1.5971,1.499,1.4009,1.3156,1.2302,1.154,1.0778,1.0047,0.93165,0.86571,0.79976,0.74361,0.68745,0.63639,0.58532,0.54158,0.49784,0.45946,0.42107,0.39085,0.36062
0.35889,0.38869,0.41849,0.45756,0.49664,0.5393,0.58196,0.62892,0.67587,0.72892,0.78198,0.84454,0.90711,0.97857,1.05,1.1302,1.2103,1.2983,1.3864,1.4822,1.578,1.672,1.7659,1.8676,1.9694,2.0601,2.1507,2.2301,2.3095,2.3691,2.7877,2.8706,2.9535,3.0476,3.1418,3.2151,3.2883,3.3546,3.4209,3.4886,3.5563,3.6155,3.6748,3.7192,3.7637,3.8113,3.8589,3.8884,3.918,3.9511,3.9842,4.0134,4.0426,4.0723,4.102,4.103,4.1041,4.0822,4.0603,4.027,3.9936,3.953,3.9124,3.8839,3.8555,3.8032,3.7509,3.7063,3.6616,3.612,3.5625,3.5032,3.4439,3.3663,3.2887,3.2138,3.1389,3.0431,2.9474,2.8552,2.7629,2.3414,2.2767,2.2047,2.1326,2.043,1.9533,1.8521,1.7508,1.6579,1.5649,1.4711,1.3774,1.2939,1.2104,1.1275,1.0445,0.98053,0.91653,0.85232,0.7881,0.73219,0.67628,0.62561,0.57494,0.53262,0.49029,0.45306,0.41582,0.3863,0.35677
0.35451,0.38348,0.41244,0.4504,0.48836,0.53035,0.57234,0.61909,0.66584,0.71843,0.77103,0.83198,0.89294,0.96263,1.0323,1.1104,1.1885,1.2745,1.3605,1.4534,1.5464,1.6378,1.7293,1.8271,1.925,2.0142,2.1033,2.1827,2.2621,2.3209,2.7342,2.8131,2.8919,2.9819,3.072,3.1437,3.2154,3.2799,3.3443,3.4112,3.478,3.5374,3.5967,3.6409,3.6852,3.7321,3.779,3.8095,3.8399,3.871,3.9021,3.9288,3.9555,3.9813,4.0072,4.0096,4.0121,3.9917,3.9714,3.9419,3.9123,3.8728,3.8333,3.8037,3.7742,3.7143,3.6544,3.6171,3.5799,3.5317,3.4834,3.4261,3.3688,3.2931,3.2174,3.1454,3.0733,2.9817,2.89,2.7993,2.7086,2.291,2.2262,2.1542,2.0821,1.9954,1.9087,1.809,1.7094,1.621,1.5326,1.4432,1.3538,1.2722,1.1905,1.1009,1.0113,0.95634,0.90141,0.83892,0.77644,0.72077,0.66511,0.61483,0.56456,0.52365,0.48274,0.44665,0.41057,0.38175,0.35293
0.35004,0.37839,0.40674,0.44342,0.48009,0.52135,0.56261,0.6092,0.65579,0.70724,0.75869,0.81838,0.87806,0.93784,0.99762,1.081,1.1643,1.2474,1.3304,1.4215,1.5126,1.6023,1.692,1.785,1.878,1.9631,2.0482,2.1273,2.2065,2.2636,2.6707,2.7475,2.8243,2.9123,3.0002,3.0722,3.1442,3.2075,3.2708,3.3342,3.3977,3.4571,3.5165,3.5531,3.5898,3.6442,3.6985,3.7293,3.76,3.7906,3.8213,3.8465,3.8717,3.8924,3.9131,3.9134,3.9137,3.8969,3.8801,3.8523,3.8245,3.7865,3.7485,3.7196,3.6907,3.6416,3.5926,3.5482,3.5037,3.4537,3.4036,3.3477,3.2918,3.2196,3.1474,3.0788,3.0101,2.9227,2.8353,2.7469,2.6586,2.2442,2.1796,2.1074,2.0351,1.9504,1.8656,1.7696,1.6736,1.5887,1.5038,1.4174,1.3309,1.2507,1.1705,1.0908,1.011,0.94985,0.88871,0.82665,0.76459,0.70898,0.65336,0.60429,0.55522,0.51556,0.4759,0.4408,0.4057,0.37779,0.34987
0.34556,0.3733,0.40104,0.43644,0.47183,0.51235,0.55288,0.5993,0.64573,0.69604,0.74636,0.80477,0.86319,0.91305,0.96292,1.0516,1.1402,1.2203,1.3004,1.3896,1.4789,1.5668,1.6548,1.7429,1.831,1.912,1.993,2.072,2.1509,2.2063,2.6072,2.682,2.7567,2.8426,2.9285,3.0008,3.073,3.1351,3.1972,3.2573,3.3174,3.3768,3.4363,3.4654,3.4945,3.5562,3.618,3.6491,3.6801,3.7103,3.7405,3.7642,3.7878,3.8035,3.8191,3.8173,3.8154,3.8021,3.7888,3.7628,3.7368,3.7002,3.6637,3.6354,3.6071,3.569,3.5309,3.4792,3.4275,3.3756,3.3238,3.2692,3.2147,3.1461,3.0774,3.0122,2.9469,2.8637,2.7806,2.6945,2.6085,2.1973,2.133,2.0606,1.9881,1.9053,1.8224,1.7302,1.6379,1.5565,1.4751,1.3916,1.308,1.2293,1.1505,1.0806,1.0107,0.94336,0.87601,0.81438,0.75275,0.69718,0.64162,0.59375,0.54588,0.50747,0.46906,0.43495,0.40084,0.37383,0.34682
0.33986,0.36707,0.39429,0.42921,0.46414,0.504,0.54386,0.58923,0.6346,0.68438,0.73417,0.79019,0.84621,0.90192,0.95763,1.036,1.1144,1.1928,1.2713,1.3588,1.4463,1.5321,1.6179,1.7015,1.7852,1.8615,1.9378,2.0132,2.0885,2.1429,2.5372,2.6112,2.6853,2.7707,2.8561,2.929,3.0019,3.0641,3.1263,3.186,3.2458,3.3021,3.3584,3.3926,3.4267,3.4792,3.5318,3.562,3.5922,3.6224,3.6526,3.675,3.6974,3.7104,3.7234,3.7228,3.7222,3.7077,3.6932,3.6671,3.6409,3.6059,3.5709,3.545,3.5191,3.4833,3.4474,3.3982,3.3489,3.2991,3.2492,3.196,3.1428,3.0749,3.0069,2.9432,2.8795,2.7978,2.7161,2.6319,2.5478,2.1429,2.0795,2.0089,1.9382,1.8613,1.7844,1.6946,1.6048,1.5242,1.4436,1.3617,1.2799,1.2035,1.1272,1.0583,0.98932,0.9233,0.85728,0.79743,0.73759,0.68411,0.63063,0.58423,0.53784,0.49999,0.46214,0.42866,0.39518,0.36834,0.34151
0.33416,0.36084,0.38753,0.42199,0.45644,0.49564,0.53485,0.57915,0.62346,0.67272,0.72197,0.77561,0.82924,0.89078,0.95233,1.0205,1.0886,1.1654,1.2422,1.328,1.4137,1.4973,1.5809,1.6602,1.7394,1.811,1.8827,1.9543,2.026,2.0795,2.4672,2.5405,2.6138,2.6987,2.7836,2.8572,2.9308,2.9931,3.0553,3.1147,3.1741,3.2274,3.2806,3.3198,3.3589,3.4022,3.4455,3.4749,3.5043,3.5345,3.5647,3.5858,3.6069,3.6173,3.6278,3.6284,3.629,3.6133,3.5976,3.5714,3.5451,3.5115,3.478,3.4546,3.4311,3.3975,3.3639,3.3171,3.2704,3.2225,3.1746,3.1228,3.071,3.0037,2.9364,2.8743,2.8121,2.7319,2.6516,2.5694,2.4871,2.0885,2.026,1.9572,1.8884,1.8173,1.7463,1.659,1.5716,1.4919,1.4121,1.3319,1.2517,1.1778,1.1039,1.0359,0.96792,0.90324,0.83856,0.78049,0.72242,0.67103,0.61964,0.57472,0.5298,0.49251,0.45522,0.42237,0.38952,0.36286,0.3362
0.32795,0.35428,0.38061,0.41468,0.44875,0.48726,0.52577,0.56873,0.6117,0.65925,0.70679,0.75903,0.81126,0.86949,0.92771,0.98704,1.0464,1.1292,1.212,1.297,1.382,1.4626,1.5432,1.6172,1.6913,1.7587,1.8261,1.8916,1.9572,2.0089,2.3885,2.4617,2.5348,2.6194,2.7039,2.7767,2.8495,2.9143,2.979,3.0368,3.0946,3.1426,3.1906,3.224,3.2574,3.2906,3.3239,3.3593,3.3947,3.4243,3.4539,3.4757,3.4975,3.5089,3.5203,3.5234,3.5265,3.5081,3.4896,3.4621,3.4346,3.4014,3.3682,3.3464,3.3247,3.2945,3.2643,3.2249,3.1854,3.1409,3.0963,3.0428,2.9892,2.9202,2.8513,2.7884,2.7255,2.6439,2.5623,2.4834,2.4044,2.0132,1.9543,1.8916,1.829,1.7647,1.7004,1.6164,1.5324,1.4532,1.374,1.294,1.214,1.1417,1.0695,1.005,0.94053,0.87934,0.81814,0.76331,0.70848,0.65918,0.60989,0.56576,0.52164,0.48481,0.44798,0.41377,0.37957,0.35602,0.33247
0.32175,0.34772,0.37369,0.40737,0.44106,0.47887,0.51669,0.55831,0.59994,0.64577,0.69161,0.74245,0.79329,0.84819,0.90308,0.95362,1.0042,1.093,1.1818,1.266,1.3502,1.4278,1.5054,1.5743,1.6432,1.7064,1.7695,1.829,1.8884,1.9382,2.3099,2.3828,2.4558,2.54,2.6242,2.6962,2.7682,2.8354,2.9027,2.9589,3.0151,3.0578,3.1005,3.1282,3.1558,3.1791,3.2023,3.2437,3.2852,3.3142,3.3432,3.3656,3.3881,3.4004,3.4128,3.4184,3.4241,3.4028,3.3815,3.3528,3.3241,3.2912,3.2583,3.2383,3.2182,3.1914,3.1646,3.1326,3.1005,3.0593,3.0181,2.9627,2.9074,2.8368,2.7662,2.7025,2.6389,2.5559,2.4729,2.3973,2.3217,1.9378,1.8827,1.8261,1.7695,1.7121,1.6546,1.5739,1.4932,1.4146,1.336,1.2561,1.1762,1.1057,1.0351,0.97413,0.91313,0.85543,0.79773,0.74613,0.69454,0.64734,0.60014,0.55681,0.51347,0.4771,0.44073,0.40517,0.36962,0.34918,0.32875
0.31584,0.33893,0.36203,0.39722,0.43241,0.46947,0.50653,0.54655,0.58656,0.62994,0.67331,0.72106,0.76881,0.82152,0.87424,0.92839,0.98254,1.0621,1.1417,1.2237,1.3056,1.3806,1.4556,1.5221,1.5885,1.6503,1.7121,1.7647,1.8173,1.8613,2.2211,2.2893,2.3575,2.4402,2.5229,2.593,2.6632,2.7295,2.7959,2.85,2.904,2.9418,2.9796,3.0057,3.0319,3.0602,3.0885,3.1222,3.1559,3.1867,3.2176,3.2421,3.2667,3.2808,3.2949,3.3006,3.3063,3.2807,3.2552,3.2225,3.1899,3.1496,3.1093,3.0965,3.0837,3.0596,3.0355,3.0081,2.9808,2.9429,2.9049,2.8505,2.7961,2.7285,2.6609,2.5996,2.5383,2.4572,2.3761,2.3055,2.2349,1.8615,1.811,1.7587,1.7064,1.6503,1.5942,1.5161,1.4379,1.3612,1.2846,1.1992,1.1138,1.0535,0.99316,0.936,0.87884,0.82515,0.77145,0.72281,0.67416,0.62972,0.58528,0.54428,0.50328,0.46782,0.43237,0.39712,0.36188,0.34239,0.32291
0.30994,0.33015,0.35036,0.38706,0.42376,0.46007,0.49638,0.53478,0.57319,0.6141,0.65501,0.69967,0.74432,0.79486,0.8454,0.90316,0.96092,1.0313,1.1016,1.1813,1.261,1.3334,1.4059,1.4699,1.5338,1.5942,1.6546,1.7004,1.7463,1.7844,2.1324,2.1957,2.2591,2.3404,2.4216,2.4899,2.5582,2.6236,2.6891,2.741,2.7929,2.8258,2.8586,2.8833,2.908,2.9413,2.9747,3.0007,3.0267,3.0593,3.092,3.1186,3.1453,3.1612,3.1771,3.1828,3.1884,3.1587,3.1289,3.0922,3.0556,3.0079,2.9602,2.9546,2.9491,2.9277,2.9063,2.8837,2.8611,2.8264,2.7917,2.7382,2.6847,2.6202,2.5557,2.4967,2.4378,2.3585,2.2792,2.2136,2.1481,1.7852,1.7394,1.6913,1.6432,1.5885,1.5338,1.4582,1.3826,1.3079,1.2332,1.1423,1.0515,1.0013,0.95119,0.89787,0.84454,0.79486,0.74518,0.69948,0.65379,0.61211,0.57042,0.53175,0.49308,0.45854,0.424,0.38907,0.35415,0.33561,0.31706
0.30964,0.32499,0.34035,0.37695,0.41356,0.44825,0.48294,0.51999,0.55703,0.59633,0.63564,0.67691,0.71819,0.76485,0.81151,0.86446,0.91741,0.98215,1.0469,1.1217,1.1966,1.2653,1.334,1.3961,1.4582,1.5161,1.5739,1.6164,1.659,1.6946,2.0398,2.0946,2.1494,2.229,2.3087,2.3731,2.4375,2.4989,2.5604,2.6117,2.663,2.6931,2.7232,2.7444,2.7656,2.7956,2.8255,2.8498,2.874,2.9067,2.9395,2.9668,2.9941,3.0133,3.0325,3.0381,3.0437,3.0125,2.9813,2.9446,2.9078,2.8685,2.8292,2.8184,2.8076,2.7864,2.7652,2.7428,2.7204,2.689,2.6576,2.6069,2.5562,2.4942,2.4322,2.3761,2.3199,2.2481,2.1762,2.1155,2.0548,1.7015,1.6602,1.6172,1.5743,1.5221,1.4699,1.3961,1.3223,1.25,1.1777,1.0989,1.0202,0.96637,0.91254,0.86162,0.81069,0.76385,0.71701,0.67362,0.63024,0.59071,0.55117,0.51462,0.47808,0.44492,0.41177,0.38043,0.3491,0.3305,0.31189
0.30933,0.31983,0.33033,0.36685,0.40336,0.43644,0.46951,0.50519,0.54087,0.57856,0.61626,0.65416,0.69205,0.73484,0.77762,0.82576,0.87389,0.93302,0.99214,1.0621,1.1321,1.1971,1.262,1.3223,1.3826,1.4379,1.4932,1.5324,1.5716,1.6048,1.9472,1.9934,2.0397,2.1177,2.1957,2.2562,2.3168,2.3742,2.4317,2.4824,2.5331,2.5605,2.5878,2.6055,2.6233,2.6498,2.6764,2.6989,2.7214,2.7542,2.7869,2.815,2.843,2.8655,2.888,2.8935,2.8991,2.8664,2.8337,2.7969,2.76,2.7292,2.6983,2.6822,2.6662,2.6452,2.6241,2.6019,2.5797,2.5516,2.5236,2.4756,2.4276,2.3682,2.3087,2.2554,2.202,2.1377,2.0733,2.0174,1.9615,1.6179,1.5809,1.5432,1.5054,1.4556,1.4059,1.334,1.262,1.1921,1.1222,1.0555,0.98893,0.93141,0.87389,0.82537,0.77685,0.73284,0.68884,0.64777,0.60669,0.5693,0.53191,0.4975,0.46308,0.43131,0.39954,0.37179,0.34405,0.32539,0.30673
0.30227,0.31478,0.3273,0.35748,0.38765,0.42085,0.45404,0.48676,0.51948,0.55438,0.58929,0.62568,0.66207,0.70363,0.74518,0.79189,0.8386,0.89294,0.94729,1.0104,1.0736,1.1328,1.1921,1.25,1.3079,1.3612,1.4146,1.4532,1.4919,1.5242,1.8587,1.9035,1.9483,2.0153,2.0824,2.1413,2.2003,2.2511,2.3019,2.3498,2.3976,2.4257,2.4538,2.4724,2.491,2.5178,2.5447,2.5649,2.5851,2.6127,2.6404,2.6649,2.6894,2.7125,2.7357,2.7418,2.748,2.7185,2.6889,2.657,2.6251,2.5955,2.566,2.5482,2.5304,2.5101,2.4898,2.4663,2.4427,2.4165,2.3903,2.3468,2.3034,2.2479,2.1924,2.1423,2.0921,2.0306,1.9692,1.9196,1.87,1.5321,1.4973,1.4626,1.4278,1.3806,1.3334,1.2653,1.1971,1.1328,1.0686,1.0068,0.94505,0.89036,0.83567,0.78962,0.74357,0.70191,0.66024,0.62113,0.58202,0.54684,0.51166,0.47916,0.44665,0.41632,0.38598,0.35869,0.33139,0.31728,0.30316
0.29521,0.30974,0.32427,0.3481,0.37194,0.40526,0.43857,0.46833,0.49809,0.5302,0.56232,0.59721,0.63209,0.67241,0.71273,0.75802,0.80331,0.85287,0.90243,0.9587,1.015,1.0686,1.1222,1.1777,1.2332,1.2846,1.336,1.374,1.4121,1.4436,1.7703,1.8136,1.8569,1.913,1.9691,2.0264,2.0838,2.128,2.1722,2.2171,2.262,2.2909,2.3198,2.3392,2.3587,2.3858,2.413,2.4309,2.4488,2.4713,2.4939,2.5149,2.5359,2.5596,2.5833,2.5901,2.597,2.5706,2.5442,2.5171,2.4901,2.4619,2.4338,2.4142,2.3946,2.3751,2.3555,2.3306,2.3057,2.2814,2.257,2.2181,2.1791,2.1276,2.0762,2.0291,1.9821,1.9236,1.8651,1.8218,1.7785,1.4463,1.4137,1.382,1.3502,1.3056,1.261,1.1966,1.1321,1.0736,1.015,0.95807,0.90117,0.8493,0.79744,0.75387,0.71029,0.67097,0.63165,0.5945,0.55736,0.52438,0.49141,0.46082,0.43023,0.40133,0.37243,0.34558,0.31873,0.30917,0.2996
0.28529,0.30211,0.31894,0.33843,0.35791,0.38949,0.42107,0.44861,0.47615,0.50599,0.53584,0.56838,0.60091,0.63931,0.67771,0.72038,0.76305,0.80928,0.85551,0.90679,0.95807,1.0068,1.0555,1.0989,1.1423,1.1992,1.2561,1.294,1.3319,1.3617,1.6769,1.7195,1.7622,1.8095,1.8569,1.9104,1.9638,2.0028,2.0417,2.0814,2.121,2.1491,2.1773,2.198,2.2188,2.2464,2.2741,2.2915,2.3089,2.3283,2.3477,2.3656,2.3835,2.3959,2.4083,2.4229,2.4374,2.4157,2.394,2.3722,2.3503,2.3242,2.2981,2.2782,2.2584,2.2395,2.2206,2.1946,2.1685,2.1433,2.118,2.0825,2.047,2.0011,1.9552,1.9112,1.8671,1.8174,1.7676,1.7257,1.6839,1.3588,1.328,1.297,1.266,1.2237,1.1813,1.1217,1.0621,1.0104,0.9587,0.90679,0.85488,0.80713,0.75938,0.71863,0.67787,0.6404,0.60293,0.56789,0.53285,0.50176,0.47067,0.4424,0.41413,0.38512,0.3561,0.33514,0.31417,0.30422,0.29427
0.27538,0.29449,0.3136,0.32875,0.34389,0.37373,0.40357,0.42889,0.45421,0.48178,0.50936,0.53955,0.56973,0.6062,0.64268,0.68273,0.72279,0.76569,0.8086,0.85488,0.90117,0.94505,0.98893,1.0202,1.0515,1.1138,1.1762,1.214,1.2517,1.2799,1.5834,1.6254,1.6674,1.7061,1.7448,1.7943,1.8438,1.8776,1.9113,1.9457,1.98,2.0074,2.0348,2.0568,2.0789,2.107,2.1351,2.1521,2.1691,2.1853,2.2015,2.2164,2.2312,2.2322,2.2333,2.2556,2.2778,2.2609,2.2439,2.2272,2.2105,2.1864,2.1624,2.1423,2.1222,2.1039,2.0857,2.0585,2.0313,2.0052,1.979,1.947,1.915,1.8746,1.8342,1.7932,1.7521,1.7111,1.6701,1.6297,1.5893,1.2713,1.2422,1.212,1.1818,1.1417,1.1016,1.0469,0.99214,0.94729,0.90243,0.85551,0.8086,0.76496,0.72132,0.68338,0.64545,0.60983,0.57421,0.54128,0.50835,0.47914,0.44993,0.42398,0.39803,0.3689,0.33978,0.3247,0.30962,0.29928,0.28894
0.26848,0.28533,0.30219,0.31764,0.3331,0.35878,0.38445,0.41016,0.43587,0.46177,0.48767,0.51567,0.54368,0.57736,0.61105,0.64826,0.68548,0.72522,0.76496,0.80713,0.8493,0.89036,0.93141,0.96637,1.0013,1.0535,1.1057,1.1417,1.1778,1.2035,1.4977,1.5361,1.5744,1.6115,1.6487,1.6929,1.7371,1.7701,1.803,1.8336,1.8642,1.889,1.9138,1.9342,1.9546,1.9811,2.0077,2.0236,2.0394,2.0545,2.0696,2.0832,2.0968,2.0956,2.0943,2.1156,2.1369,2.1239,2.1108,2.0965,2.0821,2.06,2.0379,2.0191,2.0003,1.9835,1.9666,1.9402,1.9137,1.8878,1.8618,1.8315,1.8012,1.7626,1.7239,1.6893,1.6546,1.6159,1.5771,1.5377,1.4982,1.1928,1.1654,1.1292,1.093,1.0621,1.0313,0.98215,0.93302,0.89294,0.85287,0.80928,0.76569,0.72522,0.68475,0.64935,0.61396,0.58026,0.54657,0.51591,0.48524,0.45817,0.4311,0.40575,0.3804,0.35639,0.33237,0.31751,0.30265,0.29029,0.27793
0.26158,0.27617,0.29077,0.30654,0.32232,0.34383,0.36534,0.39144,0.41753,0.44175,0.46597,0.4918,0.51763,0.54852,0.57942,0.6138,0.64817,0.68475,0.72132,0.75938,0.79744,0.83567,0.87389,0.91254,0.95119,0.99316,1.0351,1.0695,1.1039,1.1272,1.4121,1.4467,1.4813,1.5169,1.5526,1.5915,1.6304,1.6626,1.6947,1.7216,1.7485,1.7706,1.7928,1.8116,1.8303,1.8553,1.8802,1.895,1.9098,1.9237,1.9376,1.9501,1.9625,1.9589,1.9553,1.9757,1.9961,1.9869,1.9778,1.9658,1.9538,1.9336,1.9133,1.8959,1.8784,1.863,1.8476,1.8218,1.7961,1.7704,1.7446,1.7161,1.6875,1.6506,1.6137,1.5854,1.557,1.5206,1.4842,1.4456,1.4071,1.1144,1.0886,1.0464,1.0042,0.98254,0.96092,0.91741,0.87389,0.8386,0.80331,0.76305,0.72279,0.68548,0.64817,0.61532,0.58247,0.5507,0.51893,0.49054,0.46214,0.43721,0.41228,0.38753,0.36278,0.34387,0.32496,0.31033,0.29569,0.2813,0.26691
0.25505,0.26837,0.28169,0.29918,0.31668,0.3346,0.35252,0.37601,0.3995,0.42267,0.44584,0.46969,0.49355,0.52237,0.55119,0.58326,0.61532,0.64935,0.68338,0.71863,0.75387,0.78962,0.82537,0.86162,0.89787,0.936,0.97413,1.005,1.0359,1.0583,1.3356,1.3591,1.3826,1.4266,1.4707,1.5049,1.539,1.5686,1.5982,1.6237,1.6491,1.6679,1.6866,1.7037,1.7208,1.743,1.7652,1.7795,1.7938,1.7996,1.8054,1.8256,1.8458,1.8487,1.8515,1.8644,1.8773,1.8695,1.8617,1.8502,1.8386,1.8111,1.7836,1.7757,1.7678,1.7535,1.7392,1.716,1.6927,1.6689,1.6451,1.6149,1.5847,1.5518,1.5188,1.492,1.4651,1.4309,1.3968,1.3549,1.313,1.036,1.0205,0.98704,0.95362,0.92839,0.90316,0.86446,0.82576,0.79189,0.75802,0.72038,0.68273,0.64826,0.6138,0.58326,0.55272,0.52336,0.494,0.46789,0.44179,0.41669,0.3916,0.37044,0.34928,0.33223,0.31517,0.30079,0.28641,0.27394,0.26146
0.24851,0.26056,0.27261,0.29183,0.31104,0.32537,0.3397,0.36058,0.38146,0.40359,0.42571,0.44759,0.46947,0.49621,0.52296,0.55272,0.58247,0.61396,0.64545,0.67787,0.71029,0.74357,0.77685,0.81069,0.84454,0.87884,0.91313,0.94053,0.96792,0.98932,1.2592,1.2716,1.2839,1.3364,1.3888,1.4182,1.4477,1.4747,1.5018,1.5258,1.5498,1.5651,1.5804,1.5958,1.6112,1.6307,1.6502,1.664,1.6778,1.6755,1.6732,1.7012,1.7292,1.7384,1.7476,1.7531,1.7585,1.752,1.7455,1.7345,1.7234,1.6887,1.654,1.6556,1.6572,1.6441,1.6309,1.6101,1.5894,1.5674,1.5455,1.5137,1.4819,1.4529,1.424,1.3986,1.3731,1.3413,1.3095,1.2642,1.2189,0.95763,0.95233,0.92771,0.90308,0.87424,0.8454,0.81151,0.77762,0.74518,0.71273,0.67771,0.64268,0.61105,0.57942,0.55119,0.52296,0.49601,0.46906,0.44525,0.42144,0.39618,0.37092,0.35335,0.33579,0.32059,0.30538,0.29126,0.27713,0.26657,0.256
0.23974,0.2529,0.26606,0.28064,0.29523,0.31228,0.32934,0.34497,0.3606,0.38329,0.40599,0.4268,0.44761,0.47181,0.49601,0.52336,0.5507,0.58026,0.60983,0.6404,0.67097,0.70191,0.73284,0.76385,0.79486,0.82515,0.85543,0.87934,0.90324,0.9233,1.1831,1.2028,1.2224,1.2612,1.2999,1.332,1.3641,1.3865,1.4088,1.4258,1.4427,1.4636,1.4846,1.4982,1.5119,1.5285,1.5452,1.5588,1.5725,1.5782,1.584,1.6038,1.6236,1.6333,1.643,1.6467,1.6503,1.6442,1.6381,1.6269,1.6158,1.5892,1.5625,1.5579,1.5532,1.5421,1.531,1.5133,1.4956,1.467,1.4384,1.4144,1.3903,1.3653,1.3403,1.3159,1.2916,1.2598,1.228,1.1942,1.1604,0.90192,0.89078,0.86949,0.84819,0.82152,0.79486,0.76485,0.73484,0.70363,0.67241,0.63931,0.6062,0.57736,0.54852,0.52237,0.49621,0.47181,0.44741,0.42455,0.40169,0.37752,0.35335,0.33889,0.32443,0.31074,0.29706,0.28123,0.26541,0.25637,0.24733
0.23097,0.24524,0.25951,0.26946,0.27941,0.29919,0.31898,0.32936,0.33974,0.363,0.38627,0.40601,0.42575,0.44741,0.46906,0.494,0.51893,0.54657,0.57421,0.60293,0.63165,0.66024,0.68884,0.71701,0.74518,0.77145,0.79773,0.81814,0.83856,0.85728,1.107,1.1339,1.1609,1.186,1.2111,1.2458,1.2805,1.2982,1.3159,1.3258,1.3357,1.3622,1.3887,1.4006,1.4126,1.4264,1.4402,1.4537,1.4672,1.481,1.4948,1.5065,1.5181,1.5283,1.5385,1.5403,1.5421,1.5363,1.5306,1.5194,1.5081,1.4896,1.4711,1.4602,1.4493,1.4401,1.431,1.4165,1.4019,1.3666,1.3314,1.315,1.2987,1.2777,1.2566,1.2333,1.21,1.1783,1.1466,1.1242,1.1018,0.84621,0.82924,0.81126,0.79329,0.76881,0.74432,0.71819,0.69205,0.66207,0.63209,0.60091,0.56973,0.54368,0.51763,0.49355,0.46947,0.44761,0.42575,0.40385,0.38195,0.35887,0.33579,0.32443,0.31308,0.3009,0.28873,0.27121,0.25368,0.24617,0.23866
0.2236,0.23704,0.25047,0.26087,0.27127,0.29018,0.30909,0.31865,0.32822,0.34752,0.36683,0.38534,0.40385,0.42455,0.44525,0.46789,0.49054,0.51591,0.54128,0.56789,0.5945,0.62113,0.64777,0.67362,0.69948,0.72281,0.74613,0.76331,0.78049,0.79743,1.038,1.0637,1.0894,1.1132,1.137,1.1709,1.2048,1.2227,1.2406,1.254,1.2675,1.2857,1.3038,1.3145,1.3252,1.3364,1.3476,1.3604,1.3733,1.3863,1.3993,1.4113,1.4234,1.4327,1.4419,1.4439,1.4458,1.4402,1.4346,1.4231,1.4116,1.395,1.3785,1.368,1.3575,1.3504,1.3433,1.3308,1.3184,1.2918,1.2653,1.2461,1.2269,1.2057,1.1844,1.1575,1.1306,1.1057,1.0807,1.0586,1.0364,0.79019,0.77561,0.75903,0.74245,0.72106,0.69967,0.67691,0.65416,0.62568,0.59721,0.56838,0.53955,0.51567,0.4918,0.46969,0.44759,0.4268,0.40601,0.38534,0.36467,0.3458,0.32694,0.31571,0.30449,0.28902,0.27355,0.26114,0.24874,0.2402,0.23166
0.21623,0.22883,0.24143,0.25228,0.26313,0.28116,0.29919,0.30795,0.3167,0.33204,0.34739,0.36467,0.38195,0.40169,0.42144,0.44179,0.46214,0.48524,0.50835,0.53285,0.55736,0.58202,0.60669,0.63024,0.65379,0.67416,0.69454,0.70848,0.72242,0.73759,0.96898,0.99343,1.0179,1.0404,1.0629,1.096,1.1291,1.1472,1.1652,1.1823,1.1993,1.2092,1.219,1.2284,1.2378,1.2464,1.2551,1.2672,1.2794,1.2915,1.3037,1.3162,1.3287,1.337,1.3454,1.3475,1.3495,1.3441,1.3387,1.3269,1.3151,1.3004,1.2858,1.2758,1.2657,1.2607,1.2556,1.2452,1.2348,1.217,1.1993,1.1772,1.1551,1.1337,1.1122,1.0818,1.0513,1.0331,1.0148,0.99292,0.97102,0.73417,0.72197,0.70679,0.69161,0.67331,0.65501,0.63564,0.61626,0.58929,0.56232,0.53584,0.50936,0.48767,0.46597,0.44584,0.42571,0.40599,0.38627,0.36683,0.34739,0.33274,0.31808,0.30699,0.2959,0.27713,0.25837,0.25108,0.24379,0.23423,0.22466
0.20968,0.22136,0.23305,0.24182,0.25059,0.26734,0.28409,0.29441,0.30473,0.31873,0.33274,0.3458,0.35887,0.37752,0.39618,0.41669,0.43721,0.45817,0.47914,0.50176,0.52438,0.54684,0.5693,0.59071,0.61211,0.62972,0.64734,0.65918,0.67103,0.68411,0.90686,0.93034,0.95382,0.97401,0.9942,1.025,1.0557,1.0761,1.0964,1.1127,1.129,1.1355,1.142,1.1508,1.1596,1.1681,1.1766,1.1871,1.1976,1.209,1.2204,1.2312,1.242,1.25,1.2579,1.2597,1.2614,1.2555,1.2496,1.2385,1.2274,1.215,1.2026,1.194,1.1854,1.1803,1.1752,1.165,1.1547,1.1415,1.1283,1.1084,1.0886,1.067,1.0455,1.0184,0.99139,0.9707,0.95001,0.93114,0.91226,0.68438,0.67272,0.65925,0.64577,0.62994,0.6141,0.59633,0.57856,0.55438,0.5302,0.50599,0.48178,0.46177,0.44175,0.42267,0.40359,0.38329,0.363,0.34752,0.33204,0.31873,0.30542,0.29376,0.2821,0.26704,0.25197,0.24178,0.23158,0.2239,0.21621
0.20313,0.21389,0.22466,0.23136,0.23805,0.25352,0.26899,0.28088,0.29276,0.30542,0.31808,0.32694,0.33579,0.35335,0.37092,0.3916,0.41228,0.4311,0.44993,0.47067,0.49141,0.51166,0.53191,0.55117,0.57042,0.58528,0.60014,0.60989,0.61964,0.63063,0.84475,0.86726,0.88977,0.90764,0.92551,0.95396,0.98242,1.005,1.0276,1.0431,1.0586,1.0618,1.065,1.0732,1.0813,1.0898,1.0982,1.107,1.1158,1.1265,1.1371,1.1463,1.1554,1.1629,1.1704,1.1718,1.1733,1.1669,1.1605,1.1501,1.1397,1.1295,1.1193,1.1121,1.105,1.0999,1.0949,1.0848,1.0746,1.0659,1.0572,1.0396,1.022,1.0003,0.97871,0.9551,0.93149,0.90835,0.88521,0.86935,0.8535,0.6346,0.62346,0.6117,0.59994,0.58656,0.57319,0.55703,0.54087,0.51948,0.49809,0.47615,0.45421,0.43587,0.41753,0.3995,0.38146,0.3606,0.33974,0.32822,0.3167,0.30473,0.29276,0.28053,0.2683,0.25694,0.24558,0.23248,0.21937,0.21357,0.20777
0.19767,0.20679,0.21591,0.2243,0.2327,0.24557,0.25845,0.26949,0.28053,0.29376,0.30699,0.31571,0.32443,0.33889,0.35335,0.37044,0.38753,0.40575,0.42398,0.4424,0.46082,0.47916,0.4975,0.51462,0.53175,0.54428,0.55681,0.56576,0.57472,0.58423,0.79142,0.81108,0.83074,0.84992,0.86909,0.89405,0.91901,0.93993,0.96084,0.97725,0.99365,0.99841,1.0032,1.009,1.0149,1.0206,1.0263,1.0347,1.0431,1.0516,1.0601,1.0684,1.0767,1.0834,1.0901,1.0908,1.0916,1.0857,1.0799,1.071,1.0621,1.0529,1.0437,1.0358,1.0278,1.0245,1.0211,1.0154,1.0097,1.0021,0.99461,0.97711,0.95962,0.93961,0.91961,0.89577,0.87194,0.85223,0.83251,0.81719,0.80186,0.58923,0.57915,0.56873,0.55831,0.54655,0.53478,0.51999,0.50519,0.48676,0.46833,0.44861,0.42889,0.41016,0.39144,0.37601,0.36058,0.34497,0.32936,0.31865,0.30795,0.29441,0.28088,0.26949,0.2581,0.24564,0.23319,0.22331,0.21343,0.20799,0.20256
0.19222,0.19969,0.20716,0.21725,0.22735,0.23763,0.2479,0.2581,0.2683,0.2821,0.2959,0.30449,0.31308,0.32443,0.33579,0.34928,0.36278,0.3804,0.39803,0.41413,0.43023,0.44665,0.46308,0.47808,0.49308,0.50328,0.51347,0.52164,0.5298,0.53784,0.73809,0.75491,0.77172,0.79219,0.81267,0.83414,0.85561,0.87483,0.89404,0.91136,0.92868,0.93501,0.94134,0.94486,0.94838,0.95138,0.95437,0.96237,0.97037,0.97674,0.98311,0.99052,0.99792,1.0038,1.0098,1.0098,1.0099,1.0046,0.99931,0.99188,0.98445,0.97629,0.96813,0.9594,0.95066,0.94904,0.94741,0.94606,0.94472,0.93835,0.93198,0.91462,0.89726,0.87888,0.8605,0.83644,0.81238,0.7961,0.77982,0.76502,0.75022,0.54386,0.53485,0.52577,0.51669,0.50653,0.49638,0.48294,0.46951,0.45404,0.43857,0.42107,0.40357,0.38445,0.36534,0.35252,0.3397,0.32934,0.31898,0.30909,0.29919,0.28409,0.26899,0.25845,0.2479,0.23435,0.22079,0.21414,0.20748,0.20241,0.19735
0.18656,0.19279,0.19902,0.20846,0.2179,0.22613,0.23435,0.24564,0.25694,0.26704,0.27713,0.28902,0.3009,0.31074,0.32059,0.33223,0.34387,0.35639,0.3689,0.38512,0.40133,0.41632,0.43131,0.44492,0.45854,0.46782,0.4771,0.48481,0.49251,0.49999,0.69404,0.70835,0.72267,0.74108,0.75949,0.77724,0.795,0.81367,0.83233,0.84557,0.85881,0.86943,0.88006,0.88387,0.88769,0.88991,0.89213,0.89569,0.89925,0.90647,0.91368,0.92032,0.92695,0.93218,0.93741,0.93729,0.93717,0.93306,0.92895,0.92084,0.91273,0.90505,0.89738,0.8914,0.88541,0.88572,0.88602,0.8803,0.87458,0.86871,0.86284,0.84776,0.83268,0.8187,0.80473,0.78381,0.76288,0.74682,0.73075,0.71646,0.70217,0.504,0.49564,0.48726,0.47887,0.46947,0.46007,0.44825,0.43644,0.42085,0.40526,0.38949,0.37373,0.35878,0.34383,0.3346,0.32537,0.31228,0.29919,0.29018,0.28116,0.26734,0.25352,0.24557,0.23763,0.22613,0.21463,0.20751,0.2004,0.19511,0.18982
0.18091,0.18589,0.19087,0.19967,0.20846,0.21463,0.22079,0.23319,0.24558,0.25197,0.25837,0.27355,0.28873,0.29706,0.30538,0.31517,0.32496,0.33237,0.33978,0.3561,0.37243,0.38598,0.39954,0.41177,0.424,0.43237,0.44073,0.44798,0.45522,0.46214,0.64998,0.6618,0.67361,0.68996,0.7063,0.72035,0.73439,0.7525,0.77062,0.77978,0.78894,0.80386,0.81877,0.82289,0.827,0.82844,0.82989,0.82901,0.82814,0.8362,0.84426,0.85012,0.85598,0.86052,0.86506,0.86477,0.86449,0.86154,0.85859,0.84979,0.841,0.83382,0.82663,0.82339,0.82016,0.8224,0.82464,0.81454,0.80445,0.79907,0.7937,0.7809,0.76809,0.75853,0.74896,0.73117,0.71339,0.69753,0.68167,0.6679,0.65412,0.46414,0.45644,0.44875,0.44106,0.43241,0.42376,0.41356,0.40336,0.38765,0.37194,0.35791,0.34389,0.3331,0.32232,0.31668,0.31104,0.29523,0.27941,0.27127,0.26313,0.25059,0.23805,0.2327,0.22735,0.2179,0.20846,0.20089,0.19332,0.1878,0.18228
0.17396,0.18015,0.18633,0.19361,0.20089,0.20751,0.21414,0.22331,0.23248,0.24178,0.25108,0.26114,0.27121,0.28123,0.29126,0.30079,0.31033,0.31751,0.3247,0.33514,0.34558,0.35869,0.37179,0.38043,0.38907,0.39712,0.40517,0.41377,0.42237,0.42866,0.60891,0.62095,0.63299,0.64667,0.66034,0.67339,0.68644,0.70002,0.71361,0.72468,0.73575,0.7454,0.75505,0.76189,0.76873,0.77189,0.77506,0.77508,0.7751,0.77856,0.78202,0.7879,0.79378,0.79511,0.79645,0.79434,0.79223,0.79073,0.78922,0.78614,0.78305,0.77923,0.7754,0.7707,0.766,0.76506,0.76413,0.75736,0.75059,0.74377,0.73695,0.72608,0.7152,0.70496,0.69472,0.67956,0.66439,0.65118,0.63796,0.62665,0.61534,0.42921,0.42199,0.41468,0.40737,0.39722,0.38706,0.37695,0.36685,0.35748,0.3481,0.33843,0.32875,0.31764,0.30654,0.29918,0.29183,0.28064,0.26946,0.26087,0.25228,0.24182,0.23136,0.2243,0.21725,0.20846,0.19967,0.19361,0.18756,0.18323,0.17891
0.167,0.1744,0.1818,0.18756,0.19332,0.2004,0.20748,0.21343,0.21937,0.23158,0.24379,0.24874,0.25368,0.26541,0.27713,0.28641,0.29569,0.30265,0.30962,0.31417,0.31873,0.33139,0.34405,0.3491,0.35415,0.36188,0.36962,0.37957,0.38952,0.39518,0.56784,0.5801,0.59236,0.60338,0.61439,0.62644,0.63848,0.64754,0.6566,0.66958,0.68257,0.68695,0.69132,0.70089,0.71045,0.71534,0.72022,0.72114,0.72206,0.72092,0.71978,0.72568,0.73158,0.72971,0.72784,0.72391,0.71998,0.71992,0.71986,0.72248,0.72511,0.72464,0.72417,0.71801,0.71184,0.70773,0.70362,0.70018,0.69674,0.68847,0.68021,0.67125,0.6623,0.65139,0.64048,0.62794,0.6154,0.60482,0.59424,0.5854,0.57657,0.39429,0.38753,0.38061,0.37369,0.36203,0.35036,0.34035,0.33033,0.3273,0.32427,0.31894,0.3136,0.30219,0.29077,0.28169,0.27261,0.26606,0.25951,0.25047,0.24143,0.23305,0.22466,0.21591,0.20716,0.19902,0.19087,0.18633,0.1818,0.17866,0.17553
0.16486,0.17176,0.17866,0.18323,0.1878,0.19511,0.20241,0.20799,0.21357,0.2239,0.23423,0.2402,0.24617,0.25637,0.26657,0.27394,0.2813,0.29029,0.29928,0.30422,0.30917,0.31728,0.32539,0.3305,0.33561,0.34239,0.34918,0.35602,0.36286,0.36834,0.53869,0.54955,0.56041,0.56953,0.57865,0.58969,0.60073,0.60905,0.61738,0.62845,0.63952,0.64516,0.6508,0.65927,0.66773,0.67147,0.6752,0.67898,0.68275,0.68261,0.68247,0.68435,0.68623,0.68478,0.68332,0.68133,0.67933,0.68101,0.68269,0.68313,0.68357,0.6799,0.67624,0.67163,0.66702,0.66295,0.65888,0.65396,0.64905,0.64159,0.63413,0.62632,0.61852,0.60968,0.60085,0.59032,0.57979,0.56883,0.55788,0.55015,0.54242,0.36707,0.36084,0.35428,0.34772,0.33893,0.33015,0.32499,0.31983,0.31478,0.30974,0.30211,0.29449,0.28533,0.27617,0.26837,0.26056,0.2529,0.24524,0.23704,0.22883,0.22136,0.21389,0.20679,0.19969,0.19279,0.18589,0.18015,0.1744,0.17176,0.16912
0.16272,0.16912,0.17553,0.17891,0.18228,0.18982,0.19735,0.20256,0.20777,0.21621,0.22466,0.23166,0.23866,0.24733,0.256,0.26146,0.26691,0.27793,0.28894,0.29427,0.2996,0.30316,0.30673,0.31189,0.31706,0.32291,0.32875,0.33247,0.3362,0.34151,0.50954,0.519,0.52845,0.53568,0.54291,0.55294,0.56297,0.57057,0.57816,0.58732,0.59648,0.60338,0.61027,0.61764,0.62501,0.6276,0.63018,0.63682,0.64345,0.64431,0.64516,0.64302,0.64089,0.63985,0.63881,0.63875,0.63869,0.64211,0.64553,0.64378,0.64203,0.63517,0.62831,0.62526,0.6222,0.61817,0.61414,0.60775,0.60136,0.5947,0.58805,0.58139,0.57474,0.56798,0.56122,0.5527,0.54418,0.53285,0.52151,0.5149,0.50828,0.33986,0.33416,0.32795,0.32175,0.31584,0.30994,0.30964,0.30933,0.30227,0.29521,0.28529,0.27538,0.26848,0.26158,0.25505,0.24851,0.23974,0.23097,0.2236,0.21623,0.20968,0.20313,0.19767,0.19222,0.18656,0.18091,0.17396,0.167,0.16486,0.16272
