0.016211,0.01661,0.01701,0.018288,0.019567,0.020037,0.020507,0.021986,0.023464,0.023996,0.024527,0.026197,0.027867,0.028446,0.029025,0.030852,0.03268,0.033309,0.033938,0.035825,0.037712,0.038373,0.039033,0.040936,0.042839,0.043452,0.044066,0.045811,0.047557,0.047699,0.04784,0.048847,0.049853,0.050718,0.051583,0.052228,0.052873,0.053234,0.053596,0.053706,0.053816,0.053769,0.053722,0.05347,0.053219,0.052731,0.052244,0.051504,0.050765,0.04946,0.048155,0.046425,0.044695,0.044066,0.043437,0.04155,0.039662,0.039018,0.038373,0.036423,0.034473,0.033828,0.033183,0.031291,0.029399,0.028816,0.028232,0.026559,0.024886,0.024365,0.023845,0.022333,0.020822,0.02035,0.019878,0.018562,0.017246,0.016856,0.016466,0.016953,0.017441
0.017134,0.01757,0.018005,0.019405,0.020805,0.02132,0.021835,0.023455,0.025076,0.025664,0.026252,0.028121,0.029991,0.030642,0.031293,0.033331,0.035369,0.036085,0.0368,0.03897,0.041141,0.041888,0.042635,0.044113,0.045591,0.046731,0.047872,0.049539,0.051206,0.052008,0.05281,0.053981,0.055153,0.056175,0.057197,0.057992,0.058786,0.059171,0.059556,0.059659,0.059761,0.059698,0.059635,0.059344,0.059053,0.058471,0.057889,0.057032,0.056175,0.054894,0.053612,0.052023,0.050435,0.049342,0.048249,0.045788,0.043327,0.042587,0.041848,0.039607,0.037366,0.036635,0.035904,0.033802,0.0317,0.031047,0.030393,0.028528,0.026663,0.026087,0.025512,0.023843,0.022174,0.021659,0.021143,0.019699,0.018255,0.017826,0.017397,0.017905,0.018413
0.018057,0.018529,0.019001,0.020522,0.022042,0.022602,0.023162,0.024925,0.026688,0.027333,0.027978,0.030046,0.032114,0.032837,0.03356,0.035809,0.038058,0.03886,0.039662,0.042116,0.044569,0.045403,0.046236,0.04729,0.048343,0.05001,0.051677,0.053266,0.054854,0.056317,0.057779,0.059116,0.060453,0.061632,0.062812,0.063755,0.064699,0.065108,0.065517,0.065611,0.065706,0.065627,0.065548,0.065218,0.064888,0.064212,0.063535,0.06256,0.061585,0.060327,0.059069,0.057622,0.056175,0.054618,0.053061,0.050026,0.046991,0.046157,0.045324,0.042792,0.04026,0.039442,0.038624,0.036313,0.034001,0.033277,0.032554,0.030497,0.02844,0.027809,0.027179,0.025353,0.023527,0.022967,0.022407,0.020836,0.019265,0.018796,0.018328,0.018856,0.019385
0.019103,0.019615,0.020127,0.02179,0.023453,0.024073,0.024692,0.026653,0.028613,0.029329,0.030046,0.032338,0.03463,0.035448,0.036265,0.038837,0.041408,0.041951,0.042493,0.044742,0.046991,0.048485,0.049979,0.051615,0.05325,0.055177,0.057103,0.058982,0.060862,0.062576,0.06429,0.065863,0.067435,0.068788,0.07014,0.071202,0.072263,0.072806,0.073349,0.07349,0.073632,0.073537,0.073443,0.073034,0.072625,0.071855,0.071084,0.069944,0.068804,0.067286,0.065768,0.064054,0.06234,0.0605,0.05866,0.056073,0.053486,0.051992,0.050498,0.047188,0.043877,0.042949,0.042021,0.039379,0.036737,0.035943,0.035149,0.032839,0.030528,0.029825,0.029121,0.027102,0.025084,0.02447,0.023856,0.022137,0.020418,0.019911,0.019403,0.019949,0.020495
0.020149,0.020701,0.021253,0.023058,0.024864,0.025543,0.026222,0.02838,0.030538,0.031326,0.032114,0.03463,0.037146,0.038058,0.03897,0.041864,0.044758,0.045041,0.045324,0.047368,0.049413,0.051567,0.053722,0.055939,0.058157,0.060343,0.062529,0.064699,0.066869,0.068835,0.070801,0.072609,0.074418,0.075944,0.077469,0.078648,0.079828,0.080504,0.08118,0.081369,0.081558,0.081448,0.081338,0.08085,0.080363,0.079498,0.078633,0.077327,0.076022,0.074245,0.072468,0.070486,0.068505,0.066382,0.064259,0.06212,0.059981,0.057827,0.055672,0.051583,0.047494,0.046456,0.045418,0.042446,0.039474,0.038609,0.037744,0.03518,0.032617,0.03184,0.031063,0.028852,0.026641,0.025972,0.025304,0.023437,0.021571,0.021025,0.020479,0.021042,0.021605
0.021314,0.021917,0.022519,0.024497,0.026476,0.02722,0.027965,0.030345,0.032725,0.033599,0.034473,0.037319,0.040166,0.041204,0.042242,0.044443,0.046645,0.04806,0.049476,0.051874,0.054272,0.056765,0.059258,0.061845,0.064432,0.067011,0.06959,0.072153,0.074717,0.077084,0.079451,0.081589,0.083728,0.085529,0.08733,0.088737,0.090145,0.090986,0.091827,0.092103,0.092378,0.092228,0.092079,0.091505,0.090931,0.089862,0.088792,0.087157,0.085521,0.083421,0.081322,0.078947,0.076573,0.074072,0.071572,0.069032,0.066492,0.063952,0.061412,0.057913,0.054414,0.052487,0.050561,0.046684,0.042808,0.041801,0.040795,0.037925,0.035054,0.034194,0.033334,0.030885,0.028437,0.0277,0.026963,0.024912,0.022862,0.022269,0.021676,0.022356,0.023036
0.02248,0.023132,0.023785,0.025936,0.028088,0.028898,0.029707,0.03231,0.034913,0.035872,0.036832,0.040008,0.043185,0.044349,0.045513,0.047022,0.048532,0.05108,0.053628,0.05638,0.059132,0.061963,0.064793,0.06775,0.070707,0.073679,0.076651,0.079608,0.082564,0.085332,0.0881,0.090569,0.093038,0.095114,0.09719,0.098826,0.10046,0.10147,0.10247,0.10284,0.1032,0.10301,0.10282,0.10216,0.1015,0.10023,0.098951,0.096986,0.09502,0.092598,0.090176,0.087408,0.08464,0.081762,0.078884,0.075944,0.073003,0.070078,0.067152,0.064243,0.061334,0.058518,0.055703,0.050923,0.046142,0.044994,0.043846,0.040669,0.037492,0.036549,0.035605,0.032919,0.030233,0.029428,0.028622,0.026388,0.024153,0.023513,0.022873,0.02367,0.024467
0.023091,0.024551,0.02601,0.027527,0.029044,0.030874,0.032703,0.034547,0.036391,0.038656,0.04092,0.042674,0.044428,0.046401,0.048375,0.050671,0.052967,0.055916,0.058864,0.062057,0.065249,0.068599,0.071949,0.075472,0.078994,0.082549,0.086103,0.089626,0.093148,0.096475,0.099801,0.10278,0.10576,0.1083,0.11084,0.11281,0.11477,0.11597,0.11716,0.11764,0.11812,0.1179,0.11768,0.11678,0.11587,0.11423,0.11259,0.11021,0.10784,0.1049,0.10197,0.098661,0.09535,0.091922,0.088493,0.085018,0.081542,0.078067,0.074591,0.071171,0.06775,0.064463,0.061176,0.057072,0.052967,0.050467,0.047966,0.044805,0.041644,0.039356,0.037067,0.035205,0.033343,0.031452,0.02956,0.028011,0.026461,0.024956,0.02345,0.024231,0.025012
0.023703,0.025969,0.028235,0.029118,0.03,0.03285,0.035699,0.036784,0.03787,0.041439,0.045009,0.04534,0.04567,0.048454,0.051237,0.05432,0.057402,0.060752,0.064101,0.067734,0.071367,0.075236,0.079105,0.083193,0.087282,0.091418,0.095555,0.099643,0.10373,0.10762,0.1115,0.11499,0.11848,0.12149,0.12449,0.12679,0.12908,0.13047,0.13185,0.13245,0.13305,0.13279,0.13254,0.1314,0.13025,0.12823,0.12622,0.12344,0.12065,0.11721,0.11377,0.10991,0.10606,0.10208,0.098102,0.094092,0.090082,0.086056,0.08203,0.078098,0.074166,0.070408,0.066649,0.063221,0.059792,0.055939,0.052086,0.048941,0.045796,0.042163,0.03853,0.037492,0.036454,0.033476,0.030497,0.029634,0.02877,0.026399,0.024027,0.024791,0.025556
0.025867,0.02746,0.029053,0.031014,0.032975,0.03499,0.037005,0.039521,0.042037,0.044011,0.045984,0.047714,0.049444,0.052613,0.055782,0.059328,0.062875,0.066799,0.070722,0.074984,0.079246,0.083854,0.088462,0.093361,0.098259,0.10312,0.10798,0.11298,0.11798,0.12275,0.12753,0.1319,0.13627,0.14008,0.14388,0.14682,0.14976,0.15157,0.15338,0.15404,0.1547,0.15426,0.15382,0.15234,0.15085,0.14832,0.1458,0.14233,0.13887,0.13463,0.13039,0.12568,0.12097,0.11609,0.1112,0.10631,0.10142,0.096585,0.091749,0.087094,0.082439,0.078035,0.073632,0.069645,0.065658,0.061664,0.057669,0.053871,0.050073,0.046464,0.042855,0.040299,0.037744,0.035688,0.033633,0.031606,0.029578,0.027945,0.026312,0.027138,0.027963
0.028031,0.028951,0.029871,0.032911,0.035951,0.03713,0.03831,0.042257,0.046205,0.046582,0.046959,0.050089,0.053219,0.056773,0.060327,0.064337,0.068348,0.072845,0.077343,0.082234,0.087125,0.092472,0.097819,0.10353,0.10924,0.11482,0.1204,0.12632,0.13223,0.13789,0.14355,0.1488,0.15406,0.15867,0.16327,0.16686,0.17044,0.17268,0.17491,0.17563,0.17636,0.17573,0.1751,0.17328,0.17145,0.16842,0.16538,0.16123,0.15708,0.15204,0.14701,0.14144,0.13588,0.13009,0.1243,0.11853,0.11276,0.10711,0.10147,0.096089,0.090711,0.085663,0.080614,0.076069,0.071524,0.067388,0.063252,0.058802,0.054351,0.050765,0.04718,0.043106,0.039033,0.037901,0.036769,0.033578,0.030387,0.029492,0.028597,0.029484,0.030371
0.028663,0.030701,0.032738,0.034887,0.037036,0.039725,0.042415,0.044593,0.046771,0.048666,0.050561,0.054131,0.057701,0.061766,0.065831,0.070463,0.075094,0.080386,0.085678,0.091473,0.097269,0.10354,0.1098,0.11675,0.12369,0.13074,0.1378,0.1452,0.15261,0.15988,0.16716,0.17401,0.18087,0.18703,0.19318,0.19801,0.20283,0.20582,0.20882,0.20977,0.21072,0.20987,0.20902,0.20643,0.20385,0.1997,0.19556,0.18998,0.18439,0.17778,0.17117,0.164,0.15683,0.1495,0.14218,0.13509,0.128,0.12113,0.11427,0.10784,0.1014,0.095429,0.089453,0.084113,0.078774,0.073978,0.069181,0.064565,0.05995,0.055688,0.051426,0.047392,0.043358,0.04059,0.037822,0.035621,0.03342,0.031316,0.029212,0.030125,0.031038
0.029295,0.03245,0.035605,0.036863,0.038121,0.04232,0.046519,0.046928,0.047337,0.05075,0.054162,0.058173,0.062183,0.066759,0.071336,0.076588,0.081841,0.087927,0.094013,0.10071,0.10741,0.1146,0.12179,0.12996,0.13814,0.14667,0.15519,0.16409,0.17299,0.18188,0.19076,0.19922,0.20768,0.21539,0.2231,0.22915,0.23521,0.23896,0.24272,0.2439,0.24508,0.24401,0.24294,0.23959,0.23624,0.23099,0.22574,0.21872,0.21171,0.20352,0.19532,0.18655,0.17777,0.16892,0.16006,0.15165,0.14324,0.13515,0.12707,0.11958,0.1121,0.10519,0.098291,0.092158,0.086024,0.080567,0.07511,0.070329,0.065548,0.06061,0.055672,0.051677,0.047683,0.043279,0.038876,0.037665,0.036454,0.033141,0.029827,0.030766,0.031705
0.032026,0.03424,0.036454,0.039293,0.042131,0.044451,0.046771,0.048784,0.050797,0.054658,0.058518,0.063071,0.067624,0.0729,0.078177,0.084302,0.090428,0.09745,0.10447,0.11252,0.12056,0.12952,0.13849,0.14866,0.15882,0.16993,0.18103,0.19283,0.20463,0.21666,0.22868,0.24039,0.2521,0.26266,0.27322,0.28112,0.28902,0.29381,0.2986,0.30045,0.3023,0.30113,0.29997,0.29562,0.29127,0.28408,0.2769,0.26694,0.25699,0.24548,0.23396,0.22197,0.20998,0.19829,0.1866,0.17569,0.16478,0.1547,0.14462,0.13547,0.12632,0.11804,0.10976,0.1025,0.09524,0.088871,0.082501,0.076958,0.071414,0.06628,0.061145,0.056443,0.05174,0.0474,0.043059,0.040181,0.037303,0.035018,0.032732,0.033673,0.034614
0.034756,0.03603,0.037303,0.041723,0.046142,0.046582,0.047022,0.050639,0.054257,0.058566,0.062875,0.06797,0.073066,0.079042,0.085018,0.092016,0.099014,0.10697,0.11493,0.12432,0.13371,0.14445,0.15519,0.16735,0.1795,0.19318,0.20687,0.22157,0.23628,0.25144,0.2666,0.28155,0.29651,0.30992,0.32334,0.33309,0.34284,0.34866,0.35448,0.35699,0.35951,0.35825,0.35699,0.35165,0.3463,0.33718,0.32806,0.31516,0.30226,0.28743,0.2726,0.2574,0.24219,0.22766,0.21313,0.19973,0.18633,0.17425,0.16217,0.15135,0.14053,0.13088,0.12122,0.11284,0.10446,0.097174,0.089893,0.083587,0.07728,0.071949,0.066618,0.061208,0.055798,0.05152,0.047243,0.042698,0.038153,0.036894,0.035636,0.03658,0.037524
0.035385,0.038231,0.041078,0.043508,0.045937,0.04806,0.050183,0.054225,0.058267,0.063126,0.067986,0.073781,0.079576,0.08652,0.093463,0.10148,0.10949,0.11908,0.12867,0.14016,0.15164,0.16515,0.17867,0.19465,0.21063,0.22914,0.24765,0.26805,0.28846,0.30917,0.32988,0.34962,0.36937,0.38591,0.40244,0.41322,0.42399,0.42989,0.43578,0.43956,0.44333,0.44349,0.44365,0.43853,0.43342,0.42249,0.41156,0.39489,0.37822,0.35799,0.33776,0.31632,0.29487,0.27462,0.25436,0.23651,0.21866,0.20297,0.18729,0.17365,0.16002,0.14819,0.13636,0.12627,0.11617,0.10759,0.098999,0.091709,0.08442,0.078255,0.072091,0.066555,0.061019,0.055719,0.050419,0.045395,0.04037,0.039002,0.037634,0.038396,0.039159
0.036014,0.040433,0.044852,0.045292,0.045733,0.049539,0.053344,0.057811,0.062277,0.067687,0.073097,0.079592,0.086087,0.093998,0.10191,0.11094,0.11996,0.13119,0.14242,0.15599,0.16956,0.18586,0.20215,0.22195,0.24175,0.26509,0.28842,0.31453,0.34064,0.3669,0.39316,0.4177,0.44223,0.46189,0.48155,0.49334,0.50514,0.51111,0.51709,0.52212,0.52715,0.52873,0.5303,0.52542,0.52055,0.50781,0.49507,0.47463,0.45418,0.42855,0.40291,0.37524,0.34756,0.32158,0.2956,0.2733,0.251,0.2317,0.2124,0.19595,0.1795,0.16551,0.15151,0.1397,0.12789,0.118,0.1081,0.099832,0.09156,0.084562,0.077563,0.071902,0.06624,0.059918,0.053596,0.048092,0.042587,0.041109,0.039631,0.040213,0.040795
0.039505,0.041935,0.044365,0.046464,0.048564,0.052747,0.05693,0.061923,0.066916,0.073073,0.07923,0.086669,0.094108,0.10305,0.11199,0.12291,0.13383,0.14742,0.16101,0.17793,0.19485,0.21604,0.23722,0.26421,0.29119,0.32331,0.35542,0.39002,0.42462,0.45717,0.48972,0.51811,0.5465,0.56859,0.59069,0.6039,0.61711,0.62482,0.63252,0.63889,0.64526,0.64841,0.65155,0.64699,0.64243,0.62741,0.61239,0.5877,0.56301,0.53171,0.50042,0.46543,0.43044,0.39598,0.36152,0.33166,0.30179,0.27617,0.25056,0.22904,0.20753,0.18977,0.17202,0.1523,0.13257,0.12603,0.11949,0.10972,0.099942,0.092008,0.084074,0.077705,0.071336,0.065218,0.0591,0.052165,0.04523,0.043665,0.0421,0.042171,0.042242
0.042996,0.043437,0.043877,0.047636,0.051394,0.055955,0.060516,0.066036,0.071556,0.07846,0.085364,0.093746,0.10213,0.1121,0.12207,0.13489,0.1477,0.16365,0.1796,0.19987,0.22014,0.24621,0.27229,0.30646,0.34064,0.38153,0.42242,0.46551,0.5086,0.54744,0.58629,0.61853,0.65076,0.6753,0.69983,0.71446,0.72908,0.73852,0.74795,0.75566,0.76337,0.76808,0.7728,0.76856,0.76431,0.74701,0.72971,0.70078,0.67184,0.63488,0.59792,0.55562,0.51331,0.47038,0.42745,0.39002,0.35259,0.32065,0.28871,0.26213,0.23555,0.21404,0.19252,0.16489,0.13726,0.13407,0.13088,0.1196,0.10832,0.099455,0.090585,0.083508,0.076431,0.070518,0.064605,0.056238,0.047872,0.04622,0.044569,0.044129,0.043688
0.043578,0.04497,0.046362,0.050459,0.054555,0.059635,0.064715,0.070903,0.077092,0.084853,0.092614,0.1021,0.1116,0.12348,0.13536,0.15065,0.16595,0.18571,0.20548,0.23147,0.25746,0.29163,0.32581,0.37065,0.4155,0.46731,0.51913,0.56891,0.61868,0.66028,0.70188,0.7375,0.77312,0.80276,0.83241,0.85356,0.87471,0.88753,0.90035,0.90766,0.91497,0.9167,0.91843,0.91127,0.90412,0.88493,0.86575,0.83311,0.80048,0.7581,0.71572,0.66751,0.61931,0.56938,0.51945,0.47298,0.4265,0.38576,0.34502,0.31098,0.27693,0.24912,0.22132,0.19444,0.16757,0.15038,0.13319,0.12583,0.11847,0.1083,0.098134,0.090152,0.082171,0.075558,0.068945,0.061805,0.054665,0.050812,0.046959,0.046134,0.045308
0.04416,0.046503,0.048847,0.053282,0.057716,0.063315,0.068914,0.075771,0.082627,0.091245,0.099864,0.11046,0.12106,0.13486,0.14865,0.16642,0.18419,0.20778,0.23137,0.26307,0.29478,0.33705,0.37932,0.43484,0.49035,0.5531,0.61585,0.67231,0.72877,0.77312,0.81747,0.85647,0.89547,0.93023,0.96498,0.99266,1.0203,1.0365,1.0527,1.0597,1.0666,1.0653,1.0641,1.054,1.0439,1.0229,1.0018,0.96545,0.92912,0.88132,0.83351,0.77941,0.72531,0.66838,0.61145,0.55593,0.50042,0.45088,0.40134,0.35982,0.31831,0.28421,0.25012,0.22399,0.19787,0.16669,0.1355,0.13206,0.12861,0.11715,0.10568,0.096797,0.087911,0.080599,0.073286,0.067373,0.061459,0.055405,0.04935,0.048139,0.046928
0.044868,0.048163,0.051457,0.056309,0.061161,0.067373,0.073585,0.081165,0.088745,0.098322,0.1079,0.12025,0.13261,0.14885,0.1651,0.18676,0.20842,0.23809,0.26776,0.30822,0.34869,0.40183,0.45497,0.52047,0.58597,0.65485,0.72374,0.78177,0.8398,0.88666,0.93353,0.97756,1.0216,1.0658,1.11,1.1477,1.1855,1.2087,1.2319,1.2382,1.2444,1.2363,1.2282,1.2114,1.1946,1.1695,1.1444,1.1062,1.068,1.0163,0.96467,0.90546,0.84625,0.78373,0.72122,0.65886,0.59651,0.53785,0.47919,0.428,0.37681,0.33373,0.29066,0.25771,0.22476,0.19492,0.16508,0.14741,0.12974,0.12228,0.11482,0.10473,0.094642,0.086457,0.078271,0.071697,0.065124,0.059258,0.053392,0.05097,0.048548
0.045576,0.049822,0.054068,0.059336,0.064605,0.07143,0.078255,0.086559,0.094863,0.1054,0.11594,0.13004,0.14415,0.16285,0.18155,0.2071,0.23266,0.26841,0.30415,0.35338,0.4026,0.46661,0.53061,0.6061,0.68159,0.7566,0.83162,0.89122,0.95083,1.0002,1.0496,1.0987,1.1477,1.2014,1.255,1.3028,1.3506,1.3808,1.411,1.4166,1.4223,1.4074,1.3924,1.3688,1.3452,1.3162,1.2871,1.247,1.2069,1.1513,1.0958,1.0315,0.96718,0.89909,0.83099,0.76179,0.6926,0.62482,0.55703,0.49617,0.43531,0.38326,0.3312,0.29143,0.25166,0.22316,0.19466,0.16277,0.13088,0.12742,0.12396,0.11267,0.10137,0.092315,0.083256,0.076022,0.068788,0.063111,0.057433,0.053801,0.050168
0.047636,0.052196,0.056757,0.062497,0.068238,0.075621,0.083005,0.092173,0.10134,0.1134,0.12547,0.14163,0.1578,0.18008,0.20237,0.23378,0.26518,0.30975,0.35432,0.41455,0.47478,0.54972,0.62466,0.70573,0.7868,0.86134,0.93589,0.99439,1.0529,1.1063,1.1597,1.2186,1.2775,1.3434,1.4093,1.4675,1.5258,1.5649,1.6041,1.6158,1.6275,1.6144,1.6013,1.5731,1.545,1.5076,1.4703,1.4233,1.3762,1.3147,1.2532,1.1819,1.1106,1.0359,0.96121,0.88446,0.80772,0.73081,0.65391,0.58235,0.5108,0.44821,0.38562,0.33648,0.28734,0.25236,0.21737,0.18752,0.15767,0.14609,0.13451,0.12169,0.10887,0.098802,0.088729,0.080811,0.072893,0.066657,0.060421,0.056474,0.052527
0.049696,0.054571,0.059446,0.065658,0.07187,0.079812,0.087754,0.097788,0.10782,0.12141,0.135,0.15322,0.17145,0.19732,0.22319,0.26045,0.2977,0.3511,0.40449,0.47573,0.54697,0.63284,0.7187,0.80536,0.89201,0.96608,1.0402,1.0976,1.155,1.2124,1.2698,1.3385,1.4072,1.4854,1.5635,1.6323,1.701,1.7491,1.7972,1.815,1.8328,1.8214,1.8101,1.7774,1.7447,1.6991,1.6535,1.5995,1.5456,1.4781,1.4107,1.3324,1.254,1.1727,1.0914,1.0071,0.92283,0.83681,0.75079,0.66854,0.58629,0.51316,0.44003,0.38153,0.32302,0.28155,0.24008,0.21228,0.18447,0.16477,0.14506,0.13072,0.11638,0.10529,0.094202,0.0856,0.076997,0.070203,0.063409,0.059148,0.054886
0.051756,0.057009,0.062261,0.068961,0.07566,0.084349,0.093038,0.10415,0.11526,0.13051,0.14577,0.16673,0.1877,0.2183,0.2489,0.29442,0.33993,0.40437,0.46881,0.55224,0.63567,0.72751,0.81935,0.90805,0.99675,1.0704,1.1441,1.2067,1.2693,1.3396,1.4099,1.4956,1.5813,1.6728,1.7644,1.8431,1.9218,1.9772,2.0327,2.0609,2.0891,2.0864,2.0838,2.0513,2.0188,1.9634,1.9079,1.8408,1.7736,1.6943,1.615,1.5242,1.4335,1.3406,1.2477,1.1543,1.0608,0.96451,0.86826,0.77343,0.6786,0.59289,0.50718,0.43783,0.36847,0.31856,0.26866,0.23551,0.20237,0.17272,0.14308,0.13387,0.12466,0.11237,0.10007,0.090656,0.081243,0.073899,0.066555,0.061923,0.057292
0.053816,0.059446,0.065076,0.072263,0.079451,0.088886,0.098322,0.11051,0.1227,0.13962,0.15654,0.18024,0.20394,0.23928,0.27462,0.32839,0.38216,0.45764,0.53313,0.62875,0.72436,0.82218,0.92,1.0107,1.1015,1.1748,1.2481,1.3158,1.3836,1.4668,1.55,1.6527,1.7554,1.8603,1.9652,2.0539,2.1426,2.2053,2.2681,2.3068,2.3455,2.3514,2.3574,2.3252,2.2929,2.2277,2.1624,2.082,2.0017,1.9105,1.8192,1.7161,1.6129,1.5085,1.4041,1.3014,1.1987,1.0922,0.98574,0.87833,0.77092,0.67262,0.57433,0.49413,0.41392,0.35558,0.29723,0.25875,0.22027,0.18068,0.1411,0.13703,0.13295,0.11944,0.10593,0.095712,0.08549,0.077595,0.0697,0.064699,0.059698
0.055939,0.061947,0.067954,0.0757,0.083445,0.093494,0.10354,0.11705,0.13056,0.14954,0.16853,0.19581,0.2231,0.26489,0.30668,0.3695,0.43232,0.5189,0.60547,0.7106,0.81574,0.9204,1.0251,1.1219,1.2188,1.2996,1.3803,1.4626,1.545,1.6478,1.7507,1.8742,1.9977,2.1203,2.2428,2.3429,2.443,2.5118,2.5807,2.6285,2.6762,2.6872,2.6982,2.6638,2.6295,2.5543,2.4791,2.3785,2.2778,2.1685,2.0592,1.9404,1.8216,1.7016,1.5816,1.4667,1.3517,1.2353,1.1189,1.0004,0.88179,0.76832,0.65485,0.56112,0.46739,0.39875,0.3301,0.28512,0.24014,0.20401,0.16788,0.15467,0.14146,0.12666,0.11186,0.10076,0.089657,0.081212,0.072767,0.067396,0.062026
0.058062,0.064447,0.070832,0.079136,0.08744,0.098102,0.10876,0.12359,0.13843,0.15947,0.18051,0.21138,0.24225,0.2905,0.33875,0.41062,0.48249,0.58015,0.67781,0.79246,0.90711,1.0186,1.1301,1.2331,1.3361,1.4244,1.5126,1.6095,1.7063,1.8288,1.9514,2.0957,2.2401,2.3802,2.5203,2.6318,2.7433,2.8184,2.8934,2.9501,3.0069,3.023,3.039,3.0025,2.966,2.8809,2.7959,2.6749,2.554,2.4266,2.2992,2.1648,2.0303,1.8947,1.7592,1.6319,1.5047,1.3784,1.2521,1.1224,0.99266,0.86402,0.73537,0.62812,0.52086,0.44192,0.36297,0.3115,0.26002,0.22734,0.19466,0.17232,0.14997,0.13388,0.11779,0.10581,0.093825,0.084829,0.075833,0.070093,0.064353
0.06017,0.066909,0.073647,0.082501,0.091356,0.1029,0.11444,0.13058,0.14671,0.16995,0.19318,0.22828,0.26337,0.31915,0.37492,0.45623,0.53753,0.64526,0.75299,0.87683,1.0007,1.1241,1.2476,1.3611,1.4745,1.5744,1.6742,1.7902,1.9061,2.0504,2.1948,2.3632,2.5317,2.6885,2.8454,2.9759,3.1063,3.1973,3.2883,3.3497,3.4111,3.4285,3.446,3.4002,3.3545,3.2522,3.1499,3.0076,2.8654,2.7146,2.5639,2.4044,2.2448,2.0903,1.9358,1.7967,1.6576,1.5244,1.3912,1.2523,1.1134,0.97151,0.82958,0.70659,0.58361,0.49153,0.39945,0.34055,0.28165,0.24485,0.20805,0.17603,0.14401,0.13385,0.12369,0.11087,0.098055,0.08847,0.078884,0.072751,0.066618
0.084058,0.091801,0.099543,0.10958,0.11961,0.13418,0.14874,0.16695,0.18516,0.21319,0.24121,0.28144,0.32167,0.38796,0.45425,0.54604,0.63784,0.75984,0.88185,1.0173,1.1527,1.2905,1.4283,1.5547,1.681,1.7949,1.9088,2.046,2.1832,2.3515,2.5198,2.714,2.9082,3.0833,3.2583,3.4088,3.5593,3.6669,3.7745,3.8408,3.9072,3.9258,3.9445,3.8888,3.8331,3.7126,3.5922,3.4273,3.2624,3.0866,2.9107,2.7241,2.5375,2.3618,2.1861,2.0328,1.8794,1.7368,1.5943,1.4437,1.2932,1.1356,0.97791,0.83686,0.69581,0.58836,0.48092,0.4143,0.34768,0.30357,0.25946,0.21677,0.17409,0.16719,0.16029,0.1458,0.13131,0.11886,0.10642,0.099189,0.091963
0.086123,0.094843,0.10356,0.11366,0.12376,0.13982,0.15588,0.17559,0.19531,0.22601,0.2567,0.30166,0.34661,0.4205,0.4944,0.59765,0.7009,0.83235,0.9638,1.1103,1.2568,1.4068,1.5568,1.6971,1.8375,1.9685,2.0996,2.2561,2.4127,2.6005,2.7884,3.0079,3.2274,3.426,3.6245,3.7893,3.9542,4.0729,4.1916,4.2658,4.34,4.3634,4.3868,4.3303,4.2738,4.1414,4.0089,3.8171,3.6253,3.4128,3.2003,2.9786,2.7569,2.5583,2.3597,2.1911,2.0225,1.875,1.7275,1.5729,1.4182,1.2496,1.0809,0.9241,0.7673,0.64573,0.52417,0.44728,0.37039,0.32337,0.27635,0.23754,0.19874,0.1839,0.16907,0.15258,0.13609,0.12377,0.11146,0.10304,0.094625
0.088188,0.097885,0.10758,0.11775,0.12792,0.14547,0.16302,0.18424,0.20545,0.23882,0.2722,0.32188,0.37156,0.45305,0.53455,0.64925,0.76396,0.90486,1.0458,1.2033,1.3609,1.5231,1.6853,1.8396,1.994,2.1422,2.2904,2.4663,2.6422,2.8496,3.057,3.3018,3.5466,3.7687,3.9907,4.1699,4.349,4.4788,4.6086,4.6907,4.7729,4.801,4.8291,4.7718,4.7145,4.5701,4.4257,4.207,3.9882,3.739,3.4898,3.2331,2.9764,2.7548,2.5332,2.3494,2.1655,2.0131,1.8607,1.702,1.5432,1.3636,1.1839,1.0113,0.83879,0.7031,0.56741,0.48026,0.3931,0.34317,0.29324,0.25831,0.22338,0.20061,0.17784,0.15935,0.14087,0.12868,0.1165,0.10689,0.097288
0.091241,0.10134,0.11144,0.12253,0.13362,0.15191,0.17021,0.19271,0.2152,0.25113,0.28706,0.34236,0.39766,0.48655,0.57543,0.69941,0.82338,0.97573,1.1281,1.2976,1.4672,1.6416,1.8161,1.9836,2.1512,2.3193,2.4874,2.6814,2.8755,3.1124,3.3494,3.6148,3.8803,4.1239,4.3675,4.5603,4.7531,4.8917,5.0302,5.1172,5.2041,5.2361,5.2682,5.2155,5.1627,5.0111,4.8595,4.6153,4.3711,4.0783,3.7855,3.4943,3.2031,2.952,2.7009,2.4966,2.2924,2.1329,1.9734,1.8124,1.6515,1.4661,1.2807,1.0946,0.90846,0.7591,0.60975,0.51387,0.418,0.36221,0.30642,0.27075,0.23508,0.2096,0.18411,0.16581,0.14751,0.13367,0.11983,0.11058,0.10133
0.094293,0.1048,0.1153,0.12731,0.13931,0.15835,0.1774,0.20117,0.22495,0.26344,0.30192,0.36284,0.42377,0.52005,0.61632,0.74956,0.88279,1.0466,1.2104,1.3919,1.5734,1.7602,1.9469,2.1276,2.3083,2.4964,2.6844,2.8966,3.1088,3.3753,3.6417,3.9278,4.2139,4.4791,4.7443,4.9507,5.1571,5.3045,5.4519,5.5436,5.6354,5.6713,5.7073,5.6591,5.611,5.4521,5.2932,5.0235,4.7539,4.4176,4.0812,3.7555,3.4298,3.1491,2.8685,2.6439,2.4193,2.2527,2.0861,1.9229,1.7597,1.5686,1.3775,1.1778,0.97813,0.81511,0.65209,0.54749,0.44289,0.38124,0.31959,0.28319,0.24678,0.21858,0.19039,0.17227,0.15415,0.13865,0.12315,0.11427,0.10538
0.096986,0.10801,0.11903,0.13155,0.14407,0.16402,0.18397,0.20912,0.23426,0.27516,0.31606,0.38114,0.44623,0.54913,0.65204,0.79679,0.94153,1.1176,1.2937,1.4871,1.6804,1.8803,2.0803,2.2779,2.4754,2.679,2.8826,3.1254,3.3683,3.6572,3.9461,4.2586,4.5712,4.8612,5.1513,5.3738,5.5964,5.7479,5.8995,5.9874,6.0752,6.1018,6.1283,6.0745,6.0207,5.8489,5.6771,5.3811,5.0851,4.7216,4.358,3.9994,3.6409,3.3301,3.0194,2.7812,2.5431,2.3649,2.1867,2.0164,1.8462,1.6493,1.4525,1.246,1.0396,0.86596,0.69235,0.57925,0.46615,0.39976,0.33337,0.29362,0.25387,0.21851,0.18315,0.17133,0.1595,0.14321,0.12692,0.11771,0.1085
0.099678,0.11122,0.12276,0.1358,0.14884,0.16969,0.19054,0.21706,0.24357,0.28688,0.33019,0.39944,0.46868,0.57822,0.68775,0.84401,1.0003,1.1887,1.377,1.5822,1.7873,2.0005,2.2136,2.4281,2.6425,2.8616,3.0807,3.3543,3.6278,3.9391,4.2504,4.5894,4.9285,5.2433,5.5582,5.7969,6.0356,6.1913,6.347,6.4311,6.5151,6.5322,6.5493,6.4898,6.4304,6.2458,6.0611,5.7387,5.4163,5.0256,4.6348,4.2434,3.852,3.5111,3.1703,2.9186,2.6669,2.4772,2.2874,2.11,1.9326,1.7301,1.5275,1.3143,1.101,0.91681,0.73261,0.61101,0.48941,0.41828,0.34715,0.30406,0.26097,0.21844,0.17592,0.17038,0.16485,0.14777,0.13069,0.12116,0.11163
0.10233,0.11423,0.12613,0.1396,0.15307,0.17476,0.19646,0.22509,0.25373,0.29867,0.34361,0.41569,0.48777,0.60428,0.72079,0.88558,1.0504,1.251,1.4516,1.6699,1.8882,2.1178,2.3473,2.5789,2.8105,3.0564,3.3023,3.5934,3.8846,4.218,4.5514,4.9172,5.2831,5.6269,5.9708,6.2282,6.4855,6.6393,6.7931,6.8656,6.938,6.9354,6.9328,6.8543,6.7758,6.571,6.3663,6.0221,5.6779,5.2643,4.8507,4.4404,4.0301,3.6753,3.3206,3.0559,2.7912,2.5858,2.3805,2.192,2.0034,1.7945,1.5855,1.3662,1.1469,0.95615,0.76543,0.63736,0.50929,0.43456,0.35984,0.31459,0.26933,0.2247,0.18007,0.17493,0.16978,0.15208,0.13438,0.12448,0.11457
0.10499,0.11724,0.12949,0.14339,0.1573,0.17983,0.20237,0.23313,0.26389,0.31046,0.35702,0.43195,0.50687,0.63035,0.75384,0.92714,1.1004,1.3133,1.5262,1.7576,1.989,2.235,2.4811,2.7297,2.9784,3.2511,3.5239,3.8326,4.1414,4.4968,4.8523,5.245,5.6377,6.0105,6.3834,6.6594,6.9355,7.0873,7.2392,7.3,7.3609,7.3387,7.3164,7.2188,7.1212,6.8963,6.6714,6.3054,5.9394,5.503,5.0666,4.6374,4.2081,3.8395,3.4709,3.1932,2.9155,2.6945,2.4736,2.2739,2.0742,1.8588,1.6435,1.4181,1.1927,0.99549,0.79825,0.66371,0.52917,0.45085,0.37253,0.32511,0.2777,0.23096,0.18422,0.17947,0.17472,0.1564,0.13808,0.12779,0.11751
0.10793,0.11955,0.13118,0.14683,0.16249,0.18411,0.20573,0.2388,0.27186,0.31944,0.36701,0.44424,0.52146,0.64866,0.77585,0.95623,1.1366,1.3594,1.5822,1.8291,2.076,2.3418,2.6076,2.8779,3.1483,3.4424,3.7365,4.0577,4.3788,4.7521,5.1253,5.5397,5.954,6.3507,6.7475,7.0386,7.3297,7.4807,7.6316,7.6771,7.7225,7.6767,7.6309,7.5038,7.3768,7.1261,6.8754,6.4888,6.1022,5.6607,5.2192,4.7878,4.3564,3.981,3.6055,3.3146,3.0237,2.7902,2.5566,2.3427,2.1288,1.904,1.6792,1.4494,1.2196,1.0199,0.82019,0.68245,0.54472,0.4636,0.38249,0.33369,0.2849,0.23694,0.18899,0.18247,0.17595,0.15947,0.14299,0.13095,0.11891
0.11087,0.12187,0.13286,0.15027,0.16768,0.18839,0.2091,0.24447,0.27984,0.32842,0.377,0.45653,0.53606,0.66696,0.79787,0.98532,1.1728,1.4054,1.6381,1.9005,2.163,2.4485,2.7341,3.0261,3.3182,3.6337,3.9492,4.2827,4.6162,5.0073,5.3984,5.8343,6.2703,6.6909,7.1116,7.4178,7.7239,7.874,8.0241,8.0541,8.0841,8.0147,7.9453,7.7888,7.6323,7.3559,7.0795,6.6723,6.2651,5.8185,5.3718,4.9383,4.5048,4.1224,3.74,3.436,3.132,2.8858,2.6396,2.4115,2.1833,1.9491,1.715,1.4807,1.2464,1.0443,0.84213,0.7012,0.56027,0.47636,0.39244,0.34227,0.2921,0.24293,0.19375,0.18546,0.17718,0.16253,0.14789,0.1341,0.12031
0.11268,0.1248,0.13692,0.15308,0.16925,0.19299,0.21673,0.25096,0.28519,0.33461,0.38404,0.46395,0.54386,0.67522,0.80658,0.99542,1.1843,1.4232,1.6621,1.9422,2.2222,2.529,2.8358,3.1514,3.4671,3.799,4.131,4.4767,4.8224,5.2209,5.6195,6.0692,6.5189,6.9451,7.3714,7.6837,7.996,8.1511,8.3062,8.3275,8.3488,8.2558,8.1628,7.9737,7.7846,7.4796,7.1746,6.7564,6.3383,5.8929,5.4475,5.0236,4.5997,4.2191,3.8384,3.523,3.2075,2.9483,2.6891,2.45,2.2108,1.9688,1.7269,1.49,1.2531,1.0512,0.84919,0.70876,0.56833,0.48401,0.39969,0.34859,0.2975,0.24768,0.19786,0.1892,0.18054,0.16419,0.14785,0.13599,0.12413
0.11449,0.12773,0.14097,0.1559,0.17082,0.19759,0.22435,0.25744,0.29053,0.34081,0.39109,0.47137,0.55166,0.68348,0.8153,1.0055,1.1958,1.441,1.6862,1.9838,2.2814,2.6094,2.9374,3.2767,3.6159,3.9643,4.3127,4.6706,5.0286,5.4346,5.8406,6.304,6.7674,7.1993,7.6312,7.9496,8.2681,8.4282,8.5883,8.6009,8.6134,8.4969,8.3804,8.1586,7.9369,7.6033,7.2698,6.8406,6.4114,5.9673,5.5232,5.1089,4.6947,4.3157,3.9368,3.6099,3.283,3.0108,2.7386,2.4885,2.2384,1.9885,1.7387,1.4993,1.2599,1.0581,0.85625,0.71631,0.57638,0.49166,0.40694,0.35492,0.30289,0.25243,0.20196,0.19293,0.18391,0.16585,0.1478,0.13787,0.12795
0.11625,0.12966,0.14306,0.1595,0.17593,0.20187,0.22781,0.26121,0.29461,0.3448,0.39499,0.47415,0.55331,0.68193,0.81056,0.9944,1.1782,1.4296,1.6809,1.9905,2.3001,2.6466,2.993,3.3487,3.7044,4.0707,4.437,4.8099,5.1828,5.5936,6.0044,6.4631,6.9217,7.3437,7.7658,8.0844,8.403,8.5658,8.7285,8.7353,8.7421,8.6125,8.4829,8.2384,7.994,7.6381,7.2822,6.8528,6.4234,5.99,5.5567,5.1491,4.7415,4.3614,3.9813,3.6476,3.314,3.0334,2.7528,2.4928,2.2328,1.9772,1.7216,1.4835,1.2453,1.0479,0.8506,0.71461,0.57863,0.49473,0.41082,0.3587,0.30657,0.25589,0.20522,0.19589,0.18656,0.16827,0.14998,0.13981,0.12963
0.11801,0.13158,0.14516,0.1631,0.18104,0.20616,0.23127,0.26498,0.29868,0.34878,0.39889,0.47692,0.55496,0.68039,0.80583,0.98327,1.1607,1.4182,1.6757,1.9973,2.3189,2.6838,3.0487,3.4207,3.7928,4.1771,4.5613,4.9491,5.337,5.7526,6.1683,6.6221,7.076,7.4882,7.9004,8.2192,8.5379,8.7034,8.8688,8.8698,8.8707,8.7281,8.5854,8.3182,8.0511,7.6728,7.2946,6.865,6.4353,6.0127,5.5902,5.1893,4.7884,4.4071,4.0257,3.6853,3.3449,3.0559,2.7669,2.4971,2.2272,1.9659,1.7046,1.4676,1.2307,1.0378,0.84496,0.71292,0.58088,0.49779,0.41471,0.36248,0.31025,0.25936,0.20847,0.19885,0.18922,0.1707,0.15217,0.14174,0.13132
0.12031,0.13361,0.14692,0.16564,0.18436,0.20913,0.2339,0.26764,0.30138,0.35076,0.40013,0.47651,0.5529,0.66858,0.78427,0.96453,1.1448,1.3986,1.6525,1.9741,2.2957,2.6682,3.0408,3.4282,3.8157,4.2137,4.6118,5.0091,5.4065,5.8183,6.2301,6.6688,7.1076,7.5065,7.9054,8.2167,8.5279,8.6904,8.8529,8.8556,8.8583,8.7064,8.5545,8.2719,7.9894,7.6095,7.2297,6.8049,6.3801,5.9668,5.5535,5.1626,4.7717,4.3949,4.018,3.6785,3.339,3.0434,2.7477,2.4674,2.1871,1.925,1.6628,1.4317,1.2007,1.016,0.83129,0.70445,0.5776,0.49631,0.41501,0.36354,0.31208,0.26167,0.21127,0.20121,0.19114,0.17252,0.1539,0.14196,0.13001
0.1226,0.13564,0.14868,0.16818,0.18768,0.2121,0.23653,0.27031,0.30409,0.35273,0.40137,0.47611,0.55084,0.65677,0.76271,0.94578,1.1289,1.3791,1.6293,1.9509,2.2725,2.6527,3.0329,3.4357,3.8385,4.2504,4.6623,5.0691,5.476,5.8839,6.2919,6.7156,7.1392,7.5248,7.9105,8.2141,8.5178,8.6774,8.8371,8.8415,8.8459,8.6847,8.5235,8.2256,7.9278,7.5462,7.1647,6.7448,6.3249,5.9209,5.5169,5.136,4.7551,4.3827,4.0103,3.6717,3.3331,3.0308,2.7286,2.4378,2.1471,1.8841,1.6211,1.3958,1.1706,0.99412,0.81762,0.69598,0.57433,0.49482,0.41531,0.3646,0.3139,0.26399,0.21407,0.20356,0.19306,0.17434,0.15563,0.14217,0.12871
0.12418,0.13808,0.15198,0.17072,0.18946,0.2139,0.23835,0.27192,0.30549,0.35356,0.40164,0.47416,0.54669,0.65358,0.76047,0.93327,1.1061,1.3475,1.589,1.903,2.217,2.5941,2.9712,3.3799,3.7887,4.2083,4.628,5.0415,5.4549,5.8576,6.2603,6.6659,7.0714,7.4432,7.815,8.1088,8.4027,8.5637,8.7248,8.7279,8.7311,8.566,8.401,8.1004,7.7999,7.4243,7.0486,6.6396,6.2305,5.836,5.4414,5.0669,4.6923,4.3329,3.9735,3.639,3.3045,2.9898,2.6751,2.3829,2.0907,1.8315,1.5723,1.3542,1.136,0.96756,0.79908,0.68303,0.56697,0.49034,0.4137,0.3639,0.31409,0.26515,0.21621,0.20529,0.19438,0.17562,0.15686,0.14327,0.12968
0.12575,0.14052,0.15528,0.17326,0.19123,0.21571,0.24018,0.27353,0.30689,0.3544,0.40191,0.47222,0.54253,0.65039,0.75824,0.92076,1.0833,1.316,1.5486,1.855,2.1615,2.5354,2.9094,3.3241,3.7388,4.1663,4.5937,5.0138,5.4338,5.8312,6.2287,6.6162,7.0037,7.3616,7.7195,8.0036,8.2876,8.45,8.6125,8.6144,8.6163,8.4474,8.2785,7.9752,7.672,7.3023,6.9326,6.5344,6.1362,5.751,5.3659,4.9977,4.6296,4.2831,3.9367,3.6063,3.2758,2.9487,2.6216,2.328,2.0344,1.779,1.5236,1.3125,1.1015,0.941,0.78054,0.67008,0.55961,0.48586,0.4121,0.36319,0.31428,0.26631,0.21835,0.20702,0.1957,0.17689,0.15808,0.14437,0.13066
0.1275,0.14202,0.15654,0.17457,0.1926,0.21702,0.24143,0.27448,0.30752,0.3543,0.40107,0.4696,0.53813,0.64256,0.74698,0.90216,1.0573,1.2797,1.502,1.8007,2.0995,2.4628,2.8261,3.2344,3.6427,4.0781,4.5134,4.9407,5.3679,5.7657,6.1634,6.5373,6.9112,7.2576,7.6041,7.8825,8.161,8.3212,8.4813,8.4857,8.49,8.3297,8.1695,7.8803,7.591,7.2278,6.8645,6.4752,6.086,5.7035,5.3209,4.9587,4.5964,4.247,3.8975,3.5595,3.2216,2.8936,2.5656,2.2747,1.9837,1.7311,1.4785,1.2737,1.069,0.91605,0.76305,0.65717,0.55129,0.48038,0.40947,0.36166,0.31385,0.27323,0.23261,0.21452,0.19642,0.17765,0.15887,0.14509,0.1313
0.12924,0.14352,0.1578,0.17589,0.19397,0.21833,0.24269,0.27542,0.30815,0.35419,0.40024,0.46698,0.53373,0.63472,0.73572,0.88356,1.0314,1.2434,1.4553,1.7464,2.0375,2.3901,2.7427,3.1447,3.5467,3.9898,4.433,4.8675,5.302,5.7001,6.0981,6.4584,6.8187,7.1537,7.4887,7.7615,8.0344,8.1923,8.3502,8.3569,8.3637,8.2121,8.0605,7.7853,7.5101,7.1532,6.7964,6.4161,6.0359,5.6559,5.2759,4.9196,4.5632,4.2108,3.8584,3.5128,3.1673,2.8385,2.5096,2.2214,1.9331,1.6832,1.4333,1.235,1.0366,0.8911,0.74556,0.64427,0.54297,0.47491,0.40685,0.36014,0.31343,0.28015,0.24688,0.22201,0.19715,0.1784,0.15966,0.1458,0.13195
0.13017,0.14438,0.15859,0.17677,0.19496,0.21926,0.24356,0.2761,0.30863,0.34785,0.38706,0.4583,0.52953,0.62697,0.72441,0.86697,1.0095,1.2129,1.4163,1.6937,1.9712,2.315,2.6589,3.0578,3.4567,3.8922,4.3276,4.7683,5.2089,5.6116,6.0143,6.3734,6.7325,7.0573,7.382,7.6533,7.9246,8.0879,8.2512,8.2666,8.2819,8.1484,8.0149,7.7557,7.4965,7.1515,6.8065,6.4315,6.0565,5.68,5.3036,4.9387,4.5738,4.2113,3.8488,3.4909,3.133,2.8032,2.4733,2.1841,1.8949,1.6463,1.3978,1.2046,1.0113,0.87134,0.73133,0.63402,0.53672,0.47068,0.40464,0.35871,0.31279,0.27941,0.24603,0.22187,0.19771,0.17895,0.16019,0.14623,0.13228
0.1311,0.14523,0.15937,0.17766,0.19595,0.22019,0.24442,0.27677,0.30912,0.3415,0.37388,0.44961,0.52533,0.61922,0.7131,0.85037,0.98763,1.1825,1.3773,1.6411,1.9048,2.2399,2.5751,2.9709,3.3667,3.7945,4.2223,4.6691,5.1158,5.5232,5.9305,6.2884,6.6464,6.9609,7.2754,7.5451,7.8148,7.9836,8.1523,8.1762,8.2001,8.0847,7.9693,7.7261,7.483,7.1498,6.8165,6.4468,6.0771,5.7042,5.3313,4.9578,4.5843,4.2117,3.8392,3.469,3.0988,2.7679,2.437,2.1468,1.8567,1.6095,1.3622,1.1741,0.98605,0.85158,0.7171,0.62378,0.53046,0.46645,0.40244,0.35729,0.31214,0.27866,0.24518,0.22173,0.19828,0.1795,0.16073,0.14667,0.13261
0.13165,0.14582,0.15999,0.17846,0.19693,0.22097,0.24502,0.27735,0.30967,0.34781,0.38595,0.45446,0.52297,0.61472,0.70647,0.84123,0.97599,1.1658,1.3556,1.6108,1.866,2.1929,2.5199,2.9085,3.2972,3.7198,4.1424,4.5756,5.0087,5.4188,5.8289,6.1964,6.5639,6.8801,7.1962,7.4696,7.7431,7.9242,8.1053,8.1464,8.1874,8.0833,7.9792,7.7475,7.5159,7.1967,6.8775,6.5177,6.1579,5.7861,5.4143,5.0357,4.6571,4.268,3.879,3.4972,3.1154,2.7711,2.4268,2.1316,1.8364,1.5916,1.3468,1.1605,0.9741,0.8416,0.70909,0.61786,0.52662,0.46372,0.40082,0.34951,0.29819,0.27197,0.24576,0.22205,0.19834,0.17959,0.16084,0.14674,0.13265
0.1322,0.1464,0.1606,0.17925,0.1979,0.22176,0.24562,0.27792,0.31022,0.35411,0.39801,0.45931,0.52061,0.61022,0.69983,0.83209,0.96435,1.1491,1.3339,1.5805,1.8271,2.1459,2.4647,2.8462,3.2277,3.6451,4.0625,4.4821,4.9017,5.3145,5.7273,6.1044,6.4815,6.7992,7.1169,7.3942,7.6714,7.8648,8.0583,8.1165,8.1747,8.0819,7.9891,7.7689,7.5487,7.2436,6.9386,6.5886,6.2387,5.868,5.4974,5.1136,4.7299,4.3243,3.9187,3.5254,3.1321,2.7743,2.4165,2.1163,1.8161,1.5738,1.3314,1.1468,0.96215,0.83162,0.70109,0.61194,0.52278,0.46099,0.3992,0.34172,0.28424,0.26529,0.24634,0.22237,0.19841,0.17968,0.16095,0.14682,0.1327
0.13245,0.14661,0.16077,0.17946,0.19815,0.22207,0.24598,0.27161,0.29723,0.34792,0.39861,0.46015,0.5217,0.61108,0.70046,0.83186,0.96325,1.148,1.3327,1.5771,1.8216,2.1311,2.4406,2.8103,3.1799,3.5853,3.9906,4.4032,4.8158,5.2141,5.6123,5.9862,6.3601,6.6939,7.0277,7.3189,7.6101,7.8169,8.0237,8.0992,8.1747,8.0992,8.0237,7.8169,7.6101,7.3189,7.0277,6.6939,6.3601,5.9862,5.6123,5.2141,4.8158,4.4032,3.9906,3.5853,3.1799,2.8103,2.4406,2.1311,1.8216,1.5771,1.3327,1.148,0.96325,0.83186,0.70046,0.61108,0.5217,0.46015,0.39861,0.34792,0.29723,0.27161,0.24598,0.22207,0.19815,0.17946,0.16077,0.14661,0.13245
0.1327,0.14682,0.16095,0.17968,0.19841,0.22237,0.24634,0.26529,0.28424,0.34172,0.3992,0.46099,0.52278,0.61194,0.70109,0.83162,0.96215,1.1468,1.3314,1.5738,1.8161,2.1163,2.4165,2.7743,3.1321,3.5254,3.9187,4.3243,4.7299,5.1136,5.4974,5.868,6.2387,6.5886,6.9386,7.2436,7.5487,7.7689,7.9891,8.0819,8.1747,8.1165,8.0583,7.8648,7.6714,7.3942,7.1169,6.7992,6.4815,6.1044,5.7273,5.3145,4.9017,4.4821,4.0625,3.6451,3.2277,2.8462,2.4647,2.1459,1.8271,1.5805,1.3339,1.1491,0.96435,0.83209,0.69983,0.61022,0.52061,0.45931,0.39801,0.35411,0.31022,0.27792,0.24562,0.22176,0.1979,0.17925,0.1606,0.1464,0.1322
0.13265,0.14674,0.16084,0.17959,0.19834,0.22205,0.24576,0.27197,0.29819,0.34951,0.40082,0.46372,0.52662,0.61786,0.70909,0.8416,0.9741,1.1605,1.3468,1.5916,1.8364,2.1316,2.4268,2.7711,3.1154,3.4972,3.879,4.268,4.6571,5.0357,5.4143,5.7861,6.1579,6.5177,6.8775,7.1967,7.5159,7.7475,7.9792,8.0833,8.1874,8.1464,8.1053,7.9242,7.7431,7.4696,7.1962,6.8801,6.5639,6.1964,5.8289,5.4188,5.0087,4.5756,4.1424,3.7198,3.2972,2.9085,2.5199,2.1929,1.866,1.6108,1.3556,1.1658,0.97599,0.84123,0.70647,0.61472,0.52297,0.45446,0.38595,0.34781,0.30967,0.27735,0.24502,0.22097,0.19693,0.17846,0.15999,0.14582,0.13165
0.13261,0.14667,0.16073,0.1795,0.19828,0.22173,0.24518,0.27866,0.31214,0.35729,0.40244,0.46645,0.53046,0.62378,0.7171,0.85158,0.98605,1.1741,1.3622,1.6095,1.8567,2.1468,2.437,2.7679,3.0988,3.469,3.8392,4.2117,4.5843,4.9578,5.3313,5.7042,6.0771,6.4468,6.8165,7.1498,7.483,7.7261,7.9693,8.0847,8.2001,8.1762,8.1523,7.9836,7.8148,7.5451,7.2754,6.9609,6.6464,6.2884,5.9305,5.5232,5.1158,4.6691,4.2223,3.7945,3.3667,2.9709,2.5751,2.2399,1.9048,1.6411,1.3773,1.1825,0.98763,0.85037,0.7131,0.61922,0.52533,0.44961,0.37388,0.3415,0.30912,0.27677,0.24442,0.22019,0.19595,0.17766,0.15937,0.14523,0.1311
0.13228,0.14623,0.16019,0.17895,0.19771,0.22187,0.24603,0.27941,0.31279,0.35871,0.40464,0.47068,0.53672,0.63402,0.73133,0.87134,1.0113,1.2046,1.3978,1.6463,1.8949,2.1841,2.4733,2.8032,3.133,3.4909,3.8488,4.2113,4.5738,4.9387,5.3036,5.68,6.0565,6.4315,6.8065,7.1515,7.4965,7.7557,8.0149,8.1484,8.2819,8.2666,8.2512,8.0879,7.9246,7.6533,7.382,7.0573,6.7325,6.3734,6.0143,5.6116,5.2089,4.7683,4.3276,3.8922,3.4567,3.0578,2.6589,2.315,1.9712,1.6937,1.4163,1.2129,1.0095,0.86697,0.72441,0.62697,0.52953,0.4583,0.38706,0.34785,0.30863,0.2761,0.24356,0.21926,0.19496,0.17677,0.15859,0.14438,0.13017
0.13195,0.1458,0.15966,0.1784,0.19715,0.22201,0.24688,0.28015,0.31343,0.36014,0.40685,0.47491,0.54297,0.64427,0.74556,0.8911,1.0366,1.235,1.4333,1.6832,1.9331,2.2214,2.5096,2.8385,3.1673,3.5128,3.8584,4.2108,4.5632,4.9196,5.2759,5.6559,6.0359,6.4161,6.7964,7.1532,7.5101,7.7853,8.0605,8.2121,8.3637,8.3569,8.3502,8.1923,8.0344,7.7615,7.4887,7.1537,6.8187,6.4584,6.0981,5.7001,5.302,4.8675,4.433,3.9898,3.5467,3.1447,2.7427,2.3901,2.0375,1.7464,1.4553,1.2434,1.0314,0.88356,0.73572,0.63472,0.53373,0.46698,0.40024,0.35419,0.30815,0.27542,0.24269,0.21833,0.19397,0.17589,0.1578,0.14352,0.12924
0.1313,0.14509,0.15887,0.17765,0.19642,0.21452,0.23261,0.27323,0.31385,0.36166,0.40947,0.48038,0.55129,0.65717,0.76305,0.91605,1.069,1.2737,1.4785,1.7311,1.9837,2.2747,2.5656,2.8936,3.2216,3.5595,3.8975,4.247,4.5964,4.9587,5.3209,5.7035,6.086,6.4752,6.8645,7.2278,7.591,7.8803,8.1695,8.3297,8.49,8.4857,8.4813,8.3212,8.161,7.8825,7.6041,7.2576,6.9112,6.5373,6.1634,5.7657,5.3679,4.9407,4.5134,4.0781,3.6427,3.2344,2.8261,2.4628,2.0995,1.8007,1.502,1.2797,1.0573,0.90216,0.74698,0.64256,0.53813,0.4696,0.40107,0.3543,0.30752,0.27448,0.24143,0.21702,0.1926,0.17457,0.15654,0.14202,0.1275
0.13066,0.14437,0.15808,0.17689,0.1957,0.20702,0.21835,0.26631,0.31428,0.36319,0.4121,0.48586,0.55961,0.67008,0.78054,0.941,1.1015,1.3125,1.5236,1.779,2.0344,2.328,2.6216,2.9487,3.2758,3.6063,3.9367,4.2831,4.6296,4.9977,5.3659,5.751,6.1362,6.5344,6.9326,7.3023,7.672,7.9752,8.2785,8.4474,8.6163,8.6144,8.6125,8.45,8.2876,8.0036,7.7195,7.3616,7.0037,6.6162,6.2287,5.8312,5.4338,5.0138,4.5937,4.1663,3.7388,3.3241,2.9094,2.5354,2.1615,1.855,1.5486,1.316,1.0833,0.92076,0.75824,0.65039,0.54253,0.47222,0.40191,0.3544,0.30689,0.27353,0.24018,0.21571,0.19123,0.17326,0.15528,0.14052,0.12575
0.12968,0.14327,0.15686,0.17562,0.19438,0.20529,0.21621,0.26515,0.31409,0.3639,0.4137,0.49034,0.56697,0.68303,0.79908,0.96756,1.136,1.3542,1.5723,1.8315,2.0907,2.3829,2.6751,2.9898,3.3045,3.639,3.9735,4.3329,4.6923,5.0669,5.4414,5.836,6.2305,6.6396,7.0486,7.4243,7.7999,8.1004,8.401,8.566,8.7311,8.7279,8.7248,8.5637,8.4027,8.1088,7.815,7.4432,7.0714,6.6659,6.2603,5.8576,5.4549,5.0415,4.628,4.2083,3.7887,3.3799,2.9712,2.5941,2.217,1.903,1.589,1.3475,1.1061,0.93327,0.76047,0.65358,0.54669,0.47416,0.40164,0.35356,0.30549,0.27192,0.23835,0.2139,0.18946,0.17072,0.15198,0.13808,0.12418
0.12871,0.14217,0.15563,0.17434,0.19306,0.20356,0.21407,0.26399,0.3139,0.3646,0.41531,0.49482,0.57433,0.69598,0.81762,0.99412,1.1706,1.3958,1.6211,1.8841,2.1471,2.4378,2.7286,3.0308,3.3331,3.6717,4.0103,4.3827,4.7551,5.136,5.5169,5.9209,6.3249,6.7448,7.1647,7.5462,7.9278,8.2256,8.5235,8.6847,8.8459,8.8415,8.8371,8.6774,8.5178,8.2141,7.9105,7.5248,7.1392,6.7156,6.2919,5.8839,5.476,5.0691,4.6623,4.2504,3.8385,3.4357,3.0329,2.6527,2.2725,1.9509,1.6293,1.3791,1.1289,0.94578,0.76271,0.65677,0.55084,0.47611,0.40137,0.35273,0.30409,0.27031,0.23653,0.2121,0.18768,0.16818,0.14868,0.13564,0.1226
0.13001,0.14196,0.1539,0.17252,0.19114,0.20121,0.21127,0.26167,0.31208,0.36354,0.41501,0.49631,0.5776,0.70445,0.83129,1.016,1.2007,1.4317,1.6628,1.925,2.1871,2.4674,2.7477,3.0434,3.339,3.6785,4.018,4.3949,4.7717,5.1626,5.5535,5.9668,6.3801,6.8049,7.2297,7.6095,7.9894,8.2719,8.5545,8.7064,8.8583,8.8556,8.8529,8.6904,8.5279,8.2167,7.9054,7.5065,7.1076,6.6688,6.2301,5.8183,5.4065,5.0091,4.6118,4.2137,3.8157,3.4282,3.0408,2.6682,2.2957,1.9741,1.6525,1.3986,1.1448,0.96453,0.78427,0.66858,0.5529,0.47651,0.40013,0.35076,0.30138,0.26764,0.2339,0.20913,0.18436,0.16564,0.14692,0.13361,0.12031
0.13132,0.14174,0.15217,0.1707,0.18922,0.19885,0.20847,0.25936,0.31025,0.36248,0.41471,0.49779,0.58088,0.71292,0.84496,1.0378,1.2307,1.4676,1.7046,1.9659,2.2272,2.4971,2.7669,3.0559,3.3449,3.6853,4.0257,4.4071,4.7884,5.1893,5.5902,6.0127,6.4353,6.865,7.2946,7.6728,8.0511,8.3182,8.5854,8.7281,8.8707,8.8698,8.8688,8.7034,8.5379,8.2192,7.9004,7.4882,7.076,6.6221,6.1683,5.7526,5.337,4.9491,4.5613,4.1771,3.7928,3.4207,3.0487,2.6838,2.3189,1.9973,1.6757,1.4182,1.1607,0.98327,0.80583,0.68039,0.55496,0.47692,0.39889,0.34878,0.29868,0.26498,0.23127,0.20616,0.18104,0.1631,0.14516,0.13158,0.11801
0.12963,0.13981,0.14998,0.16827,0.18656,0.19589,0.20522,0.25589,0.30657,0.3587,0.41082,0.49473,0.57863,0.71461,0.8506,1.0479,1.2453,1.4835,1.7216,1.9772,2.2328,2.4928,2.7528,3.0334,3.314,3.6476,3.9813,4.3614,4.7415,5.1491,5.5567,5.99,6.4234,6.8528,7.2822,7.6381,7.994,8.2384,8.4829,8.6125,8.7421,8.7353,8.7285,8.5658,8.403,8.0844,7.7658,7.3437,6.9217,6.4631,6.0044,5.5936,5.1828,4.8099,4.437,4.0707,3.7044,3.3487,2.993,2.6466,2.3001,1.9905,1.6809,1.4296,1.1782,0.9944,0.81056,0.68193,0.55331,0.47415,0.39499,0.3448,0.29461,0.26121,0.22781,0.20187,0.17593,0.1595,0.14306,0.12966,0.11625
0.12795,0.13787,0.1478,0.16585,0.18391,0.19293,0.20196,0.25243,0.30289,0.35492,0.40694,0.49166,0.57638,0.71631,0.85625,1.0581,1.2599,1.4993,1.7387,1.9885,2.2384,2.4885,2.7386,3.0108,3.283,3.6099,3.9368,4.3157,4.6947,5.1089,5.5232,5.9673,6.4114,6.8406,7.2698,7.6033,7.9369,8.1586,8.3804,8.4969,8.6134,8.6009,8.5883,8.4282,8.2681,7.9496,7.6312,7.1993,6.7674,6.304,5.8406,5.4346,5.0286,4.6706,4.3127,3.9643,3.6159,3.2767,2.9374,2.6094,2.2814,1.9838,1.6862,1.441,1.1958,1.0055,0.8153,0.68348,0.55166,0.47137,0.39109,0.34081,0.29053,0.25744,0.22435,0.19759,0.17082,0.1559,0.14097,0.12773,0.11449
0.12413,0.13599,0.14785,0.16419,0.18054,0.1892,0.19786,0.24768,0.2975,0.34859,0.39969,0.48401,0.56833,0.70876,0.84919,1.0512,1.2531,1.49,1.7269,1.9688,2.2108,2.45,2.6891,2.9483,3.2075,3.523,3.8384,4.2191,4.5997,5.0236,5.4475,5.8929,6.3383,6.7564,7.1746,7.4796,7.7846,7.9737,8.1628,8.2558,8.3488,8.3275,8.3062,8.1511,7.996,7.6837,7.3714,6.9451,6.5189,6.0692,5.6195,5.2209,4.8224,4.4767,4.131,3.799,3.4671,3.1514,2.8358,2.529,2.2222,1.9422,1.6621,1.4232,1.1843,0.99542,0.80658,0.67522,0.54386,0.46395,0.38404,0.33461,0.28519,0.25096,0.21673,0.19299,0.16925,0.15308,0.13692,0.1248,0.11268
0.12031,0.1341,0.14789,0.16253,0.17718,0.18546,0.19375,0.24293,0.2921,0.34227,0.39244,0.47636,0.56027,0.7012,0.84213,1.0443,1.2464,1.4807,1.715,1.9491,2.1833,2.4115,2.6396,2.8858,3.132,3.436,3.74,4.1224,4.5048,4.9383,5.3718,5.8185,6.2651,6.6723,7.0795,7.3559,7.6323,7.7888,7.9453,8.0147,8.0841,8.0541,8.0241,7.874,7.7239,7.4178,7.1116,6.6909,6.2703,5.8343,5.3984,5.0073,4.6162,4.2827,3.9492,3.6337,3.3182,3.0261,2.7341,2.4485,2.163,1.9005,1.6381,1.4054,1.1728,0.98532,0.79787,0.66696,0.53606,0.45653,0.377,0.32842,0.27984,0.24447,0.2091,0.18839,0.16768,0.15027,0.13286,0.12187,0.11087
0.11891,0.13095,0.14299,0.15947,0.17595,0.18247,0.18899,0.23694,0.2849,0.33369,0.38249,0.4636,0.54472,0.68245,0.82019,1.0199,1.2196,1.4494,1.6792,1.904,2.1288,2.3427,2.5566,2.7902,3.0237,3.3146,3.6055,3.981,4.3564,4.7878,5.2192,5.6607,6.1022,6.4888,6.8754,7.1261,7.3768,7.5038,7.6309,7.6767,7.7225,7.6771,7.6316,7.4807,7.3297,7.0386,6.7475,6.3507,5.954,5.5397,5.1253,4.7521,4.3788,4.0577,3.7365,3.4424,3.1483,2.8779,2.6076,2.3418,2.076,1.8291,1.5822,1.3594,1.1366,0.95623,0.77585,0.64866,0.52146,0.44424,0.36701,0.31944,0.27186,0.2388,0.20573,0.18411,0.16249,0.14683,0.13118,0.11955,0.10793
0.11751,0.12779,0.13808,0.1564,0.17472,0.17947,0.18422,0.23096,0.2777,0.32511,0.37253,0.45085,0.52917,0.66371,0.79825,0.99549,1.1927,1.4181,1.6435,1.8588,2.0742,2.2739,2.4736,2.6945,2.9155,3.1932,3.4709,3.8395,4.2081,4.6374,5.0666,5.503,5.9394,6.3054,6.6714,6.8963,7.1212,7.2188,7.3164,7.3387,7.3609,7.3,7.2392,7.0873,6.9355,6.6594,6.3834,6.0105,5.6377,5.245,4.8523,4.4968,4.1414,3.8326,3.5239,3.2511,2.9784,2.7297,2.4811,2.235,1.989,1.7576,1.5262,1.3133,1.1004,0.92714,0.75384,0.63035,0.50687,0.43195,0.35702,0.31046,0.26389,0.23313,0.20237,0.17983,0.1573,0.14339,0.12949,0.11724,0.10499
0.11457,0.12448,0.13438,0.15208,0.16978,0.17493,0.18007,0.2247,0.26933,0.31459,0.35984,0.43456,0.50929,0.63736,0.76543,0.95615,1.1469,1.3662,1.5855,1.7945,2.0034,2.192,2.3805,2.5858,2.7912,3.0559,3.3206,3.6753,4.0301,4.4404,4.8507,5.2643,5.6779,6.0221,6.3663,6.571,6.7758,6.8543,6.9328,6.9354,6.938,6.8656,6.7931,6.6393,6.4855,6.2282,5.9708,5.6269,5.2831,4.9172,4.5514,4.218,3.8846,3.5934,3.3023,3.0564,2.8105,2.5789,2.3473,2.1178,1.8882,1.6699,1.4516,1.251,1.0504,0.88558,0.72079,0.60428,0.48777,0.41569,0.34361,0.29867,0.25373,0.22509,0.19646,0.17476,0.15307,0.1396,0.12613,0.11423,0.10233
0.11163,0.12116,0.13069,0.14777,0.16485,0.17038,0.17592,0.21844,0.26097,0.30406,0.34715,0.41828,0.48941,0.61101,0.73261,0.91681,1.101,1.3143,1.5275,1.7301,1.9326,2.11,2.2874,2.4772,2.6669,2.9186,3.1703,3.5111,3.852,4.2434,4.6348,5.0256,5.4163,5.7387,6.0611,6.2458,6.4304,6.4898,6.5493,6.5322,6.5151,6.4311,6.347,6.1913,6.0356,5.7969,5.5582,5.2433,4.9285,4.5894,4.2504,3.9391,3.6278,3.3543,3.0807,2.8616,2.6425,2.4281,2.2136,2.0005,1.7873,1.5822,1.377,1.1887,1.0003,0.84401,0.68775,0.57822,0.46868,0.39944,0.33019,0.28688,0.24357,0.21706,0.19054,0.16969,0.14884,0.1358,0.12276,0.11122,0.099678
0.1085,0.11771,0.12692,0.14321,0.1595,0.17133,0.18315,0.21851,0.25387,0.29362,0.33337,0.39976,0.46615,0.57925,0.69235,0.86596,1.0396,1.246,1.4525,1.6493,1.8462,2.0164,2.1867,2.3649,2.5431,2.7812,3.0194,3.3301,3.6409,3.9994,4.358,4.7216,5.0851,5.3811,5.6771,5.8489,6.0207,6.0745,6.1283,6.1018,6.0752,5.9874,5.8995,5.7479,5.5964,5.3738,5.1513,4.8612,4.5712,4.2586,3.9461,3.6572,3.3683,3.1254,2.8826,2.679,2.4754,2.2779,2.0803,1.8803,1.6804,1.4871,1.2937,1.1176,0.94153,0.79679,0.65204,0.54913,0.44623,0.38114,0.31606,0.27516,0.23426,0.20912,0.18397,0.16402,0.14407,0.13155,0.11903,0.10801,0.096986
0.10538,0.11427,0.12315,0.13865,0.15415,0.17227,0.19039,0.21858,0.24678,0.28319,0.31959,0.38124,0.44289,0.54749,0.65209,0.81511,0.97813,1.1778,1.3775,1.5686,1.7597,1.9229,2.0861,2.2527,2.4193,2.6439,2.8685,3.1491,3.4298,3.7555,4.0812,4.4176,4.7539,5.0235,5.2932,5.4521,5.611,5.6591,5.7073,5.6713,5.6354,5.5436,5.4519,5.3045,5.1571,4.9507,4.7443,4.4791,4.2139,3.9278,3.6417,3.3753,3.1088,2.8966,2.6844,2.4964,2.3083,2.1276,1.9469,1.7602,1.5734,1.3919,1.2104,1.0466,0.88279,0.74956,0.61632,0.52005,0.42377,0.36284,0.30192,0.26344,0.22495,0.20117,0.1774,0.15835,0.13931,0.12731,0.1153,0.1048,0.094293
0.10133,0.11058,0.11983,0.13367,0.14751,0.16581,0.18411,0.2096,0.23508,0.27075,0.30642,0.36221,0.418,0.51387,0.60975,0.7591,0.90846,1.0946,1.2807,1.4661,1.6515,1.8124,1.9734,2.1329,2.2924,2.4966,2.7009,2.952,3.2031,3.4943,3.7855,4.0783,4.3711,4.6153,4.8595,5.0111,5.1627,5.2155,5.2682,5.2361,5.2041,5.1172,5.0302,4.8917,4.7531,4.5603,4.3675,4.1239,3.8803,3.6148,3.3494,3.1124,2.8755,2.6814,2.4874,2.3193,2.1512,1.9836,1.8161,1.6416,1.4672,1.2976,1.1281,0.97573,0.82338,0.69941,0.57543,0.48655,0.39766,0.34236,0.28706,0.25113,0.2152,0.19271,0.17021,0.15191,0.13362,0.12253,0.11144,0.10134,0.091241
0.097288,0.10689,0.1165,0.12868,0.14087,0.15935,0.17784,0.20061,0.22338,0.25831,0.29324,0.34317,0.3931,0.48026,0.56741,0.7031,0.83879,1.0113,1.1839,1.3636,1.5432,1.702,1.8607,2.0131,2.1655,2.3494,2.5332,2.7548,2.9764,3.2331,3.4898,3.739,3.9882,4.207,4.4257,4.5701,4.7145,4.7718,4.8291,4.801,4.7729,4.6907,4.6086,4.4788,4.349,4.1699,3.9907,3.7687,3.5466,3.3018,3.057,2.8496,2.6422,2.4663,2.2904,2.1422,1.994,1.8396,1.6853,1.5231,1.3609,1.2033,1.0458,0.90486,0.76396,0.64925,0.53455,0.45305,0.37156,0.32188,0.2722,0.23882,0.20545,0.18424,0.16302,0.14547,0.12792,0.11775,0.10758,0.097885,0.088188
0.094625,0.10304,0.11146,0.12377,0.13609,0.15258,0.16907,0.1839,0.19874,0.23754,0.27635,0.32337,0.37039,0.44728,0.52417,0.64573,0.7673,0.9241,1.0809,1.2496,1.4182,1.5729,1.7275,1.875,2.0225,2.1911,2.3597,2.5583,2.7569,2.9786,3.2003,3.4128,3.6253,3.8171,4.0089,4.1414,4.2738,4.3303,4.3868,4.3634,4.34,4.2658,4.1916,4.0729,3.9542,3.7893,3.6245,3.426,3.2274,3.0079,2.7884,2.6005,2.4127,2.2561,2.0996,1.9685,1.8375,1.6971,1.5568,1.4068,1.2568,1.1103,0.9638,0.83235,0.7009,0.59765,0.4944,0.4205,0.34661,0.30166,0.2567,0.22601,0.19531,0.17559,0.15588,0.13982,0.12376,0.11366,0.10356,0.094843,0.086123
0.091963,0.099189,0.10642,0.11886,0.13131,0.1458,0.16029,0.16719,0.17409,0.21677,0.25946,0.30357,0.34768,0.4143,0.48092,0.58836,0.69581,0.83686,0.97791,1.1356,1.2932,1.4437,1.5943,1.7368,1.8794,2.0328,2.1861,2.3618,2.5375,2.7241,2.9107,3.0866,3.2624,3.4273,3.5922,3.7126,3.8331,3.8888,3.9445,3.9258,3.9072,3.8408,3.7745,3.6669,3.5593,3.4088,3.2583,3.0833,2.9082,2.714,2.5198,2.3515,2.1832,2.046,1.9088,1.7949,1.681,1.5547,1.4283,1.2905,1.1527,1.0173,0.88185,0.75984,0.63784,0.54604,0.45425,0.38796,0.32167,0.28144,0.24121,0.21319,0.18516,0.16695,0.14874,0.13418,0.11961,0.10958,0.099543,0.091801,0.084058
0.066618,0.072751,0.078884,0.08847,0.098055,0.11087,0.12369,0.13385,0.14401,0.17603,0.20805,0.24485,0.28165,0.34055,0.39945,0.49153,0.58361,0.70659,0.82958,0.97151,1.1134,1.2523,1.3912,1.5244,1.6576,1.7967,1.9358,2.0903,2.2448,2.4044,2.5639,2.7146,2.8654,3.0076,3.1499,3.2522,3.3545,3.4002,3.446,3.4285,3.4111,3.3497,3.2883,3.1973,3.1063,2.9759,2.8454,2.6885,2.5317,2.3632,2.1948,2.0504,1.9061,1.7902,1.6742,1.5744,1.4745,1.3611,1.2476,1.1241,1.0007,0.87683,0.75299,0.64526,0.53753,0.45623,0.37492,0.31915,0.26337,0.22828,0.19318,0.16995,0.14671,0.13058,0.11444,0.1029,0.091356,0.082501,0.073647,0.066909,0.06017
0.064353,0.070093,0.075833,0.084829,0.093825,0.10581,0.11779,0.13388,0.14997,0.17232,0.19466,0.22734,0.26002,0.3115,0.36297,0.44192,0.52086,0.62812,0.73537,0.86402,0.99266,1.1224,1.2521,1.3784,1.5047,1.6319,1.7592,1.8947,2.0303,2.1648,2.2992,2.4266,2.554,2.6749,2.7959,2.8809,2.966,3.0025,3.039,3.023,3.0069,2.9501,2.8934,2.8184,2.7433,2.6318,2.5203,2.3802,2.2401,2.0957,1.9514,1.8288,1.7063,1.6095,1.5126,1.4244,1.3361,1.2331,1.1301,1.0186,0.90711,0.79246,0.67781,0.58015,0.48249,0.41062,0.33875,0.2905,0.24225,0.21138,0.18051,0.15947,0.13843,0.12359,0.10876,0.098102,0.08744,0.079136,0.070832,0.064447,0.058062
0.062026,0.067396,0.072767,0.081212,0.089657,0.10076,0.11186,0.12666,0.14146,0.15467,0.16788,0.20401,0.24014,0.28512,0.3301,0.39875,0.46739,0.56112,0.65485,0.76832,0.88179,1.0004,1.1189,1.2353,1.3517,1.4667,1.5816,1.7016,1.8216,1.9404,2.0592,2.1685,2.2778,2.3785,2.4791,2.5543,2.6295,2.6638,2.6982,2.6872,2.6762,2.6285,2.5807,2.5118,2.443,2.3429,2.2428,2.1203,1.9977,1.8742,1.7507,1.6478,1.545,1.4626,1.3803,1.2996,1.2188,1.1219,1.0251,0.9204,0.81574,0.7106,0.60547,0.5189,0.43232,0.3695,0.30668,0.26489,0.2231,0.19581,0.16853,0.14954,0.13056,0.11705,0.10354,0.093494,0.083445,0.0757,0.067954,0.061947,0.055939
0.059698,0.064699,0.0697,0.077595,0.08549,0.095712,0.10593,0.11944,0.13295,0.13703,0.1411,0.18068,0.22027,0.25875,0.29723,0.35558,0.41392,0.49413,0.57433,0.67262,0.77092,0.87833,0.98574,1.0922,1.1987,1.3014,1.4041,1.5085,1.6129,1.7161,1.8192,1.9105,2.0017,2.082,2.1624,2.2277,2.2929,2.3252,2.3574,2.3514,2.3455,2.3068,2.2681,2.2053,2.1426,2.0539,1.9652,1.8603,1.7554,1.6527,1.55,1.4668,1.3836,1.3158,1.2481,1.1748,1.1015,1.0107,0.92,0.82218,0.72436,0.62875,0.53313,0.45764,0.38216,0.32839,0.27462,0.23928,0.20394,0.18024,0.15654,0.13962,0.1227,0.11051,0.098322,0.088886,0.079451,0.072263,0.065076,0.059446,0.053816
0.057292,0.061923,0.066555,0.073899,0.081243,0.090656,0.10007,0.11237,0.12466,0.13387,0.14308,0.17272,0.20237,0.23551,0.26866,0.31856,0.36847,0.43783,0.50718,0.59289,0.6786,0.77343,0.86826,0.96451,1.0608,1.1543,1.2477,1.3406,1.4335,1.5242,1.615,1.6943,1.7736,1.8408,1.9079,1.9634,2.0188,2.0513,2.0838,2.0864,2.0891,2.0609,2.0327,1.9772,1.9218,1.8431,1.7644,1.6728,1.5813,1.4956,1.4099,1.3396,1.2693,1.2067,1.1441,1.0704,0.99675,0.90805,0.81935,0.72751,0.63567,0.55224,0.46881,0.40437,0.33993,0.29442,0.2489,0.2183,0.1877,0.16673,0.14577,0.13051,0.11526,0.10415,0.093038,0.084349,0.07566,0.068961,0.062261,0.057009,0.051756
0.054886,0.059148,0.063409,0.070203,0.076997,0.0856,0.094202,0.10529,0.11638,0.13072,0.14506,0.16477,0.18447,0.21228,0.24008,0.28155,0.32302,0.38153,0.44003,0.51316,0.58629,0.66854,0.75079,0.83681,0.92283,1.0071,1.0914,1.1727,1.254,1.3324,1.4107,1.4781,1.5456,1.5995,1.6535,1.6991,1.7447,1.7774,1.8101,1.8214,1.8328,1.815,1.7972,1.7491,1.701,1.6323,1.5635,1.4854,1.4072,1.3385,1.2698,1.2124,1.155,1.0976,1.0402,0.96608,0.89201,0.80536,0.7187,0.63284,0.54697,0.47573,0.40449,0.3511,0.2977,0.26045,0.22319,0.19732,0.17145,0.15322,0.135,0.12141,0.10782,0.097788,0.087754,0.079812,0.07187,0.065658,0.059446,0.054571,0.049696
0.052527,0.056474,0.060421,0.066657,0.072893,0.080811,0.088729,0.098802,0.10887,0.12169,0.13451,0.14609,0.15767,0.18752,0.21737,0.25236,0.28734,0.33648,0.38562,0.44821,0.5108,0.58235,0.65391,0.73081,0.80772,0.88446,0.96121,1.0359,1.1106,1.1819,1.2532,1.3147,1.3762,1.4233,1.4703,1.5076,1.545,1.5731,1.6013,1.6144,1.6275,1.6158,1.6041,1.5649,1.5258,1.4675,1.4093,1.3434,1.2775,1.2186,1.1597,1.1063,1.0529,0.99439,0.93589,0.86134,0.7868,0.70573,0.62466,0.54972,0.47478,0.41455,0.35432,0.30975,0.26518,0.23378,0.20237,0.18008,0.1578,0.14163,0.12547,0.1134,0.10134,0.092173,0.083005,0.075621,0.068238,0.062497,0.056757,0.052196,0.047636
0.050168,0.053801,0.057433,0.063111,0.068788,0.076022,0.083256,0.092315,0.10137,0.11267,0.12396,0.12742,0.13088,0.16277,0.19466,0.22316,0.25166,0.29143,0.3312,0.38326,0.43531,0.49617,0.55703,0.62482,0.6926,0.76179,0.83099,0.89909,0.96718,1.0315,1.0958,1.1513,1.2069,1.247,1.2871,1.3162,1.3452,1.3688,1.3924,1.4074,1.4223,1.4166,1.411,1.3808,1.3506,1.3028,1.255,1.2014,1.1477,1.0987,1.0496,1.0002,0.95083,0.89122,0.83162,0.7566,0.68159,0.6061,0.53061,0.46661,0.4026,0.35338,0.30415,0.26841,0.23266,0.2071,0.18155,0.16285,0.14415,0.13004,0.11594,0.1054,0.094863,0.086559,0.078255,0.07143,0.064605,0.059336,0.054068,0.049822,0.045576
0.048548,0.05097,0.053392,0.059258,0.065124,0.071697,0.078271,0.086457,0.094642,0.10473,0.11482,0.12228,0.12974,0.14741,0.16508,0.19492,0.22476,0.25771,0.29066,0.33373,0.37681,0.428,0.47919,0.53785,0.59651,0.65886,0.72122,0.78373,0.84625,0.90546,0.96467,1.0163,1.068,1.1062,1.1444,1.1695,1.1946,1.2114,1.2282,1.2363,1.2444,1.2382,1.2319,1.2087,1.1855,1.1477,1.11,1.0658,1.0216,0.97756,0.93353,0.88666,0.8398,0.78177,0.72374,0.65485,0.58597,0.52047,0.45497,0.40183,0.34869,0.30822,0.26776,0.23809,0.20842,0.18676,0.1651,0.14885,0.13261,0.12025,0.1079,0.098322,0.088745,0.081165,0.073585,0.067373,0.061161,0.056309,0.051457,0.048163,0.044868
0.046928,0.048139,0.04935,0.055405,0.061459,0.067373,0.073286,0.080599,0.087911,0.096797,0.10568,0.11715,0.12861,0.13206,0.1355,0.16669,0.19787,0.22399,0.25012,0.28421,0.31831,0.35982,0.40134,0.45088,0.50042,0.55593,0.61145,0.66838,0.72531,0.77941,0.83351,0.88132,0.92912,0.96545,1.0018,1.0229,1.0439,1.054,1.0641,1.0653,1.0666,1.0597,1.0527,1.0365,1.0203,0.99266,0.96498,0.93023,0.89547,0.85647,0.81747,0.77312,0.72877,0.67231,0.61585,0.5531,0.49035,0.43484,0.37932,0.33705,0.29478,0.26307,0.23137,0.20778,0.18419,0.16642,0.14865,0.13486,0.12106,0.11046,0.099864,0.091245,0.082627,0.075771,0.068914,0.063315,0.057716,0.053282,0.048847,0.046503,0.04416
0.045308,0.046134,0.046959,0.050812,0.054665,0.061805,0.068945,0.075558,0.082171,0.090152,0.098134,0.1083,0.11847,0.12583,0.13319,0.15038,0.16757,0.19444,0.22132,0.24912,0.27693,0.31098,0.34502,0.38576,0.4265,0.47298,0.51945,0.56938,0.61931,0.66751,0.71572,0.7581,0.80048,0.83311,0.86575,0.88493,0.90412,0.91127,0.91843,0.9167,0.91497,0.90766,0.90035,0.88753,0.87471,0.85356,0.83241,0.80276,0.77312,0.7375,0.70188,0.66028,0.61868,0.56891,0.51913,0.46731,0.4155,0.37065,0.32581,0.29163,0.25746,0.23147,0.20548,0.18571,0.16595,0.15065,0.13536,0.12348,0.1116,0.1021,0.092614,0.084853,0.077092,0.070903,0.064715,0.059635,0.054555,0.050459,0.046362,0.04497,0.043578
0.043688,0.044129,0.044569,0.04622,0.047872,0.056238,0.064605,0.070518,0.076431,0.083508,0.090585,0.099455,0.10832,0.1196,0.13088,0.13407,0.13726,0.16489,0.19252,0.21404,0.23555,0.26213,0.28871,0.32065,0.35259,0.39002,0.42745,0.47038,0.51331,0.55562,0.59792,0.63488,0.67184,0.70078,0.72971,0.74701,0.76431,0.76856,0.7728,0.76808,0.76337,0.75566,0.74795,0.73852,0.72908,0.71446,0.69983,0.6753,0.65076,0.61853,0.58629,0.54744,0.5086,0.46551,0.42242,0.38153,0.34064,0.30646,0.27229,0.24621,0.22014,0.19987,0.1796,0.16365,0.1477,0.13489,0.12207,0.1121,0.10213,0.093746,0.085364,0.07846,0.071556,0.066036,0.060516,0.055955,0.051394,0.047636,0.043877,0.043437,0.042996
0.042242,0.042171,0.0421,0.043665,0.04523,0.052165,0.0591,0.065218,0.071336,0.077705,0.084074,0.092008,0.099942,0.10972,0.11949,0.12603,0.13257,0.1523,0.17202,0.18977,0.20753,0.22904,0.25056,0.27617,0.30179,0.33166,0.36152,0.39598,0.43044,0.46543,0.50042,0.53171,0.56301,0.5877,0.61239,0.62741,0.64243,0.64699,0.65155,0.64841,0.64526,0.63889,0.63252,0.62482,0.61711,0.6039,0.59069,0.56859,0.5465,0.51811,0.48972,0.45717,0.42462,0.39002,0.35542,0.32331,0.29119,0.26421,0.23722,0.21604,0.19485,0.17793,0.16101,0.14742,0.13383,0.12291,0.11199,0.10305,0.094108,0.086669,0.07923,0.073073,0.066916,0.061923,0.05693,0.052747,0.048564,0.046464,0.044365,0.041935,0.039505
0.040795,0.040213,0.039631,0.041109,0.042587,0.048092,0.053596,0.059918,0.06624,0.071902,0.077563,0.084562,0.09156,0.099832,0.1081,0.118,0.12789,0.1397,0.15151,0.16551,0.1795,0.19595,0.2124,0.2317,0.251,0.2733,0.2956,0.32158,0.34756,0.37524,0.40291,0.42855,0.45418,0.47463,0.49507,0.50781,0.52055,0.52542,0.5303,0.52873,0.52715,0.52212,0.51709,0.51111,0.50514,0.49334,0.48155,0.46189,0.44223,0.4177,0.39316,0.3669,0.34064,0.31453,0.28842,0.26509,0.24175,0.22195,0.20215,0.18586,0.16956,0.15599,0.14242,0.13119,0.11996,0.11094,0.10191,0.093998,0.086087,0.079592,0.073097,0.067687,0.062277,0.057811,0.053344,0.049539,0.045733,0.045292,0.044852,0.040433,0.036014
0.039159,0.038396,0.037634,0.039002,0.04037,0.045395,0.050419,0.055719,0.061019,0.066555,0.072091,0.078255,0.08442,0.091709,0.098999,0.10759,0.11617,0.12627,0.13636,0.14819,0.16002,0.17365,0.18729,0.20297,0.21866,0.23651,0.25436,0.27462,0.29487,0.31632,0.33776,0.35799,0.37822,0.39489,0.41156,0.42249,0.43342,0.43853,0.44365,0.44349,0.44333,0.43956,0.43578,0.42989,0.42399,0.41322,0.40244,0.38591,0.36937,0.34962,0.32988,0.30917,0.28846,0.26805,0.24765,0.22914,0.21063,0.19465,0.17867,0.16515,0.15164,0.14016,0.12867,0.11908,0.10949,0.10148,0.093463,0.08652,0.079576,0.073781,0.067986,0.063126,0.058267,0.054225,0.050183,0.04806,0.045937,0.043508,0.041078,0.038231,0.035385
0.037524,0.03658,0.035636,0.036894,0.038153,0.042698,0.047243,0.05152,0.055798,0.061208,0.066618,0.071949,0.07728,0.083587,0.089893,0.097174,0.10446,0.11284,0.12122,0.13088,0.14053,0.15135,0.16217,0.17425,0.18633,0.19973,0.21313,0.22766,0.24219,0.2574,0.2726,0.28743,0.30226,0.31516,0.32806,0.33718,0.3463,0.35165,0.35699,0.35825,0.35951,0.35699,0.35448,0.34866,0.34284,0.33309,0.32334,0.30992,0.29651,0.28155,0.2666,0.25144,0.23628,0.22157,0.20687,0.19318,0.1795,0.16735,0.15519,0.14445,0.13371,0.12432,0.11493,0.10697,0.099014,0.092016,0.085018,0.079042,0.073066,0.06797,0.062875,0.058566,0.054257,0.050639,0.047022,0.046582,0.046142,0.041723,0.037303,0.03603,0.034756
0.034614,0.033673,0.032732,0.035018,0.037303,0.040181,0.043059,0.0474,0.05174,0.056443,0.061145,0.06628,0.071414,0.076958,0.082501,0.088871,0.09524,0.1025,0.10976,0.11804,0.12632,0.13547,0.14462,0.1547,0.16478,0.17569,0.1866,0.19829,0.20998,0.22197,0.23396,0.24548,0.25699,0.26694,0.2769,0.28408,0.29127,0.29562,0.29997,0.30113,0.3023,0.30045,0.2986,0.29381,0.28902,0.28112,0.27322,0.26266,0.2521,0.24039,0.22868,0.21666,0.20463,0.19283,0.18103,0.16993,0.15882,0.14866,0.13849,0.12952,0.12056,0.11252,0.10447,0.09745,0.090428,0.084302,0.078177,0.0729,0.067624,0.063071,0.058518,0.054658,0.050797,0.048784,0.046771,0.044451,0.042131,0.039293,0.036454,0.03424,0.032026
0.031705,0.030766,0.029827,0.033141,0.036454,0.037665,0.038876,0.043279,0.047683,0.051677,0.055672,0.06061,0.065548,0.070329,0.07511,0.080567,0.086024,0.092158,0.098291,0.10519,0.1121,0.11958,0.12707,0.13515,0.14324,0.15165,0.16006,0.16892,0.17777,0.18655,0.19532,0.20352,0.21171,0.21872,0.22574,0.23099,0.23624,0.23959,0.24294,0.24401,0.24508,0.2439,0.24272,0.23896,0.23521,0.22915,0.2231,0.21539,0.20768,0.19922,0.19076,0.18188,0.17299,0.16409,0.15519,0.14667,0.13814,0.12996,0.12179,0.1146,0.10741,0.10071,0.094013,0.087927,0.081841,0.076588,0.071336,0.066759,0.062183,0.058173,0.054162,0.05075,0.047337,0.046928,0.046519,0.04232,0.038121,0.036863,0.035605,0.03245,0.029295
0.031038,0.030125,0.029212,0.031316,0.03342,0.035621,0.037822,0.04059,0.043358,0.047392,0.051426,0.055688,0.05995,0.064565,0.069181,0.073978,0.078774,0.084113,0.089453,0.095429,0.1014,0.10784,0.11427,0.12113,0.128,0.13509,0.14218,0.1495,0.15683,0.164,0.17117,0.17778,0.18439,0.18998,0.19556,0.1997,0.20385,0.20643,0.20902,0.20987,0.21072,0.20977,0.20882,0.20582,0.20283,0.19801,0.19318,0.18703,0.18087,0.17401,0.16716,0.15988,0.15261,0.1452,0.1378,0.13074,0.12369,0.11675,0.1098,0.10354,0.097269,0.091473,0.085678,0.080386,0.075094,0.070463,0.065831,0.061766,0.057701,0.054131,0.050561,0.048666,0.046771,0.044593,0.042415,0.039725,0.037036,0.034887,0.032738,0.030701,0.028663
0.030371,0.029484,0.028597,0.029492,0.030387,0.033578,0.036769,0.037901,0.039033,0.043106,0.04718,0.050765,0.054351,0.058802,0.063252,0.067388,0.071524,0.076069,0.080614,0.085663,0.090711,0.096089,0.10147,0.10711,0.11276,0.11853,0.1243,0.13009,0.13588,0.14144,0.14701,0.15204,0.15708,0.16123,0.16538,0.16842,0.17145,0.17328,0.1751,0.17573,0.17636,0.17563,0.17491,0.17268,0.17044,0.16686,0.16327,0.15867,0.15406,0.1488,0.14355,0.13789,0.13223,0.12632,0.1204,0.11482,0.10924,0.10353,0.097819,0.092472,0.087125,0.082234,0.077343,0.072845,0.068348,0.064337,0.060327,0.056773,0.053219,0.050089,0.046959,0.046582,0.046205,0.042257,0.03831,0.03713,0.035951,0.032911,0.029871,0.028951,0.028031
0.027963,0.027138,0.026312,0.027945,0.029578,0.031606,0.033633,0.035688,0.037744,0.040299,0.042855,0.046464,0.050073,0.053871,0.057669,0.061664,0.065658,0.069645,0.073632,0.078035,0.082439,0.087094,0.091749,0.096585,0.10142,0.10631,0.1112,0.11609,0.12097,0.12568,0.13039,0.13463,0.13887,0.14233,0.1458,0.14832,0.15085,0.15234,0.15382,0.15426,0.1547,0.15404,0.15338,0.15157,0.14976,0.14682,0.14388,0.14008,0.13627,0.1319,0.12753,0.12275,0.11798,0.11298,0.10798,0.10312,0.098259,0.093361,0.088462,0.083854,0.079246,0.074984,0.070722,0.066799,0.062875,0.059328,0.055782,0.052613,0.049444,0.047714,0.045984,0.044011,0.042037,0.039521,0.037005,0.03499,0.032975,0.031014,0.029053,0.02746,0.025867
0.025556,0.024791,0.024027,0.026399,0.02877,0.029634,0.030497,0.033476,0.036454,0.037492,0.03853,0.042163,0.045796,0.048941,0.052086,0.055939,0.059792,0.063221,0.066649,0.070408,0.074166,0.078098,0.08203,0.086056,0.090082,0.094092,0.098102,0.10208,0.10606,0.10991,0.11377,0.11721,0.12065,0.12344,0.12622,0.12823,0.13025,0.1314,0.13254,0.13279,0.13305,0.13245,0.13185,0.13047,0.12908,0.12679,0.12449,0.12149,0.11848,0.11499,0.1115,0.10762,0.10373,0.099643,0.095555,0.091418,0.087282,0.083193,0.079105,0.075236,0.071367,0.067734,0.064101,0.060752,0.057402,0.05432,0.051237,0.048454,0.04567,0.04534,0.045009,0.041439,0.03787,0.036784,0.035699,0.03285,0.03,0.029118,0.028235,0.025969,0.023703
0.025012,0.024231,0.02345,0.024956,0.026461,0.028011,0.02956,0.031452,0.033343,0.035205,0.037067,0.039356,0.041644,0.044805,0.047966,0.050467,0.052967,0.057072,0.061176,0.064463,0.06775,0.071171,0.074591,0.078067,0.081542,0.085018,0.088493,0.091922,0.09535,0.098661,0.10197,0.1049,0.10784,0.11021,0.11259,0.11423,0.11587,0.11678,0.11768,0.1179,0.11812,0.11764,0.11716,0.11597,0.11477,0.11281,0.11084,0.1083,0.10576,0.10278,0.099801,0.096475,0.093148,0.089626,0.086103,0.082549,0.078994,0.075472,0.071949,0.068599,0.065249,0.062057,0.058864,0.055916,0.052967,0.050671,0.048375,0.046401,0.044428,0.042674,0.04092,0.038656,0.036391,0.034547,0.032703,0.030874,0.029044,0.027527,0.02601,0.024551,0.023091
0.024467,0.02367,0.022873,0.023513,0.024153,0.026388,0.028622,0.029428,0.030233,0.032919,0.035605,0.036549,0.037492,0.040669,0.043846,0.044994,0.046142,0.050923,0.055703,0.058518,0.061334,0.064243,0.067152,0.070078,0.073003,0.075944,0.078884,0.081762,0.08464,0.087408,0.090176,0.092598,0.09502,0.096986,0.098951,0.10023,0.1015,0.10216,0.10282,0.10301,0.1032,0.10284,0.10247,0.10147,0.10046,0.098826,0.09719,0.095114,0.093038,0.090569,0.0881,0.085332,0.082564,0.079608,0.076651,0.073679,0.070707,0.06775,0.064793,0.061963,0.059132,0.05638,0.053628,0.05108,0.048532,0.047022,0.045513,0.044349,0.043185,0.040008,0.036832,0.035872,0.034913,0.03231,0.029707,0.028898,0.028088,0.025936,0.023785,0.023132,0.02248
0.023036,0.022356,0.021676,0.022269,0.022862,0.024912,0.026963,0.0277,0.028437,0.030885,0.033334,0.034194,0.035054,0.037925,0.040795,0.041801,0.042808,0.046684,0.050561,0.052487,0.054414,0.057913,0.061412,0.063952,0.066492,0.069032,0.071572,0.074072,0.076573,0.078947,0.081322,0.083421,0.085521,0.087157,0.088792,0.089862,0.090931,0.091505,0.092079,0.092228,0.092378,0.092103,0.091827,0.090986,0.090145,0.088737,0.08733,0.085529,0.083728,0.081589,0.079451,0.077084,0.074717,0.072153,0.06959,0.067011,0.064432,0.061845,0.059258,0.056765,0.054272,0.051874,0.049476,0.04806,0.046645,0.044443,0.042242,0.041204,0.040166,0.037319,0.034473,0.033599,0.032725,0.030345,0.027965,0.02722,0.026476,0.024497,0.022519,0.021917,0.021314
0.021605,0.021042,0.020479,0.021025,0.021571,0.023437,0.025304,0.025972,0.026641,0.028852,0.031063,0.03184,0.032617,0.03518,0.037744,0.038609,0.039474,0.042446,0.045418,0.046456,0.047494,0.051583,0.055672,0.057827,0.059981,0.06212,0.064259,0.066382,0.068505,0.070486,0.072468,0.074245,0.076022,0.077327,0.078633,0.079498,0.080363,0.08085,0.081338,0.081448,0.081558,0.081369,0.08118,0.080504,0.079828,0.078648,0.077469,0.075944,0.074418,0.072609,0.070801,0.068835,0.066869,0.064699,0.062529,0.060343,0.058157,0.055939,0.053722,0.051567,0.049413,0.047368,0.045324,0.045041,0.044758,0.041864,0.03897,0.038058,0.037146,0.03463,0.032114,0.031326,0.030538,0.02838,0.026222,0.025543,0.024864,0.023058,0.021253,0.020701,0.020149
0.020495,0.019949,0.019403,0.019911,0.020418,0.022137,0.023856,0.02447,0.025084,0.027102,0.029121,0.029825,0.030528,0.032839,0.035149,0.035943,0.036737,0.039379,0.042021,0.042949,0.043877,0.047188,0.050498,0.051992,0.053486,0.056073,0.05866,0.0605,0.06234,0.064054,0.065768,0.067286,0.068804,0.069944,0.071084,0.071855,0.072625,0.073034,0.073443,0.073537,0.073632,0.07349,0.073349,0.072806,0.072263,0.071202,0.07014,0.068788,0.067435,0.065863,0.06429,0.062576,0.060862,0.058982,0.057103,0.055177,0.05325,0.051615,0.049979,0.048485,0.046991,0.044742,0.042493,0.041951,0.041408,0.038837,0.036265,0.035448,0.03463,0.032338,0.030046,0.029329,0.028613,0.026653,0.024692,0.024073,0.023453,0.02179,0.020127,0.019615,0.019103
0.019385,0.018856,0.018328,0.018796,0.019265,0.020836,0.022407,0.022967,0.023527,0.025353,0.027179,0.027809,0.02844,0.030497,0.032554,0.033277,0.034001,0.036313,0.038624,0.039442,0.04026,0.042792,0.045324,0.046157,0.046991,0.050026,0.053061,0.054618,0.056175,0.057622,0.059069,0.060327,0.061585,0.06256,0.063535,0.064212,0.064888,0.065218,0.065548,0.065627,0.065706,0.065611,0.065517,0.065108,0.064699,0.063755,0.062812,0.061632,0.060453,0.059116,0.057779,0.056317,0.054854,0.053266,0.051677,0.05001,0.048343,0.04729,0.046236,0.045403,0.044569,0.042116,0.039662,0.03886,0.038058,0.035809,0.03356,0.032837,0.032114,0.030046,0.027978,0.027333,0.026688,0.024925,0.023162,0.022602,0.022042,0.020522,0.019001,0.018529,0.018057
0.018413,0.017905,0.017397,0.017826,0.018255,0.019699,0.021143,0.021659,0.022174,0.023843,0.025512,0.026087,0.026663,0.028528,0.030393,0.031047,0.0317,0.033802,0.035904,0.036635,0.037366,0.039607,0.041848,0.042587,0.043327,0.045788,0.048249,0.049342,0.050435,0.052023,0.053612,0.054894,0.056175,0.057032,0.057889,0.058471,0.059053,0.059344,0.059635,0.059698,0.059761,0.059659,0.059556,0.059171,0.058786,0.057992,0.057197,0.056175,0.055153,0.053981,0.05281,0.052008,0.051206,0.049539,0.047872,0.046731,0.045591,0.044113,0.042635,0.041888,0.041141,0.03897,0.0368,0.036085,0.035369,0.033331,0.031293,0.030642,0.029991,0.028121,0.026252,0.025664,0.025076,0.023455,0.021835,0.02132,0.020805,0.019405,0.018005,0.01757,0.017134
0.017441,0.016953,0.016466,0.016856,0.017246,0.018562,0.019878,0.02035,0.020822,0.022333,0.023845,0.024365,0.024886,0.026559,0.028232,0.028816,0.029399,0.031291,0.033183,0.033828,0.034473,0.036423,0.038373,0.039018,0.039662,0.04155,0.043437,0.044066,0.044695,0.046425,0.048155,0.04946,0.050765,0.051504,0.052244,0.052731,0.053219,0.05347,0.053722,0.053769,0.053816,0.053706,0.053596,0.053234,0.052873,0.052228,0.051583,0.050718,0.049853,0.048847,0.04784,0.047699,0.047557,0.045811,0.044066,0.043452,0.042839,0.040936,0.039033,0.038373,0.037712,0.035825,0.033938,0.033309,0.03268,0.030852,0.029025,0.028446,0.027867,0.026197,0.024527,0.023996,0.023464,0.021986,0.020507,0.020037,0.019567,0.018288,0.01701,0.01661,0.016211
