0.0060776,0.0062604,0.0064431,0.0069084,0.0073736,0.0076009,0.0078281,0.0084009,0.0089736,0.0092454,0.0095172,0.010191,0.010865,0.010382,0.009898,0.011397,0.012895,0.013172,0.013448,0.014317,0.015186,0.015489,0.015791,0.016662,0.017533,0.017812,0.018092,0.018924,0.019756,0.020014,0.020272,0.020965,0.021657,0.021835,0.022013,0.022425,0.022836,0.022892,0.022947,0.023008,0.02307,0.022999,0.022929,0.022537,0.022145,0.02195,0.021755,0.021092,0.020429,0.020162,0.019894,0.019011,0.018128,0.017831,0.017533,0.016625,0.015718,0.01563,0.015543,0.014431,0.013319,0.012977,0.012634,0.011859,0.011083,0.010781,0.010478,0.0098412,0.009204,0.0089552,0.0087065,0.0081521,0.0075978,0.0073859,0.007174,0.0067425,0.006311,0.0061498,0.0059886,0.0062235,0.0064584
0.0064201,0.0066227,0.0068254,0.0073429,0.0078604,0.008113,0.0083656,0.0090051,0.0096447,0.0095656,0.0094865,0.010617,0.011747,0.011667,0.011587,0.01285,0.014113,0.014429,0.014744,0.015734,0.016723,0.017068,0.017413,0.018419,0.019426,0.019748,0.020071,0.021033,0.021995,0.022291,0.022586,0.023386,0.024186,0.02439,0.024593,0.025054,0.025516,0.025587,0.025657,0.025717,0.025777,0.025685,0.025593,0.025127,0.024661,0.024438,0.024215,0.023455,0.022695,0.022391,0.022087,0.021085,0.020083,0.019738,0.019394,0.01834,0.017287,0.017046,0.016805,0.015907,0.01501,0.014133,0.013256,0.01264,0.012023,0.011678,0.011332,0.010611,0.0098888,0.009607,0.0093253,0.0087088,0.0080922,0.0078596,0.007627,0.0071502,0.0066734,0.006493,0.0063126,0.006559,0.0068055
0.0067625,0.0069851,0.0072078,0.0077775,0.0083471,0.0086251,0.008903,0.0096094,0.010316,0.0098857,0.0094558,0.011042,0.012628,0.012952,0.013276,0.014303,0.015331,0.015685,0.01604,0.01715,0.018261,0.018647,0.019034,0.020177,0.021319,0.021685,0.02205,0.023142,0.024234,0.024567,0.0249,0.025808,0.026715,0.026944,0.027173,0.027684,0.028195,0.028281,0.028367,0.028426,0.028484,0.02837,0.028257,0.027716,0.027176,0.026926,0.026675,0.025818,0.024962,0.024621,0.02428,0.023159,0.022038,0.021646,0.021255,0.020056,0.018856,0.018462,0.018067,0.017384,0.0167,0.015289,0.013878,0.013421,0.012963,0.012574,0.012186,0.01138,0.010574,0.010259,0.0099441,0.0092654,0.0085867,0.0083333,0.00808,0.0075579,0.0070358,0.0068362,0.0066366,0.0068945,0.0071525
0.0071571,0.0074028,0.0076485,0.0082811,0.0089138,0.0092239,0.0095341,0.010307,0.01108,0.011039,0.010997,0.012366,0.013734,0.014105,0.014475,0.015651,0.016826,0.017233,0.01764,0.018917,0.020194,0.020639,0.021084,0.022406,0.023727,0.024154,0.024581,0.025845,0.027108,0.027495,0.027882,0.028942,0.030003,0.030263,0.030523,0.031078,0.031633,0.031738,0.031842,0.031918,0.031993,0.031867,0.031741,0.03111,0.030479,0.030192,0.029906,0.028909,0.027913,0.027523,0.027133,0.025819,0.024506,0.024047,0.023589,0.022209,0.020829,0.020376,0.019924,0.018831,0.017738,0.016802,0.015865,0.015199,0.014532,0.013874,0.013216,0.012302,0.011387,0.011024,0.01066,0.009898,0.0091364,0.0088569,0.0085775,0.0080109,0.0074443,0.007237,0.0070297,0.0072377,0.0074458
0.0075517,0.0078205,0.0080892,0.0087848,0.0094804,0.0098228,0.010165,0.011005,0.011845,0.012192,0.012539,0.013689,0.014839,0.015257,0.015675,0.016998,0.018322,0.018781,0.01924,0.020684,0.022127,0.022631,0.023134,0.024635,0.026135,0.026623,0.027111,0.028547,0.029983,0.030423,0.030864,0.032077,0.03329,0.033582,0.033874,0.034473,0.035072,0.035194,0.035317,0.035409,0.035501,0.035363,0.035225,0.034503,0.033782,0.033459,0.033137,0.032,0.030864,0.030425,0.029986,0.028479,0.026973,0.026448,0.025923,0.024363,0.022803,0.022291,0.02178,0.020278,0.018776,0.018314,0.017852,0.016977,0.016102,0.015174,0.014247,0.013224,0.012201,0.011788,0.011375,0.010531,0.0096861,0.0093806,0.009075,0.0084638,0.0078527,0.0076377,0.0074228,0.0075809,0.0077391
0.0078097,0.0083134,0.008817,0.0093514,0.0098857,0.010523,0.01116,0.011781,0.012401,0.013223,0.014045,0.014865,0.015684,0.016684,0.017685,0.018634,0.019584,0.020709,0.021834,0.022869,0.023904,0.025147,0.02639,0.027475,0.028561,0.029765,0.030969,0.032001,0.033034,0.03416,0.035286,0.036146,0.037006,0.037766,0.038526,0.038941,0.039356,0.039678,0.040001,0.040047,0.040093,0.039786,0.039478,0.038956,0.038434,0.037644,0.036853,0.036016,0.035179,0.034069,0.032959,0.031868,0.030777,0.029487,0.028197,0.02708,0.025963,0.024707,0.023451,0.022373,0.021296,0.020157,0.019018,0.0183,0.017582,0.016575,0.015569,0.01454,0.013511,0.012714,0.011917,0.011282,0.010646,0.010049,0.0094527,0.0089882,0.0085237,0.0080861,0.0076485,0.0078757,0.008103
0.0080677,0.0088063,0.0095449,0.009918,0.010291,0.011223,0.012155,0.012556,0.012957,0.014254,0.015552,0.01604,0.016528,0.018112,0.019695,0.020271,0.020846,0.022637,0.024427,0.025054,0.02568,0.027663,0.029645,0.030316,0.030987,0.032906,0.034826,0.035455,0.036085,0.037897,0.039709,0.040216,0.040722,0.041951,0.043179,0.043409,0.04364,0.044162,0.044684,0.044684,0.044684,0.044208,0.043732,0.043409,0.043087,0.041828,0.040569,0.040031,0.039494,0.037713,0.035931,0.035256,0.03458,0.032526,0.030471,0.029797,0.029123,0.027122,0.025121,0.024469,0.023816,0.022,0.020183,0.019623,0.019062,0.017976,0.016891,0.015856,0.014821,0.01364,0.012459,0.012032,0.011606,0.010718,0.0098305,0.0095126,0.0091948,0.0085345,0.0078742,0.0081706,0.0084669
0.0087786,0.009346,0.0099134,0.010602,0.011291,0.011975,0.012659,0.013588,0.014517,0.015446,0.016375,0.017531,0.018687,0.019821,0.020955,0.022345,0.023735,0.025028,0.026321,0.027872,0.029424,0.030845,0.032266,0.033945,0.035624,0.037022,0.038419,0.039931,0.041444,0.042557,0.04367,0.044699,0.045728,0.046995,0.048262,0.048853,0.049444,0.049974,0.050504,0.05068,0.050857,0.050557,0.050258,0.049782,0.049306,0.048193,0.047079,0.045989,0.044899,0.043102,0.041306,0.039617,0.037928,0.036447,0.034967,0.033294,0.031621,0.030183,0.028745,0.027156,0.025567,0.024269,0.022972,0.021588,0.020205,0.019338,0.018471,0.017084,0.015696,0.014967,0.014237,0.013229,0.01222,0.011536,0.010852,0.010204,0.0095571,0.0090512,0.0085452,0.0085644,0.0085836
0.0094896,0.0098857,0.010282,0.011286,0.01229,0.012726,0.013163,0.01462,0.016077,0.016637,0.017198,0.019022,0.020846,0.021531,0.022216,0.02442,0.026623,0.027418,0.028214,0.030691,0.033167,0.034027,0.034887,0.037574,0.040262,0.041137,0.042012,0.044408,0.046803,0.047218,0.047632,0.049183,0.050734,0.052039,0.053344,0.054296,0.055248,0.055786,0.056323,0.056676,0.05703,0.056907,0.056784,0.056154,0.055525,0.054557,0.05359,0.051947,0.050304,0.048492,0.04668,0.043978,0.041275,0.040369,0.039463,0.036791,0.034119,0.033244,0.032369,0.029843,0.027317,0.026539,0.02576,0.023554,0.021347,0.020699,0.020051,0.018311,0.016571,0.016294,0.016016,0.014425,0.012834,0.012353,0.011873,0.010896,0.0099195,0.0095679,0.0092163,0.0089583,0.0087003
0.009832,0.010541,0.011251,0.011982,0.012713,0.013713,0.014713,0.015758,0.016802,0.018104,0.019406,0.020716,0.022026,0.023663,0.025299,0.026888,0.028476,0.03042,0.032364,0.034163,0.035962,0.03815,0.040338,0.041828,0.043317,0.044999,0.04668,0.049099,0.051517,0.052922,0.054327,0.056193,0.058058,0.059602,0.061145,0.062266,0.063387,0.064039,0.064692,0.06506,0.065429,0.065268,0.065106,0.064385,0.063663,0.062519,0.061375,0.05964,0.057905,0.055909,0.053912,0.051364,0.048815,0.046665,0.044515,0.041352,0.038189,0.037168,0.036146,0.033225,0.030304,0.029408,0.028512,0.02597,0.023429,0.022694,0.02196,0.019984,0.018009,0.017556,0.017104,0.015449,0.013794,0.013262,0.012731,0.011643,0.010555,0.010168,0.0097798,0.0098458,0.0099119
0.010174,0.011197,0.01222,0.012677,0.013135,0.0147,0.016264,0.016895,0.017527,0.01957,0.021614,0.02241,0.023205,0.025794,0.028383,0.029356,0.03033,0.033422,0.036515,0.037636,0.038757,0.042273,0.04579,0.046081,0.046373,0.048861,0.051348,0.05379,0.056231,0.058627,0.061022,0.063202,0.065383,0.067164,0.068945,0.070235,0.071525,0.072293,0.073061,0.073444,0.073828,0.073629,0.073429,0.072615,0.071801,0.070481,0.06916,0.067333,0.065506,0.063325,0.061145,0.058749,0.056354,0.05296,0.049567,0.045912,0.042258,0.041091,0.039924,0.036607,0.03329,0.032277,0.031263,0.028387,0.025511,0.02469,0.023868,0.021657,0.019446,0.018819,0.018193,0.016473,0.014753,0.014171,0.013589,0.01239,0.011191,0.010767,0.010343,0.010733,0.011123
0.0099625,0.011498,0.013034,0.013541,0.014049,0.015785,0.017522,0.018221,0.018921,0.021233,0.023546,0.024446,0.025345,0.028298,0.031251,0.032375,0.033499,0.037103,0.040707,0.041459,0.042212,0.045521,0.04883,0.050611,0.052392,0.055341,0.058289,0.061245,0.064201,0.067087,0.069974,0.072638,0.075302,0.077529,0.079755,0.081314,0.082873,0.083825,0.084777,0.085199,0.085621,0.085314,0.085007,0.084009,0.083011,0.081406,0.079802,0.077598,0.075395,0.072753,0.070112,0.067187,0.064262,0.060853,0.057444,0.05392,0.050396,0.047578,0.044761,0.040853,0.036945,0.035786,0.034626,0.031316,0.028005,0.027068,0.02613,0.023613,0.021097,0.020393,0.019689,0.017761,0.015833,0.015355,0.014876,0.013395,0.011914,0.011464,0.011014,0.011236,0.011458
0.0097506,0.011799,0.013847,0.014405,0.014962,0.016871,0.01878,0.019547,0.020315,0.022896,0.025478,0.026482,0.027486,0.030803,0.034119,0.035394,0.036668,0.040784,0.044899,0.045283,0.045667,0.048768,0.05187,0.055141,0.058412,0.06182,0.065229,0.0687,0.07217,0.075548,0.078926,0.082074,0.085222,0.087894,0.090566,0.092393,0.09422,0.095356,0.096493,0.096953,0.097414,0.096999,0.096585,0.095403,0.09422,0.092331,0.090443,0.087863,0.085283,0.082182,0.07908,0.075625,0.07217,0.068746,0.065321,0.061928,0.058534,0.054066,0.049598,0.045099,0.040599,0.039294,0.037989,0.034244,0.030499,0.029445,0.028392,0.02557,0.022747,0.021966,0.021184,0.019048,0.016912,0.016538,0.016163,0.0144,0.012637,0.012161,0.011685,0.011739,0.011793
0.011074,0.012922,0.01477,0.015388,0.016006,0.01813,0.020254,0.021114,0.021973,0.024883,0.027792,0.028921,0.03005,0.033858,0.037667,0.038511,0.039356,0.043148,0.046941,0.04906,0.051179,0.054888,0.058596,0.062511,0.066427,0.070558,0.074688,0.078942,0.083195,0.087418,0.09164,0.095564,0.099487,0.10295,0.10641,0.10866,0.11091,0.11229,0.11366,0.11416,0.11466,0.11416,0.11366,0.11225,0.11083,0.1084,0.10597,0.10267,0.09938,0.095502,0.091625,0.08741,0.083195,0.078972,0.07475,0.070627,0.066504,0.061959,0.057413,0.052584,0.047755,0.044945,0.042135,0.037829,0.033522,0.03232,0.031118,0.027917,0.024717,0.023836,0.022955,0.020562,0.01817,0.017623,0.017075,0.015234,0.013393,0.012446,0.0115,0.012091,0.012682
0.012398,0.014045,0.015693,0.016372,0.017051,0.019389,0.021728,0.02268,0.023632,0.026869,0.030106,0.03136,0.032615,0.036914,0.041214,0.041628,0.042043,0.045513,0.048983,0.052838,0.056692,0.061007,0.065321,0.069882,0.074443,0.079295,0.084147,0.089184,0.09422,0.099287,0.10435,0.10905,0.11375,0.11801,0.12226,0.12493,0.1276,0.12921,0.13083,0.13136,0.1319,0.13132,0.13074,0.12909,0.12745,0.12447,0.12149,0.11748,0.11348,0.10882,0.10417,0.099195,0.09422,0.089199,0.084178,0.079326,0.074473,0.069851,0.065229,0.06007,0.054911,0.050596,0.046281,0.041413,0.036546,0.035194,0.033843,0.030265,0.026688,0.025706,0.024725,0.022076,0.019428,0.018707,0.017987,0.016068,0.014148,0.012731,0.011314,0.012442,0.013571
0.0137,0.014861,0.016022,0.017543,0.019065,0.020725,0.022385,0.024568,0.02675,0.029048,0.031345,0.034367,0.03739,0.039786,0.042181,0.044354,0.046527,0.050573,0.054619,0.059195,0.063771,0.068984,0.074197,0.079794,0.085391,0.090896,0.096401,0.10314,0.10988,0.11635,0.12281,0.12879,0.13477,0.14009,0.14541,0.14915,0.15289,0.15499,0.15708,0.15775,0.15842,0.15761,0.15681,0.15454,0.15228,0.14856,0.14485,0.1396,0.13436,0.12839,0.12243,0.11611,0.10979,0.10353,0.097276,0.091295,0.085314,0.079709,0.074105,0.068531,0.062957,0.058112,0.053268,0.046742,0.040216,0.038657,0.037098,0.033037,0.028975,0.02787,0.026764,0.023811,0.020859,0.02006,0.019262,0.017182,0.015102,0.014108,0.013113,0.01361,0.014107
0.015002,0.015676,0.01635,0.018715,0.02108,0.022061,0.023042,0.026456,0.029869,0.031227,0.032584,0.037375,0.042166,0.042657,0.043148,0.047079,0.05101,0.055632,0.060254,0.065552,0.070849,0.076961,0.083072,0.089706,0.096339,0.1025,0.10865,0.1171,0.12554,0.13341,0.14127,0.14853,0.15579,0.16218,0.16857,0.17338,0.17818,0.18076,0.18334,0.18414,0.18494,0.18391,0.18288,0.17999,0.17711,0.17266,0.1682,0.16172,0.15524,0.14796,0.14069,0.13302,0.12536,0.11787,0.11037,0.10326,0.096155,0.089568,0.08298,0.076992,0.071003,0.065629,0.060254,0.05207,0.043885,0.04212,0.040354,0.035809,0.031263,0.030033,0.028803,0.025547,0.02229,0.021413,0.020536,0.018296,0.016056,0.015484,0.014913,0.014778,0.014643
0.01522,0.016718,0.018216,0.01989,0.021565,0.023785,0.026006,0.028432,0.030858,0.034078,0.037298,0.039955,0.042611,0.04506,0.047509,0.052078,0.056646,0.062089,0.067533,0.073913,0.080293,0.08728,0.094266,0.10293,0.11159,0.12023,0.12888,0.13926,0.14964,0.15981,0.16998,0.17968,0.18938,0.19791,0.20644,0.21296,0.21949,0.22325,0.22701,0.22813,0.22924,0.22774,0.22625,0.22229,0.21834,0.21194,0.20555,0.19686,0.18816,0.17848,0.1688,0.15879,0.14878,0.13501,0.12125,0.11635,0.11145,0.10326,0.09508,0.087733,0.080385,0.073967,0.067548,0.060323,0.053099,0.048722,0.044346,0.039141,0.033935,0.03256,0.031185,0.02755,0.023914,0.022942,0.02197,0.019473,0.016975,0.016337,0.015698,0.015691,0.015684
0.015438,0.01776,0.020082,0.021066,0.02205,0.02551,0.028969,0.030408,0.031847,0.03693,0.042012,0.042534,0.043056,0.047463,0.05187,0.057076,0.062281,0.068546,0.074811,0.082274,0.089736,0.097598,0.10546,0.11615,0.12683,0.13797,0.1491,0.16141,0.17373,0.18621,0.1987,0.21083,0.22296,0.23363,0.2443,0.25255,0.26079,0.26574,0.27068,0.27211,0.27354,0.27157,0.26961,0.26459,0.25957,0.25123,0.24289,0.23199,0.22109,0.209,0.19692,0.18456,0.17219,0.15216,0.13212,0.12943,0.12674,0.11696,0.10718,0.098474,0.089767,0.082304,0.074842,0.068577,0.062312,0.055325,0.048339,0.042473,0.036607,0.035087,0.033567,0.029553,0.025539,0.024472,0.023405,0.02065,0.017895,0.017189,0.016482,0.016604,0.016725
0.017118,0.018754,0.02039,0.022583,0.024776,0.027231,0.029686,0.032978,0.036269,0.039079,0.041889,0.044477,0.047064,0.052116,0.057168,0.063264,0.06936,0.076823,0.084285,0.09326,0.10224,0.11276,0.12329,0.13645,0.14961,0.16423,0.17884,0.19524,0.21163,0.22889,0.24615,0.2635,0.28085,0.2967,0.31256,0.32543,0.33831,0.34608,0.35385,0.35579,0.35773,0.35376,0.34978,0.34074,0.33171,0.31917,0.30663,0.29112,0.27561,0.25888,0.24215,0.22537,0.20859,0.18862,0.16866,0.15861,0.14856,0.13618,0.12379,0.11308,0.10237,0.093314,0.084255,0.076746,0.069237,0.062204,0.055172,0.048553,0.041935,0.038166,0.034396,0.031606,0.028816,0.026271,0.023727,0.021833,0.019939,0.018247,0.016555,0.016857,0.01716
0.018798,0.019748,0.020699,0.0241,0.027501,0.028952,0.030404,0.035548,0.040692,0.041229,0.041766,0.046419,0.051072,0.056769,0.062465,0.069452,0.076439,0.085099,0.09376,0.10425,0.11473,0.12793,0.14112,0.15675,0.17238,0.19048,0.20859,0.22906,0.24952,0.27156,0.29359,0.31617,0.33874,0.35977,0.38081,0.39832,0.41582,0.42642,0.43701,0.43947,0.44193,0.43594,0.42995,0.4169,0.40384,0.38711,0.37037,0.35025,0.33014,0.30876,0.28739,0.26618,0.24498,0.22509,0.20521,0.1878,0.17038,0.1554,0.14041,0.12769,0.11498,0.10432,0.093667,0.084915,0.076162,0.069084,0.062005,0.054634,0.047264,0.041244,0.035225,0.033659,0.032093,0.028071,0.024049,0.023016,0.021983,0.019305,0.016627,0.01711,0.017594
0.019888,0.02092,0.021952,0.025667,0.029382,0.030968,0.032553,0.037981,0.043409,0.044323,0.045237,0.050496,0.055755,0.062312,0.068869,0.077053,0.085237,0.095495,0.10575,0.11897,0.13218,0.14892,0.16565,0.18637,0.20708,0.23236,0.25763,0.28732,0.31701,0.35037,0.38373,0.41897,0.45421,0.48561,0.51701,0.54304,0.56907,0.58573,0.60239,0.60961,0.61682,0.60961,0.60239,0.58151,0.56062,0.53283,0.50504,0.47233,0.43962,0.40583,0.37203,0.34008,0.30813,0.27979,0.25144,0.2277,0.20396,0.18419,0.16441,0.14219,0.11997,0.11288,0.10578,0.09541,0.085038,0.076707,0.068377,0.060339,0.0523,0.046219,0.040139,0.036308,0.032476,0.029704,0.026932,0.024522,0.022113,0.020296,0.018479,0.018852,0.019225
0.020978,0.022092,0.023205,0.027234,0.031263,0.032983,0.034703,0.040415,0.046127,0.047417,0.048707,0.054573,0.060438,0.067855,0.075272,0.084654,0.094036,0.10589,0.11774,0.13368,0.14962,0.16991,0.19019,0.21599,0.24178,0.27423,0.30668,0.34559,0.3845,0.42918,0.47386,0.52177,0.56968,0.61145,0.65321,0.68776,0.72231,0.74504,0.76777,0.77974,0.79172,0.78327,0.77483,0.74611,0.7174,0.67855,0.6397,0.5944,0.54911,0.50289,0.45667,0.41398,0.37129,0.33448,0.29768,0.26761,0.23755,0.21298,0.18841,0.15669,0.12496,0.12143,0.1179,0.10591,0.093913,0.084331,0.07475,0.066043,0.057337,0.051195,0.045052,0.038956,0.03286,0.031337,0.029814,0.026029,0.022244,0.021287,0.02033,0.020593,0.020856
0.021028,0.023451,0.025874,0.028699,0.031524,0.035379,0.039233,0.042411,0.04559,0.049083,0.052577,0.05921,0.065844,0.074381,0.082919,0.093806,0.10469,0.11928,0.13387,0.15362,0.17338,0.19995,0.22652,0.26261,0.29871,0.34771,0.39672,0.45894,0.52116,0.59172,0.66227,0.73122,0.80017,0.85314,0.90612,0.93974,0.97337,0.99057,1.0078,1.0244,1.0411,1.0511,1.0611,1.0402,1.0194,0.96976,0.92009,0.84969,0.77928,0.70458,0.62987,0.56308,0.49628,0.43965,0.38301,0.33795,0.2929,0.25855,0.2242,0.19222,0.16023,0.14053,0.12083,0.11288,0.10494,0.093721,0.082504,0.073299,0.064093,0.056262,0.048431,0.041736,0.035041,0.033389,0.031736,0.027603,0.023469,0.022434,0.021399,0.021478,0.021557
0.021077,0.02481,0.028542,0.030164,0.031785,0.037774,0.043763,0.044408,0.045052,0.050749,0.056446,0.063847,0.071249,0.080907,0.090566,0.10296,0.11535,0.13267,0.14999,0.17356,0.19713,0.22999,0.26285,0.30924,0.35563,0.4212,0.48676,0.57229,0.65782,0.75425,0.85068,0.94067,1.0306,1.0948,1.159,1.1917,1.2244,1.2361,1.2478,1.2691,1.2905,1.3189,1.3473,1.3344,1.3215,1.261,1.2005,1.105,1.0095,0.90627,0.80308,0.71218,0.62128,0.54481,0.46834,0.4083,0.34826,0.30413,0.26,0.22775,0.1955,0.15963,0.12376,0.11986,0.11596,0.10311,0.090258,0.080554,0.070849,0.061329,0.051809,0.044515,0.037221,0.03544,0.033659,0.029177,0.024694,0.023581,0.022468,0.022363,0.022259
0.023286,0.025902,0.028518,0.032063,0.035609,0.038895,0.042181,0.045152,0.048124,0.054435,0.060746,0.06903,0.077314,0.088224,0.099134,0.114,0.12886,0.1501,0.17133,0.20138,0.23142,0.27624,0.32106,0.38741,0.45375,0.54757,0.64139,0.76416,0.88692,1.0123,1.1377,1.245,1.3523,1.4267,1.5011,1.5361,1.5712,1.5881,1.6051,1.6295,1.6539,1.6852,1.7164,1.7075,1.6986,1.6271,1.5556,1.4356,1.3156,1.1873,1.0591,0.94005,0.82105,0.72039,0.61974,0.53421,0.44868,0.38278,0.31687,0.27274,0.22861,0.19332,0.15804,0.14387,0.12971,0.11448,0.099257,0.088162,0.077068,0.067679,0.058289,0.048907,0.039525,0.03759,0.035655,0.030786,0.025917,0.024734,0.023552,0.023361,0.02317
0.025496,0.026995,0.028493,0.033963,0.039432,0.040016,0.040599,0.045897,0.051195,0.05812,0.065045,0.074212,0.083379,0.095541,0.1077,0.12504,0.14237,0.16753,0.19268,0.22919,0.26571,0.32249,0.37928,0.46557,0.55187,0.67394,0.79602,0.95602,1.116,1.2703,1.4247,1.5494,1.674,1.7586,1.8433,1.8806,1.9179,1.9401,1.9624,1.9899,2.0174,2.0515,2.0856,2.0806,2.0757,1.9933,1.9108,1.7663,1.6218,1.4684,1.315,1.1679,1.0208,0.89598,0.77114,0.66012,0.54911,0.46143,0.37375,0.31773,0.26172,0.22701,0.19231,0.16788,0.14345,0.12585,0.10825,0.095771,0.083287,0.074028,0.064769,0.053298,0.041828,0.03974,0.037651,0.032395,0.027139,0.025888,0.024636,0.024358,0.02408
0.026615,0.028201,0.029786,0.035684,0.041582,0.042219,0.042857,0.048584,0.054312,0.061989,0.069667,0.079456,0.089245,0.10368,0.11811,0.13849,0.15887,0.18937,0.21987,0.26796,0.31604,0.39442,0.47279,0.58895,0.70512,0.86727,1.0294,1.2182,1.407,1.5625,1.718,1.8409,1.9638,2.0638,2.1639,2.2544,2.3449,2.4157,2.4865,2.5184,2.5504,2.5392,2.5281,2.4899,2.4516,2.3549,2.2582,2.1012,1.9443,1.7786,1.6129,1.4445,1.276,1.1232,0.9703,0.83433,0.69836,0.58097,0.46358,0.38612,0.30867,0.26364,0.2186,0.18909,0.15957,0.13897,0.11837,0.10411,0.089844,0.079579,0.069314,0.058289,0.047264,0.042289,0.037313,0.033741,0.030169,0.027221,0.024274,0.024373,0.024473
0.027735,0.029407,0.031079,0.037406,0.043732,0.044423,0.045114,0.051271,0.057429,0.065859,0.074289,0.0847,0.095111,0.11182,0.12852,0.15194,0.17536,0.21121,0.24707,0.30672,0.36638,0.46634,0.5663,0.71233,0.85836,1.0606,1.2628,1.4804,1.698,1.8546,2.0112,2.1324,2.2535,2.369,2.4845,2.6282,2.7719,2.8913,3.0106,3.047,3.0833,3.027,2.9706,2.8991,2.8275,2.7165,2.6055,2.4361,2.2668,2.0888,1.9108,1.721,1.5312,1.3503,1.1695,1.0085,0.84761,0.70051,0.55341,0.45452,0.35563,0.30026,0.24489,0.21029,0.1757,0.15209,0.12849,0.11245,0.096401,0.08513,0.073859,0.063279,0.052699,0.044837,0.036976,0.035087,0.033198,0.028555,0.023911,0.024389,0.024866
0.028859,0.030637,0.032415,0.038795,0.045175,0.046281,0.047386,0.054028,0.060669,0.069882,0.079095,0.091011,0.10293,0.12149,0.14006,0.16734,0.19463,0.2387,0.28277,0.36073,0.4387,0.57022,0.70174,0.88554,1.0693,1.3009,1.5325,1.7378,1.9431,2.0896,2.236,2.3743,2.5126,2.6736,2.8346,3.0477,3.2609,3.4733,3.6857,3.7546,3.8235,3.74,3.6566,3.5509,3.4453,3.2907,3.1362,2.9294,2.7226,2.5141,2.3056,2.0919,1.8781,1.6595,1.4409,1.2416,1.0423,0.85882,0.67533,0.5468,0.41828,0.34744,0.27661,0.2353,0.194,0.15892,0.12384,0.11363,0.10342,0.090973,0.078527,0.067525,0.056523,0.048891,0.04126,0.036991,0.032722,0.029643,0.026565,0.026199,0.025834
0.037012,0.039053,0.041094,0.04777,0.054447,0.056621,0.058795,0.066232,0.073669,0.084513,0.095356,0.10919,0.12302,0.14452,0.16603,0.19809,0.23014,0.28349,0.33683,0.43362,0.53042,0.6952,0.85998,1.0822,1.3043,1.5671,1.83,2.0236,2.2172,2.3554,2.4935,2.6495,2.8054,3.0132,3.2211,3.5039,3.7868,4.0932,4.3995,4.501,4.6025,4.4919,4.3814,4.2416,4.1018,3.9031,3.7045,3.4601,3.2156,2.9754,2.7351,2.4969,2.2588,2.0008,1.7428,1.5045,1.2662,1.0444,0.82265,0.66386,0.50507,0.41696,0.32885,0.28025,0.23165,0.18351,0.13538,0.13052,0.12566,0.11078,0.095888,0.084086,0.072284,0.063989,0.055694,0.048681,0.041668,0.039429,0.037191,0.035706,0.034221
0.036461,0.040735,0.045008,0.048828,0.052649,0.057142,0.061636,0.06963,0.077624,0.089356,0.10109,0.11629,0.13149,0.1557,0.17992,0.21648,0.25304,0.31769,0.38235,0.50647,0.63059,0.82548,1.0204,1.2743,1.5283,1.8179,2.1075,2.3189,2.5304,2.7101,2.8898,3.0971,3.3044,3.5534,3.8024,4.1522,4.5019,4.9105,5.319,5.4859,5.6527,5.5444,5.4361,5.2547,5.0733,4.8011,4.529,4.2074,3.8858,3.5758,3.2658,2.9711,2.6764,2.3853,2.0942,1.805,1.5159,1.2435,0.97118,0.77535,0.57953,0.47321,0.36689,0.30914,0.2514,0.19834,0.14528,0.13936,0.13344,0.1177,0.10197,0.089774,0.077583,0.068075,0.058568,0.050805,0.043041,0.040849,0.038657,0.037279,0.035901
0.03591,0.042416,0.048922,0.049886,0.050851,0.057664,0.064477,0.073028,0.08158,0.0942,0.10682,0.12339,0.13996,0.16688,0.19381,0.23487,0.27593,0.3519,0.42786,0.57931,0.73076,0.95575,1.1807,1.4665,1.7522,2.0686,2.385,2.6143,2.8435,3.0648,3.286,3.5446,3.8033,4.0936,4.3838,4.8004,5.217,5.7278,6.2386,6.4708,6.703,6.5969,6.4908,6.2678,6.0448,5.6992,5.3535,4.9548,4.556,4.1763,3.7965,3.4452,3.094,2.7697,2.4455,2.1055,1.7656,1.4426,1.1197,0.88685,0.65399,0.52946,0.40493,0.33804,0.27115,0.21317,0.15518,0.1482,0.14121,0.12463,0.10804,0.095462,0.082882,0.072162,0.061443,0.052928,0.044414,0.042269,0.040123,0.038852,0.037581
0.037117,0.043919,0.050722,0.051745,0.052769,0.059987,0.067206,0.076293,0.08538,0.098898,0.11242,0.13049,0.14857,0.178,0.20744,0.25339,0.29934,0.3876,0.47586,0.65219,0.82852,1.0826,1.3367,1.6602,1.9837,2.3669,2.7501,3.0441,3.3381,3.6152,3.8924,4.2293,4.5663,4.9393,5.3123,5.8013,6.2904,6.8924,7.4944,7.7833,8.0723,7.9846,7.897,7.5741,7.2513,6.7602,6.2691,5.7735,5.278,4.8278,4.3777,3.9731,3.5686,3.2081,2.8477,2.4614,2.0752,1.6824,1.2895,1.0105,0.73148,0.58667,0.44185,0.36717,0.2925,0.23989,0.18728,0.16835,0.14942,0.13153,0.11364,0.10018,0.086719,0.075415,0.06411,0.055063,0.046017,0.043329,0.040641,0.039459,0.038276
0.038324,0.045423,0.052521,0.053604,0.054686,0.06231,0.069934,0.079557,0.089181,0.1036,0.11801,0.1376,0.15718,0.18913,0.22107,0.27191,0.32274,0.4233,0.52386,0.72507,0.92628,1.2094,1.4926,1.8539,2.2152,2.6652,3.1151,3.4739,3.8327,4.1657,4.4988,4.914,5.3292,5.785,6.2407,6.8023,7.3638,8.057,8.7502,9.0959,9.4416,9.3724,9.3032,8.8804,8.4577,7.8212,7.1846,6.5923,5.9999,5.4794,4.9588,4.501,4.0431,3.6465,3.2498,2.8173,2.3848,1.9221,1.4593,1.1342,0.80898,0.64388,0.47878,0.39631,0.31384,0.26661,0.21938,0.18851,0.15763,0.13843,0.11924,0.1049,0.090556,0.078667,0.066777,0.057199,0.04762,0.044389,0.041158,0.040065,0.038972
0.040682,0.046084,0.051486,0.053916,0.056346,0.064376,0.072405,0.082496,0.092588,0.10766,0.12273,0.14372,0.16471,0.1991,0.23348,0.28876,0.34404,0.45456,0.56508,0.79034,1.0156,1.3444,1.6732,2.0921,2.5111,3.0196,3.5281,3.9626,4.3971,4.822,5.247,5.7697,6.2923,6.8304,7.3685,7.9585,8.5486,9.2397,9.9307,10.29,10.65,10.611,10.571,10.05,9.5292,8.7689,8.0086,7.3301,6.6516,6.0647,5.4779,4.9837,4.4895,4.0788,3.6681,3.1845,2.7009,2.1708,1.6407,1.2622,0.88365,0.69877,0.51388,0.42447,0.33506,0.2827,0.23034,0.1901,0.14986,0.1368,0.12373,0.10927,0.094816,0.081778,0.06874,0.059247,0.049754,0.046091,0.042428,0.041525,0.040621
0.043041,0.046746,0.050451,0.054229,0.058006,0.066441,0.074876,0.085435,0.095995,0.11172,0.12745,0.14984,0.17224,0.20907,0.24589,0.30561,0.36533,0.48581,0.60629,0.85561,1.1049,1.4794,1.8538,2.3304,2.807,3.3741,3.9411,4.4513,4.9615,5.4784,5.9952,6.6253,7.2554,7.8758,8.4962,9.1148,9.7334,10.422,11.111,11.485,11.858,11.849,11.839,11.22,10.601,9.7166,8.8326,8.0679,7.3032,6.6501,5.997,5.4664,4.9359,4.5111,4.0864,3.5517,3.0169,2.4195,1.822,1.3901,0.95832,0.75365,0.54898,0.45263,0.35627,0.29878,0.24129,0.19169,0.14209,0.13516,0.12823,0.11365,0.099076,0.084889,0.070702,0.061295,0.051889,0.047793,0.043698,0.042984,0.04227
0.041954,0.047816,0.053679,0.056623,0.059566,0.067893,0.076219,0.087785,0.09935,0.11554,0.13173,0.15508,0.17844,0.21724,0.25603,0.31923,0.38242,0.51034,0.63826,0.91098,1.1837,1.6123,2.0409,2.5688,3.0968,3.7167,4.3367,4.952,5.5673,6.1729,6.7784,7.4627,8.1469,8.7546,9.3624,9.9382,10.514,11.169,11.824,12.255,12.685,12.625,12.565,11.912,11.26,10.326,9.3918,8.5853,7.7789,7.1147,6.4505,5.8935,5.3365,4.8614,4.3862,3.8246,3.263,2.6164,1.9698,1.496,1.0221,0.80038,0.57862,0.47564,0.37266,0.31205,0.25144,0.19949,0.14753,0.1401,0.13266,0.11757,0.10248,0.089108,0.075735,0.064628,0.053521,0.049568,0.045616,0.04442,0.043224
0.040867,0.048887,0.056907,0.059017,0.061126,0.069345,0.077563,0.090134,0.10271,0.11936,0.13601,0.16032,0.18464,0.22541,0.26617,0.33284,0.39951,0.53487,0.67023,0.96634,1.2625,1.7452,2.2279,2.8073,3.3866,4.0594,4.7322,5.4527,6.1731,6.8674,7.5616,8.3,9.0384,9.6335,10.229,10.762,11.295,11.916,12.538,13.025,13.512,13.401,13.291,12.605,11.919,10.935,9.9509,9.1028,8.2547,7.5794,6.9041,6.3206,5.737,5.2116,4.6861,4.0976,3.5091,2.8134,2.1177,1.6018,1.086,0.84711,0.60825,0.49865,0.38904,0.32532,0.26159,0.20729,0.15298,0.14504,0.13709,0.12149,0.10588,0.093326,0.080769,0.067961,0.055153,0.051344,0.047534,0.045856,0.044177
0.041743,0.049706,0.057668,0.060216,0.062763,0.071484,0.080205,0.092852,0.1055,0.12207,0.13864,0.16449,0.19034,0.23119,0.27205,0.34187,0.41169,0.54998,0.68827,0.99316,1.298,1.8018,2.3055,2.9432,3.5809,4.3271,5.0734,5.9012,6.7289,7.5028,8.2766,8.9771,9.6777,10.187,10.697,11.203,11.71,12.307,12.904,13.373,13.842,13.715,13.588,12.899,12.209,11.255,10.302,9.4638,8.6261,7.9426,7.2591,6.6428,6.0265,5.4321,4.8378,4.2134,3.5889,2.89,2.191,1.6639,1.1368,0.88295,0.62915,0.51379,0.39842,0.33471,0.27099,0.2137,0.15641,0.14926,0.1421,0.12503,0.10796,0.095885,0.083808,0.06992,0.056032,0.052709,0.049386,0.046976,0.044567
0.04262,0.050525,0.05843,0.061415,0.0644,0.073624,0.082848,0.09557,0.10829,0.12478,0.14127,0.16865,0.19604,0.23698,0.27793,0.3509,0.42387,0.56509,0.70631,1.02,1.3336,1.8583,2.383,3.0791,3.7751,4.5949,5.4146,6.3497,7.2847,8.1382,8.9916,9.6543,10.317,10.741,11.165,11.645,12.125,12.698,13.27,13.721,14.172,14.029,13.886,13.192,12.499,11.576,10.652,9.8248,8.9975,8.3058,7.6142,6.965,6.3159,5.6526,4.9894,4.3291,3.6688,2.9665,2.2643,1.7259,1.1875,0.9188,0.65005,0.52893,0.40781,0.3441,0.28039,0.22012,0.15985,0.15348,0.14711,0.12858,0.11004,0.098444,0.086847,0.071878,0.05691,0.054074,0.051238,0.048097,0.044957
0.044019,0.051944,0.059869,0.062772,0.065676,0.075118,0.08456,0.096908,0.10926,0.12707,0.14489,0.17149,0.1981,0.24075,0.2834,0.35521,0.42703,0.56914,0.71124,1.0153,1.3194,1.8306,2.3417,3.0582,3.7748,4.6751,5.5755,6.5942,7.6129,8.5025,9.3921,10.002,10.613,10.978,11.342,11.72,12.097,12.598,13.098,13.519,13.94,13.793,13.646,13.029,12.411,11.58,10.749,9.9522,9.155,8.4441,7.7333,7.0357,6.3382,5.6457,4.9533,4.2775,3.6017,2.9218,2.2419,1.7217,1.2015,0.93107,0.66066,0.53715,0.41364,0.34767,0.28169,0.22349,0.16528,0.15709,0.14891,0.13125,0.1136,0.10071,0.087811,0.073491,0.059172,0.055454,0.051737,0.048947,0.046158
0.045418,0.053363,0.061308,0.06413,0.066952,0.076612,0.086272,0.098246,0.11022,0.12936,0.14851,0.17434,0.20017,0.24451,0.28886,0.35953,0.43019,0.57318,0.71617,1.0107,1.3052,1.8028,2.3003,3.0374,3.7744,4.7553,5.7363,6.8387,7.9411,8.8668,9.7925,10.351,10.909,11.214,11.519,11.794,12.07,12.498,12.926,13.317,13.708,13.558,13.407,12.865,12.323,11.585,10.847,10.08,9.3124,8.5824,7.8525,7.1065,6.3605,5.6389,4.9173,4.226,3.5347,2.8771,2.2195,1.7174,1.2154,0.94334,0.67127,0.54537,0.41948,0.35124,0.283,0.22686,0.17072,0.16071,0.1507,0.13393,0.11716,0.10297,0.088775,0.075104,0.061434,0.056835,0.052236,0.049797,0.047359
0.045935,0.054009,0.062083,0.064666,0.067249,0.077325,0.087401,0.099433,0.11147,0.1307,0.14994,0.17555,0.20117,0.24525,0.28934,0.36028,0.43122,0.56796,0.7047,0.9768,1.2489,1.7118,2.1746,2.8866,3.5986,4.5675,5.5365,6.6331,7.7297,8.6597,9.5897,10.148,10.707,10.994,11.281,11.491,11.701,12.014,12.326,12.644,12.962,12.872,12.781,12.307,11.833,11.168,10.503,9.7621,9.0209,8.3082,7.5954,6.8805,6.1655,5.4476,4.7297,4.048,3.3662,2.7443,2.1224,1.656,1.1896,0.92774,0.66585,0.54235,0.41885,0.35166,0.28447,0.22721,0.16995,0.16224,0.15454,0.13613,0.11772,0.10464,0.091558,0.07666,0.061762,0.057867,0.053972,0.050631,0.04729
0.046453,0.054656,0.062858,0.065202,0.067545,0.078037,0.088529,0.10062,0.11271,0.13204,0.15137,0.17677,0.20217,0.24599,0.28982,0.36103,0.43225,0.56274,0.69323,0.94291,1.1926,1.6207,2.0489,2.7358,3.4227,4.3797,5.3367,6.4276,7.5184,8.4527,9.3869,9.9458,10.505,10.773,11.042,11.187,11.332,11.53,11.727,11.972,12.216,12.186,12.155,11.749,11.344,10.752,10.16,9.4446,8.7294,8.0339,7.3384,6.6544,5.9705,5.2563,4.5421,3.8699,3.1978,2.6116,2.0254,1.5946,1.1639,0.91215,0.66043,0.53932,0.41822,0.35208,0.28595,0.22757,0.16918,0.16378,0.15837,0.13832,0.11827,0.1063,0.09434,0.078215,0.062091,0.0589,0.055709,0.051465,0.047221
0.047041,0.055247,0.063453,0.065811,0.068168,0.078741,0.089314,0.10124,0.11317,0.13262,0.15206,0.17693,0.2018,0.24583,0.28986,0.3581,0.42634,0.54963,0.67292,0.90419,1.1355,1.5313,1.9272,2.5531,3.179,4.0677,4.9563,5.9982,7.0402,7.9639,8.8877,9.473,10.058,10.339,10.619,10.735,10.85,10.956,11.062,11.236,11.411,11.416,11.421,11.079,10.738,10.161,9.5839,8.8819,8.1799,7.531,6.882,6.2697,5.6573,4.9781,4.2988,3.6443,2.9897,2.441,1.8923,1.4997,1.1072,0.87467,0.64217,0.52731,0.41244,0.3485,0.28456,0.22767,0.17078,0.16346,0.15615,0.13877,0.12138,0.10778,0.094179,0.079317,0.064455,0.060062,0.055668,0.051849,0.04803
0.047629,0.055838,0.064047,0.066419,0.068792,0.079445,0.090099,0.10186,0.11362,0.13319,0.15275,0.17709,0.20143,0.24567,0.28991,0.35517,0.42043,0.53651,0.6526,0.86547,1.0783,1.4419,1.8055,2.3704,2.9353,3.7556,4.5759,5.5689,6.5619,7.4752,8.3885,9.0003,9.6121,9.9043,10.197,10.282,10.368,10.382,10.396,10.501,10.606,10.646,10.686,10.409,10.131,9.5698,9.0081,8.3193,7.6304,7.028,6.4256,5.8849,5.3442,4.6998,4.0555,3.4186,2.7817,2.2704,1.7592,1.4048,1.0505,0.83719,0.62392,0.51529,0.40667,0.34493,0.28318,0.22778,0.17238,0.16315,0.15392,0.13921,0.1245,0.10926,0.094017,0.080419,0.06682,0.061223,0.055626,0.052233,0.048839
0.049822,0.056032,0.062243,0.065622,0.069001,0.079826,0.090652,0.10221,0.11376,0.13321,0.15265,0.17785,0.20304,0.24473,0.28642,0.34838,0.41034,0.51789,0.62544,0.82452,1.0236,1.3503,1.6771,2.1949,2.7127,3.4587,4.2047,5.1478,6.0908,6.9917,7.8927,8.4943,9.096,9.3634,9.6309,9.6996,9.7683,9.7408,9.7132,9.7703,9.8274,9.8668,9.9062,9.7049,9.5036,8.9824,8.4613,7.7913,7.1214,6.5594,5.9975,5.4768,4.9562,4.3405,3.7247,3.1349,2.5451,2.082,1.6189,1.2998,0.98062,0.7895,0.59838,0.49793,0.39749,0.33883,0.28017,0.23428,0.18839,0.17127,0.15415,0.13965,0.12515,0.10863,0.092123,0.080064,0.068006,0.062145,0.056285,0.052939,0.049593
0.052015,0.056227,0.060438,0.064824,0.069209,0.080207,0.091204,0.10256,0.11391,0.13322,0.15254,0.1786,0.20466,0.2438,0.28294,0.34159,0.40025,0.49926,0.59827,0.78357,0.96886,1.2588,1.5486,2.0194,2.4901,3.1618,3.8335,4.7266,5.6197,6.5083,7.3968,7.9884,8.5799,8.8225,9.0652,9.1168,9.1683,9.0994,9.0305,9.0398,9.0492,9.0876,9.126,9.0008,8.8757,8.3951,7.9144,7.2634,6.6123,6.0908,5.5694,5.0688,4.5682,3.9811,3.394,2.8513,2.3085,1.8936,1.4786,1.1947,0.91078,0.74181,0.57285,0.48058,0.3883,0.33273,0.27716,0.24079,0.20441,0.1794,0.15438,0.14009,0.12579,0.10801,0.090228,0.079709,0.069191,0.063067,0.056944,0.053645,0.050347
0.050594,0.056278,0.061962,0.066314,0.070667,0.080202,0.089736,0.10274,0.11575,0.13264,0.14953,0.17711,0.20469,0.24185,0.27901,0.33443,0.38986,0.48018,0.57051,0.72829,0.88606,1.1586,1.4312,1.8435,2.2558,2.8479,3.44,4.2492,5.0583,5.8939,6.7294,7.324,7.9186,8.1782,8.4377,8.4716,8.5055,8.414,8.3226,8.2805,8.2384,8.2745,8.3106,8.2194,8.1282,7.7118,7.2955,6.7128,6.1301,5.6183,5.1064,4.6088,4.1112,3.5754,3.0397,2.5602,2.0808,1.7159,1.351,1.0999,0.8487,0.69847,0.54823,0.46362,0.379,0.32651,0.27402,0.23871,0.2034,0.17887,0.15434,0.13851,0.12269,0.10798,0.093268,0.081007,0.068746,0.063959,0.059173,0.054283,0.049392
0.049174,0.056329,0.063485,0.067804,0.072124,0.080196,0.088268,0.10293,0.11759,0.13206,0.14652,0.17562,0.20472,0.2399,0.27507,0.32727,0.37946,0.4611,0.54275,0.67301,0.80327,1.0585,1.3138,1.6677,2.0216,2.534,3.0465,3.7717,4.497,5.2795,6.062,6.6596,7.2572,7.5338,7.8103,7.8264,7.8426,7.7286,7.6147,7.5212,7.4277,7.4615,7.4952,7.438,7.3807,7.0286,6.6765,6.1622,5.648,5.1457,4.6434,4.1489,3.6543,3.1698,2.6853,2.2692,1.853,1.5382,1.2234,1.005,0.78662,0.65512,0.52362,0.44666,0.36969,0.32028,0.27087,0.23663,0.20238,0.17834,0.15429,0.13694,0.11959,0.10795,0.096308,0.082304,0.0683,0.064852,0.061403,0.05492,0.048437
0.049266,0.056868,0.064471,0.067606,0.070742,0.080364,0.089985,0.10239,0.1148,0.13295,0.15111,0.17723,0.20335,0.23748,0.2716,0.32109,0.37057,0.43904,0.50751,0.63338,0.75924,0.97505,1.1909,1.5008,1.8108,2.2452,2.6797,3.291,3.9022,4.5879,5.2735,5.8243,6.3751,6.675,6.9748,7.028,7.0811,6.9844,6.8876,6.7796,6.6716,6.6722,6.6728,6.6045,6.5363,6.2392,5.942,5.5045,5.0669,4.6112,4.1555,3.6992,3.2429,2.8132,2.3836,2.0276,1.6715,1.3977,1.1239,0.93222,0.74051,0.62356,0.50662,0.43477,0.36292,0.30738,0.25184,0.22677,0.20169,0.17805,0.15441,0.13712,0.11982,0.10645,0.093084,0.082128,0.071172,0.065845,0.060518,0.055206,0.049894
0.049358,0.057407,0.065457,0.067408,0.06936,0.080531,0.091702,0.10185,0.112,0.13385,0.1557,0.17884,0.20198,0.23506,0.26813,0.31491,0.36168,0.41697,0.47227,0.59374,0.71522,0.89158,1.0679,1.334,1.6,1.9564,2.3128,2.8102,3.3075,3.8963,4.485,4.9889,5.4929,5.8161,6.1394,6.2295,6.3196,6.2401,6.1605,6.038,5.9155,5.8829,5.8504,5.7711,5.6919,5.4498,5.2076,4.8467,4.4859,4.0767,3.6675,3.2495,2.8315,2.4567,2.0819,1.786,1.4901,1.2573,1.0245,0.85944,0.6944,0.59201,0.48962,0.42289,0.35615,0.29448,0.23282,0.21691,0.201,0.17777,0.15454,0.13729,0.12005,0.10495,0.089859,0.081951,0.074043,0.066839,0.059634,0.055493,0.051351
0.049232,0.057142,0.065051,0.06705,0.069048,0.080298,0.091548,0.10137,0.11119,0.13329,0.1554,0.17831,0.20123,0.23355,0.26588,0.30429,0.3427,0.40854,0.47437,0.57989,0.6854,0.8394,0.9934,1.2236,1.4538,1.7656,2.0773,2.4942,2.9112,3.4031,3.895,4.3316,4.7681,5.0713,5.3745,5.4942,5.6139,5.591,5.5681,5.4911,5.4141,5.3716,5.3291,5.2456,5.1621,4.9442,4.7262,4.4086,4.091,3.7214,3.3519,2.9762,2.6004,2.2638,1.9271,1.6571,1.3872,1.1776,0.96798,0.82009,0.67219,0.57673,0.48127,0.41713,0.353,0.30036,0.24771,0.22423,0.20074,0.17767,0.1546,0.13665,0.11871,0.1045,0.090289,0.082658,0.075026,0.067416,0.059806,0.055686,0.051566
0.049106,0.056876,0.064646,0.066691,0.068736,0.080066,0.091395,0.10088,0.11037,0.13273,0.15509,0.17778,0.20048,0.23205,0.26362,0.29367,0.32372,0.4001,0.47648,0.56603,0.65558,0.78722,0.91886,1.1133,1.3077,1.5747,1.8417,2.1783,2.5149,2.91,3.3051,3.6742,4.0434,4.3265,4.6097,4.7589,4.9082,4.942,4.9757,4.9443,4.9128,4.8603,4.8077,4.7201,4.6324,4.4386,4.2448,3.9704,3.696,3.3662,3.0364,2.7028,2.3693,2.0708,1.7723,1.5283,1.2843,1.0979,0.91149,0.78074,0.64999,0.56145,0.47291,0.41138,0.34986,0.30623,0.26261,0.23154,0.20048,0.17757,0.15466,0.13602,0.11738,0.10405,0.090719,0.083364,0.076009,0.067993,0.059978,0.055879,0.051781
0.050444,0.056378,0.062312,0.067342,0.072373,0.081715,0.091057,0.10247,0.11387,0.13437,0.15487,0.17768,0.20048,0.2318,0.26311,0.29995,0.33679,0.40574,0.47469,0.56374,0.65278,0.78398,0.91518,1.1056,1.296,1.5515,1.807,2.1246,2.4421,2.8064,3.1707,3.5202,3.8697,4.1485,4.4272,4.5988,4.7703,4.831,4.8917,4.9023,4.9128,4.9023,4.8917,4.831,4.7703,4.5988,4.4272,4.1485,3.8697,3.5202,3.1707,2.8064,2.4421,2.1246,1.807,1.5515,1.296,1.1056,0.91518,0.78398,0.65278,0.56374,0.47469,0.40574,0.33679,0.29995,0.26311,0.2318,0.20048,0.17768,0.15487,0.13437,0.11387,0.10247,0.091057,0.081715,0.072373,0.067342,0.062312,0.056378,0.050444
0.051781,0.055879,0.059978,0.067993,0.076009,0.083364,0.090719,0.10405,0.11738,0.13602,0.15466,0.17757,0.20048,0.23154,0.26261,0.30623,0.34986,0.41138,0.47291,0.56145,0.64999,0.78074,0.91149,1.0979,1.2843,1.5283,1.7723,2.0708,2.3693,2.7028,3.0364,3.3662,3.696,3.9704,4.2448,4.4386,4.6324,4.7201,4.8077,4.8603,4.9128,4.9443,4.9757,4.942,4.9082,4.7589,4.6097,4.3265,4.0434,3.6742,3.3051,2.91,2.5149,2.1783,1.8417,1.5747,1.3077,1.1133,0.91886,0.78722,0.65558,0.56603,0.47648,0.4001,0.32372,0.29367,0.26362,0.23205,0.20048,0.17778,0.15509,0.13273,0.11037,0.10088,0.091395,0.080066,0.068736,0.066691,0.064646,0.056876,0.049106
0.051566,0.055686,0.059806,0.067416,0.075026,0.082658,0.090289,0.1045,0.11871,0.13665,0.1546,0.17767,0.20074,0.22423,0.24771,0.30036,0.353,0.41713,0.48127,0.57673,0.67219,0.82009,0.96798,1.1776,1.3872,1.6571,1.9271,2.2638,2.6004,2.9762,3.3519,3.7214,4.091,4.4086,4.7262,4.9442,5.1621,5.2456,5.3291,5.3716,5.4141,5.4911,5.5681,5.591,5.6139,5.4942,5.3745,5.0713,4.7681,4.3316,3.895,3.4031,2.9112,2.4942,2.0773,1.7656,1.4538,1.2236,0.9934,0.8394,0.6854,0.57989,0.47437,0.40854,0.3427,0.30429,0.26588,0.23355,0.20123,0.17831,0.1554,0.13329,0.11119,0.10137,0.091548,0.080298,0.069048,0.06705,0.065051,0.057142,0.049232
0.051351,0.055493,0.059634,0.066839,0.074043,0.081951,0.089859,0.10495,0.12005,0.13729,0.15454,0.17777,0.201,0.21691,0.23282,0.29448,0.35615,0.42289,0.48962,0.59201,0.6944,0.85944,1.0245,1.2573,1.4901,1.786,2.0819,2.4567,2.8315,3.2495,3.6675,4.0767,4.4859,4.8467,5.2076,5.4498,5.6919,5.7711,5.8504,5.8829,5.9155,6.038,6.1605,6.2401,6.3196,6.2295,6.1394,5.8161,5.4929,4.9889,4.485,3.8963,3.3075,2.8102,2.3128,1.9564,1.6,1.334,1.0679,0.89158,0.71522,0.59374,0.47227,0.41697,0.36168,0.31491,0.26813,0.23506,0.20198,0.17884,0.1557,0.13385,0.112,0.10185,0.091702,0.080531,0.06936,0.067408,0.065457,0.057407,0.049358
0.049894,0.055206,0.060518,0.065845,0.071172,0.082128,0.093084,0.10645,0.11982,0.13712,0.15441,0.17805,0.20169,0.22677,0.25184,0.30738,0.36292,0.43477,0.50662,0.62356,0.74051,0.93222,1.1239,1.3977,1.6715,2.0276,2.3836,2.8132,3.2429,3.6992,4.1555,4.6112,5.0669,5.5045,5.942,6.2392,6.5363,6.6045,6.6728,6.6722,6.6716,6.7796,6.8876,6.9844,7.0811,7.028,6.9748,6.675,6.3751,5.8243,5.2735,4.5879,3.9022,3.291,2.6797,2.2452,1.8108,1.5008,1.1909,0.97505,0.75924,0.63338,0.50751,0.43904,0.37057,0.32109,0.2716,0.23748,0.20335,0.17723,0.15111,0.13295,0.1148,0.10239,0.089985,0.080364,0.070742,0.067606,0.064471,0.056868,0.049266
0.048437,0.05492,0.061403,0.064852,0.0683,0.082304,0.096308,0.10795,0.11959,0.13694,0.15429,0.17834,0.20238,0.23663,0.27087,0.32028,0.36969,0.44666,0.52362,0.65512,0.78662,1.005,1.2234,1.5382,1.853,2.2692,2.6853,3.1698,3.6543,4.1489,4.6434,5.1457,5.648,6.1622,6.6765,7.0286,7.3807,7.438,7.4952,7.4615,7.4277,7.5212,7.6147,7.7286,7.8426,7.8264,7.8103,7.5338,7.2572,6.6596,6.062,5.2795,4.497,3.7717,3.0465,2.534,2.0216,1.6677,1.3138,1.0585,0.80327,0.67301,0.54275,0.4611,0.37946,0.32727,0.27507,0.2399,0.20472,0.17562,0.14652,0.13206,0.11759,0.10293,0.088268,0.080196,0.072124,0.067804,0.063485,0.056329,0.049174
0.049392,0.054283,0.059173,0.063959,0.068746,0.081007,0.093268,0.10798,0.12269,0.13851,0.15434,0.17887,0.2034,0.23871,0.27402,0.32651,0.379,0.46362,0.54823,0.69847,0.8487,1.0999,1.351,1.7159,2.0808,2.5602,3.0397,3.5754,4.1112,4.6088,5.1064,5.6183,6.1301,6.7128,7.2955,7.7118,8.1282,8.2194,8.3106,8.2745,8.2384,8.2805,8.3226,8.414,8.5055,8.4716,8.4377,8.1782,7.9186,7.324,6.7294,5.8939,5.0583,4.2492,3.44,2.8479,2.2558,1.8435,1.4312,1.1586,0.88606,0.72829,0.57051,0.48018,0.38986,0.33443,0.27901,0.24185,0.20469,0.17711,0.14953,0.13264,0.11575,0.10274,0.089736,0.080202,0.070667,0.066314,0.061962,0.056278,0.050594
0.050347,0.053645,0.056944,0.063067,0.069191,0.079709,0.090228,0.10801,0.12579,0.14009,0.15438,0.1794,0.20441,0.24079,0.27716,0.33273,0.3883,0.48058,0.57285,0.74181,0.91078,1.1947,1.4786,1.8936,2.3085,2.8513,3.394,3.9811,4.5682,5.0688,5.5694,6.0908,6.6123,7.2634,7.9144,8.3951,8.8757,9.0008,9.126,9.0876,9.0492,9.0398,9.0305,9.0994,9.1683,9.1168,9.0652,8.8225,8.5799,7.9884,7.3968,6.5083,5.6197,4.7266,3.8335,3.1618,2.4901,2.0194,1.5486,1.2588,0.96886,0.78357,0.59827,0.49926,0.40025,0.34159,0.28294,0.2438,0.20466,0.1786,0.15254,0.13322,0.11391,0.10256,0.091204,0.080207,0.069209,0.064824,0.060438,0.056227,0.052015
0.049593,0.052939,0.056285,0.062145,0.068006,0.080064,0.092123,0.10863,0.12515,0.13965,0.15415,0.17127,0.18839,0.23428,0.28017,0.33883,0.39749,0.49793,0.59838,0.7895,0.98062,1.2998,1.6189,2.082,2.5451,3.1349,3.7247,4.3405,4.9562,5.4768,5.9975,6.5594,7.1214,7.7913,8.4613,8.9824,9.5036,9.7049,9.9062,9.8668,9.8274,9.7703,9.7132,9.7408,9.7683,9.6996,9.6309,9.3634,9.096,8.4943,7.8927,6.9917,6.0908,5.1478,4.2047,3.4587,2.7127,2.1949,1.6771,1.3503,1.0236,0.82452,0.62544,0.51789,0.41034,0.34838,0.28642,0.24473,0.20304,0.17785,0.15265,0.13321,0.11376,0.10221,0.090652,0.079826,0.069001,0.065622,0.062243,0.056032,0.049822
0.048839,0.052233,0.055626,0.061223,0.06682,0.080419,0.094017,0.10926,0.1245,0.13921,0.15392,0.16315,0.17238,0.22778,0.28318,0.34493,0.40667,0.51529,0.62392,0.83719,1.0505,1.4048,1.7592,2.2704,2.7817,3.4186,4.0555,4.6998,5.3442,5.8849,6.4256,7.028,7.6304,8.3193,9.0081,9.5698,10.131,10.409,10.686,10.646,10.606,10.501,10.396,10.382,10.368,10.282,10.197,9.9043,9.6121,9.0003,8.3885,7.4752,6.5619,5.5689,4.5759,3.7556,2.9353,2.3704,1.8055,1.4419,1.0783,0.86547,0.6526,0.53651,0.42043,0.35517,0.28991,0.24567,0.20143,0.17709,0.15275,0.13319,0.11362,0.10186,0.090099,0.079445,0.068792,0.066419,0.064047,0.055838,0.047629
0.04803,0.051849,0.055668,0.060062,0.064455,0.079317,0.094179,0.10778,0.12138,0.13877,0.15615,0.16346,0.17078,0.22767,0.28456,0.3485,0.41244,0.52731,0.64217,0.87467,1.1072,1.4997,1.8923,2.441,2.9897,3.6443,4.2988,4.9781,5.6573,6.2697,6.882,7.531,8.1799,8.8819,9.5839,10.161,10.738,11.079,11.421,11.416,11.411,11.236,11.062,10.956,10.85,10.735,10.619,10.339,10.058,9.473,8.8877,7.9639,7.0402,5.9982,4.9563,4.0677,3.179,2.5531,1.9272,1.5313,1.1355,0.90419,0.67292,0.54963,0.42634,0.3581,0.28986,0.24583,0.2018,0.17693,0.15206,0.13262,0.11317,0.10124,0.089314,0.078741,0.068168,0.065811,0.063453,0.055247,0.047041
0.047221,0.051465,0.055709,0.0589,0.062091,0.078215,0.09434,0.1063,0.11827,0.13832,0.15837,0.16378,0.16918,0.22757,0.28595,0.35208,0.41822,0.53932,0.66043,0.91215,1.1639,1.5946,2.0254,2.6116,3.1978,3.8699,4.5421,5.2563,5.9705,6.6544,7.3384,8.0339,8.7294,9.4446,10.16,10.752,11.344,11.749,12.155,12.186,12.216,11.972,11.727,11.53,11.332,11.187,11.042,10.773,10.505,9.9458,9.3869,8.4527,7.5184,6.4276,5.3367,4.3797,3.4227,2.7358,2.0489,1.6207,1.1926,0.94291,0.69323,0.56274,0.43225,0.36103,0.28982,0.24599,0.20217,0.17677,0.15137,0.13204,0.11271,0.10062,0.088529,0.078037,0.067545,0.065202,0.062858,0.054656,0.046453
0.04729,0.050631,0.053972,0.057867,0.061762,0.07666,0.091558,0.10464,0.11772,0.13613,0.15454,0.16224,0.16995,0.22721,0.28447,0.35166,0.41885,0.54235,0.66585,0.92774,1.1896,1.656,2.1224,2.7443,3.3662,4.048,4.7297,5.4476,6.1655,6.8805,7.5954,8.3082,9.0209,9.7621,10.503,11.168,11.833,12.307,12.781,12.872,12.962,12.644,12.326,12.014,11.701,11.491,11.281,10.994,10.707,10.148,9.5897,8.6597,7.7297,6.6331,5.5365,4.5675,3.5986,2.8866,2.1746,1.7118,1.2489,0.9768,0.7047,0.56796,0.43122,0.36028,0.28934,0.24525,0.20117,0.17555,0.14994,0.1307,0.11147,0.099433,0.087401,0.077325,0.067249,0.064666,0.062083,0.054009,0.045935
0.047359,0.049797,0.052236,0.056835,0.061434,0.075104,0.088775,0.10297,0.11716,0.13393,0.1507,0.16071,0.17072,0.22686,0.283,0.35124,0.41948,0.54537,0.67127,0.94334,1.2154,1.7174,2.2195,2.8771,3.5347,4.226,4.9173,5.6389,6.3605,7.1065,7.8525,8.5824,9.3124,10.08,10.847,11.585,12.323,12.865,13.407,13.558,13.708,13.317,12.926,12.498,12.07,11.794,11.519,11.214,10.909,10.351,9.7925,8.8668,7.9411,6.8387,5.7363,4.7553,3.7744,3.0374,2.3003,1.8028,1.3052,1.0107,0.71617,0.57318,0.43019,0.35953,0.28886,0.24451,0.20017,0.17434,0.14851,0.12936,0.11022,0.098246,0.086272,0.076612,0.066952,0.06413,0.061308,0.053363,0.045418
0.046158,0.048947,0.051737,0.055454,0.059172,0.073491,0.087811,0.10071,0.1136,0.13125,0.14891,0.15709,0.16528,0.22349,0.28169,0.34767,0.41364,0.53715,0.66066,0.93107,1.2015,1.7217,2.2419,2.9218,3.6017,4.2775,4.9533,5.6457,6.3382,7.0357,7.7333,8.4441,9.155,9.9522,10.749,11.58,12.411,13.029,13.646,13.793,13.94,13.519,13.098,12.598,12.097,11.72,11.342,10.978,10.613,10.002,9.3921,8.5025,7.6129,6.5942,5.5755,4.6751,3.7748,3.0582,2.3417,1.8306,1.3194,1.0153,0.71124,0.56914,0.42703,0.35521,0.2834,0.24075,0.1981,0.17149,0.14489,0.12707,0.10926,0.096908,0.08456,0.075118,0.065676,0.062772,0.059869,0.051944,0.044019
0.044957,0.048097,0.051238,0.054074,0.05691,0.071878,0.086847,0.098444,0.11004,0.12858,0.14711,0.15348,0.15985,0.22012,0.28039,0.3441,0.40781,0.52893,0.65005,0.9188,1.1875,1.7259,2.2643,2.9665,3.6688,4.3291,4.9894,5.6526,6.3159,6.965,7.6142,8.3058,8.9975,9.8248,10.652,11.576,12.499,13.192,13.886,14.029,14.172,13.721,13.27,12.698,12.125,11.645,11.165,10.741,10.317,9.6543,8.9916,8.1382,7.2847,6.3497,5.4146,4.5949,3.7751,3.0791,2.383,1.8583,1.3336,1.02,0.70631,0.56509,0.42387,0.3509,0.27793,0.23698,0.19604,0.16865,0.14127,0.12478,0.10829,0.09557,0.082848,0.073624,0.0644,0.061415,0.05843,0.050525,0.04262
0.044567,0.046976,0.049386,0.052709,0.056032,0.06992,0.083808,0.095885,0.10796,0.12503,0.1421,0.14926,0.15641,0.2137,0.27099,0.33471,0.39842,0.51379,0.62915,0.88295,1.1368,1.6639,2.191,2.89,3.5889,4.2134,4.8378,5.4321,6.0265,6.6428,7.2591,7.9426,8.6261,9.4638,10.302,11.255,12.209,12.899,13.588,13.715,13.842,13.373,12.904,12.307,11.71,11.203,10.697,10.187,9.6777,8.9771,8.2766,7.5028,6.7289,5.9012,5.0734,4.3271,3.5809,2.9432,2.3055,1.8018,1.298,0.99316,0.68827,0.54998,0.41169,0.34187,0.27205,0.23119,0.19034,0.16449,0.13864,0.12207,0.1055,0.092852,0.080205,0.071484,0.062763,0.060216,0.057668,0.049706,0.041743
0.044177,0.045856,0.047534,0.051344,0.055153,0.067961,0.080769,0.093326,0.10588,0.12149,0.13709,0.14504,0.15298,0.20729,0.26159,0.32532,0.38904,0.49865,0.60825,0.84711,1.086,1.6018,2.1177,2.8134,3.5091,4.0976,4.6861,5.2116,5.737,6.3206,6.9041,7.5794,8.2547,9.1028,9.9509,10.935,11.919,12.605,13.291,13.401,13.512,13.025,12.538,11.916,11.295,10.762,10.229,9.6335,9.0384,8.3,7.5616,6.8674,6.1731,5.4527,4.7322,4.0594,3.3866,2.8073,2.2279,1.7452,1.2625,0.96634,0.67023,0.53487,0.39951,0.33284,0.26617,0.22541,0.18464,0.16032,0.13601,0.11936,0.10271,0.090134,0.077563,0.069345,0.061126,0.059017,0.056907,0.048887,0.040867
0.043224,0.04442,0.045616,0.049568,0.053521,0.064628,0.075735,0.089108,0.10248,0.11757,0.13266,0.1401,0.14753,0.19949,0.25144,0.31205,0.37266,0.47564,0.57862,0.80038,1.0221,1.496,1.9698,2.6164,3.263,3.8246,4.3862,4.8614,5.3365,5.8935,6.4505,7.1147,7.7789,8.5853,9.3918,10.326,11.26,11.912,12.565,12.625,12.685,12.255,11.824,11.169,10.514,9.9382,9.3624,8.7546,8.1469,7.4627,6.7784,6.1729,5.5673,4.952,4.3367,3.7167,3.0968,2.5688,2.0409,1.6123,1.1837,0.91098,0.63826,0.51034,0.38242,0.31923,0.25603,0.21724,0.17844,0.15508,0.13173,0.11554,0.09935,0.087785,0.076219,0.067893,0.059566,0.056623,0.053679,0.047816,0.041954
0.04227,0.042984,0.043698,0.047793,0.051889,0.061295,0.070702,0.084889,0.099076,0.11365,0.12823,0.13516,0.14209,0.19169,0.24129,0.29878,0.35627,0.45263,0.54898,0.75365,0.95832,1.3901,1.822,2.4195,3.0169,3.5517,4.0864,4.5111,4.9359,5.4664,5.997,6.6501,7.3032,8.0679,8.8326,9.7166,10.601,11.22,11.839,11.849,11.858,11.485,11.111,10.422,9.7334,9.1148,8.4962,7.8758,7.2554,6.6253,5.9952,5.4784,4.9615,4.4513,3.9411,3.3741,2.807,2.3304,1.8538,1.4794,1.1049,0.85561,0.60629,0.48581,0.36533,0.30561,0.24589,0.20907,0.17224,0.14984,0.12745,0.11172,0.095995,0.085435,0.074876,0.066441,0.058006,0.054229,0.050451,0.046746,0.043041
0.040621,0.041525,0.042428,0.046091,0.049754,0.059247,0.06874,0.081778,0.094816,0.10927,0.12373,0.1368,0.14986,0.1901,0.23034,0.2827,0.33506,0.42447,0.51388,0.69877,0.88365,1.2622,1.6407,2.1708,2.7009,3.1845,3.6681,4.0788,4.4895,4.9837,5.4779,6.0647,6.6516,7.3301,8.0086,8.7689,9.5292,10.05,10.571,10.611,10.65,10.29,9.9307,9.2397,8.5486,7.9585,7.3685,6.8304,6.2923,5.7697,5.247,4.822,4.3971,3.9626,3.5281,3.0196,2.5111,2.0921,1.6732,1.3444,1.0156,0.79034,0.56508,0.45456,0.34404,0.28876,0.23348,0.1991,0.16471,0.14372,0.12273,0.10766,0.092588,0.082496,0.072405,0.064376,0.056346,0.053916,0.051486,0.046084,0.040682
0.038972,0.040065,0.041158,0.044389,0.04762,0.057199,0.066777,0.078667,0.090556,0.1049,0.11924,0.13843,0.15763,0.18851,0.21938,0.26661,0.31384,0.39631,0.47878,0.64388,0.80898,1.1342,1.4593,1.9221,2.3848,2.8173,3.2498,3.6465,4.0431,4.501,4.9588,5.4794,5.9999,6.5923,7.1846,7.8212,8.4577,8.8804,9.3032,9.3724,9.4416,9.0959,8.7502,8.057,7.3638,6.8023,6.2407,5.785,5.3292,4.914,4.4988,4.1657,3.8327,3.4739,3.1151,2.6652,2.2152,1.8539,1.4926,1.2094,0.92628,0.72507,0.52386,0.4233,0.32274,0.27191,0.22107,0.18913,0.15718,0.1376,0.11801,0.1036,0.089181,0.079557,0.069934,0.06231,0.054686,0.053604,0.052521,0.045423,0.038324
0.038276,0.039459,0.040641,0.043329,0.046017,0.055063,0.06411,0.075415,0.086719,0.10018,0.11364,0.13153,0.14942,0.16835,0.18728,0.23989,0.2925,0.36717,0.44185,0.58667,0.73148,1.0105,1.2895,1.6824,2.0752,2.4614,2.8477,3.2081,3.5686,3.9731,4.3777,4.8278,5.278,5.7735,6.2691,6.7602,7.2513,7.5741,7.897,7.9846,8.0723,7.7833,7.4944,6.8924,6.2904,5.8013,5.3123,4.9393,4.5663,4.2293,3.8924,3.6152,3.3381,3.0441,2.7501,2.3669,1.9837,1.6602,1.3367,1.0826,0.82852,0.65219,0.47586,0.3876,0.29934,0.25339,0.20744,0.178,0.14857,0.13049,0.11242,0.098898,0.08538,0.076293,0.067206,0.059987,0.052769,0.051745,0.050722,0.043919,0.037117
0.037581,0.038852,0.040123,0.042269,0.044414,0.052928,0.061443,0.072162,0.082882,0.095462,0.10804,0.12463,0.14121,0.1482,0.15518,0.21317,0.27115,0.33804,0.40493,0.52946,0.65399,0.88685,1.1197,1.4426,1.7656,2.1055,2.4455,2.7697,3.094,3.4452,3.7965,4.1763,4.556,4.9548,5.3535,5.6992,6.0448,6.2678,6.4908,6.5969,6.703,6.4708,6.2386,5.7278,5.217,4.8004,4.3838,4.0936,3.8033,3.5446,3.286,3.0648,2.8435,2.6143,2.385,2.0686,1.7522,1.4665,1.1807,0.95575,0.73076,0.57931,0.42786,0.3519,0.27593,0.23487,0.19381,0.16688,0.13996,0.12339,0.10682,0.0942,0.08158,0.073028,0.064477,0.057664,0.050851,0.049886,0.048922,0.042416,0.03591
0.035901,0.037279,0.038657,0.040849,0.043041,0.050805,0.058568,0.068075,0.077583,0.089774,0.10197,0.1177,0.13344,0.13936,0.14528,0.19834,0.2514,0.30914,0.36689,0.47321,0.57953,0.77535,0.97118,1.2435,1.5159,1.805,2.0942,2.3853,2.6764,2.9711,3.2658,3.5758,3.8858,4.2074,4.529,4.8011,5.0733,5.2547,5.4361,5.5444,5.6527,5.4859,5.319,4.9105,4.5019,4.1522,3.8024,3.5534,3.3044,3.0971,2.8898,2.7101,2.5304,2.3189,2.1075,1.8179,1.5283,1.2743,1.0204,0.82548,0.63059,0.50647,0.38235,0.31769,0.25304,0.21648,0.17992,0.1557,0.13149,0.11629,0.10109,0.089356,0.077624,0.06963,0.061636,0.057142,0.052649,0.048828,0.045008,0.040735,0.036461
0.034221,0.035706,0.037191,0.039429,0.041668,0.048681,0.055694,0.063989,0.072284,0.084086,0.095888,0.11078,0.12566,0.13052,0.13538,0.18351,0.23165,0.28025,0.32885,0.41696,0.50507,0.66386,0.82265,1.0444,1.2662,1.5045,1.7428,2.0008,2.2588,2.4969,2.7351,2.9754,3.2156,3.4601,3.7045,3.9031,4.1018,4.2416,4.3814,4.4919,4.6025,4.501,4.3995,4.0932,3.7868,3.5039,3.2211,3.0132,2.8054,2.6495,2.4935,2.3554,2.2172,2.0236,1.83,1.5671,1.3043,1.0822,0.85998,0.6952,0.53042,0.43362,0.33683,0.28349,0.23014,0.19809,0.16603,0.14452,0.12302,0.10919,0.095356,0.084513,0.073669,0.066232,0.058795,0.056621,0.054447,0.04777,0.041094,0.039053,0.037012
0.025834,0.026199,0.026565,0.029643,0.032722,0.036991,0.04126,0.048891,0.056523,0.067525,0.078527,0.090973,0.10342,0.11363,0.12384,0.15892,0.194,0.2353,0.27661,0.34744,0.41828,0.5468,0.67533,0.85882,1.0423,1.2416,1.4409,1.6595,1.8781,2.0919,2.3056,2.5141,2.7226,2.9294,3.1362,3.2907,3.4453,3.5509,3.6566,3.74,3.8235,3.7546,3.6857,3.4733,3.2609,3.0477,2.8346,2.6736,2.5126,2.3743,2.236,2.0896,1.9431,1.7378,1.5325,1.3009,1.0693,0.88554,0.70174,0.57022,0.4387,0.36073,0.28277,0.2387,0.19463,0.16734,0.14006,0.12149,0.10293,0.091011,0.079095,0.069882,0.060669,0.054028,0.047386,0.046281,0.045175,0.038795,0.032415,0.030637,0.028859
0.024866,0.024389,0.023911,0.028555,0.033198,0.035087,0.036976,0.044837,0.052699,0.063279,0.073859,0.08513,0.096401,0.11245,0.12849,0.15209,0.1757,0.21029,0.24489,0.30026,0.35563,0.45452,0.55341,0.70051,0.84761,1.0085,1.1695,1.3503,1.5312,1.721,1.9108,2.0888,2.2668,2.4361,2.6055,2.7165,2.8275,2.8991,2.9706,3.027,3.0833,3.047,3.0106,2.8913,2.7719,2.6282,2.4845,2.369,2.2535,2.1324,2.0112,1.8546,1.698,1.4804,1.2628,1.0606,0.85836,0.71233,0.5663,0.46634,0.36638,0.30672,0.24707,0.21121,0.17536,0.15194,0.12852,0.11182,0.095111,0.0847,0.074289,0.065859,0.057429,0.051271,0.045114,0.044423,0.043732,0.037406,0.031079,0.029407,0.027735
0.024473,0.024373,0.024274,0.027221,0.030169,0.033741,0.037313,0.042289,0.047264,0.058289,0.069314,0.079579,0.089844,0.10411,0.11837,0.13897,0.15957,0.18909,0.2186,0.26364,0.30867,0.38612,0.46358,0.58097,0.69836,0.83433,0.9703,1.1232,1.276,1.4445,1.6129,1.7786,1.9443,2.1012,2.2582,2.3549,2.4516,2.4899,2.5281,2.5392,2.5504,2.5184,2.4865,2.4157,2.3449,2.2544,2.1639,2.0638,1.9638,1.8409,1.718,1.5625,1.407,1.2182,1.0294,0.86727,0.70512,0.58895,0.47279,0.39442,0.31604,0.26796,0.21987,0.18937,0.15887,0.13849,0.11811,0.10368,0.089245,0.079456,0.069667,0.061989,0.054312,0.048584,0.042857,0.042219,0.041582,0.035684,0.029786,0.028201,0.026615
0.02408,0.024358,0.024636,0.025888,0.027139,0.032395,0.037651,0.03974,0.041828,0.053298,0.064769,0.074028,0.083287,0.095771,0.10825,0.12585,0.14345,0.16788,0.19231,0.22701,0.26172,0.31773,0.37375,0.46143,0.54911,0.66012,0.77114,0.89598,1.0208,1.1679,1.315,1.4684,1.6218,1.7663,1.9108,1.9933,2.0757,2.0806,2.0856,2.0515,2.0174,1.9899,1.9624,1.9401,1.9179,1.8806,1.8433,1.7586,1.674,1.5494,1.4247,1.2703,1.116,0.95602,0.79602,0.67394,0.55187,0.46557,0.37928,0.32249,0.26571,0.22919,0.19268,0.16753,0.14237,0.12504,0.1077,0.095541,0.083379,0.074212,0.065045,0.05812,0.051195,0.045897,0.040599,0.040016,0.039432,0.033963,0.028493,0.026995,0.025496
0.02317,0.023361,0.023552,0.024734,0.025917,0.030786,0.035655,0.03759,0.039525,0.048907,0.058289,0.067679,0.077068,0.088162,0.099257,0.11448,0.12971,0.14387,0.15804,0.19332,0.22861,0.27274,0.31687,0.38278,0.44868,0.53421,0.61974,0.72039,0.82105,0.94005,1.0591,1.1873,1.3156,1.4356,1.5556,1.6271,1.6986,1.7075,1.7164,1.6852,1.6539,1.6295,1.6051,1.5881,1.5712,1.5361,1.5011,1.4267,1.3523,1.245,1.1377,1.0123,0.88692,0.76416,0.64139,0.54757,0.45375,0.38741,0.32106,0.27624,0.23142,0.20138,0.17133,0.1501,0.12886,0.114,0.099134,0.088224,0.077314,0.06903,0.060746,0.054435,0.048124,0.045152,0.042181,0.038895,0.035609,0.032063,0.028518,0.025902,0.023286
0.022259,0.022363,0.022468,0.023581,0.024694,0.029177,0.033659,0.03544,0.037221,0.044515,0.051809,0.061329,0.070849,0.080554,0.090258,0.10311,0.11596,0.11986,0.12376,0.15963,0.1955,0.22775,0.26,0.30413,0.34826,0.4083,0.46834,0.54481,0.62128,0.71218,0.80308,0.90627,1.0095,1.105,1.2005,1.261,1.3215,1.3344,1.3473,1.3189,1.2905,1.2691,1.2478,1.2361,1.2244,1.1917,1.159,1.0948,1.0306,0.94067,0.85068,0.75425,0.65782,0.57229,0.48676,0.4212,0.35563,0.30924,0.26285,0.22999,0.19713,0.17356,0.14999,0.13267,0.11535,0.10296,0.090566,0.080907,0.071249,0.063847,0.056446,0.050749,0.045052,0.044408,0.043763,0.037774,0.031785,0.030164,0.028542,0.02481,0.021077
0.021557,0.021478,0.021399,0.022434,0.023469,0.027603,0.031736,0.033389,0.035041,0.041736,0.048431,0.056262,0.064093,0.073299,0.082504,0.093721,0.10494,0.11288,0.12083,0.14053,0.16023,0.19222,0.2242,0.25855,0.2929,0.33795,0.38301,0.43965,0.49628,0.56308,0.62987,0.70458,0.77928,0.84969,0.92009,0.96976,1.0194,1.0402,1.0611,1.0511,1.0411,1.0244,1.0078,0.99057,0.97337,0.93974,0.90612,0.85314,0.80017,0.73122,0.66227,0.59172,0.52116,0.45894,0.39672,0.34771,0.29871,0.26261,0.22652,0.19995,0.17338,0.15362,0.13387,0.11928,0.10469,0.093806,0.082919,0.074381,0.065844,0.05921,0.052577,0.049083,0.04559,0.042411,0.039233,0.035379,0.031524,0.028699,0.025874,0.023451,0.021028
0.020856,0.020593,0.02033,0.021287,0.022244,0.026029,0.029814,0.031337,0.03286,0.038956,0.045052,0.051195,0.057337,0.066043,0.07475,0.084331,0.093913,0.10591,0.1179,0.12143,0.12496,0.15669,0.18841,0.21298,0.23755,0.26761,0.29768,0.33448,0.37129,0.41398,0.45667,0.50289,0.54911,0.5944,0.6397,0.67855,0.7174,0.74611,0.77483,0.78327,0.79172,0.77974,0.76777,0.74504,0.72231,0.68776,0.65321,0.61145,0.56968,0.52177,0.47386,0.42918,0.3845,0.34559,0.30668,0.27423,0.24178,0.21599,0.19019,0.16991,0.14962,0.13368,0.11774,0.10589,0.094036,0.084654,0.075272,0.067855,0.060438,0.054573,0.048707,0.047417,0.046127,0.040415,0.034703,0.032983,0.031263,0.027234,0.023205,0.022092,0.020978
0.019225,0.018852,0.018479,0.020296,0.022113,0.024522,0.026932,0.029704,0.032476,0.036308,0.040139,0.046219,0.0523,0.060339,0.068377,0.076707,0.085038,0.09541,0.10578,0.11288,0.11997,0.14219,0.16441,0.18419,0.20396,0.2277,0.25144,0.27979,0.30813,0.34008,0.37203,0.40583,0.43962,0.47233,0.50504,0.53283,0.56062,0.58151,0.60239,0.60961,0.61682,0.60961,0.60239,0.58573,0.56907,0.54304,0.51701,0.48561,0.45421,0.41897,0.38373,0.35037,0.31701,0.28732,0.25763,0.23236,0.20708,0.18637,0.16565,0.14892,0.13218,0.11897,0.10575,0.095495,0.085237,0.077053,0.068869,0.062312,0.055755,0.050496,0.045237,0.044323,0.043409,0.037981,0.032553,0.030968,0.029382,0.025667,0.021952,0.02092,0.019888
0.017594,0.01711,0.016627,0.019305,0.021983,0.023016,0.024049,0.028071,0.032093,0.033659,0.035225,0.041244,0.047264,0.054634,0.062005,0.069084,0.076162,0.084915,0.093667,0.10432,0.11498,0.12769,0.14041,0.1554,0.17038,0.1878,0.20521,0.22509,0.24498,0.26618,0.28739,0.30876,0.33014,0.35025,0.37037,0.38711,0.40384,0.4169,0.42995,0.43594,0.44193,0.43947,0.43701,0.42642,0.41582,0.39832,0.38081,0.35977,0.33874,0.31617,0.29359,0.27156,0.24952,0.22906,0.20859,0.19048,0.17238,0.15675,0.14112,0.12793,0.11473,0.10425,0.09376,0.085099,0.076439,0.069452,0.062465,0.056769,0.051072,0.046419,0.041766,0.041229,0.040692,0.035548,0.030404,0.028952,0.027501,0.0241,0.020699,0.019748,0.018798
0.01716,0.016857,0.016555,0.018247,0.019939,0.021833,0.023727,0.026271,0.028816,0.031606,0.034396,0.038166,0.041935,0.048553,0.055172,0.062204,0.069237,0.076746,0.084255,0.093314,0.10237,0.11308,0.12379,0.13618,0.14856,0.15861,0.16866,0.18862,0.20859,0.22537,0.24215,0.25888,0.27561,0.29112,0.30663,0.31917,0.33171,0.34074,0.34978,0.35376,0.35773,0.35579,0.35385,0.34608,0.33831,0.32543,0.31256,0.2967,0.28085,0.2635,0.24615,0.22889,0.21163,0.19524,0.17884,0.16423,0.14961,0.13645,0.12329,0.11276,0.10224,0.09326,0.084285,0.076823,0.06936,0.063264,0.057168,0.052116,0.047064,0.044477,0.041889,0.039079,0.036269,0.032978,0.029686,0.027231,0.024776,0.022583,0.02039,0.018754,0.017118
0.016725,0.016604,0.016482,0.017189,0.017895,0.02065,0.023405,0.024472,0.025539,0.029553,0.033567,0.035087,0.036607,0.042473,0.048339,0.055325,0.062312,0.068577,0.074842,0.082304,0.089767,0.098474,0.10718,0.11696,0.12674,0.12943,0.13212,0.15216,0.17219,0.18456,0.19692,0.209,0.22109,0.23199,0.24289,0.25123,0.25957,0.26459,0.26961,0.27157,0.27354,0.27211,0.27068,0.26574,0.26079,0.25255,0.2443,0.23363,0.22296,0.21083,0.1987,0.18621,0.17373,0.16141,0.1491,0.13797,0.12683,0.11615,0.10546,0.097598,0.089736,0.082274,0.074811,0.068546,0.062281,0.057076,0.05187,0.047463,0.043056,0.042534,0.042012,0.03693,0.031847,0.030408,0.028969,0.02551,0.02205,0.021066,0.020082,0.01776,0.015438
0.015684,0.015691,0.015698,0.016337,0.016975,0.019473,0.02197,0.022942,0.023914,0.02755,0.031185,0.03256,0.033935,0.039141,0.044346,0.048722,0.053099,0.060323,0.067548,0.073967,0.080385,0.087733,0.09508,0.10326,0.11145,0.11635,0.12125,0.13501,0.14878,0.15879,0.1688,0.17848,0.18816,0.19686,0.20555,0.21194,0.21834,0.22229,0.22625,0.22774,0.22924,0.22813,0.22701,0.22325,0.21949,0.21296,0.20644,0.19791,0.18938,0.17968,0.16998,0.15981,0.14964,0.13926,0.12888,0.12023,0.11159,0.10293,0.094266,0.08728,0.080293,0.073913,0.067533,0.062089,0.056646,0.052078,0.047509,0.04506,0.042611,0.039955,0.037298,0.034078,0.030858,0.028432,0.026006,0.023785,0.021565,0.01989,0.018216,0.016718,0.01522
0.014643,0.014778,0.014913,0.015484,0.016056,0.018296,0.020536,0.021413,0.02229,0.025547,0.028803,0.030033,0.031263,0.035809,0.040354,0.04212,0.043885,0.05207,0.060254,0.065629,0.071003,0.076992,0.08298,0.089568,0.096155,0.10326,0.11037,0.11787,0.12536,0.13302,0.14069,0.14796,0.15524,0.16172,0.1682,0.17266,0.17711,0.17999,0.18288,0.18391,0.18494,0.18414,0.18334,0.18076,0.17818,0.17338,0.16857,0.16218,0.15579,0.14853,0.14127,0.13341,0.12554,0.1171,0.10865,0.1025,0.096339,0.089706,0.083072,0.076961,0.070849,0.065552,0.060254,0.055632,0.05101,0.047079,0.043148,0.042657,0.042166,0.037375,0.032584,0.031227,0.029869,0.026456,0.023042,0.022061,0.02108,0.018715,0.01635,0.015676,0.015002
0.014107,0.01361,0.013113,0.014108,0.015102,0.017182,0.019262,0.02006,0.020859,0.023811,0.026764,0.02787,0.028975,0.033037,0.037098,0.038657,0.040216,0.046742,0.053268,0.058112,0.062957,0.068531,0.074105,0.079709,0.085314,0.091295,0.097276,0.10353,0.10979,0.11611,0.12243,0.12839,0.13436,0.1396,0.14485,0.14856,0.15228,0.15454,0.15681,0.15761,0.15842,0.15775,0.15708,0.15499,0.15289,0.14915,0.14541,0.14009,0.13477,0.12879,0.12281,0.11635,0.10988,0.10314,0.096401,0.090896,0.085391,0.079794,0.074197,0.068984,0.063771,0.059195,0.054619,0.050573,0.046527,0.044354,0.042181,0.039786,0.03739,0.034367,0.031345,0.029048,0.02675,0.024568,0.022385,0.020725,0.019065,0.017543,0.016022,0.014861,0.0137
0.013571,0.012442,0.011314,0.012731,0.014148,0.016068,0.017987,0.018707,0.019428,0.022076,0.024725,0.025706,0.026688,0.030265,0.033843,0.035194,0.036546,0.041413,0.046281,0.050596,0.054911,0.06007,0.065229,0.069851,0.074473,0.079326,0.084178,0.089199,0.09422,0.099195,0.10417,0.10882,0.11348,0.11748,0.12149,0.12447,0.12745,0.12909,0.13074,0.13132,0.1319,0.13136,0.13083,0.12921,0.1276,0.12493,0.12226,0.11801,0.11375,0.10905,0.10435,0.099287,0.09422,0.089184,0.084147,0.079295,0.074443,0.069882,0.065321,0.061007,0.056692,0.052838,0.048983,0.045513,0.042043,0.041628,0.041214,0.036914,0.032615,0.03136,0.030106,0.026869,0.023632,0.02268,0.021728,0.019389,0.017051,0.016372,0.015693,0.014045,0.012398
0.012682,0.012091,0.0115,0.012446,0.013393,0.015234,0.017075,0.017623,0.01817,0.020562,0.022955,0.023836,0.024717,0.027917,0.031118,0.03232,0.033522,0.037829,0.042135,0.044945,0.047755,0.052584,0.057413,0.061959,0.066504,0.070627,0.07475,0.078972,0.083195,0.08741,0.091625,0.095502,0.09938,0.10267,0.10597,0.1084,0.11083,0.11225,0.11366,0.11416,0.11466,0.11416,0.11366,0.11229,0.11091,0.10866,0.10641,0.10295,0.099487,0.095564,0.09164,0.087418,0.083195,0.078942,0.074688,0.070558,0.066427,0.062511,0.058596,0.054888,0.051179,0.04906,0.046941,0.043148,0.039356,0.038511,0.037667,0.033858,0.03005,0.028921,0.027792,0.024883,0.021973,0.021114,0.020254,0.01813,0.016006,0.015388,0.01477,0.012922,0.011074
0.011793,0.011739,0.011685,0.012161,0.012637,0.0144,0.016163,0.016538,0.016912,0.019048,0.021184,0.021966,0.022747,0.02557,0.028392,0.029445,0.030499,0.034244,0.037989,0.039294,0.040599,0.045099,0.049598,0.054066,0.058534,0.061928,0.065321,0.068746,0.07217,0.075625,0.07908,0.082182,0.085283,0.087863,0.090443,0.092331,0.09422,0.095403,0.096585,0.096999,0.097414,0.096953,0.096493,0.095356,0.09422,0.092393,0.090566,0.087894,0.085222,0.082074,0.078926,0.075548,0.07217,0.0687,0.065229,0.06182,0.058412,0.055141,0.05187,0.048768,0.045667,0.045283,0.044899,0.040784,0.036668,0.035394,0.034119,0.030803,0.027486,0.026482,0.025478,0.022896,0.020315,0.019547,0.01878,0.016871,0.014962,0.014405,0.013847,0.011799,0.0097506
0.011458,0.011236,0.011014,0.011464,0.011914,0.013395,0.014876,0.015355,0.015833,0.017761,0.019689,0.020393,0.021097,0.023613,0.02613,0.027068,0.028005,0.031316,0.034626,0.035786,0.036945,0.040853,0.044761,0.047578,0.050396,0.05392,0.057444,0.060853,0.064262,0.067187,0.070112,0.072753,0.075395,0.077598,0.079802,0.081406,0.083011,0.084009,0.085007,0.085314,0.085621,0.085199,0.084777,0.083825,0.082873,0.081314,0.079755,0.077529,0.075302,0.072638,0.069974,0.067087,0.064201,0.061245,0.058289,0.055341,0.052392,0.050611,0.04883,0.045521,0.042212,0.041459,0.040707,0.037103,0.033499,0.032375,0.031251,0.028298,0.025345,0.024446,0.023546,0.021233,0.018921,0.018221,0.017522,0.015785,0.014049,0.013541,0.013034,0.011498,0.0099625
0.011123,0.010733,0.010343,0.010767,0.011191,0.01239,0.013589,0.014171,0.014753,0.016473,0.018193,0.018819,0.019446,0.021657,0.023868,0.02469,0.025511,0.028387,0.031263,0.032277,0.03329,0.036607,0.039924,0.041091,0.042258,0.045912,0.049567,0.05296,0.056354,0.058749,0.061145,0.063325,0.065506,0.067333,0.06916,0.070481,0.071801,0.072615,0.073429,0.073629,0.073828,0.073444,0.073061,0.072293,0.071525,0.070235,0.068945,0.067164,0.065383,0.063202,0.061022,0.058627,0.056231,0.05379,0.051348,0.048861,0.046373,0.046081,0.04579,0.042273,0.038757,0.037636,0.036515,0.033422,0.03033,0.029356,0.028383,0.025794,0.023205,0.02241,0.021614,0.01957,0.017527,0.016895,0.016264,0.0147,0.013135,0.012677,0.01222,0.011197,0.010174
0.0099119,0.0098458,0.0097798,0.010168,0.010555,0.011643,0.012731,0.013262,0.013794,0.015449,0.017104,0.017556,0.018009,0.019984,0.02196,0.022694,0.023429,0.02597,0.028512,0.029408,0.030304,0.033225,0.036146,0.037168,0.038189,0.041352,0.044515,0.046665,0.048815,0.051364,0.053912,0.055909,0.057905,0.05964,0.061375,0.062519,0.063663,0.064385,0.065106,0.065268,0.065429,0.06506,0.064692,0.064039,0.063387,0.062266,0.061145,0.059602,0.058058,0.056193,0.054327,0.052922,0.051517,0.049099,0.04668,0.044999,0.043317,0.041828,0.040338,0.03815,0.035962,0.034163,0.032364,0.03042,0.028476,0.026888,0.025299,0.023663,0.022026,0.020716,0.019406,0.018104,0.016802,0.015758,0.014713,0.013713,0.012713,0.011982,0.011251,0.010541,0.009832
0.0087003,0.0089583,0.0092163,0.0095679,0.0099195,0.010896,0.011873,0.012353,0.012834,0.014425,0.016016,0.016294,0.016571,0.018311,0.020051,0.020699,0.021347,0.023554,0.02576,0.026539,0.027317,0.029843,0.032369,0.033244,0.034119,0.036791,0.039463,0.040369,0.041275,0.043978,0.04668,0.048492,0.050304,0.051947,0.05359,0.054557,0.055525,0.056154,0.056784,0.056907,0.05703,0.056676,0.056323,0.055786,0.055248,0.054296,0.053344,0.052039,0.050734,0.049183,0.047632,0.047218,0.046803,0.044408,0.042012,0.041137,0.040262,0.037574,0.034887,0.034027,0.033167,0.030691,0.028214,0.027418,0.026623,0.02442,0.022216,0.021531,0.020846,0.019022,0.017198,0.016637,0.016077,0.01462,0.013163,0.012726,0.01229,0.011286,0.010282,0.0098857,0.0094896
0.0085836,0.0085644,0.0085452,0.0090512,0.0095571,0.010204,0.010852,0.011536,0.01222,0.013229,0.014237,0.014967,0.015696,0.017084,0.018471,0.019338,0.020205,0.021588,0.022972,0.024269,0.025567,0.027156,0.028745,0.030183,0.031621,0.033294,0.034967,0.036447,0.037928,0.039617,0.041306,0.043102,0.044899,0.045989,0.047079,0.048193,0.049306,0.049782,0.050258,0.050557,0.050857,0.05068,0.050504,0.049974,0.049444,0.048853,0.048262,0.046995,0.045728,0.044699,0.04367,0.042557,0.041444,0.039931,0.038419,0.037022,0.035624,0.033945,0.032266,0.030845,0.029424,0.027872,0.026321,0.025028,0.023735,0.022345,0.020955,0.019821,0.018687,0.017531,0.016375,0.015446,0.014517,0.013588,0.012659,0.011975,0.011291,0.010602,0.0099134,0.009346,0.0087786
0.0084669,0.0081706,0.0078742,0.0085345,0.0091948,0.0095126,0.0098305,0.010718,0.011606,0.012032,0.012459,0.01364,0.014821,0.015856,0.016891,0.017976,0.019062,0.019623,0.020183,0.022,0.023816,0.024469,0.025121,0.027122,0.029123,0.029797,0.030471,0.032526,0.03458,0.035256,0.035931,0.037713,0.039494,0.040031,0.040569,0.041828,0.043087,0.043409,0.043732,0.044208,0.044684,0.044684,0.044684,0.044162,0.04364,0.043409,0.043179,0.041951,0.040722,0.040216,0.039709,0.037897,0.036085,0.035455,0.034826,0.032906,0.030987,0.030316,0.029645,0.027663,0.02568,0.025054,0.024427,0.022637,0.020846,0.020271,0.019695,0.018112,0.016528,0.01604,0.015552,0.014254,0.012957,0.012556,0.012155,0.011223,0.010291,0.009918,0.0095449,0.0088063,0.0080677
0.008103,0.0078757,0.0076485,0.0080861,0.0085237,0.0089882,0.0094527,0.010049,0.010646,0.011282,0.011917,0.012714,0.013511,0.01454,0.015569,0.016575,0.017582,0.0183,0.019018,0.020157,0.021296,0.022373,0.023451,0.024707,0.025963,0.02708,0.028197,0.029487,0.030777,0.031868,0.032959,0.034069,0.035179,0.036016,0.036853,0.037644,0.038434,0.038956,0.039478,0.039786,0.040093,0.040047,0.040001,0.039678,0.039356,0.038941,0.038526,0.037766,0.037006,0.036146,0.035286,0.03416,0.033034,0.032001,0.030969,0.029765,0.028561,0.027475,0.02639,0.025147,0.023904,0.022869,0.021834,0.020709,0.019584,0.018634,0.017685,0.016684,0.015684,0.014865,0.014045,0.013223,0.012401,0.011781,0.01116,0.010523,0.0098857,0.0093514,0.008817,0.0083134,0.0078097
0.0077391,0.0075809,0.0074228,0.0076377,0.0078527,0.0084638,0.009075,0.0093806,0.0096861,0.010531,0.011375,0.011788,0.012201,0.013224,0.014247,0.015174,0.016102,0.016977,0.017852,0.018314,0.018776,0.020278,0.02178,0.022291,0.022803,0.024363,0.025923,0.026448,0.026973,0.028479,0.029986,0.030425,0.030864,0.032,0.033137,0.033459,0.033782,0.034503,0.035225,0.035363,0.035501,0.035409,0.035317,0.035194,0.035072,0.034473,0.033874,0.033582,0.03329,0.032077,0.030864,0.030423,0.029983,0.028547,0.027111,0.026623,0.026135,0.024635,0.023134,0.022631,0.022127,0.020684,0.01924,0.018781,0.018322,0.016998,0.015675,0.015257,0.014839,0.013689,0.012539,0.012192,0.011845,0.011005,0.010165,0.0098228,0.0094804,0.0087848,0.0080892,0.0078205,0.0075517
0.0074458,0.0072377,0.0070297,0.007237,0.0074443,0.0080109,0.0085775,0.0088569,0.0091364,0.009898,0.01066,0.011024,0.011387,0.012302,0.013216,0.013874,0.014532,0.015199,0.015865,0.016802,0.017738,0.018831,0.019924,0.020376,0.020829,0.022209,0.023589,0.024047,0.024506,0.025819,0.027133,0.027523,0.027913,0.028909,0.029906,0.030192,0.030479,0.03111,0.031741,0.031867,0.031993,0.031918,0.031842,0.031738,0.031633,0.031078,0.030523,0.030263,0.030003,0.028942,0.027882,0.027495,0.027108,0.025845,0.024581,0.024154,0.023727,0.022406,0.021084,0.020639,0.020194,0.018917,0.01764,0.017233,0.016826,0.015651,0.014475,0.014105,0.013734,0.012366,0.010997,0.011039,0.01108,0.010307,0.0095341,0.0092239,0.0089138,0.0082811,0.0076485,0.0074028,0.0071571
0.0071525,0.0068945,0.0066366,0.0068362,0.0070358,0.0075579,0.00808,0.0083333,0.0085867,0.0092654,0.0099441,0.010259,0.010574,0.01138,0.012186,0.012574,0.012963,0.013421,0.013878,0.015289,0.0167,0.017384,0.018067,0.018462,0.018856,0.020056,0.021255,0.021646,0.022038,0.023159,0.02428,0.024621,0.024962,0.025818,0.026675,0.026926,0.027176,0.027716,0.028257,0.02837,0.028484,0.028426,0.028367,0.028281,0.028195,0.027684,0.027173,0.026944,0.026715,0.025808,0.0249,0.024567,0.024234,0.023142,0.02205,0.021685,0.021319,0.020177,0.019034,0.018647,0.018261,0.01715,0.01604,0.015685,0.015331,0.014303,0.013276,0.012952,0.012628,0.011042,0.0094558,0.0098857,0.010316,0.0096094,0.008903,0.0086251,0.0083471,0.0077775,0.0072078,0.0069851,0.0067625
0.0068055,0.006559,0.0063126,0.006493,0.0066734,0.0071502,0.007627,0.0078596,0.0080922,0.0087088,0.0093253,0.009607,0.0098888,0.010611,0.011332,0.011678,0.012023,0.01264,0.013256,0.014133,0.01501,0.015907,0.016805,0.017046,0.017287,0.01834,0.019394,0.019738,0.020083,0.021085,0.022087,0.022391,0.022695,0.023455,0.024215,0.024438,0.024661,0.025127,0.025593,0.025685,0.025777,0.025717,0.025657,0.025587,0.025516,0.025054,0.024593,0.02439,0.024186,0.023386,0.022586,0.022291,0.021995,0.021033,0.020071,0.019748,0.019426,0.018419,0.017413,0.017068,0.016723,0.015734,0.014744,0.014429,0.014113,0.01285,0.011587,0.011667,0.011747,0.010617,0.0094865,0.0095656,0.0096447,0.0090051,0.0083656,0.008113,0.0078604,0.0073429,0.0068254,0.0066227,0.0064201
0.0064584,0.0062235,0.0059886,0.0061498,0.006311,0.0067425,0.007174,0.0073859,0.0075978,0.0081521,0.0087065,0.0089552,0.009204,0.0098412,0.010478,0.010781,0.011083,0.011859,0.012634,0.012977,0.013319,0.014431,0.015543,0.01563,0.015718,0.016625,0.017533,0.017831,0.018128,0.019011,0.019894,0.020162,0.020429,0.021092,0.021755,0.02195,0.022145,0.022537,0.022929,0.022999,0.02307,0.023008,0.022947,0.022892,0.022836,0.022425,0.022013,0.021835,0.021657,0.020965,0.020272,0.020014,0.019756,0.018924,0.018092,0.017812,0.017533,0.016662,0.015791,0.015489,0.015186,0.014317,0.013448,0.013172,0.012895,0.011397,0.009898,0.010382,0.010865,0.010191,0.0095172,0.0092454,0.0089736,0.0084009,0.0078281,0.0076009,0.0073736,0.0069084,0.0064431,0.0062604,0.0060776
